0
0 291
112 399
128 399
206 0
207 0
399 241
399 265

1
1 290
8 398
9 398
25 398
26 398
29 186
31 398
44 306
49 398
61 191
63 206
73 206
84 365
92 162
94 365
102 162
107 1
113 398
115 110
118 201
126 375
126 385
127 1
127 398
128 201
132 169
132 170
136 1
136 375
136 385
185 302
208 1
268 60
269 179
271 7
271 17
278 60
278 70
291 320
298 313
306 41
306 51
308 313
316 51
318 292
318 302
320 182
343 63
343 73
344 320
344 330
345 305
345 315
355 305
355 315
356 137
356 147
368 216
378 206
378 216
379 168
379 178
380 50
381 372
388 182
388 192
390 50
390 60
391 362
393 376
398 182
398 192
398 242
398 264
398 364
398 365
398 377
398 378

2
2 156
18 156
20 48
23 392
24 397
25 372
25 388
27 152
27 241
27 257
35 71
35 83
36 48
39 140
39 152
41 372
43 241
43 257
44 197
44 209
47 71
47 83
56 209
58 318
58 330
70 318
70 330
77 38
89 50
95 281
95 293
99 67
108 2
108 246
108 258
114 397
115 356
115 368
126 2
126 397
127 356
127 368
136 172
144 103
145 333
145 349
152 172
158 13
160 86
160 103
169 79
177 20
178 360
178 376
183 137
183 153
185 79
186 232
186 248
193 4
193 20
194 376
200 348
200 360
209 2
226 2
228 301
235 154
235 166
240 301
255 110
257 68
257 80
259 32
260 185
269 80
275 48
281 262
281 278
283 26
283 42
295 196
297 262
307 196
324 11
324 23
330 213
336 23
369 185
377 307
386 245
386 261
389 295
389 307
397 69
397 89
397 243
397 263
397 366
397 376

3
3 288
3 289
4 51
4 63
16 51
16 63
18 26
21 125
21 137
23 396
25 274
29 351
30 26
32 396
33 125
36 33
47 333
47 351
48 396
54 50
54 68
58 199
59 198
59 199
62 217
62 235
72 68
72 271
80 217
82 388
88 173
89 24
91 319
91 331
94 388
101 24
101 36
103 331
105 91
109 3
116 232
117 79
117 91
121 345
123 33
124 132
125 3
129 170
131 273
136 78
137 3
138 13
142 132
143 273
145 230
145 242
150 13
154 60
157 195
157 335
157 347
164 29
164 47
173 105
176 260
176 278
191 87
194 260
196 120
199 30
199 288
203 170
203 188
210 3
211 3
213 14
214 120
215 275
215 287
221 170
221 188
225 14
230 207
243 3
246 236
246 307
246 319
248 207
248 225
249 286
257 3
258 307
262 332
275 147
280 314
284 205
287 147
287 229
292 306
297 6
297 18
299 229
302 205
309 6
309 18
323 36
323 48
333 269
333 287
335 137
355 271
356 55
365 355
372 278
372 290
377 355
379 158
382 115
384 278
388 16
388 28
391 158
394 115
396 183
396 191
396 244
396 262
396 367
396 375

4
4 273
4 287
5 384
5 392
12 273
13 384
22 395
25 200
27 188
30 302
33 395
39 9
39 21
42 304
45 167
45 175
47 395
51 9
51 21
55 136
59 164
59 172
71 204
72 168
74 51
74 190
75 50
75 117
76 49
77 48
86 367
88 118
88 265
88 342
88 354
90 204
92 367
100 164
100 265
100 342
100 354
102 204
111 11
113 112
115 395
116 391
116 395
119 260
120 199
123 11
123 52
124 391
124 395
125 395
126 199
128 377
128 383
131 260
134 377
134 383
138 4
148 313
149 289
184 181
184 193
187 304
187 345
188 41
188 53
188 346
189 347
190 348
195 71
195 79
196 109
199 56
200 57
201 58
203 79
203 149
209 60
209 68
212 4
224 118
225 4
232 99
234 73
234 85
244 15
244 99
246 73
246 85
256 129
257 22
258 56
267 381
267 393
269 9
270 62
271 177
273 367
276 62
276 68
279 393
281 367
282 124
282 136
289 322
294 124
294 136
302 362
302 370
306 311
308 43
308 49
310 362
310 370
314 49
315 152
316 44
316 294
316 300
318 180
325 395
331 346
341 395
342 322
342 328
345 8
345 16
345 65
345 71
346 231
346 239
347 307
347 313
353 307
353 313
354 139
354 145
354 231
354 239
354 376
354 388
358 208
370 196
372 94
374 384
376 214
377 170
377 176
378 58
378 59
379 57
379 58
380 57
382 33
382 52
384 106
388 52
388 58
390 184
390 190
395 70
395 88
395 184
395 190
395 368
395 369
395 373
395 374

5
5 157
5 274
5 286
6 385
6 391
11 274
12 385
14 317
14 331
18 394
19 394
20 394
21 394
26 189
28 317
29 150
34 394
37 73
37 81
37 150
41 303
45 73
45 81
45 275
46 168
46 174
46 199
46 207
46 394
47 112
47 126
54 207
56 135
56 200
57 255
57 269
58 165
58 171
60 320
60 328
65 203
66 203
68 320
68 328
70 203
72 52
73 191
78 72
78 86
79 40
79 48
87 48
87 368
91 241
91 368
97 283
97 291
99 165
106 248
107 275
108 143
110 5
110 306
111 5
112 113
117 358
117 366
117 392
117 394
121 198
121 289
123 5
123 392
123 394
124 5
125 198
125 358
125 366
127 280
129 378
129 382
131 26
133 378
133 382
139 5
147 312
154 5
154 6
155 5
165 147
186 343
190 350
196 78
198 350
200 307
200 321
202 60
202 61
202 78
202 148
208 61
213 5
214 5
217 32
217 46
224 5
230 299
233 140
237 156
237 164
238 44
238 58
238 299
244 5
259 70
259 78
261 91
261 105
264 21
265 22
266 23
267 24
267 78
268 10
268 25
269 26
271 63
272 176
274 368
275 63
275 67
275 91
275 105
280 368
286 347
288 323
303 363
303 369
304 281
305 194
305 310
309 44
309 48
309 363
309 369
313 48
315 295
315 299
316 153
317 179
326 13
326 21
326 381
332 211
340 381
341 323
344 9
344 15
346 66
346 70
347 50
347 232
347 238
348 308
348 312
352 308
352 312
353 27
353 110
353 124
353 140
353 144
353 232
353 238
362 246
362 260
367 41
367 124
375 213
376 171
376 175
376 246
376 260
379 305
383 53
387 53
387 57
387 305
391 185
391 189
394 245
394 246
394 260
394 261
394 371
394 372

6
6 53
6 61
6 158
6 275
6 284
6 285
7 386
10 183
10 275
11 184
11 386
14 53
14 61
16 393
17 393
20 28
23 127
28 28
30 149
31 127
31 349
36 149
38 74
38 80
44 74
44 80
45 335
45 349
47 169
47 173
47 200
47 206
53 206
54 200
56 52
56 66
57 134
57 166
57 170
61 321
61 327
64 219
64 233
67 321
67 327
70 52
70 66
70 269
72 192
78 219
80 41
80 47
84 386
86 47
91 26
92 386
93 321
94 166
95 166
98 284
98 290
99 26
99 34
101 329
103 322
104 321
105 249
105 320
106 319
107 318
112 6
115 81
115 89
118 234
118 359
118 365
118 393
119 393
120 392
120 393
121 393
122 6
122 393
123 343
124 359
124 365
126 134
127 150
127 172
138 76
140 11
140 134
141 275
143 232
143 240
146 311
148 82
149 82
149 83
150 83
152 6
156 6
157 6
159 193
159 337
159 345
162 31
162 45
175 103
178 262
178 276
186 341
191 351
192 262
197 77
197 351
198 122
201 32
201 77
201 286
203 62
205 172
207 62
213 277
213 285
215 6
215 12
219 172
223 6
223 12
226 180
231 298
232 209
237 298
238 157
238 163
244 238
245 6
246 209
246 223
247 284
248 309
248 317
256 309
260 71
260 77
263 20
264 330
266 77
275 369
277 149
278 316
279 369
285 149
286 207
289 227
294 304
297 227
298 193
298 194
299 8
299 16
300 207
304 193
304 364
304 368
307 8
307 16
308 364
308 368
313 45
314 45
317 154
325 38
326 393
327 14
327 20
333 210
335 271
335 285
337 139
340 393
343 10
343 14
348 233
348 237
352 233
352 237
353 273
358 57
367 110
367 357
368 109
369 108
370 107
371 106
372 105
374 280
375 357
379 364
380 304
380 365
381 156
381 366
382 56
382 280
383 56
384 117
386 18
386 304
389 156
391 368
392 117
392 369
393 71
393 87
393 185
393 186
393 188
393 189
393 247
393 259
393 370

7
7 54
7 60
7 159
7 283
13 54
13 60
14 392
15 159
15 392
21 29
23 45
23 198
24 128
28 375
30 128
30 244
30 254
31 148
32 300
33 45
35 148
38 375
39 75
39 79
40 244
40 254
41 11
41 19
43 75
43 79
44 392
45 392
48 201
48 205
49 11
49 19
52 201
52 205
53 201
62 322
62 326
66 193
66 322
66 326
73 119
74 166
81 42
81 46
84 165
85 41
85 42
85 46
85 385
86 40
87 39
88 38
89 37
89 372
89 373
90 36
90 263
90 344
90 352
91 35
91 385
92 27
92 33
92 34
92 202
94 322
94 328
94 329
96 70
98 27
98 33
98 263
98 352
99 285
99 289
100 202
100 328
101 322
104 250
113 7
113 9
114 82
114 88
119 360
119 364
121 7
121 9
121 258
122 192
122 193
123 193
123 194
123 360
123 364
125 50
129 258
137 51
138 52
139 53
139 169
140 7
140 54
140 276
141 7
141 10
141 55
142 56
142 233
142 239
142 346
147 100
150 7
151 7
157 100
158 7
159 7
160 338
160 344
164 170
164 171
165 172
172 82
172 340
172 341
173 340
181 363
181 373
182 82
182 183
182 191
185 340
186 140
186 150
188 307
189 235
189 245
190 7
190 17
190 43
190 51
191 373
192 352
194 107
194 274
194 275
195 275
195 276
196 276
196 277
196 352
197 277
197 278
198 278
198 279
199 279
199 280
202 33
202 285
212 278
212 284
216 11
222 11
226 120
232 297
234 101
236 75
236 83
236 297
239 158
239 162
242 101
244 75
244 83
246 7
246 13
249 310
249 316
252 113
254 127
256 54
257 182
261 72
261 76
262 35
265 76
269 391
274 378
275 377
275 378
276 376
276 377
277 391
278 150
280 29
280 39
284 126
284 134
284 150
284 265
289 167
290 168
290 226
292 126
292 134
294 265
296 226
299 192
300 9
300 15
303 192
306 9
306 15
326 39
327 392
328 15
328 19
329 344
334 209
338 140
339 392
350 68
351 67
351 68
351 283
352 67
356 378
356 386
368 198
368 358
372 382
374 59
374 96
374 104
374 358
375 281
379 292
380 292
380 293
381 281
381 293
381 294
381 303
382 104
382 155
382 294
382 295
383 367
384 367
385 19
385 118
385 303
388 155
388 367
389 367
391 118
392 72
392 86
392 187
392 248
392 258

8
8 55
8 59
8 160
8 276
8 277
8 282
9 174
9 178
9 179
9 180
12 55
12 59
12 187
12 188
12 391
13 391
14 160
16 319
16 329
18 285
19 285
20 285
21 284
22 30
22 197
23 191
24 44
24 191
25 129
26 319
29 129
29 376
31 245
31 253
32 44
33 299
37 376
39 245
39 253
39 300
39 301
42 12
42 18
43 277
43 391
48 12
48 18
49 114
49 124
59 257
59 267
67 194
68 201
75 165
80 74
80 84
82 165
86 384
89 370
90 384
91 345
91 351
93 28
93 32
93 201
95 71
95 323
95 327
97 28
97 32
97 167
97 344
97 345
97 351
99 201
99 323
99 327
100 323
101 80
101 81
102 81
102 82
103 82
103 83
104 83
104 84
105 84
106 141
109 116
110 115
110 317
112 308
113 83
113 87
114 8
115 8
116 8
117 8
117 9
118 8
119 8
119 287
120 8
122 257
123 196
126 49
128 257
131 280
131 380
133 28
136 315
136 316
137 314
137 315
138 313
138 314
139 277
139 312
139 313
140 168
140 311
140 312
141 234
141 238
141 310
141 311
141 345
142 8
142 9
142 309
142 310
143 8
143 308
144 305
144 306
144 307
145 8
146 8
146 9
147 8
147 9
148 8
148 9
148 99
149 8
150 86
156 99
160 8
161 8
161 9
161 339
161 343
162 8
162 9
163 8
163 9
163 149
163 167
163 168
164 8
164 9
164 168
165 8
167 8
168 8
168 9
169 8
169 9
170 8
170 9
171 8
171 9
172 8
173 8
173 83
174 339
175 338
176 338
181 190
182 364
182 372
184 339
187 141
187 149
189 8
189 16
190 236
190 244
190 372
191 44
191 50
192 274
193 106
198 309
198 319
199 72
199 73
199 147
200 71
200 72
201 70
201 71
201 280
202 69
202 70
203 68
203 69
203 284
204 67
204 68
205 66
205 67
211 279
211 283
215 34
215 44
216 8
217 8
217 10
221 8
221 10
222 8
231 138
235 102
237 76
237 82
240 46
240 56
241 102
243 76
243 82
247 12
250 311
250 315
253 126
256 181
263 36
263 93
263 103
265 13
265 73
266 12
266 72
267 71
268 70
269 69
270 68
270 390
271 67
272 66
273 65
273 93
273 103
274 174
276 390
277 373
277 374
277 375
279 30
279 38
279 151
283 151
285 127
285 133
285 266
286 325
288 345
291 127
291 133
293 266
301 10
301 14
301 184
305 10
305 14
311 46
325 44
327 40
328 343
328 383
328 391
338 326
338 383
338 391
339 12
339 141
339 325
345 48
348 68
349 143
349 188
349 189
350 143
350 187
350 188
350 310
351 142
351 186
351 187
351 274
352 185
352 186
353 66
353 184
353 185
354 183
354 184
354 198
354 199
355 29
355 112
355 122
355 182
355 183
355 199
355 200
356 181
356 182
356 200
356 201
357 181
357 379
357 385
364 248
364 258
365 112
365 122
367 199
369 359
369 369
369 370
370 368
370 369
371 381
372 174
372 210
373 174
373 211
373 359
374 69
374 173
375 70
375 103
376 71
376 282
377 72
378 73
379 74
379 290
380 282
381 103
383 154
384 20
384 145
385 55
386 119
386 367
387 154
390 119
391 73
391 85
391 249
391 257

9
9 176
9 278
9 279
9 388
10 389
10 390
11 390
13 161
13 189
13 195
14 284
15 284
16 285
17 320
17 328
21 196
22 192
25 43
25 320
28 137
29 138
30 139
30 377
31 43
31 140
32 141
32 246
32 252
33 142
33 143
33 144
33 347
34 298
36 377
38 246
38 252
38 299
42 278
42 390
43 13
43 17
43 337
43 347
47 13
47 17
49 171
50 115
50 170
51 169
51 170
52 169
52 170
53 169
53 170
54 169
55 168
58 54
58 64
60 258
60 266
66 221
66 231
68 54
68 64
69 195
70 194
76 164
76 221
80 164
81 75
81 83
81 164
88 376
92 346
92 350
94 200
96 346
96 350
98 200
105 140
108 117
112 317
113 309
120 236
123 256
125 174
125 341
127 48
127 256
128 136
129 148
138 136
138 284
138 285
139 285
139 286
140 74
140 286
140 287
140 344
141 167
141 287
141 288
142 288
142 289
144 9
144 309
148 78
149 98
155 98
156 91
157 91
160 33
160 43
161 164
161 165
161 191
162 150
162 165
162 166
166 9
169 341
174 9
174 84
175 9
177 101
180 184
180 189
180 264
180 274
183 365
183 371
188 9
188 15
188 142
188 148
189 371
190 264
191 237
191 243
192 45
192 49
192 105
194 356
197 310
199 75
200 124
202 281
203 281
205 64
207 174
214 35
214 43
218 9
219 9
219 10
220 9
229 181
230 137
234 211
234 291
234 292
234 293
235 290
235 291
236 103
238 77
238 81
240 103
241 47
241 55
241 180
241 181
242 77
242 81
242 179
242 180
243 178
243 179
244 178
244 211
244 221
245 282
247 9
248 9
248 11
252 125
255 180
256 314
257 314
257 315
258 315
258 316
259 316
259 317
260 317
260 318
261 318
261 319
262 319
262 320
264 14
264 94
264 102
266 328
271 389
272 94
272 102
274 381
275 389
277 371
278 31
286 128
286 132
286 267
288 209
289 344
290 128
290 132
292 267
301 186
301 187
301 188
306 366
319 156
320 157
326 43
327 43
327 342
329 384
329 390
332 17
333 17
334 16
334 17
335 15
335 16
335 177
335 328
336 14
336 15
336 178
336 327
336 328
337 13
337 14
337 273
337 283
337 327
337 384
337 390
338 13
341 12
348 166
349 166
349 167
350 167
350 168
350 235
351 168
351 169
352 169
352 170
353 170
353 171
354 171
354 172
355 172
355 173
356 113
356 121
356 173
356 174
357 174
358 180
358 201
358 380
358 384
360 59
364 113
364 121
365 249
365 257
366 200
369 176
370 176
370 380
371 175
371 209
371 367
372 60
372 68
376 102
379 94
380 93
380 102
381 75
381 92
382 91
383 90
383 297
383 298
383 299
384 89
384 143
385 146
390 74
390 84
390 250
390 256

10
10 56
10 57
10 58
10 161
10 162
10 170
10 171
10 172
10 280
10 281
11 57
11 281
11 282
12 162
12 282
12 283
13 191
13 283
14 191
14 192
18 321
18 327
21 193
24 321
24 327
24 328
25 328
25 329
26 42
26 329
26 330
27 133
27 134
27 135
27 330
27 331
28 331
28 332
29 332
29 333
30 42
30 333
30 334
31 334
31 335
31 378
32 335
32 336
33 146
33 247
33 251
33 336
33 337
34 337
34 338
34 346
35 378
37 247
37 251
37 298
41 77
41 279
41 389
42 338
42 346
50 203
51 116
59 55
59 63
61 259
61 265
64 324
67 55
67 63
67 197
67 198
67 222
67 230
68 196
68 197
68 198
69 265
74 233
74 234
75 222
75 235
76 236
77 237
78 152
78 156
78 238
79 239
80 240
81 241
82 82
83 44
88 378
88 379
88 380
94 73
98 80
101 253
101 287
102 252
102 286
103 286
104 139
107 85
107 118
108 85
109 85
113 316
114 310
114 316
121 237
121 362
124 175
126 340
129 137
133 279
134 279
137 137
137 282
137 283
139 343
141 73
142 166
143 60
143 301
148 62
150 97
154 97
159 34
159 42
160 163
161 151
162 190
165 341
166 341
167 341
175 85
176 10
177 10
178 100
178 337
179 337
181 265
181 273
182 333
182 334
183 332
183 333
184 370
187 10
187 14
188 362
188 363
188 370
189 143
189 147
189 265
189 273
189 361
189 362
190 273
190 309
190 310
190 360
190 361
191 359
191 360
192 238
192 242
192 358
192 359
193 357
193 358
194 354
196 311
201 125
206 281
207 281
207 282
208 175
208 282
210 212
210 213
210 214
210 218
211 210
212 209
213 36
213 42
213 196
213 208
229 136
231 181
232 181
233 181
234 295
235 212
236 289
237 181
237 288
238 181
238 286
238 287
239 181
241 160
242 48
242 54
242 161
243 161
243 212
249 10
250 10
250 11
251 10
252 10
253 10
254 179
254 313
255 313
263 15
263 74
263 164
264 320
265 95
265 101
267 327
271 95
271 101
277 32
287 268
289 210
290 343
291 223
291 268
295 223
297 209
297 210
301 190
303 306
330 17
330 385
331 42
332 330
333 330
334 329
336 207
336 385
337 206
338 274
338 282
342 149
346 165
347 144
347 165
349 275
349 281
356 66
357 114
357 120
358 175
359 175
359 179
363 114
363 120
366 204
366 250
366 256
367 205
368 206
368 372
369 207
370 60
370 68
370 208
371 365
378 286
378 287
378 288
379 96
383 75
383 301
385 141
385 142
385 148
385 149
385 150
389 251
389 252
389 254
389 255

11
11 163
11 164
11 165
11 166
11 167
11 168
11 169
12 164
15 193
15 194
16 194
17 194
19 322
19 326
23 322
23 326
24 32
25 33
27 131
35 339
35 345
36 294
39 388
40 280
40 388
41 339
41 345
52 117
60 56
60 62
62 260
62 264
66 56
66 62
68 223
68 229
71 260
72 259
73 258
74 223
74 257
75 256
76 255
77 254
78 158
78 159
78 160
78 253
79 252
80 251
81 250
82 243
82 244
83 76
83 81
88 382
93 74
95 30
96 194
96 195
96 196
97 325
100 254
103 138
104 285
105 284
105 285
106 119
106 284
108 181
109 180
111 85
115 311
121 188
121 281
122 238
123 176
125 252
127 339
130 138
130 146
135 280
136 138
136 280
136 281
137 237
137 279
138 237
139 236
142 72
143 62
143 291
143 292
143 293
143 297
143 298
143 299
147 76
151 89
151 90
158 35
158 41
159 161
160 152
163 189
163 341
165 177
178 11
179 99
180 336
181 335
181 336
182 266
182 272
182 337
184 331
185 327
185 328
185 329
187 364
187 365
188 266
188 272
191 311
195 312
202 126
205 282
209 176
209 281
210 216
211 219
211 220
212 37
212 41
212 220
212 221
213 198
213 199
213 200
213 204
213 205
213 206
214 130
215 130
216 131
217 132
228 135
235 181
242 213
243 49
243 53
244 162
245 162
245 163
246 163
252 313
254 11
254 50
255 11
255 49
255 50
256 48
256 49
257 47
257 48
258 46
258 47
259 15
259 45
259 46
260 15
260 44
260 45
261 16
261 43
261 44
262 42
262 43
263 41
263 42
264 41
266 96
266 100
268 326
270 96
270 100
273 383
273 384
273 385
280 154
280 155
280 324
280 325
281 153
281 325
281 326
282 326
282 327
283 327
283 328
284 166
284 328
284 329
285 329
285 330
286 330
286 331
287 331
287 332
288 332
288 333
289 333
289 334
290 211
290 334
290 335
291 335
291 336
291 342
295 169
296 211
303 12
329 42
330 388
331 331
331 386
331 388
335 386
335 388
336 388
338 205
339 275
339 281
341 143
342 144
342 147
345 144
345 164
347 41
347 42
348 40
348 41
349 39
349 40
350 38
350 39
351 37
351 38
352 36
352 37
353 35
353 36
358 115
358 119
360 202
361 201
361 202
362 115
362 119
362 202
367 251
367 255
368 61
368 67
368 374
369 61
369 67
371 361
372 362
372 363
372 364
373 27
373 363
374 27
378 97
378 98
378 284
381 23
382 22
384 76
385 76
385 85
385 86
385 152
387 123
387 124
388 75
388 76
388 121
388 253

12
19 194
26 34
27 38
28 37
28 38
29 39
33 382
35 293
36 296
36 340
36 344
38 387
40 340
40 344
45 15
61 57
61 61
65 57
65 61
67 124
68 261
68 263
69 224
69 228
69 261
73 224
73 230
73 231
78 147
78 148
78 149
78 162
83 245
83 246
94 348
95 79
96 79
96 198
97 191
99 255
105 120
106 182
107 283
111 179
119 281
121 186
122 177
123 239
125 250
125 254
129 46
130 45
131 139
131 145
131 316
134 239
135 139
135 238
135 239
136 238
143 295
147 64
147 74
152 91
152 92
153 92
157 36
157 40
159 159
164 188
174 185
175 185
175 186
176 185
176 186
177 185
177 186
178 187
180 12
180 98
181 12
182 12
183 12
183 267
183 271
184 12
185 12
185 13
186 12
186 366
187 267
187 271
189 102
190 103
192 312
194 47
195 46
195 145
196 46
196 145
196 240
197 240
198 240
199 240
199 241
200 241
200 242
203 127
210 177
213 202
213 222
214 223
215 224
216 225
219 133
237 261
238 105
238 263
239 106
239 107
239 284
240 79
241 214
247 164
247 177
248 165
248 177
249 122
250 123
252 50
252 51
252 172
252 173
253 171
253 172
256 12
257 13
258 14
260 164
265 40
266 321
267 321
269 325
273 387
278 157
278 158
278 324
279 156
279 157
282 166
288 130
289 272
289 273
289 274
289 275
290 275
290 276
291 212
291 276
291 277
292 277
292 278
292 337
292 338
293 278
293 279
294 279
294 280
295 212
295 280
295 281
296 281
296 282
297 169
300 340
302 177
303 339
309 170
310 171
325 340
328 332
329 331
329 332
332 387
333 43
333 386
333 387
334 387
337 182
339 204
340 276
340 280
343 145
343 146
343 155
344 145
345 42
347 280
355 35
358 65
360 382
361 381
362 381
363 177
364 177
364 178
364 202
365 177
366 33
366 177
367 32
367 33
367 62
367 66
367 375
367 376
368 31
368 32
369 30
369 31
370 29
370 30
371 29
372 28
378 100
380 24
380 26
386 77
386 84
386 125
386 139
387 77
387 78
387 80
387 81
387 83

13
27 35
27 36
27 283
28 40
33 380
34 383
34 384
35 249
36 386
37 386
66 262
66 263
67 262
69 124
69 125
70 125
72 228
72 229
79 146
93 78
94 78
97 175
97 189
97 257
98 256
109 282
110 282
111 282
112 282
113 179
116 282
117 282
118 282
125 248
129 338
130 327
130 329
131 44
132 241
133 240
136 340
137 341
144 64
144 65
144 164
145 163
146 65
146 72
146 73
147 37
148 37
148 38
152 94
152 95
158 157
158 158
166 179
173 186
177 87
186 325
186 368
187 323
187 324
188 101
191 145
192 144
193 144
194 240
202 242
203 242
204 39
204 242
205 38
205 39
206 39
207 39
208 39
212 129
212 186
217 227
221 133
237 259
238 265
239 282
240 108
240 109
241 109
241 110
247 51
248 51
248 121
249 51
249 176
250 51
250 165
250 175
250 176
251 174
251 175
251 176
252 177
258 165
259 165
267 39
267 40
268 39
268 322
269 322
274 35
275 34
277 159
277 160
289 270
293 221
295 340
296 340
297 283
297 284
297 285
297 286
297 340
298 170
298 340
299 170
300 302
302 175
305 339
307 170
312 171
319 338
319 339
320 338
326 165
327 165
327 333
335 43
336 43
337 43
337 184
338 43
340 203
341 202
342 43
343 43
344 43
346 277
346 279
347 277
348 198
356 34
357 34
358 34
360 65
361 177
362 34
363 34
363 380
364 34
364 379
364 380
365 34
365 379
371 253
372 253
373 253
374 253
376 26
378 25
379 25
385 132
386 79
386 82
386 127
386 128
386 129
386 130
386 131
386 132
386 133
386 134
386 135
386 136
386 137

14
21 324
35 385
37 283
38 282
54 119
55 120
64 262
71 126
72 126
72 127
73 127
73 128
74 128
74 129
75 129
75 130
76 130
76 131
77 131
77 132
78 132
78 133
79 133
79 134
79 144
80 134
80 135
80 143
80 144
84 248
85 79
85 249
86 77
86 78
87 77
87 78
88 77
88 78
89 77
89 78
90 78
96 256
97 177
100 135
101 136
114 282
115 179
116 179
117 313
118 314
120 183
120 184
125 246
128 317
129 317
129 325
129 326
130 241
130 331
130 332
133 143
133 144
134 145
135 146
135 339
136 147
137 148
138 149
139 150
140 151
141 152
142 153
143 154
144 155
145 35
145 66
145 67
145 71
145 156
146 36
146 157
146 162
150 38
151 38
152 38
153 38
155 155
156 155
157 155
157 156
158 154
166 181
171 186
181 89
187 100
188 321
188 322
189 320
189 321
192 316
192 317
193 314
194 143
195 142
196 141
197 140
198 45
198 139
199 44
199 138
200 43
200 137
201 42
201 136
202 41
202 135
203 40
203 134
204 133
205 131
205 132
205 241
207 129
208 129
209 129
210 39
210 129
212 184
217 179
222 132
223 132
225 132
226 133
228 127
229 126
229 127
230 125
230 126
231 124
231 125
232 123
232 124
233 122
233 123
234 121
234 122
235 120
235 121
236 119
236 120
236 216
237 118
237 119
237 256
237 257
238 117
238 118
238 267
238 268
238 269
238 270
239 116
239 117
239 270
239 279
240 116
240 279
240 280
240 281
242 111
245 51
247 120
251 166
252 166
257 166
268 98
269 38
273 36
273 323
274 323
275 323
276 323
293 216
293 217
293 218
293 219
293 340
300 171
301 301
305 171
306 171
307 339
308 339
309 339
310 339
313 170
314 339
315 339
316 339
317 339
321 337
322 337
323 162
324 163
324 164
325 164
325 337
326 334
329 165
329 166
330 166
338 185
338 186
340 43
342 157
342 158
342 201
344 278
345 278
360 34
360 117
361 64
362 64
363 64
366 378
369 253

15
29 284
30 284
35 289
36 284
38 342
56 121
63 59
63 125
71 226
81 141
81 142
82 135
86 250
87 250
91 77
93 255
94 255
94 256
98 178
98 179
98 186
98 187
99 134
102 123
103 122
117 180
118 180
118 181
119 180
119 181
119 182
119 315
120 179
120 315
125 241
126 242
126 244
126 245
128 242
129 242
131 333
131 334
132 42
133 41
133 42
133 141
134 35
134 338
143 35
145 69
147 159
147 160
147 161
148 161
152 157
153 156
153 157
154 156
155 38
166 186
167 182
167 183
167 185
169 185
170 185
178 90
179 90
181 92
181 93
182 94
182 95
185 98
185 269
186 99
190 319
191 318
205 129
206 130
207 240
207 241
208 240
212 179
213 180
213 182
213 183
215 180
216 180
224 131
225 130
226 129
227 128
236 254
236 255
238 217
238 272
239 216
239 272
239 273
239 274
239 275
239 276
239 277
240 277
245 118
246 119
253 167
254 167
254 168
255 166
255 167
270 37
271 37
271 323
272 37
279 165
293 214
298 288
299 290
299 291
302 171
302 172
302 300
303 172
303 173
304 172
312 339
315 169
315 170
316 168
316 169
317 167
317 168
318 166
318 167
319 165
319 166
320 164
320 165
321 163
321 164
322 163
323 336
324 336
325 335
331 167
332 167
339 187
341 159
341 160
342 199
342 278
346 197
365 64

16
31 285
32 285
57 122
61 123
61 124
62 124
82 139
82 140
83 138
83 139
84 138
88 251
89 251
89 252
90 252
90 253
91 253
91 254
92 254
98 133
99 180
99 184
99 185
101 124
121 316
122 316
122 317
123 317
127 243
127 319
127 321
127 322
128 323
133 337
134 40
141 36
142 36
149 160
150 159
151 158
168 184
180 91
183 96
184 97
209 239
210 239
214 181
237 218
237 219
242 115
243 114
243 115
243 116
244 117
274 165
275 165
277 165
300 292
300 293
301 293
301 294
303 299
339 189
340 189
340 190
340 191
340 192
340 193
341 191

17
33 286
34 285
34 286
34 287
58 123
59 123
59 124
84 136
85 135
85 136
86 134
86 135
87 133
87 134
88 132
88 133
89 131
89 132
90 130
90 131
91 130
99 182
100 125
100 182
100 183
124 318
125 319
126 320
132 336
135 37
140 37
211 238
212 237
212 238
226 230
227 229
228 228
229 227
230 226
231 225
232 224
233 223
234 222
234 250
234 251
235 221
235 252
236 220
276 164
302 295
303 296
303 297
304 297
334 168
335 167
336 166
337 165
338 164
339 163
340 162
341 194
342 195
342 196
343 196
343 197

18
97 131
99 126
136 38
136 39
137 38
137 39
138 37
138 38
214 237
233 248
233 249

19
94 129
97 128
98 127
232 247

20
96 129
219 237
220 237
222 237
222 238
231 244
231 245
232 245

21
217 236
218 236
230 242
230 243

22
225 236
225 237
226 237
226 238
227 238
227 239
228 239
228 240
229 240
229 241

