0
0 41
0 57
0 271
0 272
0 328
0 352
0 373
1 399
86 399
337 0
366 0
380 0
399 0
399 71
399 97

1
1 131
1 149
1 273
1 329
1 351
5 274
8 31
18 31
57 94
72 106
72 116
87 398
96 1
106 340
110 1
111 215
113 398
116 330
121 215
121 225
148 244
148 254
151 360
151 370
153 161
161 54
161 64
161 370
171 64
181 126
191 126
239 1
239 240
255 266
255 276
257 1
270 169
274 398
280 169
281 85
281 95
284 388
284 398
291 95
306 302
320 205
320 206
338 1
341 106
341 116
354 395
355 28
364 385
364 395
365 1
365 18
365 28
377 104
387 104
398 1
398 72
398 96

2
2 42
2 56
2 132
2 148
2 274
2 330
2 350
2 374
2 375
2 397
13 348
15 215
15 231
26 166
26 182
34 255
42 166
42 182
50 255
53 114
53 130
75 236
75 248
77 154
77 166
79 266
88 185
88 201
88 397
91 266
92 371
93 371
93 372
94 372
94 373
104 185
104 201
105 302
110 373
121 302
121 318
126 229
128 188
134 309
145 214
146 297
146 309
151 85
151 97
162 211
163 85
163 97
165 139
165 155
165 384
167 397
180 100
192 100
198 35
198 47
198 261
240 17
249 191
265 191
272 136
288 136
289 111
291 58
293 325
294 183
294 199
314 377
317 292
317 308
318 206
323 326
323 342
330 397
333 292
339 2
344 221
346 397
351 103
351 119
362 12
364 2
367 103
372 59
381 2
382 2
382 338
384 10
384 59
384 164
394 338
397 2
397 12
397 146
397 166
397 307

3
3 43
3 55
3 133
3 147
3 275
3 276
3 277
3 278
3 349
3 376
3 396
4 276
4 277
8 74
11 283
20 126
20 335
30 67
38 144
38 342
38 358
41 203
41 374
41 386
53 203
67 209
67 221
79 209
79 221
80 51
81 20
81 32
87 174
89 213
92 51
92 63
92 80
92 351
92 369
93 32
97 3
99 128
99 140
101 213
105 156
105 174
109 3
111 140
112 396
113 353
117 78
125 170
125 341
125 353
135 78
138 262
145 134
145 152
166 396
174 338
181 55
216 198
229 279
229 297
231 50
232 329
232 347
233 269
240 372
240 384
241 105
245 257
246 68
247 297
250 329
250 347
252 372
252 384
266 207
266 376
266 388
270 45
270 57
272 249
275 396
278 376
282 45
282 57
283 396
284 249
293 147
293 159
306 207
306 217
307 107
307 125
309 226
309 244
311 182
318 266
318 284
323 182
323 193
323 205
325 125
325 252
335 193
337 252
341 10
350 257
350 275
351 198
353 134
363 198
366 170
370 242
377 40
377 78
378 188
378 200
383 3
384 112
385 281
387 258
388 224
388 242
389 40
389 52
390 188
390 200
396 3
396 11
396 73
396 74
396 94
396 95
396 112
396 124
396 147
396 165

4
4 44
4 54
4 279
4 280
4 377
4 395
10 33
13 99
13 365
16 33
24 295
25 99
25 365
26 99
26 100
27 100
27 101
28 101
28 102
29 102
29 103
29 278
37 40
37 52
37 88
43 286
49 40
54 170
54 182
55 274
55 286
59 92
59 384
61 337
62 306
62 314
63 59
66 170
66 182
70 306
70 314
74 108
74 114
87 120
89 395
90 395
97 325
97 333
98 4
99 120
100 100
100 101
108 4
119 217
119 223
127 45
127 57
128 282
128 294
138 11
138 23
139 45
139 57
140 282
145 234
149 337
149 345
150 11
150 39
150 246
150 252
151 163
157 174
158 290
158 298
162 27
163 56
163 62
165 395
166 290
166 298
169 62
176 37
176 172
178 230
183 124
188 172
188 184
189 124
195 279
195 280
196 280
196 281
196 355
196 363
197 281
213 102
213 114
216 79
218 37
221 162
233 162
237 238
240 4
246 200
247 156
247 168
253 268
253 274
259 156
264 30
267 178
267 297
267 305
268 177
268 178
269 176
269 177
270 176
272 171
276 30
276 395
278 171
278 179
279 180
280 181
282 395
289 93
293 231
297 379
303 60
306 84
314 221
315 221
319 71
319 83
331 56
331 395
332 385
333 211
334 92
339 114
340 4
341 4
341 203
341 211
343 56
343 68
345 395
356 393
357 16
357 26
357 59
357 67
358 17
358 18
362 4
362 393
363 4
363 20
363 26
363 353
365 59
365 67
366 217
375 353
375 365
378 136
379 102
379 135
379 136
380 134
380 135
381 134
384 4
385 102
388 132
395 4
395 10
395 75
395 93
395 148
395 164
395 308

5
5 134
5 135
5 145
5 146
5 281
5 282
5 347
5 348
5 378
5 394
11 34
15 34
20 72
20 73
21 73
21 74
22 74
22 75
23 75
23 76
23 392
24 76
24 77
30 277
31 103
45 103
50 227
60 91
63 307
63 313
69 307
69 313
75 109
75 113
77 238
77 246
79 156
79 164
81 264
89 264
91 394
98 326
98 332
99 5
106 90
107 5
107 266
109 222
109 223
110 221
110 222
111 25
111 221
111 394
118 218
118 222
128 231
136 307
137 204
143 379
143 393
144 233
144 307
149 208
150 164
150 209
150 338
151 210
151 251
153 87
153 95
159 291
159 297
160 213
161 87
161 95
161 275
164 61
164 394
165 291
165 297
168 61
175 38
182 102
184 123
188 123
195 356
195 362
196 302
200 37
200 45
200 57
200 71
210 288
210 302
214 241
214 255
221 227
229 135
241 5
252 269
252 273
268 298
268 304
272 86
272 100
272 113
273 172
276 8
277 172
277 176
277 177
281 183
288 88
288 92
289 87
289 88
289 272
290 86
290 87
291 85
291 86
292 84
292 85
293 60
293 83
293 84
294 83
295 323
301 337
308 29
308 43
316 208
322 29
322 43
332 324
332 394
338 113
340 210
342 5
344 367
344 394
345 307
346 324
357 392
358 25
358 60
358 66
361 5
361 392
362 21
362 25
364 60
364 66
367 218
368 294
368 308
374 57
378 138
380 101
381 132
382 57
382 294
384 101
384 336
385 5
387 131
392 336
394 5
394 9
394 76
394 92
394 113
394 123
394 163
394 309

6
6 52
6 53
6 136
6 144
6 283
6 284
6 346
6 379
6 380
6 393
9 285
10 72
16 83
22 128
31 276
32 69
36 142
40 344
40 356
43 205
43 376
43 384
51 205
64 308
64 312
68 308
68 312
69 211
69 219
77 211
77 219
78 239
80 157
80 163
82 53
82 263
83 22
83 30
88 263
89 172
90 53
90 61
90 82
90 353
90 367
91 215
92 393
99 331
101 130
101 138
103 158
103 172
109 138
110 393
115 351
119 80
123 343
123 351
129 232
133 80
136 260
137 306
143 136
143 150
143 232
143 306
151 248
151 339
154 88
154 94
155 367
155 368
158 249
159 214
160 88
160 94
160 292
160 296
164 292
164 296
172 340
179 53
183 103
186 116
187 116
194 277
194 357
194 361
197 109
197 284
201 38
218 200
229 52
231 281
231 295
234 331
234 345
242 6
242 374
242 382
243 82
243 103
243 259
244 70
244 83
245 84
245 295
248 331
248 345
250 374
250 382
265 179
268 209
268 378
268 386
269 299
269 303
272 47
272 55
272 175
273 175
274 247
276 378
280 47
280 55
280 393
281 393
282 247
294 61
295 149
295 157
296 322
302 322
303 323
304 324
305 325
306 326
307 327
308 209
308 215
308 328
309 109
309 123
311 242
313 180
314 218
315 209
316 268
316 282
321 180
323 123
325 195
325 203
326 87
327 88
333 195
333 393
335 250
339 209
343 6
343 8
343 393
348 165
349 166
350 167
351 168
352 259
352 273
353 196
359 20
359 21
359 61
359 65
360 6
361 196
363 61
363 65
364 172
368 219
372 240
375 56
379 42
379 80
380 190
380 198
382 130
382 131
383 279
385 260
385 335
386 6
386 114
386 130
386 226
386 240
387 42
388 190
388 198
391 335
393 6
393 77
393 91
393 114
393 149
393 310

7
7 137
7 143
7 285
7 286
7 287
7 288
7 345
7 392
8 286
8 287
10 345
11 71
12 40
12 41
13 38
13 39
15 97
15 139
15 367
16 139
17 84
17 85
18 218
18 228
22 297
23 97
23 367
29 169
29 179
33 70
35 86
37 258
39 42
39 50
39 70
39 169
39 179
40 69
40 70
41 68
41 69
41 345
41 355
42 67
42 68
43 66
43 67
44 65
44 66
44 206
44 377
44 383
45 64
45 65
45 284
46 63
46 64
47 42
47 63
47 258
50 127
50 206
52 63
53 63
53 284
56 172
56 180
57 382
59 339
64 172
64 180
70 212
70 218
76 83
76 212
76 218
77 84
78 85
79 240
81 158
83 262
84 23
84 29
87 262
89 54
89 60
89 83
91 188
91 198
92 216
93 392
97 118
97 376
100 7
101 7
101 188
101 198
102 131
102 137
106 7
107 376
108 137
108 305
109 392
111 131
111 132
112 130
112 131
113 129
113 130
113 220
114 128
114 129
114 220
115 127
115 128
116 127
116 350
118 305
118 315
122 344
122 350
129 47
129 55
130 233
130 284
137 47
137 55
138 284
138 305
140 13
140 21
142 305
148 13
152 37
155 89
155 93
155 249
156 249
158 215
158 224
159 89
159 93
159 225
160 29
160 226
161 227
162 228
162 392
163 229
163 392
164 36
164 230
164 231
165 37
166 38
166 184
167 39
167 184
168 40
168 142
168 152
169 40
171 184
176 232
178 52
178 174
184 104
186 118
186 119
186 174
186 182
194 109
195 109
195 264
198 285
198 286
202 39
211 104
211 112
216 39
219 201
223 160
228 253
229 254
230 255
231 160
231 256
232 257
233 258
234 259
235 260
236 260
242 80
242 260
243 7
243 14
243 71
243 375
243 381
244 202
249 158
249 375
249 381
252 188
254 171
255 171
255 172
256 172
257 158
262 188
266 28
269 379
269 385
273 48
273 54
274 28
275 133
275 246
275 379
277 300
278 299
279 48
279 54
279 392
281 186
281 246
283 90
284 90
285 133
286 114
291 186
291 229
295 62
296 82
296 150
296 156
297 321
299 377
300 312
301 62
301 321
304 82
309 210
309 214
310 329
314 179
314 210
320 179
320 295
320 305
320 329
321 73
326 196
326 202
330 295
332 196
333 58
334 249
334 387
341 58
341 66
341 224
344 7
345 7
346 7
347 7
347 8
347 163
348 7
352 170
354 106
354 116
354 195
359 7
359 388
360 195
364 106
365 355
373 355
373 363
376 55
377 140
380 43
380 81
381 191
381 197
382 96
382 97
383 95
383 96
384 261
386 43
386 334
387 7
387 115
387 161
387 191
387 197
388 7
389 7
390 7
390 334
391 7
392 7
392 8
392 78
392 90
392 115
392 161
392 162
392 311

8
8 138
8 142
8 289
8 290
8 341
8 342
8 343
8 344
8 391
9 342
9 343
9 344
12 70
13 36
13 56
16 72
16 96
16 368
19 219
19 227
21 298
21 390
22 96
22 368
30 170
30 178
33 105
34 85
38 71
38 170
38 178
38 259
40 43
42 346
42 354
43 105
45 54
45 382
46 43
46 55
46 259
47 56
48 57
48 225
49 58
49 59
49 60
49 126
49 207
50 61
51 62
52 283
56 381
57 173
57 179
58 340
62 89
63 88
63 173
63 179
68 73
68 74
71 213
71 217
75 63
75 213
75 217
76 62
76 63
77 61
77 62
77 111
78 60
78 61
78 110
79 59
79 60
79 110
80 58
80 59
80 85
85 24
85 28
87 93
87 94
88 55
88 59
88 84
88 94
88 95
92 189
92 197
93 217
94 391
96 117
98 377
100 189
100 197
102 8
103 132
103 136
106 377
107 136
108 92
108 391
109 23
109 132
109 264
109 306
111 336
111 337
112 337
112 338
113 338
113 339
114 339
114 340
115 340
115 341
116 220
116 341
116 342
117 306
117 342
117 343
117 349
121 345
121 349
130 48
130 54
131 285
136 48
136 54
137 285
139 202
141 14
141 20
145 381
145 391
147 14
147 167
148 166
148 204
153 36
153 249
154 379
156 365
157 221
157 222
157 364
159 30
161 391
162 35
163 185
163 273
164 185
165 185
166 59
167 57
167 58
168 56
168 57
169 55
169 56
169 151
169 184
170 41
170 54
170 55
171 53
171 54
172 52
172 53
172 183
173 51
173 52
173 182
174 181
174 182
175 180
175 181
175 233
176 180
177 51
179 175
185 175
185 181
186 121
188 359
189 359
190 359
194 265
194 274
198 300
202 69
208 290
208 300
210 105
210 111
210 141
215 40
216 243
216 253
220 202
223 225
224 159
226 243
226 253
227 137
227 242
228 241
229 240
230 159
230 239
231 238
232 237
233 236
234 235
237 261
241 261
242 72
242 78
243 203
244 13
244 376
244 380
246 87
248 376
248 380
250 159
253 187
256 159
261 187
267 27
270 98
270 380
273 27
273 301
274 10
274 49
274 53
274 115
274 301
274 380
275 174
275 301
276 132
276 245
278 49
278 53
278 391
280 245
282 187
284 132
285 115
286 90
290 187
291 274
297 81
297 151
297 155
299 313
300 63
300 309
300 310
300 376
303 81
307 154
310 31
310 41
311 330
313 215
313 216
315 178
318 168
319 178
319 330
320 31
320 41
321 296
321 304
322 74
327 197
327 201
329 296
331 197
333 248
334 59
334 322
334 391
335 110
335 388
335 391
336 111
340 59
340 65
340 225
341 391
342 391
343 309
344 322
346 369
347 161
349 8
350 8
351 8
352 8
352 172
353 8
354 8
354 383
355 107
355 194
355 384
356 385
357 386
358 8
358 369
358 387
359 194
359 368
359 390
360 23
360 367
361 121
361 366
362 122
362 365
363 107
363 123
363 364
364 124
364 125
364 126
364 363
365 362
366 356
366 362
370 296
370 306
372 356
372 362
380 145
380 146
380 296
381 82
381 146
381 147
382 99
382 147
382 148
382 192
382 196
383 148
383 149
383 262
384 94
384 149
384 150
385 44
385 150
386 192
386 196
388 116
388 160
391 79
391 80
391 88
391 89
391 150
391 160

9
9 139
9 140
9 141
9 291
9 292
9 338
9 339
9 340
9 390
10 140
11 140
13 54
14 62
14 323
15 70
15 71
17 95
17 369
18 87
18 138
20 220
20 226
20 299
20 389
21 369
24 130
31 171
31 177
33 84
33 274
34 106
34 140
34 273
37 171
37 177
39 260
41 44
42 106
44 52
45 44
45 260
47 224
48 125
49 62
51 282
55 380
57 341
58 174
58 178
62 174
62 178
64 87
66 310
73 83
80 109
82 58
85 258
86 92
88 355
88 365
93 190
93 196
95 116
95 390
96 390
99 190
99 196
99 378
101 160
101 170
101 329
102 328
105 378
107 133
107 322
107 323
108 22
108 133
108 321
108 322
109 93
109 320
109 321
109 333
109 334
110 263
110 307
110 335
116 307
118 126
118 344
118 345
119 126
121 82
124 129
125 130
126 131
127 132
128 133
129 134
130 135
131 49
131 53
131 82
131 136
131 158
132 157
132 286
133 156
134 155
134 258
135 49
135 53
135 294
135 295
136 286
136 295
136 296
137 296
137 297
138 297
138 298
139 231
139 298
139 299
140 201
140 231
140 299
140 300
140 301
141 138
141 230
142 15
142 19
142 229
143 228
144 227
145 226
146 15
146 168
146 225
146 382
146 390
147 224
148 202
148 223
149 222
150 221
153 341
154 35
154 342
156 220
158 31
158 363
159 184
160 35
160 184
160 390
161 185
162 294
164 272
170 150
170 342
172 41
172 42
173 42
174 234
184 176
184 180
187 112
192 359
193 266
193 272
193 273
199 288
199 299
203 68
207 291
207 299
209 106
209 110
214 41
217 244
217 252
224 224
225 158
225 244
225 252
226 138
227 54
229 158
233 283
233 293
236 333
236 343
241 76
241 77
242 204
243 293
244 9
245 9
245 12
245 101
246 89
246 333
246 343
251 160
254 168
254 186
255 9
255 160
256 175
260 186
268 26
269 97
270 211
271 301
272 26
273 11
273 385
273 386
274 387
275 116
275 388
276 389
277 131
277 390
282 202
282 203
283 131
283 188
283 201
283 202
284 116
284 200
284 201
285 199
285 200
289 188
292 275
298 70
298 80
299 64
299 69
299 70
299 71
299 315
299 316
299 317
301 375
302 80
305 153
309 374
310 212
311 32
311 40
311 111
311 121
311 213
312 214
313 240
314 270
314 280
317 170
318 331
319 32
319 40
322 297
322 303
323 75
326 83
327 92
328 297
335 60
335 321
336 206
336 207
336 389
336 390
337 207
337 390
339 60
339 64
339 226
340 390
342 310
343 321
347 370
354 261
354 271
354 381
355 9
355 370
356 9
356 10
356 108
356 370
357 9
360 119
361 63
362 108
362 174
364 128
365 130
367 357
367 361
370 221
371 222
371 297
371 305
371 357
371 361
374 238
378 145
379 297
381 277
384 128
384 228
384 238
385 126
385 127
386 151
388 328
388 329
388 330
389 158
389 159
389 327
389 328
390 81
390 116
390 117
390 119
390 120
390 151
390 154
390 155
390 157
390 158
390 159
390 312
390 313
390 326
390 327

10
10 45
10 293
10 294
10 336
10 337
10 389
11 44
12 52
12 53
14 64
14 65
14 66
14 325
14 326
14 327
18 89
19 388
20 137
21 221
21 225
25 131
31 223
32 172
32 176
32 222
33 139
33 221
35 107
35 272
36 172
36 176
40 261
41 107
44 50
44 261
46 223
47 124
47 378
54 375
54 376
55 374
56 373
57 372
58 371
59 370
60 369
61 368
62 367
63 366
64 364
64 365
65 64
65 86
66 64
66 85
67 76
69 71
72 64
73 64
81 242
82 86
82 243
83 57
83 86
83 160
84 57
84 161
85 260
86 89
86 90
86 256
86 257
87 255
87 256
87 356
87 364
89 26
89 97
90 26
91 25
91 26
92 24
92 25
93 23
93 24
94 22
94 23
94 191
94 195
95 21
95 22
96 20
96 21
96 233
96 234
97 20
97 232
97 233
97 389
98 191
98 195
98 231
98 232
99 231
100 161
100 169
100 379
101 248
102 249
103 250
104 251
104 379
105 252
105 329
106 253
106 324
106 325
106 330
106 389
107 21
107 254
107 331
107 389
108 255
108 332
109 256
110 94
110 256
110 318
110 319
111 262
111 308
111 317
111 318
112 317
115 308
120 125
130 83
131 160
131 161
132 138
132 139
132 235
132 238
133 236
133 237
133 257
134 235
134 236
135 234
135 235
136 233
136 234
137 232
137 233
138 232
140 139
140 303
141 200
145 19
145 20
146 21
147 22
147 200
147 201
147 383
147 389
148 23
149 24
150 25
151 26
151 220
152 27
152 216
152 217
152 219
153 28
154 29
154 219
155 30
155 31
155 218
155 219
155 343
156 217
157 91
158 34
159 34
159 362
159 389
160 361
161 360
162 359
163 358
165 271
166 233
167 234
169 343
171 143
171 149
174 43
174 44
174 45
175 45
175 46
175 47
178 179
179 179
186 106
187 107
187 142
187 143
188 141
188 142
189 141
192 267
192 271
200 290
200 298
201 108
204 41
204 67
205 42
206 292
206 298
218 245
218 251
224 245
224 251
225 139
225 223
226 55
234 292
235 73
236 73
236 74
237 74
237 334
237 342
238 74
240 278
240 279
241 277
241 278
242 276
242 277
242 292
243 275
243 276
244 274
244 275
245 274
245 334
245 342
246 10
246 11
246 100
247 10
249 10
250 10
250 11
251 10
251 11
252 10
252 11
253 10
253 11
254 10
255 185
256 10
257 11
258 12
259 13
259 185
260 14
268 96
272 12
272 384
276 117
278 130
282 130
283 117
284 189
288 189
293 276
297 64
298 65
298 66
298 67
298 68
298 305
298 306
299 66
299 307
299 319
300 72
301 153
302 153
303 153
312 33
312 39
312 112
312 120
312 212
313 271
313 279
314 239
315 228
317 172
317 173
317 174
317 332
318 33
318 39
323 298
323 302
326 74
326 75
327 73
327 74
327 298
328 72
328 73
329 71
329 72
330 70
330 71
331 69
331 70
332 68
332 69
333 67
333 68
334 66
334 67
335 65
335 66
335 205
336 64
336 65
338 389
339 388
339 389
340 387
341 386
342 320
342 385
343 384
344 383
345 382
346 159
346 381
347 380
348 371
348 378
348 379
353 174
353 175
354 371
355 262
355 270
357 109
361 109
361 175
364 131
364 132
372 223
372 298
372 304
375 237
376 144
377 144
378 53
378 298
379 52
380 276
383 229
383 237
386 124
386 125
387 123
387 124
388 122
388 123
388 151
388 152
388 324
388 332
389 82
389 83
389 118
389 121
389 122
389 152
389 153
389 156
389 323
389 324
389 325

11
11 46
11 47
11 48
11 49
11 50
11 51
11 295
11 296
11 334
11 335
11 388
12 50
13 329
13 330
14 68
14 329
19 373
19 374
22 137
32 138
35 74
36 73
36 108
36 271
40 108
43 48
43 49
44 348
44 352
45 222
45 351
46 210
47 209
47 380
48 379
49 378
49 379
50 378
50 379
51 378
51 379
55 349
56 350
57 351
58 352
59 353
60 354
61 355
62 356
63 357
64 358
65 359
65 360
67 65
67 78
67 79
67 84
69 68
69 69
70 82
71 65
71 82
73 215
83 244
84 87
85 87
85 88
85 162
86 57
86 86
86 162
86 357
86 363
87 26
88 254
89 99
89 253
95 219
95 235
96 220
98 247
98 388
99 162
99 168
99 228
99 229
99 247
99 388
103 11
104 327
105 11
105 134
105 326
105 388
106 20
108 100
111 257
112 257
112 261
112 315
119 347
129 84
132 162
132 256
133 140
134 290
134 291
134 292
135 152
139 140
142 199
146 199
148 384
148 388
153 218
156 344
157 344
157 345
158 345
158 388
166 270
168 235
168 344
175 49
180 178
188 108
188 109
188 110
189 108
189 109
190 108
201 291
201 297
203 108
204 108
205 66
205 108
205 297
206 43
219 246
219 250
222 204
223 205
223 246
223 250
224 140
225 56
227 154
232 70
233 71
234 72
235 291
238 335
238 341
239 263
240 74
240 264
240 265
241 291
244 335
244 341
246 378
247 91
247 92
247 99
248 11
253 164
253 165
253 166
262 14
267 95
269 91
270 91
271 13
272 382
276 51
276 238
276 239
276 240
277 118
277 239
277 240
277 241
277 242
278 243
281 205
283 298
292 299
293 300
294 277
294 301
295 302
296 303
297 304
299 153
300 74
300 75
300 76
307 373
311 154
312 272
312 278
313 34
313 38
313 113
313 119
315 238
317 34
317 38
317 176
319 164
325 79
325 80
325 81
328 94
328 95
328 96
328 100
328 101
329 199
330 200
331 201
331 246
332 109
332 202
333 203
334 204
336 319
337 227
341 312
341 319
349 372
349 376
349 377
353 372
353 378
353 379
354 176
356 263
356 269
357 192
360 116
360 176
373 143
373 224
373 299
373 303
374 144
376 236
377 303
377 304
378 304
378 305
379 275
379 305
379 306
380 51
380 265
380 306
380 307
381 47
381 264
381 307
381 308
382 47
382 48
382 230
382 236
382 308
382 309
383 46
383 84
383 309
383 310
384 85
384 194
384 310
384 311
385 90
385 311
385 312
386 312
386 313
387 313
387 314
387 317
388 84
388 85
388 314
388 315
388 316
388 317
388 318
388 319
388 320
388 321
388 322

12
12 297
12 298
12 331
12 332
12 333
12 387
13 318
16 377
16 378
17 376
17 377
17 387
18 301
18 375
19 93
19 371
20 92
25 223
26 223
27 223
28 223
31 137
34 75
34 76
36 220
42 265
42 266
43 46
45 211
45 212
46 350
48 279
49 280
53 378
54 344
54 346
54 347
55 343
60 176
67 82
68 80
68 81
68 82
68 362
69 65
69 66
69 81
69 362
70 362
71 362
85 358
85 362
87 163
88 104
88 164
89 103
89 104
89 164
90 100
90 101
90 102
90 103
91 101
91 102
92 113
93 114
95 237
96 246
97 221
97 246
98 163
98 167
99 19
100 19
100 387
104 387
113 312
113 313
113 314
123 125
128 85
131 241
131 255
132 164
133 51
133 164
133 165
134 141
134 288
135 150
138 141
144 17
156 33
156 387
157 387
167 345
169 236
172 236
181 359
182 143
182 178
183 143
184 143
187 269
188 269
191 140
202 292
205 140
207 44
207 108
208 44
212 43
215 142
224 206
225 151
225 152
226 152
226 153
227 156
236 290
239 207
239 281
239 336
239 340
240 206
240 290
241 266
241 267
242 267
242 268
243 268
243 269
243 336
243 340
244 269
244 270
245 270
245 271
246 271
248 93
248 94
248 98
253 162
257 178
257 179
257 180
257 181
258 179
258 180
267 92
268 92
269 22
270 24
279 127
281 207
285 298
286 193
286 194
286 195
286 196
300 78
303 373
304 372
305 367
306 366
306 367
306 372
311 273
311 277
314 114
314 118
316 230
316 231
316 237
325 77
327 102
328 98
329 155
331 244
333 154
337 62
337 318
340 313
352 376
352 377
355 177
357 188
357 264
357 268
359 113
359 114
359 115
359 177
369 359
371 143
374 225
375 226
376 227
376 299
377 228
377 229
377 235
378 274
379 266
381 49
381 50
381 231
381 235
385 86
385 88
387 86

13
13 299
13 300
13 308
13 309
13 310
13 311
13 312
13 313
13 314
13 315
13 316
13 386
14 311
21 90
21 91
22 89
22 90
23 88
23 89
23 223
24 87
24 88
24 136
25 86
25 87
25 136
26 85
26 86
27 84
27 85
28 83
28 84
29 82
29 83
30 81
30 82
31 80
32 79
33 77
34 174
38 112
38 220
40 268
41 267
41 268
42 263
43 214
43 215
44 213
45 122
47 278
47 349
52 345
53 345
66 362
74 361
75 361
76 360
76 361
85 245
91 112
96 193
98 222
99 225
100 224
101 18
101 386
102 18
102 381
102 382
103 386
104 13
104 14
104 15
104 16
113 310
116 259
117 259
123 113
123 114
123 115
123 116
123 120
123 121
123 122
123 123
130 244
131 243
131 244
131 245
134 166
134 167
144 193
144 194
144 195
149 386
150 385
150 386
151 386
152 386
153 385
153 386
154 385
154 386
155 386
160 346
161 346
167 358
170 237
171 238
171 239
172 239
172 240
173 147
173 240
173 241
174 144
174 146
174 242
178 359
179 359
181 144
183 266
184 266
184 267
185 267
185 268
186 268
190 269
193 140
194 140
195 140
196 140
200 140
201 140
202 140
203 140
203 293
209 45
210 45
217 142
222 147
222 148
223 149
224 150
225 207
238 208
239 283
257 95
257 96
257 183
258 94
258 95
259 94
259 95
260 93
260 94
260 226
261 93
261 225
262 93
262 224
262 225
263 93
263 223
263 224
264 15
265 15
269 19
269 20
279 122
279 123
279 124
279 125
280 121
280 122
280 123
280 124
280 126
280 128
281 119
286 191
286 297
287 297
290 292
290 293
290 294
291 290
292 289
293 288
294 287
295 286
296 284
296 285
305 369
305 370
305 371
306 369
307 364
307 365
308 346
308 347
308 348
308 349
308 363
308 364
309 349
309 350
309 351
309 361
309 362
309 363
310 351
310 352
310 353
310 354
310 358
310 359
310 360
310 361
313 155
314 335
315 334
317 232
317 233
325 300
326 301
327 155
327 302
328 303
329 304
330 243
330 305
331 306
332 307
333 308
334 309
335 154
335 230
335 310
336 229
336 311
337 312
338 316
339 315
347 153
348 152
348 153
349 151
349 152
350 150
350 151
351 149
351 150
352 148
352 149
353 147
353 148
354 146
354 147
355 145
355 146
356 144
356 145
357 144
357 186
359 111
378 230
378 231
378 267
386 87

14
14 301
14 302
14 303
14 304
14 305
14 306
14 307
14 381
14 382
14 383
14 384
14 385
15 302
15 303
15 304
15 305
15 380
15 381
15 382
15 383
15 384
15 385
16 385
26 135
27 135
38 110
39 113
39 114
39 219
39 270
40 219
40 270
40 271
41 271
41 272
42 216
42 217
42 219
42 272
42 273
43 119
43 120
43 121
43 220
43 273
43 274
44 274
44 275
45 275
45 276
46 276
46 277
48 348
49 347
50 347
51 346
78 360
78 361
79 360
80 360
81 360
87 245
90 111
91 165
92 165
93 165
94 165
94 239
94 240
99 223
102 384
102 385
103 17
104 18
114 259
118 258
119 257
119 258
120 257
123 110
123 111
123 118
130 246
135 168
136 145
136 146
136 147
136 148
136 169
137 170
138 171
139 172
140 173
141 174
144 197
162 347
163 347
168 268
169 267
174 244
174 245
174 253
174 254
175 145
176 145
176 358
177 145
177 358
178 145
179 144
180 264
181 264
181 265
182 265
198 140
203 295
207 64
208 63
211 46
212 47
213 48
214 49
215 50
218 143
219 143
221 143
221 145
221 146
221 248
222 142
226 208
227 209
228 69
237 209
238 284
238 285
238 286
250 226
251 226
252 96
253 96
254 96
255 96
255 226
256 226
257 226
258 226
265 93
266 16
267 16
267 17
268 16
268 17
268 18
269 15
279 120
280 209
280 210
288 296
289 295
289 296
290 297
296 279
297 282
297 283
303 276
304 275
304 276
305 275
306 275
307 275
308 344
309 342
309 343
310 356
313 336
315 36
315 155
320 235
321 235
324 155
325 155
329 242
334 231
337 154
338 154
338 314
339 154
339 317
340 154
344 154
345 154
346 154
351 374
357 181
357 182
357 183
357 184
358 143
359 143
361 266
362 266
363 136
363 266
364 266
364 267
365 267
369 142
370 271
371 271
371 272
372 272
373 272
375 301
376 269
377 268

15
29 135
30 134
31 133
32 132
33 131
34 130
35 129
36 128
37 127
38 126
39 125
40 115
40 124
41 116
41 117
41 123
41 218
42 117
42 118
42 122
83 360
87 108
88 108
88 109
89 110
93 241
93 242
96 165
121 256
122 108
122 109
122 255
123 254
124 253
125 88
125 252
126 87
126 252
129 252
129 253
130 248
136 143
141 176
170 266
173 246
173 247
173 251
173 252
179 263
209 62
220 144
226 69
228 210
229 211
230 212
231 213
236 210
238 288
241 338
247 224
248 224
248 225
249 225
250 96
253 226
298 280
298 281
299 279
299 280
300 278
300 279
301 278
302 277
309 275
310 340
310 341
312 337
312 338
316 116
316 156
317 115
317 156
318 115
318 235
322 156
322 236
323 156
323 236
323 237
324 237
333 232
342 154
357 179
359 266
360 142
363 138
366 268
367 142
367 269
368 269
369 270
374 271
375 270
375 271
375 272
376 272
379 233

16
124 89
127 251
128 250
128 251
129 249
145 175
165 348
166 349
167 350
167 351
169 356
171 265
172 356
173 356
174 357
210 61
224 68
225 68
243 220
243 221
244 221
244 222
245 222
246 223
279 212
311 339
318 157
319 114
319 158
320 114
328 240
332 233
362 141
362 142
363 141
365 141
366 141

17
90 246
91 245
92 244
120 104
120 105
121 106
123 90
168 352
169 353
169 354
170 354
170 355
171 355
172 249
172 264
279 214
320 157
321 113
322 112
323 111
324 110
325 109
326 108
329 236
330 235
331 234
364 140

18
119 102
119 103
121 92
121 93
122 91
122 92
143 178
173 263
174 261
174 262
175 262
220 66
221 66
222 67
278 215
278 216
327 238
328 237

19
116 99
117 98
117 99
117 100
118 97
118 101
119 95
119 96
120 94
144 179
217 63
217 64
218 64
218 65
219 65
234 215
277 217

20
145 180
145 185
145 186
216 57
216 61
216 62
235 216
235 217
235 222
271 222
277 219

21
145 182
146 182
146 183
146 184
147 183
215 59
215 60
216 59
236 218
237 219
277 227
277 228

22
236 220
273 223
276 221
276 222

23
275 223
275 224
276 225

