0
0 0
0 12
0 180
0 209
60 399
74 399
85 0
99 0
172 0
217 0
224 399
240 0
242 399
263 399
274 0
285 399
312 399
328 399
332 399
368 399
399 190
399 191
399 357
399 377

1
1 1
1 181
1 208
1 229
1 239
11 229
11 239
20 121
20 131
22 9
24 271
24 281
30 121
30 131
33 1
33 225
34 281
39 123
39 133
43 225
49 123
49 133
54 384
54 394
64 384
72 392
73 72
73 82
79 48
79 95
79 105
83 72
83 82
84 137
84 398
89 48
89 95
89 105
104 398
112 2
112 12
122 2
122 12
126 11
130 122
136 11
136 21
139 361
139 371
140 315
146 271
146 281
150 315
150 325
154 140
169 33
179 33
179 43
186 233
186 243
194 143
194 153
204 143
204 153
216 1
225 398
227 319
240 102
241 398
249 192
249 202
250 102
259 192
259 202
272 8
273 1
295 67
295 77
305 67
305 77
308 274
313 398
322 336
327 398
332 336
333 398
351 246
351 256
361 246
361 256
367 398
386 322
390 277
390 287
398 35
398 58
398 192
398 225
398 276
398 288
398 358
398 376

2
2 2
2 11
2 41
2 57
2 207
3 354
3 366
7 23
13 314
13 326
15 354
15 366
17 291
17 303
17 330
23 39
24 344
24 360
25 314
29 291
29 303
29 318
29 330
32 2
35 191
36 314
36 326
40 360
48 326
51 191
51 207
70 226
72 397
73 397
85 397
86 2
86 226
87 2
97 227
101 4
101 16
103 397
116 387
118 333
134 317
134 333
150 330
158 217
162 60
162 72
174 60
175 163
176 185
177 352
180 294
180 310
181 333
185 383
185 395
193 54
196 294
196 310
197 395
209 54
211 378
211 390
216 357
216 373
220 65
220 81
226 397
227 389
232 357
232 373
239 389
240 397
241 2
242 2
259 134
259 152
263 290
263 306
264 397
265 397
268 356
275 136
275 152
280 344
280 356
283 397
284 397
286 92
286 104
294 84
294 96
296 33
296 45
297 2
303 216
308 33
308 45
310 281
311 2
331 10
331 22
334 397
344 311
344 323
345 224
345 236
357 236
366 397
382 198
386 378
386 390
391 195
397 57
397 193
397 277
397 287

3
3 3
3 10
3 182
3 230
3 238
10 154
10 166
14 217
19 3
20 3
22 154
22 166
36 96
36 114
38 26
43 4
45 161
54 114
54 169
55 16
55 92
61 262
64 272
64 273
65 273
65 274
66 359
66 377
67 52
69 289
71 396
72 151
72 169
84 359
84 377
86 396
87 271
88 3
90 121
91 141
102 396
106 303
108 121
108 139
112 93
112 111
118 347
118 359
119 261
122 220
130 111
130 347
130 359
132 195
132 213
137 261
142 185
143 80
143 98
146 190
150 195
154 116
157 252
159 261
172 134
172 228
173 3
185 119
196 190
196 202
204 364
208 202
208 333
211 231
211 243
220 7
220 25
224 252
227 146
228 257
231 335
233 187
242 234
242 252
243 3
243 323
243 335
245 146
261 108
261 120
266 87
266 99
266 396
271 3
272 3
276 273
276 283
278 87
281 195
281 213
282 248
282 396
293 303
299 195
310 14
313 210
314 396
315 396
324 310
324 375
324 376
325 210
325 374
325 375
325 396
326 373
326 374
326 396
327 373
333 170
334 379
343 42
343 54
344 177
345 158
352 361
356 165
356 177
365 220
365 238
368 299
368 317
372 121
372 133
376 11
376 29
383 238
384 121
384 133
386 299
390 361
390 373
396 36
396 194
396 224
396 359
396 360
396 374
396 375

4
4 4
4 9
4 56
4 183
4 205
4 206
4 231
4 237
9 231
9 237
14 55
17 4
18 4
21 4
22 4
22 123
22 129
22 379
22 391
26 279
28 123
28 129
30 4
31 4
31 260
33 37
33 49
34 379
34 391
35 223
41 125
41 131
41 223
45 37
47 125
47 131
51 138
54 342
54 350
56 386
56 392
62 386
63 138
68 395
69 18
69 394
69 395
70 394
70 395
71 196
75 74
75 80
77 30
81 18
81 46
81 74
81 80
81 97
81 103
83 303
85 30
86 135
87 46
87 97
87 103
88 388
102 273
106 370
110 273
114 4
114 10
116 299
118 370
120 4
120 10
121 72
125 164
125 176
128 13
129 72
132 124
134 13
134 19
135 37
135 49
138 322
141 363
141 369
142 317
147 37
147 49
148 273
148 279
148 317
148 323
165 48
171 35
174 4
177 35
177 41
180 263
184 235
184 241
196 134
196 145
196 151
202 145
202 151
208 122
208 134
218 262
218 274
227 395
228 395
229 111
229 123
238 395
239 395
242 104
244 4
244 6
244 178
251 194
251 200
257 194
257 200
260 321
260 333
260 365
260 377
267 395
268 391
270 4
272 365
272 377
280 316
281 395
283 379
288 316
288 324
291 379
291 387
293 329
294 26
297 69
297 75
298 4
303 69
303 75
304 223
305 329
310 4
310 376
310 388
314 260
314 305
316 395
317 31
317 43
322 376
323 145
323 157
324 334
324 395
327 252
329 31
329 63
330 264
330 276
330 334
330 343
335 119
335 127
335 145
335 395
336 395
337 63
339 240
339 252
342 264
342 276
342 343
351 115
351 123
353 248
353 254
359 115
359 123
359 248
359 254
360 197
360 205
368 205
374 39
374 51
379 94
379 106
384 320
391 94
391 106
392 279
392 285
395 37
395 55
395 56
395 195
395 223
395 278
395 279
395 285
395 286
395 361
395 373

5
5 5
5 8
5 55
5 184
5 204
5 356
5 364
8 232
8 236
13 356
13 364
15 5
15 185
15 316
16 5
19 293
19 301
23 5
23 124
23 128
24 5
27 124
27 128
27 278
27 293
27 328
28 9
28 10
29 5
29 10
29 11
30 11
40 222
40 293
41 62
42 126
42 130
46 130
46 324
53 343
53 349
54 293
54 307
57 387
57 391
61 272
61 387
64 69
66 394
67 334
67 348
67 394
76 75
76 79
78 31
80 75
80 79
81 334
82 45
82 98
82 102
83 243
83 257
84 31
84 302
86 45
86 98
86 102
87 394
88 394
97 257
99 14
100 394
101 394
103 274
104 188
108 24
108 38
109 274
115 5
115 9
118 188
118 202
119 5
119 9
122 38
122 73
129 14
133 14
133 18
133 125
137 291
138 232
139 231
140 230
140 321
142 364
142 368
147 318
147 322
149 274
149 278
151 291
151 305
164 47
164 62
164 366
165 256
167 41
167 42
168 40
168 41
169 39
169 40
172 62
174 183
175 5
176 36
176 40
181 25
183 236
183 240
187 393
197 146
197 150
201 146
201 150
205 169
207 99
209 380
209 388
215 156
229 391
229 394
237 391
237 394
245 5
245 24
245 38
246 5
247 5
248 5
248 6
249 5
252 195
252 199
256 195
256 199
259 38
260 220
260 234
261 136
268 338
268 394
269 5
274 220
274 234
276 324
277 11
277 323
278 322
278 346
278 354
280 394
281 317
284 94
284 102
284 380
287 317
287 323
290 380
290 386
296 86
297 354
298 35
298 43
298 70
298 74
299 5
301 275
302 70
302 74
302 105
302 274
302 275
305 224
306 43
309 5
309 128
311 354
316 91
317 394
323 394
325 333
329 333
330 62
333 12
333 20
334 120
334 126
336 62
337 394
342 313
342 321
347 226
347 234
352 116
352 122
354 249
354 253
358 116
358 122
358 249
358 253
361 198
361 204
364 374
367 204
372 172
380 196
383 319
384 207
384 388
386 172
393 280
393 284
394 38
394 196
394 197
394 222
394 280
394 281
394 283
394 284
394 362
394 372

6
6 6
6 54
6 185
6 203
6 232
6 233
6 235
6 236
6 357
6 363
8 6
9 6
9 7
10 6
10 7
11 6
11 7
12 6
12 7
12 156
12 164
12 357
12 363
13 6
14 6
16 215
16 317
20 156
20 164
20 294
20 300
25 6
26 6
26 294
26 300
26 327
27 300
28 6
36 24
38 98
38 112
45 6
45 126
45 323
47 159
52 112
52 344
52 348
53 94
56 167
59 264
60 6
61 6
61 7
62 6
62 7
63 6
64 393
65 54
65 393
68 375
69 274
70 153
70 167
71 287
79 32
82 361
82 375
83 32
85 10
85 11
85 273
85 301
86 10
89 393
92 123
98 6
98 13
99 393
100 390
101 389
102 388
103 387
104 214
104 215
104 275
104 301
104 386
105 215
105 216
105 385
106 123
106 137
106 216
106 217
106 384
107 217
107 218
107 384
108 218
108 275
114 95
114 109
120 222
120 349
120 357
121 259
123 74
128 109
128 349
128 357
134 197
134 211
135 259
141 96
142 229
142 321
148 88
159 250
163 46
165 42
165 63
170 132
170 230
171 39
171 63
173 182
176 6
187 117
188 392
198 192
198 200
202 362
206 200
206 335
208 381
208 387
213 233
213 241
218 23
230 392
230 393
231 392
231 393
232 393
233 319
233 333
234 320
234 393
235 321
235 392
235 393
236 392
236 393
240 236
240 250
241 325
241 333
243 148
250 6
251 6
259 110
259 118
262 137
267 6
268 6
268 89
268 97
269 393
270 392
270 393
271 392
271 393
272 392
272 393
273 393
275 393
276 392
276 393
277 347
277 353
277 392
277 393
278 275
278 281
278 392
278 393
279 391
279 393
280 322
280 390
281 389
282 318
282 388
283 95
283 101
283 197
283 211
283 387
284 250
284 386
285 381
285 385
286 318
286 322
289 381
289 385
295 301
297 87
297 197
299 36
299 42
300 6
306 225
308 6
308 12
315 212
322 393
323 212
326 312
327 326
328 325
328 326
329 325
329 371
331 61
333 121
333 125
334 13
334 19
335 61
335 168
338 393
341 44
341 314
341 320
348 227
348 233
350 363
353 117
353 121
354 167
354 175
355 393
356 393
357 117
357 121
357 393
358 393
362 199
362 203
366 203
367 222
367 236
370 301
370 315
374 13
374 27
374 123
374 131
379 195
381 236
382 123
382 131
383 387
384 301
392 363
392 364
392 365
392 369
392 370
392 371
393 39
393 53
393 54
393 198
393 199
393 200
393 201
393 221
393 282
393 363
393 364
393 365
393 366
393 368
393 369
393 370
393 371

7
7 7
7 202
7 234
7 358
7 362
10 26
11 358
11 362
12 53
13 157
13 163
17 318
19 157
19 163
20 36
21 295
21 299
24 381
24 389
25 295
25 299
25 326
27 7
27 347
27 357
30 14
32 381
32 389
33 262
35 23
35 39
37 357
38 17
38 18
38 322
39 16
39 17
40 15
40 16
41 14
41 15
42 13
42 14
42 349
43 12
43 13
43 39
43 313
43 314
43 348
44 312
44 313
44 322
44 347
45 311
45 312
46 7
46 267
47 267
48 158
48 194
52 95
53 140
58 7
58 265
58 271
59 7
59 271
61 140
62 392
63 392
64 7
64 55
65 7
71 16
73 198
73 223
83 223
84 41
90 390
90 392
97 7
97 12
98 390
98 392
103 300
108 220
108 372
108 383
116 7
116 372
117 7
117 8
118 7
118 301
121 330
121 350
121 356
127 174
127 350
127 356
131 303
131 330
132 302
133 301
135 233
137 39
137 47
143 320
144 319
153 276
153 333
154 275
154 276
155 220
155 275
163 43
164 43
166 64
170 64
172 38
172 166
172 181
177 275
178 238
178 265
179 238
183 297
183 307
188 116
189 391
193 297
193 307
196 57
199 193
199 199
204 190
205 189
205 190
205 199
205 336
206 57
206 124
206 132
206 188
206 189
207 187
207 188
207 382
207 386
208 186
208 187
209 186
214 234
214 240
217 68
217 78
219 360
219 370
220 264
220 272
227 262
229 360
229 370
231 113
231 121
232 316
232 317
233 392
234 332
235 323
240 326
240 332
242 176
252 7
253 7
258 111
258 117
260 293
260 303
262 149
262 323
262 331
262 367
262 375
265 7
266 7
269 90
269 96
270 367
270 375
272 139
272 149
274 392
276 352
279 276
279 280
281 321
282 100
282 321
284 272
285 271
286 270
287 269
292 24
295 331
296 300
298 88
300 37
300 41
300 213
303 271
303 272
303 331
307 11
312 258
312 303
312 378
316 213
319 33
320 378
320 392
321 392
322 213
325 147
325 155
327 33
327 313
327 328
327 329
332 274
332 345
333 147
335 14
335 18
336 167
337 242
339 392
340 45
340 266
340 274
340 315
340 319
340 345
349 228
349 232
353 168
353 174
353 392
354 392
357 229
359 392
360 392
375 124
375 130
376 41
376 49
378 194
381 96
381 104
381 124
381 130
382 386
389 96
389 104
392 202
392 203
392 367

8
8 52
8 53
8 186
8 187
11 27
11 52
13 187
14 158
14 162
18 158
18 162
25 126
25 382
25 388
28 348
28 356
29 276
30 275
31 382
31 388
34 22
34 263
36 18
36 40
36 356
37 219
38 220
39 321
40 321
40 350
42 40
42 295
43 60
44 128
45 12
46 346
47 8
47 195
47 346
48 346
51 96
52 295
52 305
54 141
56 8
57 8
57 266
57 270
59 389
60 141
60 390
61 391
62 67
63 56
66 8
67 8
69 336
71 275
72 15
74 199
74 222
78 77
79 336
81 36
81 37
81 38
82 38
82 39
82 222
83 40
84 43
84 100
85 245
85 255
91 391
92 391
93 391
94 390
94 391
95 255
95 391
96 8
96 391
97 391
102 299
106 190
106 279
106 280
109 373
110 26
110 36
114 382
115 373
116 190
116 200
119 302
120 36
122 329
122 351
122 355
123 24
123 313
123 314
124 23
124 314
124 315
125 22
125 315
126 21
126 351
126 355
127 20
128 19
128 173
129 18
130 17
130 329
131 16
133 233
135 127
138 40
138 46
139 293
144 366
145 229
145 320
145 365
146 365
149 293
149 303
151 87
151 276
152 87
153 87
154 334
156 274
157 44
157 87
157 273
158 44
159 44
162 364
164 252
171 167
174 38
177 8
177 266
178 8
179 342
179 343
181 238
183 23
184 298
184 306
189 115
191 369
191 370
191 374
191 375
191 376
192 298
192 306
192 376
192 377
193 377
193 378
194 378
194 379
195 379
197 58
199 131
199 132
199 148
200 194
200 198
204 192
204 198
204 337
205 97
205 125
205 131
207 171
215 235
215 239
216 69
216 77
217 158
220 361
220 369
221 265
221 271
227 264
228 361
228 369
231 279
231 283
231 284
232 114
232 120
232 314
235 331
239 331
241 175
247 26
247 36
254 8
254 197
255 8
257 36
257 112
257 116
259 294
259 302
262 222
262 232
263 8
263 139
263 148
263 324
263 368
263 374
264 8
269 342
269 343
269 368
269 374
270 91
270 95
271 140
271 148
272 222
272 232
272 325
291 23
294 15
294 16
295 14
295 15
296 13
296 14
296 332
297 12
297 13
297 299
298 11
298 12
299 10
299 11
299 212
299 352
300 10
300 72
302 332
304 103
306 8
306 10
306 38
307 8
309 352
311 126
311 302
313 379
314 93
317 214
317 390
318 390
318 391
319 379
319 391
321 214
326 34
326 148
326 154
327 331
328 123
328 314
329 123
329 322
332 148
333 57
333 266
333 267
333 273
333 346
336 243
336 249
336 250
337 166
339 46
339 267
339 273
339 346
340 391
344 383
351 391
352 169
352 173
352 391
356 251
361 391
362 391
366 200
366 376
367 199
368 198
369 197
370 196
371 195
372 194
373 193
374 174
374 193
376 125
376 129
377 42
377 48
380 125
380 129
381 317
382 97
382 103
384 174
388 97
388 103
391 40
391 51
391 52
391 204
391 205
391 219
391 220

9
9 43
9 44
9 45
9 46
9 47
9 48
9 50
9 51
9 188
9 359
9 360
9 361
10 45
10 46
10 47
10 51
10 360
12 28
12 188
18 213
19 324
22 28
23 27
24 26
25 25
26 24
26 383
26 387
27 23
28 22
29 21
29 349
29 355
30 21
30 383
30 387
31 16
31 17
31 274
35 19
35 264
35 355
36 218
37 41
40 100
40 110
42 316
42 317
42 318
46 11
46 196
47 11
49 268
50 110
50 346
51 296
54 9
55 9
55 142
59 142
61 66
68 9
68 165
69 9
70 337
70 373
73 275
73 285
75 200
75 221
78 337
80 373
81 11
81 34
81 221
83 275
86 246
86 254
87 299
88 298
89 9
90 9
91 9
91 10
92 9
92 10
93 9
93 10
94 9
94 254
103 210
103 211
103 283
103 284
104 125
104 135
104 282
105 281
106 277
107 191
109 222
110 374
111 27
111 35
114 374
115 191
115 199
116 97
116 107
119 35
120 303
123 257
123 328
125 76
125 317
126 77
126 107
128 304
129 172
129 328
131 234
132 234
133 257
136 199
136 209
139 41
139 45
140 294
145 197
146 228
147 228
147 364
148 294
148 302
148 363
149 362
149 363
150 362
155 87
155 335
158 88
159 88
159 89
159 273
160 89
160 90
161 44
161 90
161 363
164 250
168 68
168 130
170 168
177 343
179 9
185 299
185 305
191 299
191 305
191 372
192 115
192 116
192 368
193 116
193 117
193 367
194 117
194 118
195 118
195 119
196 119
196 120
197 120
197 121
198 59
198 121
198 122
199 122
199 123
200 123
200 124
200 130
201 384
202 384
203 193
203 194
203 384
204 126
204 130
205 59
209 183
215 9
216 21
218 159
221 362
221 368
222 266
226 265
226 266
226 273
226 274
227 274
227 275
227 362
227 368
228 275
228 276
229 250
229 276
229 277
230 277
230 278
231 281
232 285
233 115
233 119
233 286
234 287
235 288
236 325
236 326
238 238
238 248
240 174
241 150
248 27
248 35
256 9
256 35
257 10
258 10
258 295
258 301
261 9
262 9
263 223
263 231
264 147
264 325
264 369
264 373
267 333
268 369
268 373
270 147
270 325
270 344
270 350
271 223
271 231
280 278
284 320
285 199
285 209
286 252
287 383
288 266
290 22
297 333
298 211
300 351
301 9
301 267
301 268
301 333
302 9
302 269
303 9
304 9
304 10
304 39
305 9
305 39
308 351
310 301
311 108
312 109
312 125
313 94
313 110
314 111
314 380
317 388
318 380
325 35
327 122
327 149
327 153
331 123
331 149
333 59
334 55
334 56
334 268
334 272
334 347
335 54
335 55
335 244
335 248
335 317
336 53
336 54
336 316
336 317
338 268
338 272
338 347
339 16
340 16
341 16
341 390
342 390
348 365
349 390
350 390
353 230
354 230
355 119
355 230
363 390
364 201
364 390
367 377
372 15
372 25
372 303
372 313
375 175
378 43
378 47
379 234
381 315
382 303
383 98
383 102
383 175
387 98
387 102
390 41
390 42
390 50
390 206
390 207
390 218

10
10 42
10 49
10 189
10 190
10 191
10 193
11 41
11 189
11 190
12 40
13 29
13 39
14 38
19 29
19 212
19 320
20 29
20 321
20 323
23 297
30 350
30 354
32 18
32 273
33 19
33 272
34 271
35 270
36 216
36 268
36 269
37 350
41 109
42 320
43 266
43 297
44 297
45 197
48 10
49 10
49 11
49 109
50 10
50 297
51 10
51 268
52 10
52 268
53 10
53 268
60 65
67 164
70 10
71 10
71 338
71 372
74 276
74 284
76 220
77 338
79 372
80 220
82 276
87 247
87 253
89 297
92 206
93 253
95 10
103 126
103 134
108 192
110 381
111 380
112 28
112 34
113 380
114 192
114 198
117 98
117 106
118 34
120 27
121 26
122 311
124 256
124 327
125 106
126 304
127 78
128 327
132 256
137 200
137 208
137 300
138 128
141 295
143 213
144 213
144 214
145 199
145 214
145 215
146 215
146 216
147 216
147 217
147 295
147 301
148 217
148 218
149 218
156 336
160 362
163 249
167 129
168 66
169 69
169 70
169 169
169 178
170 70
170 71
170 179
171 71
171 72
172 72
172 73
173 73
173 74
174 74
175 267
175 273
180 10
185 22
186 300
186 304
190 300
190 304
191 389
192 388
199 60
201 125
201 126
205 384
215 20
219 160
219 237
222 363
222 367
225 271
225 272
226 363
226 367
234 289
237 239
237 247
237 327
240 151
247 298
249 28
249 34
257 296
257 300
260 13
264 224
264 230
265 140
265 141
265 146
267 331
268 326
269 141
269 146
269 326
270 224
270 230
270 346
271 346
271 347
271 349
272 23
273 349
274 350
279 97
280 98
282 277
282 278
283 276
283 277
284 277
285 278
286 200
286 208
286 279
287 253
287 280
288 264
288 281
289 282
290 283
291 16
291 284
292 285
295 200
297 210
300 90
301 91
301 350
302 39
307 350
312 95
313 124
319 38
319 218
325 38
326 38
327 39
328 40
329 41
330 42
330 153
330 154
330 319
330 320
331 43
331 154
331 155
332 44
332 155
332 156
333 45
333 156
333 157
333 316
334 46
334 157
334 158
334 316
335 47
335 158
335 159
336 159
336 160
337 16
337 50
337 51
337 52
337 160
337 161
338 161
338 162
338 317
339 162
343 17
343 389
347 389
348 389
351 230
365 389
366 388
367 387
368 378
368 385
368 386
371 16
371 24
373 304
373 312
376 176
376 192
377 189
377 190
378 233
379 383
380 384
381 304
382 176
388 209
388 210
388 211
388 212
389 43
389 49
389 208
389 209
389 210
389 211
389 212
389 213

11
11 192
11 194
11 195
14 36
16 160
17 30
18 30
20 211
21 322
22 322
23 322
23 323
32 20
35 351
36 351
39 266
40 266
41 266
42 108
45 298
46 307
48 99
48 108
49 98
49 298
55 268
59 64
61 58
66 163
72 11
72 339
72 371
73 11
73 12
74 11
75 277
75 283
75 348
76 11
76 339
77 11
77 12
78 11
78 12
78 371
79 12
81 277
88 248
88 252
92 248
92 252
93 134
93 247
94 127
94 246
95 245
96 244
97 243
98 242
99 241
100 240
101 239
102 127
102 238
102 286
102 287
103 237
112 378
112 379
113 29
113 33
113 193
118 99
118 105
119 28
122 307
122 308
122 309
124 105
124 305
124 353
125 255
125 305
128 79
128 80
129 80
129 81
130 81
130 82
131 82
131 83
131 255
138 201
139 129
139 300
143 43
143 211
144 43
144 200
144 201
145 43
146 296
149 220
152 361
153 361
159 361
161 272
164 116
165 115
165 116
166 114
166 115
166 128
166 263
167 113
167 114
168 112
168 113
168 177
169 111
169 112
170 110
170 111
174 76
181 11
186 21
191 113
193 387
194 364
201 340
202 196
202 339
210 180
210 181
214 11
214 19
217 237
220 161
220 238
221 238
221 239
222 239
224 270
236 240
236 246
237 117
237 329
238 117
239 152
250 33
252 116
253 115
255 114
260 11
261 14
261 15
262 15
262 16
265 225
265 229
266 142
266 329
266 330
268 22
268 142
269 22
269 225
269 229
270 23
272 93
272 348
273 22
273 94
274 21
274 22
274 94
274 95
275 20
275 21
275 94
276 19
276 20
277 19
277 96
278 96
287 201
287 207
288 254
294 285
294 286
295 286
299 297
302 92
302 349
306 349
308 250
308 251
309 249
309 250
310 105
310 248
310 249
311 96
311 247
311 248
312 246
312 247
313 245
313 246
314 123
314 244
314 245
315 114
315 243
315 244
316 384
316 385
316 386
317 220
317 221
318 219
318 220
319 216
320 37
321 37
330 246
330 316
331 246
331 317
331 318
332 317
337 48
339 164
340 164
341 165
342 165
344 379
344 388
345 387
345 388
346 388
347 170
348 170
350 171
369 379
369 383
369 384
370 17
370 23
374 305
374 311
377 177
377 232
378 127
378 188
378 380
378 382
380 305
380 313
381 177
382 45
383 45
388 44
388 48
388 214
388 215

12
12 196
12 197
15 33
15 34
15 35
28 385
34 352
37 266
39 43
40 44
43 101
46 305
47 100
47 107
57 144
65 162
73 370
74 361
75 12
76 278
76 282
77 202
77 370
78 203
78 215
78 216
80 278
87 206
94 294
95 206
96 206
97 206
98 206
100 296
101 128
101 133
101 288
112 376
117 32
118 29
119 104
122 305
123 306
126 254
126 320
126 321
127 242
127 243
128 243
129 236
130 254
131 170
132 84
132 85
132 169
139 202
140 130
140 299
141 43
141 88
141 130
141 299
143 202
145 300
150 221
150 222
154 360
155 360
163 246
163 272
164 118
165 127
166 265
167 176
171 344
172 344
173 272
173 344
174 344
175 77
175 78
182 12
184 341
187 20
190 111
194 362
194 386
196 384
200 341
202 128
211 178
211 179
213 12
213 18
223 240
224 241
224 268
225 242
226 242
231 309
235 117
235 241
235 245
238 153
239 116
240 115
250 298
251 298
252 298
253 298
266 327
266 371
267 21
276 95
288 17
288 20
288 202
289 17
289 255
289 261
289 262
299 335
300 336
300 337
303 93
307 252
307 298
308 299
310 103
313 225
314 224
315 116
315 223
316 222
316 241
316 242
316 382
321 238
322 238
323 37
323 121
323 239
324 240
325 241
326 242
327 243
328 244
329 151
329 245
333 246
334 352
334 353
334 354
335 351
335 352
335 353
336 270
336 349
343 166
344 167
345 168
346 17
346 169
347 17
348 17
349 17
353 17
354 17
355 17
356 17
356 18
357 18
357 19
358 19
358 20
359 19
369 18
369 22
375 306
376 227
376 231
377 226
377 227
378 225
378 226
379 186
379 224
379 225
379 306
379 312
380 45
380 223
380 224
381 222
381 223
382 221
382 222
383 220
383 221
384 46
384 219
384 220
385 100
385 218
385 219
386 217
386 218
387 45
387 47
387 216
387 217

13
13 198
13 199
15 31
32 352
35 212
35 213
41 45
41 46
42 200
43 199
44 107
46 101
47 302
47 303
47 304
74 343
74 344
74 345
74 346
78 218
79 204
79 213
79 214
79 282
79 283
80 212
80 213
80 283
80 284
81 211
81 212
81 284
81 285
82 285
82 286
83 286
83 287
84 287
84 288
85 288
85 289
86 289
86 290
87 290
87 291
88 291
88 292
89 292
89 293
90 293
90 294
91 294
94 132
95 129
95 132
96 293
96 294
97 294
100 132
100 290
100 291
100 294
101 290
105 235
106 234
117 30
126 325
127 322
127 323
127 324
128 245
128 323
133 86
133 168
138 142
138 143
142 208
142 209
142 298
150 131
151 130
151 223
152 129
153 128
154 127
155 126
156 125
157 356
157 357
158 338
159 339
163 244
164 271
165 271
166 172
166 174
166 175
167 171
167 266
167 267
171 108
172 106
172 107
172 269
172 271
173 269
176 79
183 13
184 13
185 342
186 342
188 302
190 109
195 385
198 13
199 13
199 342
200 13
201 13
201 62
202 63
212 13
224 365
231 306
231 307
242 115
249 115
250 115
255 298
267 144
279 18
280 18
281 18
282 18
286 18
287 18
290 259
290 260
294 203
294 207
295 208
301 284
301 338
301 339
302 296
302 339
302 340
302 341
303 340
303 341
303 342
304 94
304 342
304 343
304 344
304 345
305 95
306 95
306 96
306 254
306 255
306 297
307 96
307 97
307 254
308 97
309 100
309 101
309 102
312 227
313 227
313 228
316 117
316 118
317 234
317 235
317 239
317 240
319 121
320 121
321 121
334 356
335 357
335 358
343 377
351 17
360 20
373 381
374 381
375 381
376 310
376 381
378 310
378 311
379 181
379 182
379 183
379 184
386 46

14
14 200
14 201
15 201
15 202
16 202
16 203
17 203
17 204
18 204
18 205
19 205
19 206
20 206
20 207
21 207
21 208
25 208
26 208
27 208
28 208
41 201
42 47
43 48
44 49
45 50
45 102
45 103
46 51
47 52
47 300
48 53
56 149
57 61
57 62
74 341
75 363
75 364
75 365
75 366
80 205
82 210
85 207
90 250
96 130
98 293
99 292
99 293
100 205
107 233
110 196
111 195
115 31
115 229
116 229
126 239
126 240
128 247
128 248
128 249
128 250
136 89
137 89
138 89
138 145
139 89
139 140
139 141
139 146
139 147
140 139
140 140
141 206
141 207
143 131
143 132
144 132
144 298
147 132
148 132
151 225
152 225
152 226
157 359
158 125
158 354
158 355
159 125
159 353
159 354
160 340
163 120
163 121
163 242
164 173
165 173
166 270
168 237
170 270
171 270
173 104
173 105
174 104
185 14
186 14
187 343
189 107
189 108
195 350
195 351
195 352
195 353
195 357
195 358
195 359
195 360
196 14
196 353
197 14
197 344
198 343
202 14
203 14
203 64
204 14
204 15
205 14
211 14
212 176
213 175
228 243
229 243
229 244
230 243
230 244
231 243
232 304
232 305
243 114
244 114
245 113
245 114
246 114
246 115
247 114
248 114
252 31
253 30
267 227
284 18
290 206
293 204
293 206
293 257
294 257
295 257
296 257
296 258
297 258
300 285
300 286
300 288
300 289
300 290
301 289
301 290
301 291
302 291
302 292
303 258
303 292
303 293
303 294
304 257
304 258
304 293
304 347
305 256
305 257
305 296
309 98
314 229
314 230
314 231
315 230
315 231
315 232
316 121
316 232
316 233
317 119
317 120
318 120
336 359
336 360
337 360
337 361
338 361
343 375
362 20
363 20
364 20
365 20
369 229
370 229
371 229
371 381
372 229
379 179

15
23 208
40 202
45 105
49 55
50 56
50 57
50 59
56 60
62 159
63 160
75 368
78 280
81 206
82 207
82 208
83 207
83 208
97 131
99 130
102 204
103 203
104 202
105 201
106 200
107 199
108 198
108 232
109 197
112 230
113 229
113 230
117 230
118 230
118 231
119 231
119 232
120 232
120 233
121 102
121 233
121 234
122 101
122 234
122 235
123 235
123 236
124 236
124 237
125 237
125 238
128 252
134 89
135 167
140 148
140 149
140 150
141 138
141 149
141 150
141 151
141 152
141 204
142 137
142 151
142 152
142 153
143 136
143 153
143 154
144 135
144 154
144 155
145 133
145 134
146 133
153 227
154 228
155 229
156 230
157 231
158 232
159 233
160 124
160 234
160 352
161 123
161 124
161 235
161 341
161 351
162 122
162 123
162 124
162 236
162 350
163 125
163 237
163 349
164 238
164 240
164 241
164 348
166 238
167 238
168 269
168 270
187 15
189 343
189 344
190 344
194 15
194 349
195 15
195 355
196 345
204 65
204 66
206 15
207 15
208 15
209 15
210 15
211 16
233 243
234 295
235 156
236 155
254 29
255 28
255 29
256 27
256 28
257 26
257 27
258 25
258 26
259 24
259 25
260 23
260 24
261 22
261 23
262 21
262 22
263 20
263 21
290 204
291 205
291 257
292 205
298 259
299 260
299 287
300 260
300 261
301 260
302 259
304 295
318 237
338 363
342 373
342 374
367 20
374 229
377 308

16
39 203
51 58
52 58
52 59
53 58
53 59
54 59
55 59
57 151
57 152
61 158
109 230
109 231
110 230
110 231
123 100
124 99
125 98
126 97
127 96
128 95
129 94
130 93
131 92
132 91
133 90
136 166
160 172
162 342
164 346
165 239
166 344
174 101
188 16
189 16
189 17
190 16
191 16
191 345
192 16
192 345
193 16
194 345
205 67
206 68
207 69
207 70
207 71
208 70
208 71
215 174
233 302
234 157
234 300
234 301
339 364
339 365
341 372

17
34 208
35 207
36 206
37 205
38 204
58 153
58 157
60 157
145 157
158 172
163 343
164 344
165 345
193 346
207 73
207 74
207 75
208 73
233 158
235 297
235 298
235 299
236 298
339 367
340 366
340 367
340 368
340 369
340 370
341 370

18
58 155
59 155
59 156
175 98
175 99
195 87
195 88
196 86
196 87
197 85
198 84
199 83
200 82
201 81
202 80
203 79
204 78
205 77
206 76
217 173
232 159

19
155 171
156 171
176 97
194 89
194 90
230 161
231 160
231 172

20
153 170
154 170
219 172
220 172
227 164
228 163
228 164
229 162
229 172

21
192 93
192 94
193 92
221 171
222 171
227 166
228 171

22
150 168
151 169
180 90
190 96
190 97
191 95
191 96
227 170

23
179 91
181 91
182 92
183 92
183 93
184 93
184 94
185 94
185 95
186 95
186 96
187 96
187 97
188 97
188 98
224 170
225 169
226 168
226 169

24
145 165
145 166
146 166
146 167
147 167
147 168
176 91
177 91

