0
0 175
4 399
30 399
38 0
40 399
41 399
54 0
55 399
56 399
106 0
124 0
136 399
137 399
191 399
203 399
308 399
309 399
374 0
381 399
394 0
399 261
399 275
399 297
399 330
399 331

1
1 203
1 230
5 92
5 102
15 102
23 360
23 370
39 1
42 398
43 394
46 143
53 1
73 250
73 260
83 250
83 260
90 222
90 232
91 186
91 196
93 346
93 356
100 222
101 186
101 196
104 394
107 1
107 9
107 10
123 1
135 398
140 345
140 355
150 355
153 29
157 151
157 161
160 219
160 229
162 290
163 29
167 151
167 161
170 219
170 229
192 78
192 389
194 45
194 55
200 315
200 316
202 78
202 88
202 389
207 290
232 252
232 253
250 308
250 318
257 368
260 238
260 248
267 203
267 213
267 368
270 238
270 248
277 203
277 213
283 367
283 377
293 367
293 377
310 398
312 328
314 239
322 328
322 338
324 239
324 249
350 51
360 51
360 61
373 364
373 374
380 398
383 364
383 374
398 298
398 329

2
2 176
2 177
2 202
2 269
5 397
9 72
11 201
12 39
17 291
18 225
19 202
20 309
29 148
29 291
29 397
32 309
35 72
40 2
43 397
45 164
52 2
67 395
75 124
83 162
91 140
98 59
98 71
104 337
109 9
112 79
120 337
121 9
124 198
124 210
126 346
126 358
128 79
134 397
135 319
135 335
136 198
136 210
141 128
157 128
166 357
166 369
168 177
168 189
170 15
170 27
177 109
177 121
178 357
178 369
180 177
189 109
189 132
192 397
202 316
202 328
202 397
205 116
205 132
214 316
221 315
221 331
225 374
234 110
234 126
246 325
250 126
262 322
278 150
286 45
286 57
294 150
299 17
299 29
301 248
301 260
303 112
303 128
303 370
303 382
304 293
304 305
307 137
307 215
307 231
311 29
311 397
312 171
312 393
313 260
314 8
315 370
315 382
316 293
316 305
318 94
319 128
323 231
324 393
326 8
326 397
327 397
328 397
330 43
330 116
334 94
337 91
340 253
340 265
343 167
343 179
346 100
346 116
352 253
352 265
353 91
374 312
375 2
376 2
379 397
382 330
385 343
385 355
392 2
393 2
397 262
397 263
397 273
397 274
397 299
397 328
397 343
397 355

3
3 178
3 201
6 50
6 62
6 396
8 149
8 383
15 120
15 138
18 62
20 149
26 383
28 396
33 138
42 203
44 396
45 395
45 396
46 395
46 396
47 344
47 396
49 396
50 396
54 203
54 215
55 174
57 309
59 344
59 356
67 174
73 30
73 48
75 327
91 30
91 48
108 3
109 3
115 133
121 3
122 3
127 133
127 145
133 396
145 376
147 343
148 342
148 343
156 58
157 376
157 388
168 97
173 245
182 354
186 97
193 396
201 396
202 268
214 157
214 169
214 268
221 292
230 79
230 91
231 379
235 253
238 396
239 292
242 79
242 91
247 253
258 46
258 64
260 130
265 297
276 46
276 64
278 112
278 130
283 297
283 315
302 70
312 396
324 396
325 396
329 140
329 396
330 396
335 3
340 241
342 59
345 308
349 3
355 219
356 180
356 192
357 308
358 385
368 180
368 192
374 13
374 25
375 112
375 124
375 208
376 385
377 3
378 396
386 25
387 112
387 124
387 208
387 220
390 8
391 3
396 264
396 272

4
4 179
4 231
4 268
5 360
5 368
7 100
7 395
8 180
9 165
13 100
13 360
13 368
25 362
25 368
27 395
41 4
42 4
42 8
44 145
48 395
50 4
50 8
50 184
50 192
51 4
51 395
52 109
52 110
52 395
53 108
53 109
56 102
56 330
57 129
64 62
64 74
64 102
64 110
71 184
71 192
75 252
75 258
79 184
79 192
79 312
81 252
81 258
92 224
92 230
93 188
93 194
95 10
95 18
95 348
95 354
95 376
95 384
96 245
96 307
96 315
98 224
99 188
99 194
100 143
103 10
103 18
104 237
104 245
104 307
104 315
106 392
107 44
110 4
113 290
113 302
120 4
125 290
125 302
131 395
132 395
135 53
135 61
139 242
142 347
142 353
147 345
148 353
155 31
155 195
155 203
159 153
161 31
162 221
162 227
163 195
163 203
163 281
164 292
165 153
165 159
168 221
168 227
178 202
186 257
190 190
192 47
194 391
199 12
199 24
199 337
200 80
200 86
200 391
205 92
205 104
205 288
206 62
206 70
206 197
207 337
211 220
211 232
214 62
214 70
217 92
217 104
220 244
220 252
227 149
228 25
228 37
228 244
228 252
230 219
240 25
240 37
242 219
248 310
248 316
254 359
255 359
255 360
256 360
256 361
257 361
258 85
259 366
260 382
260 394
262 240
262 246
265 366
268 240
268 246
269 205
269 211
270 85
271 167
275 205
275 211
281 339
281 347
285 369
285 375
291 369
291 375
299 176
299 188
303 339
303 347
311 347
313 395
314 330
314 394
314 395
315 394
315 395
316 241
316 394
316 395
317 395
319 395
320 330
320 336
320 394
320 395
321 28
321 394
321 395
322 241
322 247
322 394
322 395
323 395
331 395
332 395
333 28
334 340
334 348
342 340
342 348
345 328
348 15
352 53
353 23
353 35
354 287
354 295
357 328
358 53
359 152
359 160
365 23
365 35
370 46
371 68
375 366
375 372
378 4
378 144
379 171
381 366
381 372
382 46
386 144
387 163
387 171
389 56
389 64
390 4
395 265
395 271
395 344
395 354

5
5 180
5 199
5 200
5 232
5 267
6 361
6 367
8 99
8 394
12 99
12 361
12 367
16 266
19 293
22 307
26 363
26 367
26 394
27 293
30 307
39 255
40 27
43 5
43 7
43 146
47 121
49 5
49 7
49 185
49 191
53 241
53 255
53 394
54 27
54 393
54 394
55 392
55 393
57 103
57 329
63 103
63 109
65 372
65 393
72 185
72 191
76 253
76 257
78 185
78 191
78 313
80 253
80 257
81 160
88 117
93 225
94 189
94 193
96 11
96 17
96 170
96 232
96 349
96 353
96 377
96 383
97 225
97 233
97 244
97 308
97 314
98 189
98 193
98 234
100 61
100 69
102 11
102 17
102 117
102 131
103 238
103 244
103 308
103 314
107 391
108 45
111 5
111 7
112 220
112 234
119 5
119 7
121 262
121 276
124 356
125 237
126 200
126 208
126 220
126 238
127 239
128 240
130 394
134 54
134 60
134 200
134 208
139 92
141 383
143 348
143 352
147 352
148 154
148 168
149 301
153 92
156 32
156 196
156 202
160 32
160 154
160 337
162 196
162 202
162 280
163 222
163 226
164 154
164 158
165 293
167 222
167 226
168 359
168 367
170 179
170 187
172 17
176 359
176 367
177 333
178 179
179 111
179 119
180 227
191 84
191 85
192 84
194 394
195 392
195 394
199 81
199 85
199 392
199 394
200 394
204 287
204 318
204 326
206 338
207 63
207 69
213 63
213 69
221 245
221 251
227 245
227 251
228 150
239 394
242 141
244 173
247 311
247 315
256 141
256 155
260 365
263 241
263 245
263 358
264 365
267 241
267 245
270 206
270 210
274 206
274 210
280 346
286 370
286 374
288 47
288 55
290 370
290 374
301 19
301 27
303 250
303 258
304 340
304 346
305 372
305 380
306 295
306 303
309 27
309 139
310 346
311 258
313 372
313 380
314 295
314 303
315 331
316 10
317 242
318 394
319 331
319 335
321 242
321 246
322 179
334 386
335 341
335 347
336 5
340 210
341 169
341 177
341 341
341 347
342 255
342 263
348 5
350 255
350 263
355 288
355 294
357 54
360 153
360 159
363 255
376 310
376 367
376 371
376 394
377 394
379 5
379 145
380 367
380 371
384 328
385 145
386 170
387 345
387 353
388 63
389 5
394 266
394 267
394 327
394 345
394 353

6
6 181
6 182
6 183
6 184
6 185
6 187
6 188
6 189
6 190
6 198
6 233
6 266
7 182
7 183
7 184
7 188
7 189
7 362
7 366
8 60
10 151
10 385
11 92
11 93
11 362
11 366
12 91
12 92
13 90
13 91
14 90
17 122
17 136
20 294
23 306
24 385
26 294
28 221
28 222
29 221
29 306
31 136
44 6
45 6
46 6
46 7
47 6
48 6
48 186
48 190
49 346
52 205
52 213
56 108
57 172
57 346
57 354
57 392
58 104
58 328
59 311
62 104
62 108
64 392
65 172
73 186
73 190
73 325
75 32
75 46
77 186
77 190
80 159
89 32
89 46
96 230
97 12
97 16
97 378
97 382
98 243
98 309
98 313
101 12
101 16
101 62
101 68
102 243
102 309
102 313
109 46
112 6
113 6
114 6
115 6
115 7
116 6
117 6
117 135
118 6
123 355
125 135
127 201
127 207
129 242
133 55
133 201
133 207
146 347
146 348
155 378
155 386
157 197
157 201
158 56
159 157
160 157
161 197
161 201
161 279
169 360
169 366
170 95
171 180
171 186
171 247
173 18
175 360
175 366
177 180
180 112
180 118
184 95
184 352
186 338
186 339
187 339
196 393
197 392
197 393
198 393
205 319
205 325
205 339
208 64
208 68
212 64
212 68
212 270
216 159
216 167
222 246
222 250
223 290
224 167
225 168
226 169
226 246
226 250
227 170
228 171
229 151
229 172
230 173
232 81
232 89
237 255
237 290
240 81
240 89
240 393
245 255
259 362
260 48
260 62
262 128
263 360
267 299
269 320
270 319
270 320
271 319
274 48
274 62
276 114
276 128
279 345
281 299
281 313
289 48
289 54
302 20
302 26
304 68
304 251
304 257
305 341
305 345
306 373
306 379
307 296
307 302
308 26
309 341
309 345
310 251
310 257
310 340
311 250
311 251
311 339
312 249
312 250
312 338
312 373
312 379
313 248
313 249
313 296
313 302
313 337
314 247
314 248
314 336
315 246
315 247
315 335
316 245
316 246
317 11
317 245
327 142
330 63
331 64
332 65
333 66
333 393
334 67
334 393
335 68
336 342
336 346
337 6
340 176
340 342
340 346
342 239
343 256
343 262
347 6
347 310
349 256
349 262
353 393
354 393
355 310
355 393
356 289
356 293
357 221
358 182
358 190
361 154
361 158
366 182
366 190
374 387
375 393
376 23
377 114
377 122
377 210
377 309
380 6
380 146
381 6
384 23
384 146
385 114
385 122
385 169
385 210
385 218
385 327
387 6
388 6
388 346
388 352
393 268
393 346
393 352

7
7 186
7 191
7 192
7 197
7 234
7 265
9 59
9 392
10 94
10 95
10 392
11 152
11 163
12 75
14 88
15 42
21 295
24 392
25 392
28 205
28 305
29 205
29 206
29 219
33 237
33 238
34 238
34 239
35 239
35 240
36 240
36 241
37 241
37 242
38 242
38 243
39 243
42 161
50 347
51 206
51 212
56 347
56 353
57 107
58 107
58 171
59 131
62 64
62 72
63 391
64 171
79 158
95 229
99 237
99 238
100 351
102 63
102 67
102 145
107 340
115 76
115 292
115 300
117 340
118 136
122 354
123 292
123 300
124 136
124 234
125 76
128 202
128 206
129 244
132 202
132 206
137 244
138 322
138 332
144 125
154 125
154 379
154 385
170 248
170 361
170 365
172 181
174 19
174 361
174 365
176 181
181 113
181 117
184 259
185 351
192 129
194 83
195 83
197 14
197 22
202 119
202 129
204 199
206 320
206 324
207 94
207 102
209 222
209 230
211 271
214 276
214 323
215 94
215 102
215 276
216 277
217 160
217 166
217 278
218 279
223 166
230 27
230 35
232 217
233 82
233 88
237 113
237 123
238 27
238 35
238 256
239 82
239 88
240 217
241 392
244 256
251 358
258 384
258 392
260 87
261 362
262 361
268 87
269 322
281 153
290 49
290 53
291 153
297 186
303 21
303 25
305 67
305 252
305 256
306 115
306 125
307 25
307 374
307 378
308 297
308 301
309 21
309 252
309 256
310 21
310 218
310 228
311 20
311 140
311 141
311 374
311 378
312 19
312 297
312 301
313 18
314 17
316 125
318 12
321 97
323 26
327 46
331 26
335 392
337 68
338 7
339 175
343 113
343 238
344 257
344 261
346 7
346 13
347 326
348 257
348 261
348 311
350 88
351 392
352 392
354 311
355 25
355 33
355 326
356 392
357 392
359 183
359 189
363 25
363 33
365 183
365 189
372 48
373 66
374 392
377 22
378 115
378 121
378 211
378 308
380 48
381 11
382 7
382 10
382 11
383 10
383 22
384 115
384 121
384 211
385 7
386 7
386 326
389 347
389 351
392 326

8
8 193
8 194
8 196
10 58
10 97
11 391
12 153
12 162
13 76
14 264
16 43
23 391
28 365
30 207
31 237
36 213
39 212
39 213
40 149
40 212
41 148
41 160
41 253
42 188
43 188
43 360
43 361
44 188
44 359
44 360
45 119
45 358
45 359
46 357
46 358
47 78
47 356
47 357
48 77
48 355
48 356
49 76
49 354
49 355
50 75
50 207
50 211
50 353
50 354
51 74
51 243
51 253
51 348
51 352
51 353
52 29
52 56
52 57
52 73
53 57
53 58
53 72
54 58
54 59
54 71
55 71
55 348
55 352
59 170
60 132
61 71
63 170
63 374
75 314
78 255
95 227
96 191
98 168
98 351
100 119
100 129
100 239
101 350
101 380
102 349
103 146
103 348
103 349
104 347
104 348
108 341
114 222
114 232
116 293
116 299
116 341
122 293
122 299
123 137
123 274
124 75
124 222
124 232
130 245
135 384
136 245
136 384
137 384
139 323
139 331
141 94
145 124
145 350
145 383
146 166
151 94
151 303
153 124
153 380
153 384
158 34
158 335
159 35
159 36
162 156
165 224
169 249
179 331
183 260
186 350
187 342
193 128
196 15
196 21
197 83
201 120
201 128
203 200
208 95
208 101
208 223
208 229
210 348
211 348
214 95
214 101
217 348
218 161
218 165
222 165
231 28
231 34
232 175
233 216
234 83
234 87
237 28
237 34
238 83
238 87
238 114
238 122
239 216
239 257
242 175
242 391
243 257
243 314
244 143
244 314
245 313
246 114
247 113
248 112
249 111
249 358
250 110
251 109
252 108
253 107
254 106
254 143
254 153
257 385
257 391
262 363
265 243
267 88
272 208
282 154
288 372
290 154
296 185
298 51
298 52
299 52
306 66
307 22
307 116
307 124
308 22
311 219
311 227
315 114
315 115
315 124
316 113
316 114
317 112
317 113
317 333
318 111
318 112
319 110
319 111
319 244
320 109
320 110
321 108
321 109
322 98
322 107
322 108
324 25
324 177
326 47
326 62
327 62
330 25
336 388
336 391
337 224
338 212
338 224
338 225
339 225
339 226
340 226
340 227
341 227
341 228
342 112
342 228
342 229
343 229
343 230
344 230
344 231
344 237
345 12
348 325
349 87
349 312
349 391
350 391
353 312
354 57
354 325
355 56
356 26
356 32
358 391
359 391
360 184
360 188
360 291
361 291
362 26
362 32
362 291
364 184
364 188
365 156
365 253
366 156
373 49
373 391
374 65
378 21
378 369
379 49
379 116
379 120
379 212
381 13
382 21
383 8
383 116
383 120
383 212
384 8
391 316
391 325
391 347
391 348
391 350
391 351

9
9 195
9 235
9 236
9 246
9 247
9 248
9 249
9 250
9 263
9 264
9 364
10 247
12 387
12 390
13 161
13 263
14 77
17 44
19 124
19 134
22 387
22 390
24 303
25 297
27 225
28 202
29 134
29 236
30 209
30 216
30 217
30 236
40 159
41 211
41 244
42 210
42 211
42 244
42 252
42 362
43 210
44 80
44 118
45 79
46 188
50 244
50 252
51 30
55 60
56 61
56 62
56 70
57 62
60 70
60 106
60 326
61 133
61 313
61 325
75 188
77 34
77 44
87 34
87 44
99 14
99 120
99 128
99 167
99 380
100 241
100 311
102 381
103 381
103 382
104 147
104 382
104 383
105 383
105 384
106 384
106 385
107 385
109 342
110 147
111 48
111 146
111 147
112 49
112 145
112 146
113 144
113 145
114 143
114 144
115 142
115 143
115 223
115 231
115 342
116 141
116 142
117 140
117 141
117 294
117 298
118 140
121 294
121 298
122 142
122 143
123 74
123 223
123 231
124 273
130 58
131 57
131 246
135 246
140 324
140 330
142 95
145 165
146 123
150 95
152 123
152 304
157 334
159 199
159 277
160 37
160 54
161 38
161 39
162 39
162 40
172 93
181 31
182 93
182 224
182 261
182 267
182 268
183 224
183 268
183 269
184 269
184 270
185 115
185 270
185 271
186 271
186 272
187 272
187 273
188 273
188 274
189 274
189 275
194 127
194 348
195 16
195 20
195 347
196 346
200 121
200 127
202 201
207 224
207 228
209 96
209 100
209 347
210 66
210 322
211 322
212 275
212 322
213 96
213 100
219 348
220 348
221 280
221 348
222 162
223 161
223 162
224 160
224 161
224 248
225 159
225 160
225 288
226 158
226 159
227 157
227 158
228 156
228 157
229 155
229 156
230 154
230 155
231 153
231 154
232 29
232 33
232 154
232 155
233 154
233 176
234 154
234 215
235 154
235 288
236 29
236 33
236 153
236 154
237 152
237 153
238 151
238 152
238 215
238 268
239 115
239 121
239 150
239 151
239 267
239 317
240 150
240 266
240 316
240 317
241 176
241 265
241 316
242 315
251 350
252 349
253 144
253 152
253 348
254 347
255 346
256 345
256 386
256 390
257 344
262 50
262 60
264 126
266 89
268 324
268 325
268 326
269 301
271 315
272 60
274 116
274 126
277 343
279 301
279 311
283 155
289 155
294 51
295 51
295 184
296 51
300 53
307 343
308 117
308 123
312 220
312 226
314 116
314 117
323 99
323 105
323 106
325 48
325 61
325 144
329 24
331 19
332 18
333 17
334 16
335 15
336 14
337 13
337 213
337 222
337 389
337 390
338 12
338 344
338 389
338 390
339 9
339 11
339 389
339 390
340 9
340 11
340 390
341 103
341 104
341 111
342 87
342 88
342 390
343 389
343 390
344 9
344 11
344 389
344 390
345 9
345 232
345 233
345 389
345 390
346 389
346 390
347 390
348 86
348 390
349 62
349 63
349 324
350 61
350 62
351 60
351 61
352 59
352 60
353 58
353 59
353 324
357 27
357 31
358 291
359 223
360 390
361 27
361 31
361 390
362 389
362 390
363 156
363 389
363 390
364 389
364 390
365 389
365 390
366 252
366 390
367 157
368 158
368 390
369 159
369 389
369 390
370 389
370 390
371 389
371 390
372 389
372 390
374 50
375 64
378 50
381 149
381 150
382 148
382 166
383 167
389 318
390 269
390 314
390 315
390 317
390 318
390 319
390 324
390 349

10
10 237
10 244
10 245
10 251
10 252
10 253
10 262
11 252
12 262
13 388
13 389
14 388
14 389
15 78
15 84
15 85
15 388
15 389
16 389
18 45
18 389
19 388
19 389
20 125
20 133
20 388
20 389
21 388
21 389
23 297
24 298
24 299
24 300
24 301
25 171
25 299
25 300
25 301
25 302
26 172
26 303
28 133
28 235
31 210
31 211
31 215
31 365
39 151
39 158
41 363
43 81
43 245
43 251
43 367
44 209
44 367
45 209
45 368
46 209
46 369
47 370
48 371
49 245
49 251
49 372
50 31
50 373
51 53
51 54
51 374
57 64
60 388
61 166
61 375
61 389
62 314
62 324
76 155
77 156
78 35
78 43
86 35
86 43
98 121
98 127
100 166
104 65
105 64
106 64
107 347
108 148
109 148
113 50
116 224
116 230
119 139
119 351
120 140
120 352
121 141
122 73
122 224
122 230
125 272
130 204
131 386
132 386
133 385
141 325
141 329
143 96
144 164
145 158
146 158
147 122
147 382
148 382
149 96
149 382
153 305
156 333
161 53
172 363
173 92
174 183
175 185
176 21
176 186
177 22
177 187
178 188
179 189
180 190
181 33
181 34
181 35
181 92
181 191
181 265
181 266
182 192
183 115
183 193
183 194
184 223
186 116
186 294
186 295
187 116
187 117
187 293
187 294
188 117
188 118
188 292
188 293
188 344
188 345
189 118
189 119
189 291
189 292
190 119
190 120
190 276
190 290
190 291
191 120
191 121
191 289
191 290
191 348
192 121
192 122
192 288
192 289
192 348
193 122
193 287
193 288
195 126
198 345
199 122
199 126
199 345
206 346
207 346
207 347
208 322
210 274
223 280
223 348
224 349
226 287
234 177
234 287
237 270
240 116
240 120
240 177
241 261
241 262
241 263
243 389
244 389
252 145
252 151
259 344
263 51
263 59
265 125
267 329
267 330
268 328
270 302
271 51
271 59
272 51
273 125
275 343
277 179
278 302
278 310
284 156
288 156
292 51
302 53
305 23
307 254
309 118
309 122
309 376
310 299
313 118
313 122
313 123
313 143
313 221
313 225
314 144
324 49
324 60
324 100
324 104
324 145
336 170
336 214
336 220
336 221
340 105
340 106
340 110
341 10
341 389
342 10
342 11
343 10
343 85
343 86
346 259
347 85
348 235
349 235
350 234
350 235
351 234
351 316
367 389
371 159
372 159
372 255
372 256
373 159
373 256
373 257
374 257
374 258
375 156
375 157
375 258
375 259
376 155
376 156
376 259
376 260
377 154
377 155
377 260
377 261
378 153
378 154
378 261
378 262
379 152
379 153
380 15
380 16
380 17
380 151
380 152
380 306
381 165
382 278
383 62
388 324
389 312
389 313
389 320
389 321
389 322
389 323

11
11 238
11 242
11 243
11 254
11 255
11 256
11 257
11 258
11 259
11 260
11 261
12 56
12 259
13 55
14 155
15 156
15 238
16 82
16 83
16 237
16 238
17 236
17 237
17 388
18 235
18 236
19 234
19 235
20 234
21 126
21 132
26 46
26 174
26 175
27 46
27 228
31 213
32 212
32 213
38 152
38 153
41 366
42 82
42 366
44 246
44 250
48 209
48 246
48 250
49 32
50 52
53 350
53 375
54 375
58 65
58 66
59 387
61 168
62 164
62 165
63 163
63 164
63 315
63 323
73 316
75 154
79 36
79 42
85 36
85 42
97 122
97 126
101 165
106 151
108 346
109 346
109 386
114 51
117 225
117 229
118 350
121 139
121 225
121 229
126 271
128 388
129 387
129 388
130 387
143 159
143 163
144 97
144 159
148 97
149 109
149 110
151 121
151 382
154 306
155 332
162 52
163 42
174 91
175 65
178 23
178 263
180 91
185 222
185 333
188 19
188 348
189 18
189 19
189 346
189 347
190 18
190 278
190 347
191 18
191 278
191 279
194 123
195 123
200 344
201 344
202 345
204 345
205 345
220 163
227 286
233 286
235 178
235 319
236 85
236 319
236 375
237 272
237 318
237 376
238 377
239 178
239 378
240 379
241 259
241 380
242 149
242 381
243 382
244 383
245 384
245 385
245 388
246 119
247 119
248 388
249 387
249 388
250 387
250 388
251 146
251 150
251 387
251 388
252 387
252 388
253 388
254 387
254 388
255 388
264 52
264 58
270 52
270 58
271 303
272 124
272 313
277 303
277 309
303 54
304 54
308 64
309 63
315 145
323 146
335 215
335 219
336 173
346 235
347 66
348 65
351 314
351 318
351 319
351 320
352 233
353 232
354 231
355 230
362 186
374 158
375 159
376 160
377 161
378 162
379 163
379 263
380 19
380 164
380 215
380 216
381 118
381 214
388 310
388 311

12
12 239
12 240
12 241
13 239
13 240
14 54
14 239
16 157
19 80
20 80
21 80
21 233
22 47
22 80
22 131
22 233
23 47
23 81
23 233
24 47
25 47
26 229
26 230
27 176
27 180
27 198
27 199
28 45
28 177
28 179
29 44
30 43
34 365
35 365
36 365
37 154
37 365
39 85
40 84
41 83
49 49
49 50
50 50
58 68
58 386
59 376
63 135
64 136
64 162
64 316
64 321
64 322
65 161
66 160
71 316
71 320
74 153
80 37
80 41
84 37
84 41
106 149
110 345
111 385
115 52
115 160
116 53
116 54
116 161
117 162
117 349
118 163
119 296
126 387
127 387
132 163
133 162
133 248
134 161
134 249
134 250
146 106
147 107
148 108
149 115
149 117
149 118
150 111
150 112
150 113
150 114
150 118
150 119
163 44
163 51
174 67
175 90
179 24
179 38
179 39
180 37
180 263
181 26
182 25
183 24
184 23
184 196
185 22
185 197
185 297
185 331
186 21
187 20
192 280
193 18
199 204
199 281
200 203
200 280
203 225
203 344
204 225
205 226
206 276
207 276
208 275
211 98
224 323
225 281
225 323
226 281
226 323
228 285
232 321
233 320
233 321
233 368
234 31
234 320
235 372
235 373
236 213
236 273
236 274
236 373
237 187
237 194
237 212
237 339
238 335
238 336
238 337
238 338
244 118
244 149
245 118
246 386
246 387
247 387
261 107
262 108
263 92
263 109
264 91
264 110
265 53
265 57
265 111
266 112
266 332
267 113
268 114
269 53
269 57
271 123
272 304
272 311
273 342
276 304
286 160
286 161
286 162
292 181
293 182
310 62
316 146
317 223
318 223
319 223
319 224
320 16
320 158
320 159
320 223
321 17
321 222
322 17
322 147
322 221
323 220
324 219
325 218
326 217
327 22
328 102
334 171
334 173
336 108
342 74
342 75
342 76
343 75
343 76
343 77
345 79
345 80
345 81
346 67
351 322
359 29
368 240
369 240
369 241
370 241
371 252
371 253
372 224
373 223
374 222
375 221
376 52
376 220
377 53
377 54
377 62
377 219
378 61
378 218
379 217
379 265
380 265
380 266
381 280
382 274
382 275
387 270
387 308
387 309

13
15 53
17 80
24 232
25 82
25 231
25 232
26 82
26 196
26 197
26 233
27 178
28 181
28 182
29 182
29 183
32 43
33 157
34 157
35 156
36 155
37 156
39 365
48 47
48 48
56 376
57 377
58 377
58 381
58 382
58 383
58 384
65 137
65 320
70 317
70 319
112 345
113 346
113 385
114 346
114 347
114 385
115 347
115 385
115 386
116 348
116 385
116 386
117 386
119 70
119 386
120 71
120 163
120 385
120 386
121 163
121 385
121 386
122 385
122 386
123 385
123 386
124 386
125 386
127 163
128 163
129 163
130 163
135 251
135 252
136 161
136 252
136 253
137 161
138 161
139 161
143 327
146 101
146 102
146 103
146 104
149 120
150 116
150 320
151 319
152 318
153 317
154 316
155 315
156 313
156 314
164 45
164 46
174 69
175 262
176 262
177 41
178 40
178 41
180 25
184 324
184 328
184 329
184 330
186 198
193 281
194 284
195 283
196 282
197 124
198 205
200 223
201 223
201 224
202 224
202 279
202 280
203 278
203 279
204 277
204 278
205 277
227 282
227 324
234 369
234 370
234 371
237 182
237 183
237 184
237 185
237 196
237 210
242 118
245 148
246 148
247 148
260 96
260 97
260 98
260 102
260 103
260 104
260 105
261 93
261 97
262 93
262 94
266 334
273 309
273 310
279 177
281 167
282 166
282 167
283 165
283 166
284 164
285 163
286 158
291 180
306 55
307 56
308 56
311 61
311 120
315 223
317 147
318 148
320 156
321 52
321 57
321 160
321 161
322 51
322 58
323 18
324 18
324 19
325 19
325 20
326 20
326 102
328 217
329 103
329 217
330 103
330 217
331 217
332 172
333 172
334 107
335 107
338 108
342 72
343 70
343 71
343 72
344 71
344 78
345 68
345 83
370 243
370 244
370 245
370 246
370 250
370 251
371 226
371 227
378 55
378 56
379 56
379 57
379 58
379 59
379 60
380 57
380 58
380 59
380 60
381 60
381 267
381 268
381 282
381 296
382 296
382 297
383 273
386 301
386 306
386 307

14
16 52
17 51
17 159
18 50
18 159
18 160
19 49
19 160
19 161
20 48
20 161
20 162
21 162
21 163
22 163
22 164
23 164
23 165
24 165
24 166
25 165
25 194
25 195
26 164
26 193
26 194
27 83
27 163
27 192
27 193
28 162
28 191
28 192
29 161
29 190
29 191
30 160
30 184
31 159
31 185
31 186
32 158
34 102
34 103
34 104
35 100
35 101
35 102
35 103
36 99
36 100
36 101
37 92
37 96
37 97
37 98
37 99
44 44
45 44
46 35
46 45
46 248
47 34
47 46
58 379
66 138
66 157
68 318
69 318
92 125
93 125
95 124
103 163
104 162
118 69
118 385
119 227
122 162
123 161
123 162
124 162
125 163
128 269
129 268
137 254
141 161
146 99
152 329
153 330
156 308
157 309
157 311
157 312
159 309
160 308
160 309
161 307
161 308
162 306
162 307
163 305
163 306
164 304
164 305
165 47
174 71
174 72
174 73
174 74
174 78
174 79
174 261
176 61
184 326
187 199
187 220
188 219
194 218
194 282
195 218
196 219
197 206
197 220
198 221
199 222
229 324
229 325
234 277
234 278
234 366
235 276
235 364
235 365
236 331
236 332
237 180
237 198
237 199
237 200
237 201
237 205
237 206
237 207
237 208
237 333
249 148
260 100
261 95
266 336
269 117
271 341
274 308
280 169
280 176
290 179
309 57
310 57
310 58
320 53
320 56
320 151
320 152
320 153
320 154
331 104
331 171
332 105
333 106
333 217
344 69
370 228
370 248
381 284
381 285
381 286
381 287
381 293
381 294
382 269
383 270
383 271
383 298
384 270
384 271
384 299
385 300
385 302
385 303
385 304
385 305

15
24 129
25 128
29 83
29 84
30 84
30 189
31 188
32 187
35 43
36 43
36 90
36 91
37 94
38 114
38 115
39 114
43 43
45 36
66 318
67 139
67 155
67 156
68 140
81 135
82 39
82 134
82 135
83 133
83 134
84 132
84 133
85 131
85 132
86 130
86 131
87 129
87 130
88 128
88 129
89 127
89 128
90 126
90 127
91 126
105 161
117 68
124 59
130 267
150 323
158 310
165 49
166 49
166 50
167 50
171 260
172 260
172 261
174 76
175 80
175 81
176 59
176 81
176 82
177 88
178 87
182 321
183 322
185 301
188 200
189 201
189 218
190 202
190 213
191 203
191 212
191 213
192 204
192 211
192 212
193 205
193 210
193 211
194 206
194 209
194 210
195 207
195 208
195 209
196 207
230 282
230 283
231 281
231 282
231 325
232 280
232 281
232 282
233 279
233 280
235 329
235 330
236 362
236 363
237 203
264 343
265 342
266 120
266 341
267 55
267 119
267 120
267 337
267 338
267 340
268 118
268 119
268 120
269 121
269 340
270 340
274 306
281 170
281 171
281 175
286 175
286 176
287 176
287 177
288 177
289 178
312 58
312 59
313 58
315 56
316 55
316 56
317 54
317 55
318 54
318 55
319 54
319 55
320 149
322 163
323 164
323 165
328 170
329 170
329 171
360 229
361 229
368 236
380 291
380 292

16
26 127
27 126
27 127
28 125
28 126
29 124
29 125
30 123
30 124
31 85
31 122
31 123
32 85
32 121
32 122
33 120
33 121
34 87
34 88
34 119
34 120
35 89
35 106
35 118
35 119
36 107
36 108
36 117
36 118
37 42
37 112
37 116
37 117
38 42
44 37
68 150
68 154
69 141
70 142
79 136
80 136
106 160
107 156
110 159
116 67
122 59
167 303
167 304
168 51
168 304
169 51
169 259
170 259
177 83
178 84
178 85
179 85
179 86
190 215
190 216
190 217
191 216
191 217
192 217
232 326
233 327
234 328
237 361
238 360
239 359
268 339
283 174
284 174
284 175
314 57
324 166
324 167
326 169
327 169
362 230
368 230
369 230
379 290
380 289

17
33 86
37 109
37 110
38 110
38 111
42 41
43 38
68 152
69 147
69 148
69 149
69 152
70 146
70 147
71 144
72 143
73 142
74 141
75 140
76 139
77 138
78 137
107 158
107 159
108 158
108 159
120 60
121 60
132 266
148 326
148 327
149 325
149 326
149 327
149 328
169 305
170 305
170 306
171 306
184 303
184 304
239 356
239 357
240 357
282 173
325 168
364 230
364 231
365 231
367 231
367 233
367 234

18
40 41
41 40
42 39
119 61
145 267
151 263
152 263
165 259
166 259
167 258
172 307
173 308
174 308
183 305
183 306
238 355
366 232

19
115 63
116 62
116 63
117 61
117 62
134 265
143 266
144 266
146 266
148 265
150 264
153 264
162 261
163 260
163 261
164 260
177 48
181 315

20
155 264
155 265
156 265
157 265
158 265
159 264
160 263
161 262
176 309
181 308
181 313
182 308

21
136 264
137 264
139 264
140 264
141 265
174 52
175 51
175 52
175 53
176 50
178 309
180 309
180 311
180 312
236 349
238 351

22
138 263
179 310
237 350

