0
0 0
0 46
0 58
0 210
0 384
0 399
18 0
19 0
39 0
67 0
68 399
80 399
104 0
126 0
154 0
154 399
170 399
178 0
207 399
389 399
399 385
399 386
399 399

1
1 1
1 137
1 159
1 398
10 47
10 57
12 398
17 1
28 234
31 390
33 127
33 137
38 224
38 234
40 1
43 127
43 137
66 1
69 389
87 40
87 50
102 162
102 172
105 1
109 265
119 265
125 1
155 1
155 398
156 343
156 353
166 343
166 353
169 398
177 1
180 39
180 49
195 1
207 1
208 398
237 398
245 398
259 248
259 258
269 248
269 258
269 398
270 141
277 269
277 279
282 18
310 172
310 182
343 63
343 73
350 134
350 144
353 73
390 398
398 305
398 319
398 387
398 398

2
2 2
2 7
2 47
2 57
2 138
2 158
2 211
2 241
2 397
7 301
11 397
14 140
14 156
16 2
16 75
20 32
20 48
26 143
26 155
28 95
29 95
32 75
32 91
36 32
36 48
38 143
41 2
42 310
49 33
49 49
57 241
57 253
58 188
65 2
65 49
69 241
69 253
69 397
78 216
79 397
91 234
93 54
95 293
96 258
97 313
97 325
105 42
105 54
106 2
109 393
111 140
111 152
124 2
125 377
125 393
133 19
133 41
137 84
149 19
151 156
151 207
151 219
152 155
152 156
153 142
153 154
153 155
156 2
156 397
158 13
163 207
163 219
165 54
168 397
173 309
173 325
174 13
176 2
193 225
199 123
200 299
206 2
208 347
209 177
210 283
212 29
212 45
212 299
214 153
214 262
215 123
230 262
236 397
242 153
244 169
244 185
245 195
245 207
246 58
251 28
257 207
258 137
260 169
262 58
264 12
266 167
268 397
269 215
276 12
278 155
278 167
292 46
295 184
301 51
305 348
305 364
307 184
307 196
320 278
320 279
321 279
321 280
322 280
326 367
341 318
357 143
357 159
358 212
365 348
367 280
370 48
370 64
373 143
373 159
374 212
374 228
381 157
381 169
382 226
383 280
383 296
393 157
393 169
394 226
397 264
397 306
397 318
397 388
397 397

3
3 3
3 48
3 56
3 139
3 157
3 212
3 396
14 6
15 3
15 169
25 118
27 169
31 208
33 369
43 118
44 13
51 369
51 387
70 396
74 308
74 320
78 396
79 11
79 29
79 390
79 391
80 389
80 390
81 388
81 389
82 388
86 308
94 388
95 341
107 110
107 128
113 341
125 110
125 128
142 234
144 146
151 158
157 3
157 112
160 234
164 29
172 128
172 177
173 196
173 214
175 3
176 260
178 345
190 7
190 128
209 396
210 396
229 144
231 286
233 384
235 396
236 113
246 378
246 396
247 126
249 268
249 286
256 338
256 356
264 378
267 396
274 193
281 87
286 193
287 229
298 13
299 229
315 376
315 394
316 13
317 317
317 329
321 150
321 261
322 282
322 294
329 317
329 329
333 119
333 394
334 282
334 294
339 150
350 199
350 295
357 133
368 313
377 355
377 367
383 194
383 206
385 263
391 396
392 396
393 390
395 194
395 206
396 307
396 317
396 389
396 396

4
4 4
4 6
4 140
4 156
4 213
4 240
4 395
5 91
5 103
8 49
8 55
12 281
13 4
13 347
13 384
14 4
17 305
18 305
20 281
25 309
25 347
26 308
27 307
33 388
35 129
36 232
39 161
40 298
41 129
41 135
42 4
43 4
49 147
49 213
49 221
50 340
50 352
51 172
54 102
54 110
56 358
57 221
61 147
62 340
63 4
64 4
64 358
71 391
72 156
77 391
80 251
80 259
84 156
88 259
88 273
88 281
89 42
89 48
96 273
100 164
100 170
107 4
108 4
109 10
111 267
116 241
116 253
117 267
121 10
122 4
122 92
122 100
123 4
127 207
133 266
139 207
147 181
154 76
157 395
158 345
158 351
158 391
158 395
164 345
164 351
166 391
166 395
167 395
169 286
182 41
182 47
200 91
203 141
205 4
212 59
212 71
219 202
224 59
234 395
254 192
255 191
260 282
260 290
261 188
261 250
261 256
266 395
267 250
267 256
268 143
268 282
268 290
279 271
279 277
282 124
282 136
286 305
286 313
294 71
294 83
294 124
294 136
294 305
294 313
304 246
304 254
306 71
312 174
312 180
312 246
313 112
320 371
321 371
323 236
323 244
325 112
327 173
331 31
331 236
331 244
335 82
335 90
345 65
345 71
348 136
348 142
349 226
349 238
351 71
354 383
356 263
356 271
361 238
364 263
364 271
390 308
390 316
393 395
395 90
395 263
395 390
395 391
395 395

5
5 5
5 49
5 50
5 54
5 55
5 239
5 385
5 394
6 5
7 5
7 50
7 54
8 5
8 6
9 5
10 5
11 5
12 5
12 385
16 238
19 282
20 101
21 102
22 103
23 310
28 145
28 153
34 387
35 231
36 130
36 134
36 135
40 130
40 134
40 160
40 308
44 5
50 214
50 220
52 171
53 103
53 109
56 220
59 243
59 251
63 357
67 243
67 251
71 394
72 392
72 394
76 392
76 394
77 394
79 353
79 367
81 252
81 258
87 258
89 274
89 280
90 43
95 274
95 315
95 323
97 291
99 165
99 169
103 44
103 52
107 301
109 5
112 268
113 142
113 150
116 268
121 5
121 287
121 301
122 159
122 183
123 93
123 99
137 287
146 180
153 209
153 217
155 144
158 5
159 5
159 346
159 350
159 392
159 394
161 209
161 217
163 346
163 350
165 392
165 394
167 63
173 5
174 5
181 63
183 46
191 376
191 390
202 142
205 376
206 345
210 301
212 155
222 231
227 315
227 329
236 217
236 231
247 197
247 205
247 394
255 205
255 223
255 237
260 187
261 91
261 105
261 283
261 289
262 251
262 255
266 14
266 251
266 255
267 144
267 151
267 283
267 289
268 152
268 165
269 153
269 223
269 237
274 14
275 105
276 157
276 165
279 339
279 353
280 272
280 276
287 306
287 312
293 306
293 312
297 186
303 49
305 186
305 194
305 247
311 247
313 175
313 179
323 85
324 237
324 243
326 174
330 196
330 237
330 243
334 83
334 89
344 182
346 66
346 70
347 36
347 137
347 141
350 70
353 110
357 264
357 270
363 264
363 270
379 139
381 91
383 159
383 167
384 228
391 159
391 167
391 309
391 315
392 228
393 139
394 262
394 308
394 309
394 315
394 316
394 392
394 393
394 394

6
6 51
6 52
6 53
6 141
6 142
6 154
6 155
6 214
6 215
6 238
6 386
6 393
7 52
11 386
17 171
18 283
25 171
25 296
25 297
26 297
26 298
27 116
27 298
27 299
28 299
28 300
29 146
29 152
29 210
30 306
35 145
35 146
35 371
39 307
41 116
45 6
46 11
49 371
49 385
51 215
51 219
52 104
52 108
60 244
60 250
62 356
66 244
66 250
73 393
74 392
74 393
75 393
76 310
76 318
77 13
77 27
82 253
82 257
84 386
90 275
90 279
91 168
91 169
92 167
92 168
92 386
94 275
94 316
94 322
97 343
98 290
102 45
102 51
109 112
109 126
110 6
111 343
114 143
114 149
120 6
123 112
123 126
124 94
124 98
133 95
134 94
142 148
144 236
146 80
147 80
154 210
154 216
155 151
156 145
158 236
159 110
160 6
160 210
160 216
160 393
161 393
162 31
162 392
162 393
163 393
164 393
172 6
174 126
174 175
175 198
175 212
178 262
180 343
188 126
192 9
201 143
205 344
209 302
211 156
220 75
221 76
231 142
231 386
232 393
233 284
233 393
234 115
245 128
247 270
247 284
248 198
248 204
248 380
253 195
254 204
258 340
258 354
259 186
262 284
262 288
262 380
264 393
265 393
266 148
266 149
266 284
266 288
267 15
269 164
270 155
273 15
275 158
275 164
276 195
279 89
284 195
288 307
288 311
289 227
292 307
292 311
295 199
295 200
296 198
296 199
297 197
297 198
297 227
298 187
298 196
298 197
299 196
300 15
304 48
304 187
304 193
306 248
309 256
310 248
310 257
311 258
314 15
317 392
319 263
319 319
319 327
323 148
324 284
324 292
325 238
325 242
327 319
327 327
329 238
329 242
331 392
332 284
332 292
333 84
333 88
337 148
337 381
338 380
339 379
348 197
350 48
351 49
352 50
352 297
353 51
354 52
358 265
358 269
359 131
362 265
362 269
366 311
375 357
375 365
384 160
384 166
385 196
385 204
385 229
387 261
390 160
390 166
391 229
392 310
392 314
393 91
393 196
393 204
393 261
393 310
393 311
393 313
393 314

7
7 93
7 101
7 143
7 153
7 216
7 237
7 387
7 392
10 298
10 392
11 143
11 153
15 345
17 100
18 172
18 309
19 78
20 203
20 204
23 35
23 45
23 296
23 345
24 172
25 104
29 78
30 147
30 151
30 300
32 306
33 35
33 45
34 147
38 300
38 306
46 7
52 36
52 46
52 342
56 216
57 215
57 216
58 214
58 215
59 149
59 213
59 214
60 212
60 213
60 342
61 211
61 212
61 245
61 249
62 46
62 211
65 245
65 249
74 158
75 213
77 311
77 317
82 158
85 385
89 169
93 317
93 321
94 167
94 237
95 167
101 46
101 50
111 7
111 8
112 7
112 8
112 390
113 7
113 8
114 7
114 243
114 251
115 144
116 7
117 7
117 8
118 7
118 8
119 7
119 8
122 390
129 205
135 268
136 22
137 205
146 22
155 211
155 215
156 150
157 146
157 150
159 211
159 215
160 109
161 7
161 10
162 51
167 284
171 7
171 10
176 312
204 7
204 343
208 303
208 307
208 308
209 42
209 309
210 157
210 310
211 311
212 312
213 313
214 61
214 69
214 314
215 315
217 204
222 61
231 392
233 116
247 172
247 182
248 392
249 55
249 199
249 203
253 197
253 203
254 31
257 172
259 55
262 146
263 146
263 392
268 16
270 157
270 163
272 16
272 212
274 159
274 163
278 90
284 126
284 134
284 274
285 274
289 43
290 226
292 126
292 134
294 201
296 73
296 81
296 226
299 188
299 194
303 188
303 192
304 73
305 47
308 351
308 361
309 254
315 114
317 177
317 275
318 264
320 320
320 326
325 285
325 291
326 320
326 326
331 285
331 291
343 139
344 321
347 196
350 67
351 66
351 228
351 236
352 65
352 381
353 64
354 63
355 62
356 61
357 61
359 236
360 130
360 146
360 156
361 215
367 51
367 61
370 146
370 156
370 283
371 215
371 225
374 358
374 364
380 283
380 293
385 161
385 165
386 197
386 203
386 230
388 260
389 161
389 165
390 230
392 92
392 197
392 203
392 312

8
8 94
8 100
8 144
8 152
8 217
8 389
8 390
8 391
9 390
9 391
10 144
10 152
11 297
13 285
14 236
15 100
16 344
19 173
19 310
19 311
20 79
22 344
23 173
24 36
24 44
28 79
28 88
31 301
32 36
32 44
32 228
32 301
33 229
33 305
34 150
35 150
35 151
36 151
36 152
36 385
37 152
37 153
37 301
38 132
38 153
38 154
39 154
39 155
40 155
40 156
41 156
41 157
45 157
47 8
47 106
48 106
53 37
53 45
53 343
55 165
55 166
55 217
58 150
59 343
61 45
74 212
75 159
78 312
78 316
81 159
81 355
86 255
86 384
87 254
88 168
88 253
89 252
90 251
91 250
92 45
92 249
93 46
95 238
97 167
109 299
111 280
112 279
112 280
113 244
113 250
113 278
113 279
113 389
114 270
114 271
114 272
114 276
114 277
114 278
115 8
119 299
121 389
124 185
128 96
129 96
130 96
130 204
136 204
136 269
137 23
137 94
139 285
150 97
151 97
152 98
153 99
154 100
155 101
156 102
157 103
158 104
159 104
161 50
161 108
161 348
162 8
162 9
163 8
163 9
164 8
164 9
165 8
166 283
167 8
168 8
168 9
169 8
169 9
169 65
170 8
170 9
177 313
178 85
178 86
179 65
179 86
179 87
185 44
186 43
189 210
189 211
190 211
190 212
191 212
191 213
192 213
192 214
193 214
193 215
193 378
193 388
194 215
194 216
195 216
195 217
196 217
196 218
197 218
203 378
208 41
215 62
216 205
221 62
222 79
222 80
222 81
222 85
225 317
225 327
230 391
232 117
234 219
234 229
248 173
248 181
249 391
250 54
252 198
252 199
255 32
256 173
257 225
257 235
258 54
262 391
263 93
263 103
264 253
265 146
267 225
267 235
271 158
271 159
273 103
273 211
277 91
277 341
277 351
282 274
285 127
285 133
288 42
291 127
291 133
294 203
295 225
297 74
297 80
300 192
300 193
303 74
306 79
307 79
307 80
308 80
308 81
308 252
308 253
309 81
309 82
309 352
310 82
310 83
311 83
311 84
312 84
313 84
315 177
316 115
316 274
317 84
317 265
318 84
319 84
319 177
320 177
321 177
321 321
321 325
325 321
325 325
326 286
326 290
327 86
328 86
329 86
330 286
330 290
332 194
342 379
345 38
345 139
345 322
346 195
347 47
348 68
348 336
351 380
352 235
355 112
357 52
358 60
358 235
361 147
361 155
362 216
366 52
366 60
369 147
369 155
370 216
370 224
371 284
373 359
373 363
379 284
379 292
383 93
387 198
387 202
388 248
389 248
389 249
389 259
390 249
390 250
390 251
391 93
391 137
391 198
391 202
391 250
391 251
391 252
391 259
391 260

9
9 95
9 99
9 145
9 146
9 147
9 148
9 149
9 150
9 151
9 235
9 236
9 388
10 148
12 296
13 99
13 235
14 99
16 285
17 343
19 313
20 313
20 314
21 80
21 343
25 37
25 43
27 80
27 86
27 87
29 114
31 37
31 43
31 227
34 304
36 302
37 373
37 383
43 157
46 107
47 373
47 383
48 9
49 9
50 9
50 106
51 9
52 9
53 9
53 10
53 163
53 217
54 9
54 38
54 44
54 164
54 344
55 9
55 168
56 9
56 169
56 170
57 151
57 170
57 171
58 171
58 172
58 344
59 172
59 173
59 353
60 34
60 44
60 173
60 174
60 354
61 33
61 174
61 175
62 32
62 175
62 176
63 31
63 176
63 177
64 30
65 29
66 27
66 28
73 211
75 15
75 25
76 160
80 160
82 356
84 255
85 167
86 167
86 168
89 319
92 277
93 278
94 47
94 279
95 47
95 48
95 280
96 48
96 239
96 281
97 48
97 282
98 283
99 284
99 345
100 285
109 345
111 114
111 124
112 245
112 249
114 274
114 388
118 298
120 388
121 114
121 124
125 186
126 96
131 203
135 203
137 270
138 24
140 284
145 176
146 84
146 238
147 76
156 238
160 33
160 49
160 105
161 105
165 282
166 9
170 66
176 124
176 173
177 84
177 200
177 210
178 66
178 314
182 341
186 124
187 42
187 210
188 41
188 42
189 41
194 379
194 387
198 146
199 145
199 223
203 9
207 40
211 273
212 272
212 273
212 390
213 271
213 272
213 389
213 390
214 271
214 390
215 206
215 390
216 63
216 390
217 389
217 390
218 390
219 71
219 88
219 89
220 63
220 87
220 88
221 86
221 87
222 83
224 318
224 326
229 388
229 390
233 140
233 220
233 228
243 130
245 272
245 282
249 174
249 180
250 382
250 390
251 53
255 174
256 33
257 53
258 146
258 226
258 234
260 342
260 352
260 382
261 390
264 94
264 102
264 286
266 226
266 234
269 19
274 210
276 342
276 350
286 128
286 132
287 41
290 128
290 132
290 309
293 204
293 205
298 75
298 79
308 250
310 353
310 360
312 17
315 84
315 273
317 116
319 390
323 177
324 178
325 146
325 178
325 179
326 179
326 180
327 180
327 181
327 240
328 181
328 182
329 182
329 183
329 390
330 183
330 184
331 86
331 184
331 185
332 185
333 193
333 382
344 39
345 47
350 379
351 318
352 317
353 234
353 316
354 299
354 315
355 314
356 113
356 313
357 234
358 53
359 53
359 59
360 267
362 154
363 217
364 309
365 53
365 59
368 148
368 154
369 217
369 223
372 285
378 285
378 291
384 94
388 234
388 235
388 236
388 238
388 239
388 240
388 244
388 245
388 246
389 257
390 94
390 136
390 253
390 254
390 255
390 256
390 257
390 258

10
10 234
12 234
16 185
16 186
17 183
17 184
18 182
18 183
19 181
19 182
19 200
19 335
20 180
20 181
20 334
20 335
21 177
21 178
21 179
22 81
26 38
26 42
26 81
26 85
26 221
26 222
27 223
28 224
29 104
29 225
30 38
30 42
30 113
30 226
32 149
34 302
35 303
36 304
38 374
38 382
46 374
46 382
55 39
55 43
57 10
58 10
58 352
59 36
59 37
59 43
63 247
64 178
65 210
66 210
69 194
69 198
69 199
70 191
70 195
70 197
70 200
72 210
74 16
74 24
82 314
83 314
83 357
86 317
87 317
87 318
88 318
91 319
97 240
99 48
101 287
102 288
108 346
112 115
112 123
117 146
117 297
118 147
119 387
120 115
120 123
126 157
126 187
139 25
140 151
141 283
147 95
147 239
148 96
155 239
157 213
159 34
159 48
159 148
160 149
161 149
165 106
166 106
167 106
167 107
171 67
171 274
172 273
173 272
174 271
177 67
177 81
177 82
177 123
177 172
178 201
178 209
179 315
180 89
183 340
185 123
186 209
190 40
195 380
195 386
199 219
200 220
204 306
205 306
206 39
206 305
207 385
208 386
209 387
210 388
211 389
218 90
218 91
219 69
219 389
220 389
221 389
222 389
223 319
223 325
223 389
224 388
224 389
225 389
226 389
227 389
228 389
230 121
232 221
232 227
234 139
242 131
244 273
244 281
250 175
251 201
251 383
251 389
252 52
254 175
255 183
255 184
256 52
256 184
257 34
259 227
259 233
259 383
260 389
261 343
261 351
265 95
265 101
265 227
265 233
270 18
270 20
272 161
275 209
275 343
275 349
277 199
286 40
292 27
293 27
294 26
295 25
296 24
301 190
303 78
304 78
307 45
308 44
311 18
311 354
320 389
321 378
326 145
328 389
331 382
333 186
334 186
334 192
343 40
343 46
344 46
344 378
345 378
349 334
349 338
355 300
356 311
357 114
360 54
360 58
363 148
363 149
363 153
363 308
364 54
364 58
364 218
367 149
367 153
368 218
368 222
373 286
377 286
377 290
385 95
387 163
388 200
388 232
388 242
389 135
389 199
389 200
389 201

11
11 96
11 97
11 98
11 231
11 232
11 233
12 95
12 97
13 94
14 93
14 288
15 92
16 91
16 288
17 90
17 187
18 89
18 188
18 195
19 88
19 196
19 197
19 198
19 337
19 338
19 339
20 87
21 86
21 175
22 85
25 220
30 105
31 106
31 112
39 375
39 381
43 108
45 375
45 381
56 348
56 349
56 350
57 350
57 351
58 38
58 39
59 11
60 11
67 24
67 25
67 209
68 209
69 196
70 193
73 17
73 23
80 314
84 315
84 358
85 316
88 382
89 381
103 289
104 289
107 347
113 116
113 122
116 296
119 116
119 122
119 148
120 148
127 188
138 152
139 152
140 93
141 93
142 282
146 94
148 73
148 74
148 240
154 240
154 258
154 259
154 260
158 35
162 150
163 106
163 150
172 68
176 68
176 80
176 270
178 122
178 171
179 202
179 208
180 91
180 92
180 93
184 339
192 39
193 39
196 11
196 147
196 381
196 385
197 312
198 311
198 312
199 310
199 311
200 309
200 310
201 222
201 308
201 309
202 11
202 307
202 308
203 307
205 384
217 92
218 67
218 68
220 109
220 110
221 110
221 111
222 111
222 112
222 320
222 324
223 112
223 113
224 113
224 114
225 114
225 115
226 115
226 116
227 116
227 117
228 117
228 118
229 118
229 119
230 119
231 122
231 123
231 222
231 226
232 123
232 124
235 138
243 274
243 280
252 384
254 181
254 182
258 384
259 388
260 228
260 232
262 344
262 350
264 228
264 232
266 96
266 100
270 22
274 94
274 344
274 348
275 93
291 222
292 207
292 221
292 222
293 223
298 23
302 77
308 31
309 32
310 19
310 33
311 34
312 35
314 271
321 388
323 323
327 144
327 388
328 288
335 187
335 191
342 45
342 187
343 192
344 193
346 377
350 321
350 322
356 301
358 115
362 301
362 307
363 300
364 299
365 298
366 297
367 296
368 295
369 294
370 293
371 292
371 361
372 291
373 290
386 96
388 95
388 96
388 134

12
12 229
12 230
15 289
15 290
15 291
17 189
18 190
18 191
18 192
18 193
19 194
19 341
21 317
21 331
24 219
32 107
32 111
40 376
40 380
41 108
44 376
44 380
53 159
54 154
55 153
56 346
61 12
62 12
62 13
63 13
63 14
64 14
64 15
65 15
65 16
66 16
66 17
67 17
67 18
68 18
68 22
68 23
70 188
70 203
70 204
70 205
70 206
71 176
71 177
72 18
72 22
72 175
72 176
73 174
73 175
74 173
74 174
75 172
75 173
76 171
76 172
77 170
77 171
78 162
78 169
78 170
79 163
79 164
79 168
79 169
80 168
90 380
106 348
110 247
114 117
114 121
118 117
118 121
121 149
122 150
123 150
123 151
124 151
130 187
130 188
131 186
132 185
132 199
132 200
133 184
133 201
134 183
135 182
136 181
137 180
138 179
139 178
139 272
140 177
140 273
141 176
142 92
145 59
145 60
145 61
145 62
145 87
145 88
145 89
145 90
146 58
147 56
147 57
147 72
148 55
148 56
149 54
149 55
149 241
150 54
153 241
153 253
153 254
154 256
157 36
165 151
166 151
167 151
174 77
175 76
175 77
175 78
176 78
178 270
179 121
179 170
180 95
180 203
180 207
181 95
185 338
194 38
195 38
195 313
196 313
197 12
199 25
201 12
201 195
201 196
202 197
202 221
203 198
203 221
203 384
204 199
205 200
206 201
206 274
207 202
207 273
207 274
208 203
208 274
209 204
210 205
211 206
212 207
213 208
216 94
216 95
217 94
217 270
218 65
218 270
219 270
220 270
224 270
225 270
226 270
227 270
227 271
228 271
228 272
229 272
229 273
230 273
230 274
231 274
231 275
232 275
232 276
233 125
233 276
234 126
235 127
236 128
236 137
242 275
242 279
252 145
252 179
252 387
253 145
253 180
253 385
253 387
254 46
254 47
254 48
254 145
255 145
257 385
257 387
258 387
263 345
263 349
272 99
273 95
288 130
289 28
290 28
290 218
290 219
291 219
291 220
291 274
300 23
300 77
308 29
309 20
313 359
319 118
320 119
322 380
322 381
322 387
326 45
326 387
327 44
328 43
328 143
328 353
328 383
329 42
329 353
329 383
330 41
333 353
334 353
335 353
342 191
348 376
348 377
349 323
349 324
349 328
349 329
349 330
349 331
349 341
349 342
349 375
349 376
355 232
356 230
356 231
357 302
357 308
357 309
361 302
361 306
386 98
386 99
386 100
386 101
386 102
386 106
386 107
386 108
386 109
387 97
387 98
387 99
387 100
387 101
387 102
387 103
387 105
387 106
387 107
387 108
387 109
387 110
387 111

13
13 227
13 228
15 293
16 294
16 295
17 295
21 319
21 320
21 321
21 322
21 326
21 327
21 328
21 329
24 83
28 40
53 155
57 41
66 180
70 178
70 179
70 208
80 165
80 166
81 166
91 378
91 379
92 377
92 378
98 248
99 242
99 248
100 243
108 247
116 384
117 385
125 152
126 152
129 192
129 193
129 194
129 195
130 195
130 196
130 197
131 197
131 198
136 153
141 27
141 274
142 28
142 174
144 91
144 92
145 64
145 92
146 66
146 67
146 68
146 69
147 70
150 52
151 250
152 252
167 275
168 152
174 72
174 73
174 74
174 75
181 317
182 318
196 273
197 273
198 13
198 273
199 23
200 13
200 383
201 383
202 273
202 338
202 383
203 37
203 273
204 37
204 273
204 274
205 273
215 96
215 97
216 215
216 216
216 322
217 216
217 217
217 322
218 217
218 218
218 322
219 218
219 219
220 219
220 220
221 220
221 221
222 221
222 222
222 270
223 222
223 223
224 223
224 224
225 224
226 224
227 224
237 130
237 131
252 177
254 50
254 386
255 45
255 385
255 386
256 44
256 386
257 42
257 43
258 41
258 42
259 40
259 41
260 39
260 40
269 97
270 98
272 96
277 207
278 202
283 37
284 38
289 216
289 217
293 274
294 274
295 274
296 274
300 274
301 274
302 274
303 274
304 273
305 273
306 272
307 271
308 270
309 269
310 269
312 269
312 270
313 356
314 357
314 358
315 357
315 358
316 357
321 45
321 120
322 45
323 45
323 382
323 383
324 45
324 356
325 355
325 356
326 354
326 355
326 384
327 354
327 384
331 353
332 40
336 354
339 189
340 189
340 190
341 189
341 190
348 343
349 326
350 373
350 374
351 372
351 373
357 229
358 228
358 306
358 307
359 227
360 226
361 124
361 225
362 56
362 224
363 223
364 222
365 151
365 221
366 220
372 124
373 124
375 288
386 104
386 112
386 113
386 132
386 133

14
14 225
14 226
21 324
36 109
37 109
38 109
38 110
39 109
51 156
52 156
52 157
68 182
68 183
68 184
68 185
69 183
69 184
69 185
69 186
86 360
87 361
93 376
94 375
95 374
100 247
101 244
106 247
107 246
113 293
114 294
115 382
115 383
127 153
129 190
142 169
142 170
142 171
142 172
143 29
144 280
151 50
151 51
151 245
151 246
151 247
151 248
170 152
170 153
171 153
174 70
180 269
181 269
182 269
183 269
184 205
185 204
185 205
186 203
186 204
187 202
187 203
187 269
188 201
188 202
188 269
189 200
189 201
189 269
190 199
190 200
190 269
191 198
191 199
192 197
192 198
192 270
192 315
193 196
193 197
193 271
193 314
194 181
194 195
194 196
194 271
195 107
195 182
195 194
195 195
195 272
196 183
196 193
196 194
197 37
197 184
197 185
197 193
198 36
198 186
198 383
199 14
199 18
199 19
199 20
199 21
199 30
199 188
199 189
199 190
199 191
200 273
202 36
205 220
206 219
207 219
208 330
209 329
210 328
211 327
212 326
213 325
214 98
214 324
215 323
220 322
229 224
235 277
236 277
237 277
238 132
238 133
238 277
248 143
249 143
250 144
261 38
262 230
267 347
268 98
268 347
269 347
270 347
271 97
272 346
282 36
285 30
286 30
287 29
298 274
302 22
303 22
307 26
307 27
311 268
312 43
312 267
313 39
317 44
317 358
318 44
318 358
318 359
319 45
319 359
319 360
320 360
321 359
322 121
322 122
322 358
323 121
323 122
323 123
323 124
323 357
323 385
324 123
324 124
324 125
324 126
324 384
324 385
325 385
333 41
336 42
337 41
337 42
337 189
338 41
338 42
338 354
339 41
339 42
340 43
352 371
353 370
360 117
361 118
366 362
369 122
370 122
371 123
385 114
385 115
385 131

15
15 223
15 224
21 212
21 213
34 109
42 378
69 181
70 20
88 362
102 245
102 246
102 247
103 245
103 246
103 351
104 245
104 246
104 350
105 246
107 374
108 374
108 375
109 375
109 376
110 376
110 377
111 377
111 378
112 292
112 378
112 379
113 379
113 380
114 380
114 381
116 119
129 153
129 154
130 154
141 165
141 166
142 167
144 30
144 278
151 243
155 38
172 154
173 154
181 119
181 168
182 118
182 205
185 269
187 336
188 335
193 109
194 108
198 192
199 16
199 193
208 218
209 217
209 218
210 217
213 100
213 214
240 277
246 142
247 142
261 36
262 35
262 36
263 34
263 35
264 33
264 34
265 32
265 33
265 347
266 31
266 32
267 30
267 31
268 30
277 33
278 33
278 34
279 34
279 35
280 35
280 203
280 204
281 34
281 35
282 33
283 32
284 31
287 212
287 213
288 214
304 23
305 23
305 24
306 23
306 24
306 25
307 22
313 41
315 43
316 43
324 128
325 130
325 131
330 141
334 140
335 41
335 140
359 304
362 119
364 362
384 116
384 117
384 130

16
16 221
16 222
20 214
20 215
102 352
106 371
106 372
107 372
111 289
111 291
131 155
132 155
140 163
140 164
145 31
152 48
153 45
153 46
153 47
154 46
162 275
163 275
163 276
174 155
175 155
175 156
176 156
176 157
177 157
189 334
200 32
200 33
200 34
200 35
211 216
212 215
239 135
240 136
241 137
242 138
243 139
244 140
245 141
273 30
274 30
275 31
276 32
281 205
286 210
286 211
314 42
326 132
326 133
327 133
327 134
332 139
333 139
361 361
362 361
363 120
363 121
363 122
363 361
364 120
367 121
383 118
383 119
383 129

17
17 219
17 220
101 353
105 369
105 370
110 290
133 156
134 156
134 157
135 157
135 158
136 158
136 159
137 159
137 160
138 160
138 161
139 162
145 33
145 276
146 33
146 34
152 43
152 44
160 274
161 274
178 158
186 319
190 333
212 102
212 103
270 29
271 28
271 29
272 29
282 206
283 206
283 207
284 207
284 208
285 208
285 209
328 135
329 136
329 137
330 137
330 138
331 138
365 121
382 120
382 121
382 128

18
18 218
19 217
99 355
99 356
100 354
100 355
104 368
146 275
147 35
147 36
147 275
151 41
151 42
156 270
156 271
157 271
157 272
158 272
159 273
191 332
211 104
211 105
212 109
381 122
381 123
381 127

19
97 358
98 357
102 366
103 367
148 37
148 38
148 274
149 38
149 39
149 273
149 274
150 39
150 40
150 273
154 269
188 320
192 331
193 330
201 106
201 331
202 331
209 108
211 108
380 124
380 125

20
100 364
101 365
151 272
152 271
153 270
189 321
193 173
193 174
194 329
199 330
200 330
202 107
203 107
204 106
204 107
205 107
206 107
207 107
207 108
208 107
210 107

21
190 322
191 322
191 323
192 171
192 172
192 323
192 324
193 324
193 325
194 325
194 326
195 326
195 327
196 327
196 328
197 328
198 329

22
95 365
184 159
347 353

23
96 363
96 364
97 363
181 107
184 110
186 159
190 167
190 168
191 169
194 159
195 159
348 354
349 355
350 356
351 357
352 358
353 359
354 360

24
182 108
183 109
187 160
188 160
191 165
191 166
192 165
193 160

25
189 161
192 163

26
191 161
191 162

