0
0 212
94 399
99 0
116 399
214 399
249 0
250 0
343 399
366 0
388 0
399 176
399 177
399 205
399 206
399 241
399 380
399 381
399 399

1
1 219
1 231
7 95
7 105
9 220
9 230
11 398
17 95
17 105
33 398
34 328
38 54
43 178
43 188
53 178
57 349
57 359
67 349
68 207
70 31
70 41
78 207
80 31
80 41
95 398
104 155
104 165
104 273
104 283
114 273
114 283
115 398
123 232
164 150
171 123
181 123
199 25
201 1
202 9
209 275
218 216
219 294
219 304
236 59
236 69
246 59
246 69
248 1
263 61
273 51
273 61
278 73
278 83
280 359
288 83
290 349
307 4
307 14
321 1
328 144
341 1
344 398
352 256
360 169
360 179
362 256
367 1
370 169
370 179
372 77
387 1
393 87
398 178
398 204
398 242
398 382
398 398

2
2 211
2 220
2 230
8 159
10 238
18 130
23 372
24 143
24 159
30 130
52 130
52 146
58 297
63 2
69 68
69 80
74 281
76 229
82 100
82 106
82 118
84 68
90 142
93 368
96 397
98 2
98 84
99 293
111 293
114 397
117 335
118 98
130 86
130 98
143 29
144 29
144 30
145 30
145 31
145 47
161 31
161 47
161 386
173 374
173 386
183 62
188 85
193 288
193 304
195 374
199 62
202 2
208 24
209 288
215 397
231 375
238 75
238 87
247 2
248 351
250 32
250 48
250 75
250 87
266 32
270 338
270 350
277 271
281 200
281 216
282 338
284 142
284 158
288 240
288 256
293 83
293 271
293 287
297 317
304 38
304 240
304 256
322 2
334 164
336 211
336 355
340 2
345 397
346 346
352 355
363 305
363 386
368 2
369 161
375 305
377 348
378 225
378 237
379 29
385 295
386 2
389 244
391 29
397 179
397 203
397 243
397 295
397 383
397 397

3
3 210
5 304
12 396
13 380
23 106
29 367
32 396
35 106
35 118
40 277
44 246
44 264
47 367
47 385
64 20
67 357
68 358
69 359
71 268
72 370
82 20
84 358
84 370
89 337
89 349
91 254
95 229
97 3
103 110
113 247
115 110
115 130
116 177
127 118
127 130
128 240
128 258
131 376
131 388
143 388
149 354
161 354
168 262
175 345
175 357
186 193
187 345
187 357
188 5
198 193
198 205
198 263
199 346
205 154
205 166
216 396
217 186
217 346
226 215
226 216
227 214
227 215
228 214
228 332
229 354
233 177
235 44
237 280
240 108
243 192
243 210
243 367
244 149
245 177
246 332
254 203
254 221
255 280
255 367
256 161
262 286
262 304
280 304
283 26
292 166
295 26
302 115
303 179
310 148
314 248
314 266
318 322
319 192
320 84
323 3
324 166
325 61
325 73
328 203
332 266
335 333
337 61
337 73
337 103
337 115
339 3
341 382
343 44
346 396
347 321
355 32
355 44
355 233
368 124
372 386
379 50
390 182
390 200
391 50
396 180
396 202
396 384
396 396

4
4 209
4 221
4 222
4 228
4 229
5 138
7 222
7 228
9 97
9 103
15 97
15 103
17 138
18 218
18 232
26 218
30 232
32 326
39 210
39 218
40 52
40 72
40 80
41 42
45 180
47 210
48 72
48 80
49 42
49 202
51 180
58 121
59 351
59 357
61 190
61 202
64 4
64 310
65 351
65 357
66 121
72 33
72 39
72 310
76 209
78 33
78 39
95 12
96 4
97 395
98 62
98 74
98 395
99 35
99 47
103 318
104 135
106 157
106 163
106 275
106 281
107 214
110 62
111 35
111 47
112 275
112 281
112 395
113 395
115 80
115 318
119 214
121 230
122 6
122 18
123 72
134 6
135 26
137 198
140 363
143 18
143 26
144 309
144 317
146 133
146 145
149 198
152 309
152 317
156 282
156 290
158 133
162 152
164 282
164 290
166 6
166 18
179 121
180 323
180 331
182 212
188 323
188 331
190 212
201 106
203 4
204 4
206 385
216 39
217 83
217 95
217 296
217 302
217 395
219 204
220 218
220 372
221 373
238 61
238 67
244 61
253 232
254 95
265 59
271 53
271 59
276 119
276 131
278 98
278 106
280 75
280 81
282 357
288 119
288 131
288 351
298 377
309 6
315 25
326 155
327 154
328 153
330 146
330 316
342 28
343 28
343 29
344 13
344 29
344 30
345 30
345 244
354 258
356 276
360 96
362 177
368 171
368 177
368 264
368 276
369 4
370 4
371 10
383 10
383 145
384 4
384 145
384 146
385 4
385 121
385 146
385 147
385 160
386 147
393 149
393 160
394 319
394 331
395 181
395 201
395 244
395 245
395 294
395 385
395 395

5
5 223
5 224
5 226
5 227
5 317
5 331
6 186
6 223
6 227
10 98
10 102
13 394
14 98
14 102
19 217
19 331
20 128
20 186
25 217
28 128
31 325
31 394
39 252
39 253
40 211
41 51
41 73
41 79
42 43
46 181
46 211
47 73
47 79
48 43
48 50
50 181
59 122
60 352
60 356
64 352
64 356
65 122
65 309
71 70
71 78
71 309
72 360
73 34
73 38
75 210
77 34
77 38
81 80
82 70
82 80
82 81
83 81
83 82
84 82
84 83
84 116
85 83
85 84
99 394
101 295
107 162
107 276
107 280
109 295
111 276
111 280
111 394
115 145
120 83
120 96
120 229
121 83
121 84
122 73
122 84
128 88
128 96
129 145
136 25
139 218
141 364
142 19
142 25
145 310
145 316
151 310
151 316
157 283
157 289
163 283
163 289
164 213
168 102
168 116
168 166
168 180
171 376
171 384
177 31
181 324
181 330
183 211
187 324
187 330
189 211
190 87
197 372
199 231
205 5
207 384
210 22
212 171
212 273
216 297
216 301
217 38
220 203
221 219
225 218
225 219
226 157
231 247
239 62
240 85
243 62
248 21
248 77
248 85
266 58
267 150
270 54
270 58
272 340
272 348
274 175
274 189
277 99
277 105
280 340
281 76
281 80
283 356
287 392
288 77
288 175
288 189
310 7
311 354
311 368
312 293
315 177
315 178
316 178
316 179
317 179
317 180
318 180
318 181
319 181
319 182
324 156
326 293
331 147
337 5
338 5
345 32
347 394
348 394
349 68
349 82
355 259
361 95
362 172
363 68
363 172
363 176
365 307
366 394
367 172
367 176
367 394
368 394
371 5
373 307
375 102
375 346
376 227
376 235
381 31
383 5
386 149
386 159
387 293
389 31
389 102
391 246
392 150
392 159
394 182
394 183
394 199
394 200
394 246
394 293
394 386
394 387
394 394

6
6 207
6 208
6 225
7 302
14 393
15 382
20 216
21 127
24 216
25 108
27 127
30 393
33 108
41 212
42 74
42 78
43 44
45 285
45 369
45 383
46 74
46 78
46 262
47 44
60 123
64 123
65 6
66 18
66 308
69 266
70 308
72 71
72 77
74 360
74 368
81 71
81 78
82 368
85 115
90 118
91 118
91 119
91 339
92 119
92 120
93 120
93 121
94 6
94 121
94 122
95 6
100 393
102 296
105 112
108 296
110 393
111 245
113 112
117 128
118 175
121 74
121 95
122 86
125 120
125 128
127 89
127 95
130 242
130 256
133 378
133 386
141 20
141 24
141 386
142 365
146 311
146 315
150 311
150 315
151 356
155 148
156 149
157 150
158 151
158 152
158 284
158 288
159 356
162 284
162 288
166 260
170 377
170 383
177 347
177 355
182 325
182 329
184 210
185 347
185 355
186 7
186 325
186 329
188 195
191 88
196 195
196 203
198 371
201 348
206 6
207 156
208 383
211 21
215 348
218 37
218 393
219 188
219 369
219 393
223 226
228 210
230 334
231 352
233 42
239 278
241 84
241 194
241 208
242 67
242 110
242 165
243 164
243 165
243 175
244 163
244 164
244 334
245 162
245 163
245 369
246 161
246 162
247 78
247 84
247 161
253 278
254 159
256 205
256 219
262 48
263 49
264 50
264 288
264 302
265 51
266 52
267 53
267 54
273 341
273 347
276 100
276 104
278 302
279 341
285 28
293 28
294 164
304 113
305 177
313 177
316 250
316 264
318 86
321 182
321 190
322 156
322 164
322 312
322 322
323 313
324 314
327 63
327 71
330 201
330 264
335 63
335 71
335 105
335 113
336 6
337 331
342 25
343 380
345 42
345 323
346 180
347 179
349 393
353 34
353 42
362 94
364 393
365 393
366 308
369 393
370 393
372 6
372 308
374 345
375 228
375 234
381 48
382 6
382 32
383 142
387 150
387 151
387 158
388 32
388 292
389 48
389 89
391 151
391 158
392 184
392 198
392 247
392 248
392 252
392 253
393 184
393 185
393 197
393 198
393 247
393 248
393 249
393 251
393 252
393 253
393 254
393 292
393 388
393 393

7
7 140
7 206
7 318
7 330
8 301
11 156
15 392
21 156
22 126
26 109
26 126
28 234
29 392
32 109
46 49
48 185
51 200
55 143
59 192
59 200
66 7
67 300
71 284
73 72
73 76
75 361
75 367
80 72
80 76
80 77
81 367
86 114
89 105
89 106
90 104
90 105
90 116
91 104
92 340
93 7
93 10
95 87
95 123
100 64
100 72
101 37
101 45
101 392
102 133
103 297
105 316
106 113
107 297
108 64
109 37
109 45
109 216
109 392
113 316
114 338
117 216
120 80
122 94
124 8
124 16
124 121
124 127
126 94
132 8
134 379
134 385
139 196
140 385
147 196
148 34
148 44
148 135
148 143
156 135
158 34
158 44
158 357
159 153
159 157
165 259
168 8
168 16
169 378
169 382
178 348
178 354
184 348
184 354
185 8
186 59
189 196
192 89
195 196
196 59
196 291
196 301
199 104
199 370
207 7
208 7
208 157
212 20
214 272
215 85
215 93
219 367
220 189
220 392
223 223
223 224
226 7
227 7
228 7
232 41
232 351
241 66
242 77
242 83
242 167
242 174
243 111
245 348
246 7
246 79
246 83
246 370
247 159
251 234
253 35
253 45
253 158
256 97
263 35
274 342
274 346
278 121
278 129
278 213
278 342
280 274
285 78
286 29
286 78
286 121
286 129
287 145
290 274
290 284
291 243
291 253
292 29
300 320
301 41
301 243
306 176
312 176
317 23
317 87
321 157
321 163
322 183
323 321
324 321
325 316
325 317
328 64
328 70
330 321
331 200
331 321
331 322
332 322
332 323
333 323
333 324
334 64
334 70
334 106
334 112
334 324
334 325
335 7
335 325
338 330
339 358
343 242
344 207
344 324
346 34
346 35
346 41
349 343
349 358
350 392
352 35
352 41
358 274
362 392
363 392
366 266
366 274
367 309
371 309
371 392
372 392
373 7
373 8
373 344
374 7
374 8
374 229
374 233
375 7
375 8
376 7
378 7
379 7
379 8
380 7
380 8
381 7
381 8
382 47
383 33
383 123
387 33
388 47
389 291
391 191
391 256
392 186
392 187
392 188
392 189
392 190
392 191
392 192
392 193
392 194
392 195
392 196
392 250
392 255
392 256
392 257
392 321
392 329
392 389
392 390
392 392

8
8 141
8 188
8 205
8 319
8 329
9 300
12 100
12 155
16 391
18 188
20 155
22 212
27 110
27 235
28 322
29 323
31 110
43 49
44 47
44 48
45 48
48 183
49 186
50 187
51 188
52 189
52 199
53 190
56 142
58 193
58 199
62 127
62 128
62 354
67 8
68 302
68 303
68 304
70 285
72 213
73 212
75 36
76 362
76 366
86 87
86 88
87 8
88 8
89 114
89 115
90 8
91 8
91 9
92 8
92 9
93 341
94 88
95 125
101 65
101 71
101 132
102 38
102 44
102 391
103 391
106 315
107 65
107 114
108 38
108 44
109 160
109 278
110 70
110 217
111 71
112 72
112 315
113 73
113 339
114 74
115 75
116 76
116 217
117 76
117 147
119 78
119 79
123 88
123 89
123 122
123 126
125 9
125 15
127 147
131 9
135 384
139 384
140 195
140 238
141 220
141 237
141 238
142 236
142 237
143 235
143 236
144 235
146 195
149 35
149 43
149 136
149 142
154 145
155 136
157 35
157 43
157 358
158 158
159 155
162 215
164 258
166 178
169 9
170 104
179 349
179 353
183 349
183 353
184 9
187 58
190 197
194 197
195 58
197 233
197 292
197 300
198 103
202 261
209 8
209 158
210 8
211 297
211 298
212 298
214 86
214 92
214 299
215 20
215 21
216 21
216 22
217 22
217 23
218 23
218 24
218 365
218 366
219 24
219 25
220 25
220 26
221 26
221 27
221 190
221 391
222 27
222 28
223 221
224 8
224 159
225 8
229 8
229 166
229 167
230 8
230 167
230 168
231 40
231 168
231 169
232 169
232 170
233 170
233 350
241 64
241 168
241 169
241 173
243 78
243 79
244 112
244 347
246 19
247 371
248 157
248 158
250 235
254 36
254 44
257 98
262 36
262 45
265 148
268 56
270 102
271 102
272 102
276 177
277 203
277 212
277 346
278 347
279 122
279 128
279 348
280 349
281 275
281 350
282 351
283 78
283 352
284 353
285 122
285 128
285 354
285 390
286 177
286 187
286 355
287 30
287 355
287 356
288 146
288 356
288 357
289 275
289 283
289 357
289 358
290 358
290 359
291 30
291 359
291 360
292 244
292 252
292 360
292 361
300 244
300 252
301 252
301 321
305 336
305 337
305 338
305 342
305 343
305 344
307 175
307 317
308 316
308 317
309 315
309 316
309 366
310 314
311 175
311 313
312 9
313 10
314 295
316 88
318 22
320 158
323 184
324 295
326 318
327 319
328 250
328 320
329 65
329 69
329 249
329 320
330 248
331 247
332 199
332 246
333 65
333 69
333 107
333 111
333 149
333 245
334 150
334 244
335 243
336 241
336 242
337 160
338 160
340 359
341 22
341 23
342 241
345 209
347 36
347 40
347 167
347 168
348 168
348 169
348 170
348 174
348 175
348 176
348 359
348 382
349 174
349 382
349 383
350 342
350 383
350 384
351 36
351 40
351 70
351 80
351 384
351 385
351 391
352 385
352 386
353 386
357 261
357 391
358 262
358 390
358 391
359 273
359 390
359 391
360 390
360 391
361 70
361 391
365 147
365 148
365 157
365 158
365 174
365 273
366 146
366 147
367 145
367 146
368 144
368 145
369 143
369 144
370 142
370 143
371 141
371 142
372 140
372 141
373 391
374 390
374 391
375 391
377 8
382 124
382 140
383 46
387 46
387 90
387 100
387 391
388 390
388 391
389 391
390 259
390 260
390 261
390 262
390 282
390 283
390 285
390 286
390 287
390 391
391 258
391 259
391 260
391 261
391 262
391 263
391 265
391 283
391 284
391 285
391 286
391 287
391 288
391 290
391 291
391 322
391 328
391 391

9
9 142
9 189
9 204
9 320
9 328
13 154
17 189
17 384
19 154
19 208
19 209
20 209
20 210
21 210
21 211
22 214
24 121
24 122
26 236
27 321
43 214
43 371
43 381
44 76
44 215
45 46
48 260
48 284
53 192
53 198
57 141
57 194
57 198
62 125
67 264
67 297
68 9
68 16
68 306
69 286
71 139
71 214
81 363
82 363
85 9
86 9
86 136
87 89
87 136
88 108
88 109
88 110
89 9
92 101
93 89
100 131
102 66
102 70
103 39
103 43
104 390
105 301
105 302
106 66
107 39
107 43
107 314
108 70
109 243
111 218
111 314
112 340
115 218
118 77
118 148
119 76
120 173
124 90
126 10
126 14
126 148
130 10
130 14
131 14
131 15
132 15
132 16
132 244
132 254
133 16
133 17
134 17
134 18
135 18
135 19
136 19
136 20
137 20
137 21
138 21
139 22
141 194
142 221
145 194
148 313
150 36
150 42
150 137
150 141
154 137
154 143
156 36
156 42
156 374
157 374
158 375
159 376
160 286
160 377
161 216
161 224
161 225
161 378
162 226
162 379
163 227
163 380
164 228
164 380
165 177
165 229
165 380
166 230
167 231
168 232
169 233
170 10
171 105
178 116
184 106
184 327
185 105
186 104
186 208
187 103
187 207
188 57
188 102
189 101
194 57
196 234
197 102
198 293
198 299
203 350
207 375
208 375
208 376
209 297
209 376
209 377
210 377
210 378
210 381
211 9
211 378
211 379
211 380
212 9
212 379
212 380
213 87
213 91
213 350
213 380
213 381
214 381
214 382
215 382
215 383
216 383
216 384
222 9
223 9
223 160
226 267
227 267
228 267
231 9
232 9
232 267
232 336
233 267
239 196
239 206
242 336
245 9
245 18
247 246
247 258
249 236
251 276
255 37
255 43
258 99
258 207
258 217
261 37
261 43
261 44
264 147
266 290
266 300
274 102
276 204
276 205
276 300
277 178
277 187
280 123
280 127
282 276
284 123
284 127
284 389
285 178
285 186
288 276
288 282
289 147
293 245
293 251
295 77
299 245
299 251
302 322
305 340
306 111
308 365
312 311
313 309
313 310
314 11
315 296
318 262
319 21
323 107
323 296
324 108
325 109
326 320
328 252
328 262
337 240
337 326
338 326
340 21
340 230
340 231
341 229
341 230
341 240
341 360
342 228
342 229
343 227
343 228
345 184
345 211
347 360
348 172
348 380
351 341
352 71
352 79
352 390
355 390
356 390
359 263
360 71
360 272
364 92
364 149
364 150
364 156
364 272
365 91
369 313
370 231
373 126
376 390
377 390
378 390
379 390
380 390
381 125
381 389
381 390
382 138
382 390
383 390
384 390
385 37
385 38
385 390
386 99
386 390
389 153
389 156
390 264
390 266
390 267
390 289
390 323
390 327

10
10 190
10 202
10 203
10 321
10 327
15 203
15 204
16 190
16 204
16 205
17 205
17 206
17 389
18 153
18 207
18 385
18 389
24 124
25 120
26 118
26 119
26 320
27 117
27 118
28 116
28 117
29 114
29 115
29 116
42 372
42 380
45 216
45 217
46 217
46 218
47 218
47 219
48 219
48 220
49 220
49 221
49 259
50 221
50 222
50 284
51 222
51 284
52 284
54 193
54 194
58 140
66 263
68 138
68 287
69 15
69 138
70 215
70 216
73 139
74 139
75 74
75 139
78 74
78 138
78 250
79 139
79 249
80 364
81 248
82 137
82 248
83 10
83 137
83 138
83 248
84 10
84 136
84 137
88 90
88 112
88 135
89 134
90 133
91 99
91 100
91 132
92 90
92 131
93 130
94 130
96 362
97 235
99 126
99 127
100 125
100 126
101 124
101 125
102 123
102 124
103 122
103 123
104 121
104 122
105 120
105 121
105 299
105 389
106 69
106 119
106 120
106 303
106 389
107 69
107 118
107 119
107 304
107 305
108 117
108 118
108 242
108 305
108 306
109 306
111 116
111 341
119 124
119 149
121 172
124 92
125 149
133 245
133 253
143 222
144 232
151 37
151 41
153 141
153 142
155 37
155 41
155 373
160 217
160 223
164 176
167 380
170 235
170 236
172 106
182 107
188 205
188 206
189 56
191 101
192 201
193 56
194 91
195 92
195 235
199 294
199 298
204 351
212 351
213 10
214 10
214 18
215 15
215 16
220 10
221 10
224 268
226 166
230 267
233 10
233 337
234 10
234 268
235 171
235 269
235 389
236 171
236 269
236 388
236 389
237 171
237 388
237 389
238 197
238 205
238 389
241 238
244 10
244 17
244 81
247 244
247 248
247 249
247 250
247 254
247 255
247 256
250 275
256 38
256 42
259 208
259 216
260 38
260 42
263 146
266 101
267 291
267 299
275 206
275 299
276 344
278 179
278 185
278 186
283 277
283 388
284 179
284 185
287 277
287 281
289 34
290 148
294 246
294 250
296 76
298 246
298 250
305 333
307 110
307 364
314 308
315 12
315 306
315 307
316 13
316 297
316 305
316 306
317 13
317 14
318 14
318 15
318 253
319 253
319 261
321 307
322 297
327 109
327 253
327 261
328 109
329 109
335 152
336 152
336 153
337 153
339 232
339 327
342 361
345 186
346 361
347 373
347 374
347 378
347 379
351 221
352 222
352 340
353 72
353 78
353 223
353 389
354 224
354 389
355 225
356 226
357 227
358 227
359 72
359 227
360 264
361 265
361 266
363 151
363 155
363 227
364 227
365 227
365 228
366 90
366 228
366 229
367 228
367 229
368 229
368 230
369 230
369 311
370 314
370 315
370 341
371 315
371 316
371 342
372 231
373 137
373 138
381 137
381 324
382 325
385 35
385 40
385 41
385 42
385 92
385 98
386 92
388 270
388 271
388 272
388 276
388 277
388 278
389 268
389 269
389 270
389 271
389 272
389 273
389 275
389 276
389 277
389 278
389 279
389 280

11
11 143
11 144
11 191
11 201
11 298
14 201
14 202
15 191
19 388
29 112
41 373
41 379
46 253
51 224
54 284
65 262
69 11
69 217
69 218
70 11
70 14
75 250
76 250
77 139
78 364
80 138
81 11
81 138
82 11
85 248
87 247
88 247
95 129
95 343
96 128
96 129
96 344
107 241
107 388
108 381
108 386
108 387
108 388
109 116
109 308
109 309
109 310
109 385
109 386
112 117
113 118
113 222
114 119
115 120
116 121
117 122
118 123
120 150
121 124
122 171
124 150
134 246
134 252
137 382
138 380
138 381
139 379
139 380
140 378
140 379
141 377
141 378
142 376
142 377
143 188
143 189
143 190
143 375
143 376
144 186
144 187
144 223
144 374
144 375
145 185
145 186
145 373
145 374
146 184
146 185
146 372
146 373
147 183
147 184
147 371
147 372
152 372
153 372
153 373
154 361
155 360
159 218
159 222
162 256
163 175
171 237
173 107
173 114
180 107
181 12
181 351
182 11
189 35
189 36
189 204
190 36
190 37
190 203
191 202
192 100
192 199
193 100
194 236
196 93
201 94
202 93
202 94
203 92
203 93
204 91
204 92
204 259
205 90
205 91
205 352
206 90
207 89
208 89
209 89
211 160
211 352
212 161
215 11
216 11
216 14
218 11
219 11
221 268
222 268
223 31
223 32
223 192
223 233
224 193
229 37
229 38
230 28
230 29
231 27
231 239
232 26
233 25
233 388
234 24
234 338
234 388
235 11
235 23
235 348
236 11
236 22
237 21
237 198
237 204
238 20
239 18
239 19
239 171
239 388
240 388
241 338
241 346
243 11
243 16
246 114
247 115
247 252
249 274
249 373
250 155
250 374
251 154
260 209
260 215
262 145
263 101
264 101
268 292
268 298
274 298
279 180
279 184
282 387
283 180
283 184
289 32
290 35
290 36
291 36
291 37
306 363
308 109
309 173
317 161
317 298
317 303
317 304
318 160
320 107
320 254
320 260
321 298
321 305
325 186
326 187
326 254
326 260
331 67
331 109
338 154
339 155
339 234
339 235
339 236
340 155
341 327
342 328
343 202
343 328
343 329
344 329
344 330
345 330
345 331
345 370
345 371
346 331
346 332
346 372
347 332
347 333
347 376
348 333
348 334
349 38
349 334
349 335
350 335
350 336
351 336
351 337
352 337
354 73
354 77
358 73
360 337
361 227
361 337
362 267
362 268
369 340
372 317
373 318
374 136
374 319
375 320
375 321
380 136
384 93
384 97
384 325
385 44
385 325
386 325
387 325
388 274
388 324
388 325
388 326

12
12 145
12 200
12 296
12 322
12 323
12 325
12 326
20 387
22 315
22 316
23 239
23 314
23 315
24 238
24 313
24 314
25 312
25 313
26 311
26 312
27 311
38 285
40 374
40 378
53 224
55 196
57 285
58 286
59 287
60 287
60 288
61 288
61 289
62 289
66 293
66 294
68 219
71 12
71 13
72 12
74 12
74 251
75 12
75 13
76 12
76 13
77 12
77 13
78 12
78 13
79 12
80 12
89 246
90 94
90 95
90 96
90 97
90 245
91 244
92 243
93 242
94 241
95 240
96 239
96 240
97 239
97 345
98 129
104 68
105 41
106 240
108 384
109 312
109 380
109 382
110 379
111 378
112 377
113 220
113 224
113 225
123 170
128 12
135 251
143 192
145 229
145 230
148 369
150 371
151 371
152 139
153 362
159 254
160 254
172 12
172 238
173 13
174 113
176 113
176 114
178 108
179 108
182 239
183 239
183 240
184 239
185 238
191 38
197 94
200 95
203 296
204 296
205 258
205 296
206 296
206 353
210 353
211 89
213 162
217 12
220 267
223 35
223 165
224 33
224 165
225 194
231 387
232 387
235 339
235 346
236 199
236 203
237 12
238 12
240 16
240 17
240 339
241 387
242 12
242 387
243 239
244 239
246 239
246 241
246 242
246 262
247 238
248 273
251 375
252 112
252 152
252 153
253 111
254 110
255 109
255 131
256 108
256 132
257 107
257 133
258 106
258 134
259 105
259 135
260 101
260 104
260 136
261 102
261 103
261 210
261 214
262 102
269 293
269 297
273 292
273 293
273 297
274 291
275 290
276 289
277 288
278 287
279 286
280 285
281 284
281 382
281 383
282 125
282 283
282 381
282 382
283 282
283 380
283 381
284 281
284 379
284 380
285 378
285 379
286 377
286 378
287 376
287 377
288 375
288 376
289 374
289 375
290 373
290 374
291 372
291 373
292 38
292 371
292 372
293 39
293 370
293 371
294 40
295 41
296 42
296 43
296 44
296 48
296 49
297 361
303 80
304 81
305 82
305 327
305 328
305 329
305 330
306 83
307 84
308 85
309 86
309 108
310 87
310 88
310 95
311 96
311 97
315 162
316 162
320 303
320 304
321 19
321 255
321 259
322 18
325 255
325 259
327 188
337 18
338 19
339 238
343 200
344 188
344 189
344 214
344 215
344 216
344 217
344 223
344 224
344 365
344 366
344 367
344 368
350 158
351 157
351 158
352 156
352 157
353 155
353 156
354 155
355 154
356 153
356 338
357 153
357 338
358 153
358 338
359 153
359 338
362 270
362 336
368 88
368 339
369 88
370 89
371 90
372 91
373 92
374 93
375 94
375 128
375 135
376 322
379 127
379 128
379 135

13
13 146
13 192
13 193
13 194
13 195
13 196
13 197
13 198
13 199
13 324
14 150
14 193
14 324
15 146
15 149
15 150
15 324
16 151
21 386
22 386
27 308
27 309
54 225
59 235
59 236
59 237
59 238
60 138
60 239
60 240
61 133
61 134
61 137
61 240
63 290
64 137
64 290
64 291
65 137
65 290
65 291
65 292
66 289
67 221
67 222
68 221
73 13
90 92
98 346
109 343
112 375
146 227
146 228
149 254
149 370
150 254
151 364
151 365
152 363
152 364
153 39
154 254
155 254
156 254
157 254
161 253
162 252
163 251
164 250
165 249
166 248
167 247
168 246
169 245
170 244
171 243
172 242
174 14
175 111
175 112
176 110
177 109
180 239
181 240
187 238
188 32
188 33
188 238
189 238
190 238
191 40
191 54
193 240
194 241
195 99
195 242
196 98
196 243
197 96
197 97
197 244
198 95
198 96
198 245
199 246
200 247
201 248
201 296
202 249
203 250
204 251
205 252
209 253
210 253
211 252
212 251
213 250
214 163
214 164
214 249
215 163
215 164
215 248
216 164
216 247
217 164
217 246
217 266
218 245
218 266
218 267
219 244
220 243
221 164
221 242
222 164
222 241
224 235
224 236
224 386
225 35
226 195
226 386
227 385
227 386
228 32
228 33
228 35
228 240
228 385
228 386
229 31
229 240
229 385
229 386
230 386
236 345
239 13
239 340
239 345
240 13
243 386
244 386
245 240
246 264
252 376
253 151
254 150
255 126
255 127
255 128
255 129
255 149
256 148
257 147
258 40
258 146
259 145
260 138
260 139
260 140
260 141
269 384
271 383
272 209
272 211
273 208
273 384
274 384
275 384
275 385
276 385
277 385
278 385
285 279
292 150
293 151
294 369
296 46
296 248
297 50
297 51
298 51
298 52
299 52
299 53
299 54
300 54
300 55
300 56
300 57
304 356
304 357
305 325
306 323
306 324
307 323
310 91
311 89
311 90
311 91
311 92
311 93
311 94
311 99
312 90
318 106
319 302
328 189
329 13
329 189
329 190
330 13
330 190
335 193
336 17
336 194
342 156
343 157
343 190
343 191
344 363
345 221
345 222
354 338
361 80
361 81
361 153
362 82
363 83
364 84
365 85
366 86
366 334
366 335
366 337
367 87
367 333
367 334
367 338
368 332
368 333
369 331
369 332
370 330
370 331
371 329
371 330
372 328
372 329
373 327
373 328
374 326
374 327
375 325
375 326
376 129
376 324
376 325
377 95
377 324
378 95
378 129
379 95
380 95

14
14 147
14 148
16 323
17 322
17 323
18 321
18 322
19 320
19 321
20 241
20 319
20 320
21 318
21 319
23 385
24 385
26 306
26 307
36 286
36 376
55 226
62 135
62 136
63 136
66 223
99 238
99 347
100 238
101 238
102 238
104 235
104 236
105 234
106 233
107 232
108 231
109 230
110 229
111 228
112 227
112 372
112 373
122 152
134 166
134 167
135 167
136 168
137 168
146 225
146 252
147 225
147 226
147 252
147 253
148 224
148 225
148 253
149 224
149 367
150 366
152 254
154 221
155 221
157 220
160 173
161 173
175 15
175 109
176 15
176 16
176 240
177 240
178 240
179 240
183 22
183 23
184 24
185 25
185 26
191 42
191 43
191 44
191 45
191 49
191 50
191 51
191 52
192 238
207 256
207 257
208 257
208 258
209 258
209 259
210 259
210 260
211 260
211 261
212 261
212 262
213 262
213 263
214 263
214 264
215 264
215 265
216 265
219 164
222 384
222 385
223 385
224 240
225 237
225 238
225 239
225 385
226 34
226 238
226 239
227 34
227 196
227 239
228 197
229 202
232 201
237 344
241 14
245 385
246 385
254 122
254 123
255 124
259 384
260 143
260 384
264 384
265 212
265 384
266 212
266 384
267 212
267 384
269 210
270 210
270 211
271 210
280 385
281 182
294 152
295 368
301 76
302 77
303 73
303 74
303 358
303 359
304 70
304 71
304 72
304 73
304 361
311 101
316 106
319 300
323 16
326 14
327 14
327 15
328 14
331 14
331 191
332 14
332 15
332 192
333 14
333 193
334 194
335 16
337 193
338 193
342 197
342 198
344 158
345 219
346 220
356 75
357 76
358 77
359 78
360 79
365 336
377 130
377 131
382 95

15
25 384
26 384
34 377
35 377
38 376
50 254
56 227
65 224
101 348
103 237
104 238
111 370
111 371
132 166
137 249
138 169
138 248
139 169
141 248
142 248
143 249
144 250
145 251
150 223
151 223
152 222
153 222
159 172
174 240
178 16
182 20
182 21
186 27
186 28
186 29
187 30
191 47
206 368
207 254
207 367
207 368
208 355
209 356
209 357
209 358
210 357
229 198
229 200
230 199
230 200
231 200
234 201
237 341
238 343
241 270
242 270
245 266
245 267
245 270
246 271
247 384
248 384
251 116
251 117
251 118
252 117
252 118
252 119
252 120
253 119
253 120
253 121
257 382
257 383
258 383
262 384
263 212
268 211
271 295
295 153
296 367
297 365
297 366
298 364
298 365
299 363
299 364
300 362
300 363
301 59
301 361
301 362
302 61
302 62
302 63
302 64
302 75
302 360
302 361
303 63
303 64
303 65
303 66
304 68
311 106
312 102
312 103
312 105
314 105
315 105
323 257
324 15
325 15
334 15
339 194
340 194
340 195
341 194
341 195
341 196
342 193
345 159
346 159
346 160
347 159
377 133

16
16 262
16 263
22 243
24 302
24 303
25 304
27 383
28 382
28 383
29 381
29 382
30 380
30 381
31 379
31 380
32 379
33 378
64 225
109 347
139 247
140 247
179 17
180 17
180 18
181 19
208 365
208 366
209 362
210 359
210 360
210 361
243 269
244 268
244 269
249 383
250 383
296 154
296 155
297 154
297 155
298 155
299 156
300 156
300 157
301 157
301 158
302 158
302 159
303 159
313 104

17
17 260
17 261
17 264
17 265
17 266
17 267
17 268
17 269
17 270
17 271
17 272
18 269
23 300
23 301
53 254
58 228
59 229
59 230
60 228
60 229
61 228
62 227
63 226
104 348
109 366
109 367
110 368
129 165
130 165
141 170
142 171
143 171
152 173
153 172
154 171
155 170
156 169
156 170
157 168
157 169
157 170
157 171
209 364
210 363
251 382
252 382
254 382
304 160
305 160

18
18 258
18 259
18 273
18 274
20 247
21 245
21 246
22 299
105 349
106 349
107 355
107 356
107 357
107 358
107 359
108 349
108 351
108 352
108 354
108 355
108 356
108 357
108 364
108 365
109 353
127 164
128 164
144 172
145 172
150 174
253 381
306 161
307 162
308 162
308 163
309 163

19
19 256
19 257
19 275
19 276
21 248
21 249
55 253
106 361
106 362
107 350
107 363
121 158
121 159
146 173
147 174
148 174
148 175

20
20 254
20 255
20 277
20 278
122 160
123 161
124 162
125 163

21
21 252
21 253
21 279
21 280
21 294
21 295
22 251
22 252
22 280
22 295
58 252
58 253
59 252
64 252

22
22 282
22 291
22 292
22 293
60 251
61 250

23
23 283
23 284
23 289
23 290
62 251

24
24 285
24 286
24 287
24 288
25 286
25 287

