0
0 149
0 378
0 399
46 0
47 0
63 0
64 0
309 0
323 0
399 23
399 43
399 100
399 124

1
1 148
1 313
1 314
1 330
1 331
1 379
1 398
3 90
13 90
14 303
14 313
42 258
42 268
46 361
46 371
48 1
48 238
48 248
52 258
52 268
54 133
56 361
56 371
58 238
58 248
62 1
64 123
64 133
85 361
86 24
95 361
103 99
113 89
113 99
160 229
160 239
166 316
170 239
176 316
176 326
181 146
204 139
214 1
218 205
218 215
228 205
228 215
235 398
240 1
242 357
252 357
252 367
253 398
255 42
257 26
257 266
265 42
265 136
267 26
275 126
275 136
281 272
283 398
285 338
301 398
310 1
314 174
314 184
321 8
322 1
324 174
324 184
340 252
340 262
350 252
350 262
353 316
353 326
356 162
356 172
366 162
366 172
398 24
398 42
398 101
398 123
398 132
398 150

2
2 282
2 298
2 329
2 380
2 397
4 243
4 255
7 328
16 15
16 27
16 243
16 255
24 327
24 339
28 15
28 27
36 29
36 45
36 327
48 397
49 2
52 29
52 45
61 2
72 397
76 243
76 255
78 35
78 47
81 317
85 199
88 243
88 255
90 35
96 84
99 154
102 375
106 397
110 310
113 168
113 180
114 295
115 138
115 154
117 260
123 346
139 346
139 376
146 181
147 181
149 87
154 358
165 327
166 326
169 192
169 208
173 292
185 192
185 208
193 98
198 143
202 251
202 263
203 376
205 228
205 244
209 98
209 114
209 121
209 133
210 397
215 2
224 397
227 343
227 355
230 36
239 343
239 355
241 287
241 303
242 24
242 36
246 88
248 309
257 287
262 88
264 164
264 176
264 309
268 280
283 230
284 230
284 397
285 215
300 397
321 364
321 376
324 58
333 364
340 58
340 227
348 356
348 372
349 107
349 119
352 227
352 281
364 356
366 92
379 333
387 104
387 120
397 25
397 41
397 102
397 122
397 133
397 149

3
3 146
3 147
3 328
3 381
3 396
14 105
15 104
17 203
17 215
29 215
29 379
30 93
30 105
47 379
50 3
57 282
60 3
60 197
63 17
63 29
73 385
74 331
74 349
75 29
76 122
76 140
77 97
77 109
77 291
89 62
89 97
101 29
113 17
116 333
121 301
125 20
125 49
133 94
133 106
143 20
143 38
145 54
145 106
148 389
150 158
150 176
159 272
166 371
169 117
169 135
171 217
171 255
183 217
183 229
189 273
195 25
196 26
198 68
198 86
205 327
205 339
211 283
211 301
213 29
216 3
216 68
216 86
217 339
219 17
223 385
225 152
225 164
227 124
227 136
228 247
229 283
236 396
237 152
239 3
239 124
239 136
239 245
239 263
249 107
249 125
252 396
257 245
267 107
285 16
285 396
287 366
291 264
291 291
294 74
294 86
299 396
305 366
306 74
306 86
309 264
309 304
309 322
311 3
312 3
316 219
320 3
321 3
339 17
341 95
342 74
348 300
354 387
363 69
363 318
363 330
368 274
368 286
380 274
380 286
381 69
381 87
383 385
388 135
388 147
389 39
396 134
396 148

4
4 123
4 145
4 283
4 316
4 317
4 327
4 395
5 92
12 311
14 284
14 296
23 53
23 61
27 285
27 293
31 53
31 61
40 114
40 126
41 345
44 260
44 266
47 395
48 363
48 369
50 240
50 246
50 260
50 266
51 4
52 4
52 114
53 4
53 333
53 345
54 4
54 363
54 369
55 4
55 5
56 4
56 240
56 246
57 4
58 4
59 4
62 125
62 131
65 165
73 395
77 165
80 300
81 300
81 301
84 22
87 363
89 180
90 8
93 363
98 8
105 97
105 395
106 193
106 205
107 365
111 97
117 63
118 193
118 205
121 220
121 232
129 63
132 331
133 220
133 232
137 270
144 319
149 299
162 231
162 237
165 164
165 172
165 197
165 198
168 237
168 318
168 324
169 357
169 365
170 44
174 318
174 324
177 365
182 44
182 56
183 144
183 306
183 314
186 351
186 373
191 306
191 314
194 351
194 359
211 395
217 4
220 207
220 213
223 395
226 207
226 213
232 371
237 395
238 4
238 386
240 371
249 70
250 359
250 365
250 386
251 395
257 40
257 53
258 65
259 28
259 64
263 40
265 28
265 53
265 61
265 352
265 364
267 134
273 128
273 134
277 352
277 364
281 160
281 172
283 227
283 242
283 274
283 336
291 234
291 242
293 160
293 172
307 199
307 207
313 4
315 199
316 176
316 182
317 126
317 285
319 4
322 176
322 182
325 277
329 317
331 330
331 342
331 388
339 380
339 388
342 254
342 260
343 342
348 254
348 260
351 318
351 324
358 104
358 164
358 170
364 164
364 170
366 104
376 365
382 15
382 23
382 227
382 235
384 365
390 15
390 227
390 235
395 39
395 40
395 103
395 104
395 120
395 121

5
5 121
5 122
5 124
5 125
5 144
5 284
5 315
5 318
5 319
5 320
5 321
5 322
5 323
5 324
5 325
5 326
5 382
5 383
5 394
6 93
6 245
6 253
6 314
6 322
7 313
8 303
10 143
11 310
14 96
14 97
14 245
14 253
15 97
18 17
18 25
18 103
24 54
24 60
26 17
26 25
26 329
26 337
28 286
28 292
30 54
30 60
30 184
44 184
44 198
45 261
45 265
45 318
49 261
49 265
49 364
49 368
51 241
51 245
53 364
53 368
55 241
55 245
59 318
61 126
61 130
74 394
78 245
78 253
79 215
79 229
80 37
80 45
83 21
85 17
86 16
86 17
86 245
86 253
87 15
87 16
88 14
88 15
88 37
88 181
88 364
91 9
92 364
93 215
93 229
97 9
98 264
98 278
101 297
104 108
104 122
104 394
106 88
106 96
107 88
107 89
110 96
115 170
115 178
129 161
145 201
148 298
149 344
159 187
160 95
163 232
163 236
163 330
163 344
164 165
164 171
167 236
169 319
169 323
170 358
170 364
173 319
173 323
174 81
174 95
176 364
176 381
177 358
182 6
182 20
184 143
184 307
184 313
186 358
187 352
187 374
190 307
190 313
193 352
193 358
196 6
197 29
199 54
200 253
200 261
207 386
207 387
212 394
213 54
221 208
221 212
222 394
225 208
225 212
229 345
229 353
232 34
233 370
236 179
237 5
237 345
238 394
239 317
239 331
240 26
240 34
249 360
249 364
250 394
255 263
258 39
258 54
260 29
262 39
262 166
262 174
264 29
264 54
264 60
268 133
268 319
268 333
269 233
272 133
282 335
283 50
283 217
284 234
284 241
286 321
286 394
287 320
287 394
288 319
290 235
290 241
297 50
297 394
298 102
298 116
298 394
308 200
308 206
313 278
314 5
314 200
314 279
317 177
317 181
318 5
318 125
318 284
321 177
321 181
323 366
323 374
331 366
332 387
334 202
338 381
338 387
342 225
342 328
343 255
343 259
343 327
344 326
345 325
346 323
346 324
347 109
347 117
347 255
347 259
348 202
350 225
350 283
350 319
350 323
359 103
359 165
359 169
363 165
363 169
365 96
365 97
365 103
377 331
377 366
383 16
383 22
383 228
383 234
383 366
389 16
389 228
389 234
394 38
394 105
394 119
394 135
394 136
394 146
394 147

6
6 101
6 102
6 103
6 119
6 120
6 126
6 127
6 143
6 285
6 384
6 393
7 246
7 252
8 310
8 311
13 246
13 252
19 18
19 24
19 205
19 213
20 103
25 18
25 24
25 55
25 59
27 213
27 330
27 336
28 95
28 103
29 55
29 59
29 287
29 291
45 381
46 393
55 284
62 195
65 19
65 27
75 293
75 387
75 393
76 333
76 347
78 124
78 138
79 99
79 107
79 246
79 252
81 38
81 44
83 18
84 18
85 246
85 252
87 99
87 182
90 14
90 371
91 60
91 371
91 372
92 10
92 372
96 10
103 393
111 19
114 331
116 171
116 177
123 47
127 22
135 104
140 91
141 22
141 36
143 104
147 56
147 297
148 160
149 293
150 293
150 387
151 292
152 291
153 290
154 289
155 289
161 274
163 166
163 170
164 373
165 57
166 56
167 55
168 54
171 119
171 133
171 359
171 363
173 257
175 359
175 363
176 359
181 227
185 308
185 312
187 271
187 357
188 353
188 357
188 375
189 308
189 312
192 353
192 357
197 31
199 254
199 260
200 70
200 84
207 329
207 337
209 387
211 31
213 285
213 299
213 393
214 70
214 84
215 337
218 6
218 330
219 6
219 329
219 330
220 328
220 329
221 15
221 327
221 328
221 387
221 393
226 245
227 154
227 162
227 285
229 126
229 134
230 346
230 352
232 21
233 22
233 33
234 23
234 24
234 369
235 154
236 6
236 346
237 126
237 134
239 27
239 33
241 261
246 240
247 240
251 109
251 123
255 247
259 55
259 61
261 167
261 173
263 55
263 59
265 109
277 314
278 313
278 314
279 313
282 218
282 224
282 225
285 235
285 236
285 240
287 18
288 393
289 236
289 240
289 368
293 266
296 76
296 84
296 393
303 368
304 76
304 84
307 266
307 306
307 320
309 201
309 205
313 10
313 201
314 9
315 6
315 8
316 6
316 7
317 6
318 217
319 124
324 367
324 373
329 376
330 367
330 376
330 377
331 377
331 378
332 378
332 379
333 379
333 380
333 386
337 19
337 382
337 386
341 330
343 93
343 224
344 76
346 110
346 116
349 224
349 284
356 385
360 102
364 102
365 320
365 328
370 276
370 284
375 321
376 330
378 276
378 284
378 367
379 71
379 85
381 383
382 367
384 17
384 21
384 229
384 233
388 17
388 229
388 233
390 137
390 145
391 37
393 28
393 37
393 106
393 118
393 137
393 145

7
7 99
7 100
7 104
7 105
7 107
7 108
7 109
7 110
7 112
7 113
7 114
7 115
7 116
7 117
7 118
7 128
7 129
7 130
7 142
7 392
8 108
8 109
8 113
8 114
8 115
8 116
8 129
8 247
8 251
9 305
9 306
11 95
12 247
12 251
12 286
20 19
20 23
20 206
20 212
24 19
24 23
26 204
26 205
26 212
27 96
27 102
27 203
27 204
28 202
28 203
28 331
28 335
29 201
29 202
30 200
30 201
31 199
31 200
32 198
32 199
39 32
39 42
42 116
42 124
43 343
45 392
49 32
49 42
50 116
51 335
51 343
66 20
66 26
67 167
74 294
75 167
76 388
77 299
79 19
80 100
80 106
80 247
80 251
82 39
82 43
82 196
84 247
84 251
86 100
90 368
90 369
91 13
92 13
96 13
97 13
97 14
98 14
98 15
99 15
99 16
99 81
99 378
100 16
100 17
101 17
101 18
102 18
102 19
102 151
103 19
103 20
104 20
108 91
108 92
108 195
108 203
109 363
110 20
112 141
112 151
114 263
116 195
116 203
117 172
117 176
123 222
123 230
127 65
131 222
131 230
135 272
136 103
136 349
142 103
147 187
147 294
148 294
151 361
156 288
157 288
162 275
163 58
167 233
168 232
169 231
170 53
170 230
170 289
171 229
172 46
172 228
173 227
174 226
180 46
180 54
180 226
182 195
194 20
196 101
198 255
198 259
200 379
206 101
208 231
208 241
208 330
208 336
214 336
217 331
220 7
220 388
225 244
228 155
228 161
230 127
230 133
231 347
234 32
234 155
235 347
235 363
235 364
236 127
236 133
238 32
239 392
240 366
240 388
240 392
241 365
241 366
242 364
242 365
243 363
243 364
244 290
244 300
244 362
244 363
245 362
248 388
248 392
249 85
249 392
251 72
254 261
259 85
260 35
260 59
260 60
260 168
260 172
261 32
261 36
262 33
267 354
267 362
271 283
275 354
275 362
281 219
281 223
283 162
283 170
288 19
289 392
291 162
291 170
291 318
295 392
297 77
297 83
303 77
303 83
317 280
318 280
319 216
325 368
325 372
327 55
329 368
329 374
331 315
333 332
333 340
334 381
334 382
337 55
341 315
341 332
341 340
342 316
343 317
344 92
344 318
345 111
345 115
345 319
346 320
348 223
348 285
351 359
357 384
361 359
366 321
368 380
369 380
371 277
371 283
375 329
377 277
377 283
380 382
387 21
387 22
388 22
388 23
389 23
389 24
390 24
390 25
390 107
390 117
391 25
391 26
391 33
391 138
391 139
391 143
391 144
392 26
392 27
392 29
392 30
392 31
392 32
392 33
392 34
392 35
392 36
392 107
392 117
392 138
392 139
392 140
392 142
392 143
392 144

8
8 95
8 98
8 106
8 111
8 131
8 132
8 133
8 134
8 135
8 136
8 137
8 138
8 139
8 140
8 141
8 286
8 287
8 296
8 297
8 385
8 391
9 96
9 97
9 136
9 308
10 96
11 287
18 98
21 207
21 211
25 206
25 207
25 211
25 389
26 97
26 101
32 186
33 289
34 289
35 289
35 290
36 334
37 335
38 336
39 337
40 33
40 41
42 186
42 196
43 117
43 123
44 391
47 263
47 316
48 33
48 41
49 117
50 336
50 342
51 366
52 122
52 123
53 123
53 124
53 243
54 124
54 125
55 125
55 126
56 126
56 127
57 127
57 316
59 128
67 21
67 25
68 168
73 295
74 168
75 22
75 299
76 21
76 22
76 391
77 21
77 389
77 391
78 20
81 19
81 101
81 105
81 195
81 217
81 227
90 366
91 217
91 227
92 375
98 379
99 299
100 80
100 266
100 276
101 391
102 110
102 120
102 391
105 21
108 94
109 21
109 196
109 202
110 362
111 142
111 150
113 264
115 196
115 202
116 326
117 325
118 324
119 323
120 322
121 321
122 321
124 223
124 229
126 66
130 223
130 229
131 163
131 305
134 273
135 350
137 102
140 94
141 102
143 295
147 199
150 362
151 342
157 168
157 189
158 168
159 168
161 58
161 332
161 342
162 93
163 276
164 75
164 76
165 76
165 77
165 234
166 77
169 288
171 321
172 53
172 93
173 47
175 225
179 47
179 53
179 225
180 389
180 390
181 196
181 390
181 391
182 391
183 391
184 8
184 18
194 8
194 18
197 102
199 380
201 52
203 386
205 102
209 232
209 240
209 331
209 335
211 52
211 388
212 388
213 335
215 331
219 389
219 391
220 391
221 8
223 210
224 243
229 156
231 128
231 132
233 156
234 8
234 231
234 352
234 353
235 8
235 26
235 27
235 128
235 132
236 365
237 329
237 366
238 177
238 367
239 367
241 389
241 391
245 291
247 362
247 389
247 391
250 84
257 70
258 84
260 37
261 34
262 31
263 123
263 124
264 124
264 125
265 125
265 126
266 126
266 127
267 127
267 128
268 128
268 129
268 355
268 361
269 129
269 130
270 131
270 321
270 331
272 284
274 355
274 361
280 333
284 163
284 169
285 48
289 20
290 163
290 169
290 391
293 318
295 48
298 78
298 82
300 104
300 114
302 78
302 82
309 277
319 179
319 281
320 215
328 54
328 372
328 373
332 314
334 333
334 339
336 54
338 314
339 314
340 333
340 339
345 91
345 257
346 204
348 321
352 360
355 92
356 92
356 93
357 93
357 94
358 94
358 95
358 383
359 95
359 96
360 96
360 97
360 360
361 97
361 98
361 167
362 98
367 322
367 327
372 278
372 282
376 278
376 282
379 381
390 112
391 108
391 109
391 110
391 111
391 112
391 113
391 114
391 115
391 116
391 141

9
9 288
9 289
9 291
9 292
9 293
9 294
9 295
9 386
9 390
10 288
10 292
10 293
10 294
20 98
22 390
23 390
27 57
31 289
32 333
33 187
33 195
33 196
33 333
34 333
41 34
41 40
41 187
41 195
41 338
43 383
43 390
44 118
44 122
47 34
47 40
48 118
48 315
49 337
49 341
50 122
53 286
56 315
64 193
64 298
64 299
65 297
65 298
69 169
73 169
73 298
74 298
78 345
78 390
79 389
79 390
80 126
80 136
80 194
80 390
81 390
82 218
82 226
82 390
84 185
85 184
87 301
90 218
90 226
94 12
98 300
100 64
100 65
100 390
101 65
101 66
101 111
101 119
101 267
101 275
102 66
102 67
103 67
103 68
104 347
104 348
105 348
105 349
106 349
106 350
107 350
107 351
108 351
108 352
109 352
109 353
110 143
110 149
110 197
110 201
110 353
110 354
111 354
111 355
111 361
114 197
114 201
121 45
121 174
122 174
123 173
123 174
123 320
124 173
125 224
125 228
129 24
129 224
129 228
132 307
133 274
134 351
139 24
139 34
141 294
142 294
145 295
148 189
148 190
148 198
149 58
149 363
152 341
152 385
156 190
159 197
159 287
160 287
160 333
160 341
161 168
163 92
168 287
171 92
173 52
173 121
173 131
173 361
174 48
174 52
175 259
178 48
178 52
180 197
184 390
185 9
185 17
185 269
185 390
187 310
190 355
190 377
191 378
193 9
193 17
194 257
198 103
199 33
202 51
202 72
202 82
204 103
209 33
210 51
210 233
210 239
212 72
212 82
213 332
214 332
215 287
215 390
216 389
216 390
217 389
217 390
218 390
222 9
223 13
223 304
223 305
224 305
224 306
225 287
225 327
231 17
231 231
232 231
233 9
233 351
236 28
236 328
236 367
239 176
242 390
243 259
243 390
244 389
244 390
245 390
246 292
246 390
251 83
253 111
253 121
253 171
254 170
254 171
255 170
256 170
257 72
257 83
261 57
263 111
269 356
269 360
271 322
271 330
273 285
273 356
273 360
274 222
275 221
275 222
276 221
277 221
279 284
279 285
279 309
279 331
280 283
280 284
281 282
281 283
282 281
282 282
283 280
283 281
284 279
284 280
285 164
285 168
285 279
286 47
286 278
287 238
287 277
288 276
289 164
289 168
289 275
291 370
291 390
292 390
294 47
294 390
295 268
301 105
301 113
301 370
305 268
305 308
305 318
307 277
311 203
312 204
313 205
314 206
315 207
316 208
317 209
318 210
319 211
320 212
321 281
322 282
323 282
328 213
329 53
329 212
330 211
331 210
333 313
335 21
335 53
335 334
335 338
335 384
337 313
339 334
339 338
345 205
346 78
353 361
357 372
357 373
358 373
358 374
359 361
359 374
359 375
360 375
362 100
366 381
371 379
373 323
377 73
377 83
379 371
379 372
380 369
386 19
386 231

10
10 249
10 290
10 387
10 389
19 389
20 388
20 389
21 99
21 389
22 21
22 99
28 389
30 333
34 188
34 194
40 188
40 194
42 35
42 39
42 384
43 338
46 35
46 39
48 121
49 121
49 314
52 287
55 314
65 192
67 297
68 297
69 297
71 23
72 23
73 23
79 193
79 344
81 127
81 135
82 249
83 219
83 225
83 389
84 41
84 389
85 42
86 42
89 219
89 225
97 301
99 389
100 112
102 274
103 346
107 25
107 26
109 144
109 148
112 75
112 76
112 356
112 357
113 75
119 174
119 359
120 358
121 357
122 356
123 355
125 172
125 319
125 320
126 171
126 319
127 170
132 309
132 310
132 311
133 352
138 25
138 33
139 96
139 97
139 98
140 326
141 326
142 327
143 328
144 329
145 330
146 331
147 332
148 333
148 364
149 191
149 197
149 334
150 59
153 340
153 384
155 191
158 59
159 59
159 334
159 340
161 286
162 71
162 72
163 73
164 91
167 286
170 91
172 198
174 122
174 130
176 260
177 219
177 220
177 221
177 389
179 198
184 268
186 10
186 16
186 389
187 389
191 259
192 10
192 16
192 258
192 259
192 379
193 258
196 257
197 117
198 116
199 104
199 115
200 34
200 114
202 131
203 50
203 73
203 81
203 104
208 34
209 50
211 73
211 81
211 234
211 238
214 389
216 288
222 303
223 10
224 288
225 307
230 232
231 15
232 10
233 349
235 327
236 30
239 230
240 175
244 258
247 293
252 75
252 82
252 258
252 259
254 112
254 120
256 73
256 74
256 82
258 170
262 112
262 120
262 121
264 300
265 299
266 298
267 297
271 225
272 224
272 329
273 223
274 286
278 330
279 221
287 46
291 275
292 371
293 46
293 388
293 389
294 387
294 388
295 317
295 386
295 387
296 317
300 371
302 106
302 112
304 269
304 309
304 317
324 213
324 283
325 213
325 284
326 213
326 285
327 286
327 370
328 287
329 288
330 52
334 22
334 52
335 305
343 113
344 206
345 220
346 221
346 287
347 79
354 362
358 362
360 377
364 381
369 326
372 324
372 326
373 327
373 379
376 74
376 82
377 374
377 375
378 373

11
11 388
12 388
13 387
13 388
14 388
15 388
16 388
17 388
18 388
23 209
24 99
29 388
30 388
35 189
35 193
39 189
39 193
39 290
41 385
41 388
42 388
44 339
45 339
50 313
51 288
54 313
66 191
69 23
71 173
71 174
71 175
71 297
80 343
82 128
83 103
84 104
84 220
84 224
85 104
85 105
85 388
86 105
86 106
86 387
86 388
87 43
87 106
87 107
87 386
87 387
88 44
88 107
88 108
88 220
88 224
89 45
89 108
89 109
89 302
90 46
90 109
90 110
90 302
91 47
91 110
91 111
92 48
92 111
92 112
93 49
93 112
93 113
93 378
93 379
94 50
94 113
94 138
95 50
95 138
95 139
96 139
96 140
96 302
97 140
97 141
98 141
98 142
98 388
99 62
99 113
99 142
99 143
100 143
100 144
101 144
101 145
102 145
102 343
102 344
103 273
103 344
107 23
108 27
109 28
110 29
111 30
112 31
113 32
114 33
115 359
116 359
117 359
129 169
131 75
131 76
132 76
132 77
132 313
133 77
133 78
133 355
134 78
134 355
134 356
135 356
135 357
136 357
136 358
137 26
137 32
137 358
137 359
138 359
138 360
139 100
139 360
139 361
140 361
140 362
141 362
141 363
142 363
142 364
143 364
143 365
144 365
150 192
150 196
151 60
151 335
152 335
154 192
154 339
154 383
156 196
157 60
157 196
158 335
158 339
160 68
160 69
161 70
162 285
165 90
166 81
169 90
173 199
174 199
175 123
175 129
175 388
176 388
177 223
177 261
187 11
187 15
187 262
188 262
188 388
189 261
189 388
190 260
191 11
191 15
193 380
199 385
200 385
201 35
204 49
204 74
204 80
207 35
208 49
210 74
210 80
211 333
217 289
222 241
222 301
223 289
224 11
225 11
225 309
225 310
225 311
226 11
227 11
227 233
227 326
228 11
228 232
228 233
228 326
231 11
231 158
232 159
232 160
233 130
233 160
233 161
234 161
234 162
234 326
235 162
235 163
236 163
236 164
237 164
237 165
238 165
238 166
239 166
239 167
240 167
240 168
241 168
241 169
241 174
241 230
242 230
245 257
249 230
250 230
251 229
251 257
252 228
253 76
253 227
255 113
255 119
261 113
261 119
269 225
273 328
277 328
277 329
288 45
291 22
292 23
292 45
293 372
297 316
299 372
300 80
303 107
303 111
303 270
303 310
303 316
304 276
305 276
322 213
331 289
333 23
333 42
333 43
333 44
334 38
334 39
334 41
334 42
334 43
334 210
335 39
335 307
335 308
335 309
343 207
344 218
344 219
344 288
347 89
348 80
348 88
360 381
361 378
361 379
361 380
362 379
362 380
363 380
369 324
370 325
371 325
374 280
374 378
375 75
375 81
375 377
375 378
376 376
376 377
376 378
377 379

12
31 387
32 387
33 386
33 387
34 386
34 387
35 386
35 387
36 386
36 387
37 387
39 387
40 386
40 387
46 120
47 339
67 190
71 171
81 342
91 303
92 303
93 137
94 380
94 381
95 114
96 51
96 387
97 387
99 60
101 342
103 146
104 71
104 72
104 146
104 268
105 146
112 199
113 359
114 35
115 74
126 354
127 226
127 354
128 354
129 354
130 277
131 169
131 276
136 27
136 31
136 79
137 79
137 324
138 325
152 61
153 336
154 195
154 336
155 195
155 382
158 65
158 66
159 67
163 284
165 279
165 280
165 281
165 282
166 278
167 277
168 276
169 275
170 274
170 387
171 273
171 387
172 272
172 387
173 271
173 387
174 270
174 387
175 200
175 269
176 50
176 124
176 128
176 201
176 268
177 202
177 203
177 204
177 205
177 267
178 262
178 266
190 387
191 387
194 381
197 384
198 384
201 108
201 109
201 110
201 111
202 36
205 75
205 79
206 36
209 75
209 79
215 236
218 290
221 300
222 290
225 234
226 234
229 12
229 325
230 12
230 13
230 325
242 170
243 231
246 256
247 231
247 247
248 231
250 172
250 256
254 77
254 78
255 76
255 226
256 114
256 118
259 301
260 114
260 118
260 301
261 301
271 358
287 166
293 24
293 274
294 373
296 384
298 373
302 271
302 275
302 311
302 315
303 275
312 109
312 110
313 110
313 111
314 111
314 112
315 112
315 113
316 113
316 114
317 22
317 114
317 115
318 23
319 24
320 25
321 26
332 24
332 45
332 46
332 47
332 48
333 36
333 37
333 289
335 302
335 311
337 336
338 113
342 215
342 216
343 217
343 289
349 81
349 87
356 366
356 367
356 368
356 369
360 82
361 81
362 80
363 79
374 76
374 80

13
38 386
41 291
44 37
52 306
52 307
52 308
52 309
53 305
53 306
90 136
90 386
91 136
91 137
94 306
94 307
95 386
97 117
100 341
101 52
102 51
102 52
103 50
103 51
104 49
104 50
105 48
105 49
105 73
105 74
105 79
105 269
106 47
106 48
107 46
107 47
107 146
108 45
108 46
109 44
109 45
110 43
110 44
111 42
111 43
112 41
112 42
113 41
115 36
115 37
128 75
129 278
131 354
132 168
133 168
134 167
134 168
136 323
138 80
139 80
139 81
140 79
140 80
140 81
140 82
141 78
141 79
141 83
142 77
143 76
144 75
145 74
146 73
146 366
147 72
147 367
147 368
148 71
149 70
150 69
151 68
152 67
153 65
153 66
157 64
164 283
165 284
166 84
167 83
167 84
167 85
167 86
168 386
169 386
177 200
184 263
185 263
188 13
189 13
189 14
190 13
192 386
193 385
193 386
194 384
194 385
195 383
195 384
201 106
213 236
216 237
217 237
218 237
218 238
219 238
220 238
221 237
221 238
221 298
222 236
222 237
223 236
224 235
226 313
227 314
227 315
232 322
245 172
245 231
245 232
246 172
246 232
247 172
248 172
249 295
250 296
254 80
257 226
258 226
258 300
259 226
260 226
264 226
265 226
266 226
267 226
275 323
275 324
276 288
276 322
276 323
277 289
277 322
285 301
286 301
286 302
287 302
287 303
288 303
288 304
289 304
289 305
290 38
290 39
290 40
290 41
290 305
290 306
291 36
291 306
291 307
292 307
292 308
293 308
293 309
294 25
294 309
294 310
295 274
295 310
295 311
296 311
296 312
296 382
297 312
307 109
308 109
309 109
310 109
315 22
323 26
330 33
331 34
332 35
332 50
334 290
336 113
336 209
337 209
341 213
341 214
342 290
350 86
356 364
358 83
365 78

14
37 191
43 291
52 311
71 179
85 129
85 134
86 128
86 222
87 127
88 126
88 135
89 125
89 135
90 124
91 123
91 385
92 122
92 384
92 385
93 121
93 383
93 384
93 385
94 120
94 304
94 385
95 119
95 308
95 309
96 118
96 309
96 310
97 115
98 55
98 56
98 57
98 58
98 339
99 54
99 340
100 53
105 271
106 78
106 270
107 77
107 270
108 270
109 269
109 270
110 270
114 40
118 40
118 74
119 40
120 39
120 40
121 38
121 39
122 37
122 38
123 36
123 37
124 35
124 36
125 34
125 35
126 33
126 34
126 74
127 32
127 33
127 74
128 31
128 32
128 279
129 30
129 31
130 29
130 30
131 29
132 29
135 322
136 167
136 168
137 167
138 167
139 167
143 167
144 167
145 167
145 168
146 167
146 168
148 369
148 370
152 194
156 63
156 337
166 385
167 88
167 385
182 264
183 264
204 40
204 41
204 42
204 43
205 42
205 43
205 44
205 45
206 47
220 294
220 295
220 296
220 297
228 316
228 317
229 317
229 318
231 320
231 321
232 324
243 172
248 249
248 250
248 251
248 252
251 297
251 299
255 299
256 299
256 300
262 226
275 326
290 43
292 34
293 32
293 33
295 26
296 273
296 377
296 378
296 379
296 380
297 273
298 273
298 313
302 23
303 22
303 23
304 22
305 22
305 109
306 22
310 22
320 115
325 26
327 113
330 31
331 113
332 113
333 113
334 113
336 300
338 210
339 210
339 211
340 210
340 211
340 212
341 209
341 291
351 85
352 84
353 83
356 83
367 78
367 79
368 78
369 78
370 78

15
44 292
45 292
69 188
70 187
83 340
84 339
85 131
86 132
86 133
87 134
97 311
98 53
98 312
99 313
99 314
106 76
111 271
112 271
112 272
113 272
113 273
114 273
114 274
115 274
115 275
116 39
116 40
116 275
116 276
117 276
117 277
118 277
118 278
119 73
119 278
119 279
120 73
120 279
120 280
121 73
121 280
121 281
122 281
122 282
123 282
125 73
126 281
127 280
131 318
132 319
133 320
134 29
134 321
141 167
149 371
150 372
151 373
151 374
152 374
152 375
153 375
153 376
154 63
154 376
154 377
155 377
155 378
156 378
156 379
157 379
157 380
158 380
158 381
159 381
164 384
165 384
178 126
179 127
180 127
180 264
197 123
204 38
207 77
220 292
230 319
248 254
252 298
253 298
254 298
258 116
294 30
294 31
296 375
299 25
300 24
300 25
300 273
300 313
301 24
308 22
311 21
312 20
312 21
313 21
321 116
322 115
323 115
324 114
324 115
325 114
325 115
326 27
326 114
327 27
329 27
329 29
329 30
329 113
330 26
336 291
336 297
336 298
337 298
339 291
339 292
351 83
354 84
355 84
372 78

16
46 293
72 181
77 187
77 188
85 338
98 315
98 316
123 73
126 284
126 285
127 285
127 286
127 287
160 382
161 382
161 383
162 382
162 383
163 383
181 128
182 128
196 124
196 125
295 29
296 28
297 27
298 26
328 28
336 293
337 293
337 294
337 295
337 296
338 293

17
48 293
48 294
49 294
72 183
72 186
75 186
76 186
86 337
125 283
183 129
184 130
185 130
185 131
186 131
186 132
187 130
187 131
188 131
189 131
190 131
191 130
192 130
195 130
278 293

18
50 295
51 296
52 297
53 298
54 299
54 300
73 184
73 185
74 185
87 336
128 289
129 290
129 291
193 129
194 128
194 129
195 127
278 295
278 297
278 298
279 299
280 300

19
88 335
89 334
90 333
90 334
91 333
97 319
97 320
130 292
130 293
131 293
277 296

20
92 332
93 331
98 321

21
98 323
99 323
99 324

22
100 325
101 326

23
97 330
98 329
99 328
100 327

