0
0 0
0 18
18 0
66 0
90 0
252 399
268 399
362 0
399 226
399 329
399 349
399 355
399 381

1
1 1
1 17
1 321
1 335
17 1
17 291
38 129
47 227
47 237
53 306
53 316
56 151
56 161
57 227
57 237
58 92
63 316
75 28
77 80
84 290
84 300
89 316
89 326
90 196
99 74
99 316
99 326
100 206
119 233
119 243
125 53
125 63
129 233
129 243
131 265
135 53
150 204
189 77
190 144
190 154
199 77
199 87
200 144
200 154
215 380
215 390
216 100
218 341
225 380
225 390
226 100
226 110
227 364
228 341
237 354
237 364
241 1
255 1
289 192
289 202
327 309
327 319
337 398
359 398
364 163
385 388
395 388
398 2
398 24
398 265
398 356

2
2 2
2 16
2 195
2 215
2 322
2 334
15 197
15 213
16 2
16 222
16 234
16 302
16 314
25 192
25 208
28 222
28 234
28 302
29 61
29 253
38 349
41 73
41 192
41 208
43 368
45 253
45 269
55 355
55 356
55 368
56 354
56 355
57 337
57 353
57 354
59 66
64 105
69 243
69 259
73 353
75 372
75 388
76 105
85 243
85 259
86 10
87 47
88 2
88 20
89 2
91 265
91 281
96 54
96 66
104 36
108 54
108 66
115 277
123 132
128 226
128 288
135 88
136 191
143 175
147 99
149 25
149 37
151 148
155 163
155 175
159 99
159 210
159 226
162 271
162 287
167 148
174 37
175 37
175 210
175 226
193 245
193 257
201 105
201 117
205 257
205 312
205 324
213 117
217 312
217 324
225 214
225 226
231 163
231 179
237 100
237 116
242 13
247 163
250 277
250 289
253 100
253 397
254 13
254 397
259 241
259 257
266 397
267 397
269 96
270 353
275 241
275 257
276 73
276 85
278 316
280 118
286 88
286 353
287 88
288 73
313 124
315 160
315 179
321 28
321 44
327 179
331 81
331 93
335 262
337 28
337 44
343 81
343 93
347 262
349 226
351 305
351 321
358 190
363 98
365 226
370 190
370 202
379 98
379 114
383 331
397 3
397 23
397 227
397 228
397 357

3
3 3
3 15
3 196
3 214
3 323
3 333
4 90
4 108
10 133
10 151
15 3
17 347
17 359
19 117
22 108
26 72
26 73
27 71
27 72
28 151
43 40
45 4
59 277
59 289
64 229
66 201
68 49
84 219
87 3
92 366
95 13
98 196
99 195
99 196
100 194
100 195
101 194
107 13
126 297
126 315
136 243
144 297
144 315
154 261
166 163
166 181
173 342
173 354
184 163
185 342
185 354
195 20
202 196
202 208
213 38
213 211
214 212
214 273
214 291
216 262
224 31
228 128
228 140
231 235
232 273
232 291
236 31
240 330
242 3
243 148
245 209
249 235
249 253
251 318
254 3
255 148
255 396
264 229
265 9
265 27
265 396
282 211
282 229
283 9
283 27
288 317
292 45
292 57
292 292
292 304
297 92
297 104
304 45
304 57
304 292
306 216
311 312
315 336
327 324
327 336
328 155
338 396
340 167
351 208
358 396
361 34
377 133
379 34
386 263
396 4
396 22
396 229
396 264
396 305
396 330
396 348

4
4 4
4 197
4 213
9 324
9 332
10 71
19 289
21 268
25 373
25 381
29 71
32 319
33 373
33 381
40 122
40 123
40 311
40 319
49 229
49 235
50 143
55 229
55 235
55 308
55 314
58 143
58 153
59 80
61 314
64 325
65 294
70 142
75 82
76 325
77 306
80 233
82 142
82 154
82 292
86 4
88 204
88 205
89 203
89 204
90 203
91 318
91 324
92 198
97 318
97 324
98 198
98 204
101 76
101 180
101 192
101 291
108 206
109 291
110 221
110 300
110 308
112 321
112 329
113 180
113 260
116 191
117 192
118 193
118 221
120 321
120 329
121 235
121 241
122 368
122 380
127 55
127 61
127 235
127 241
129 148
129 160
131 211
133 55
141 148
142 128
142 129
143 129
143 130
148 206
150 235
151 84
161 57
162 56
162 57
163 45
163 55
163 56
164 20
164 55
167 376
167 384
175 376
175 384
176 20
192 146
192 152
197 79
197 85
198 146
198 152
207 63
215 185
215 214
215 229
216 228
216 229
217 382
217 388
218 355
219 51
219 63
220 10
220 343
223 382
223 388
224 102
224 108
226 343
227 76
227 88
229 362
232 10
235 356
235 362
239 76
239 88
243 4
247 58
247 70
253 4
256 393
256 395
259 58
259 70
259 110
264 272
264 393
264 395
272 140
286 85
287 194
287 200
291 262
291 274
301 337
314 144
325 104
326 121
327 120
329 311
329 317
337 104
337 116
339 395
341 192
349 192
355 74
355 86
355 199
357 395
364 256
366 161
367 86
370 312
370 320
374 161
377 354
377 366
378 320
387 386
391 231
393 386
394 289
395 5
395 21
395 230
395 263
395 331
395 347
395 358
395 359

5
5 5
5 13
5 14
5 198
5 212
5 324
5 325
5 331
5 332
8 325
8 331
12 12
13 5
14 5
18 224
18 232
18 304
18 312
20 288
23 19
23 33
26 224
26 232
26 304
26 374
26 380
31 63
32 374
32 380
33 318
36 351
37 33
38 123
39 71
39 312
39 318
40 358
41 359
45 366
46 112
50 230
50 234
51 142
53 358
53 366
54 230
54 234
56 169
56 183
56 309
56 313
57 64
57 142
59 154
60 81
60 112
60 313
62 161
66 103
69 5
70 169
70 183
74 83
74 103
79 232
81 293
85 5
85 45
92 319
92 323
93 199
96 319
96 323
97 199
97 203
98 56
98 64
102 77
102 290
106 56
106 64
106 110
108 290
109 207
111 220
111 301
111 307
112 261
113 322
113 328
117 220
119 322
119 328
120 194
122 236
122 240
126 236
126 240
128 56
128 60
130 224
132 56
136 204
137 204
138 205
139 206
140 207
142 113
143 113
144 112
145 111
145 173
146 110
147 109
147 207
149 101
151 27
151 35
153 165
153 173
155 217
157 101
164 46
164 53
166 238
166 252
168 377
168 383
174 377
174 383
179 122
189 185
193 147
193 151
195 247
195 255
196 80
196 84
197 147
197 151
203 107
203 115
205 235
207 314
207 322
211 115
212 208
215 216
215 314
215 322
218 383
218 387
219 354
221 344
222 383
222 387
223 103
223 107
223 216
223 224
225 344
230 361
234 357
234 361
241 349
244 5
244 11
248 279
248 287
252 5
252 11
257 394
258 394
259 394
260 393
260 394
261 394
262 394
263 394
265 271
270 121
271 98
271 120
273 188
278 75
278 83
278 116
286 75
286 195
286 199
287 92
310 249
317 162
317 177
324 249
325 177
330 312
330 316
333 83
333 91
337 260
340 394
341 83
341 91
341 384
342 193
348 193
355 384
356 394
360 192
363 57
367 160
368 192
368 200
371 313
371 319
373 160
373 287
377 57
377 71
377 319
388 385
392 385
393 290
394 231
394 262
394 304
394 332
394 346

6
6 6
6 12
6 92
6 106
6 326
6 327
6 329
6 330
7 326
7 330
12 6
12 135
12 149
19 225
19 231
19 305
19 311
19 349
19 357
20 106
21 119
22 73
25 225
25 231
25 305
26 149
27 375
27 379
31 70
31 375
31 379
32 64
32 70
35 352
38 70
38 313
38 317
38 357
40 21
40 22
41 20
41 21
42 19
42 20
43 18
43 19
43 360
46 365
47 6
52 141
52 359
52 365
56 63
56 141
57 279
57 287
61 82
65 8
66 7
66 8
66 227
67 6
67 7
67 102
68 6
68 203
70 6
71 6
72 6
73 102
84 6
84 44
92 202
93 202
97 15
99 57
99 63
103 289
105 15
105 57
105 63
107 289
110 208
112 219
112 302
112 306
113 190
114 323
114 327
116 219
118 323
118 327
121 305
128 313
131 223
132 214
138 245
139 128
140 160
141 114
141 161
142 162
142 208
142 299
142 313
143 163
143 208
144 164
145 165
146 130
146 166
146 172
149 108
150 102
150 108
152 28
152 34
152 166
152 172
156 102
165 47
165 51
165 52
168 165
168 179
169 378
169 382
173 378
173 382
174 32
175 344
175 352
183 344
183 352
196 248
196 254
197 22
204 108
204 114
204 198
204 206
208 315
208 321
210 114
211 36
212 206
213 109
214 108
214 315
214 321
215 23
215 107
216 22
216 106
216 217
216 275
216 289
217 21
217 226
218 20
218 260
220 353
222 217
222 223
226 29
230 130
230 138
233 237
234 29
242 332
245 10
245 146
247 207
247 237
247 251
247 280
247 286
251 10
253 146
253 320
255 348
266 227
266 270
267 11
267 25
272 99
272 118
277 115
279 76
279 82
279 196
279 197
280 213
280 227
281 11
281 25
285 76
285 82
285 83
294 47
294 55
294 294
295 94
295 102
299 307
300 307
302 47
302 55
302 294
308 218
309 314
318 163
318 176
324 176
325 124
325 326
325 334
334 84
334 90
338 165
338 259
340 84
340 90
341 393
343 194
347 194
349 206
355 393
358 198
361 193
363 32
367 193
367 199
372 159
372 314
372 318
375 135
376 312
376 318
377 32
385 351
386 350
386 351
387 349
387 350
388 261
388 349
392 233
392 291
393 6
393 7
393 19
393 20
393 232
393 233
393 234
393 246
393 247
393 248
393 303
393 333
393 345

7
7 7
7 11
7 199
7 200
7 210
7 211
7 328
11 7
12 73
12 200
12 210
20 226
20 230
20 306
20 310
20 350
20 356
22 120
23 270
24 226
24 230
28 195
28 205
28 310
29 311
30 312
31 313
32 256
32 314
33 65
33 69
33 314
34 353
35 124
36 124
36 357
37 69
38 195
38 205
39 65
40 64
40 65
41 63
41 64
42 62
42 63
42 256
42 266
43 61
43 62
44 60
44 61
45 18
45 60
45 360
47 364
51 360
51 364
55 62
56 280
56 286
60 310
60 350
61 158
61 159
61 309
62 157
62 308
63 156
63 307
64 155
64 306
65 154
65 305
66 153
66 304
66 327
67 152
67 226
67 296
67 304
68 101
68 151
70 350
72 101
72 144
72 246
72 256
73 7
74 7
74 327
75 7
75 304
76 7
77 7
77 231
78 7
78 8
78 375
78 385
79 7
80 7
80 144
80 152
81 7
82 7
82 246
82 256
83 7
83 43
84 205
94 268
94 278
100 58
100 62
101 33
103 182
103 190
104 16
104 58
104 62
111 182
111 190
114 209
115 209
116 208
117 207
118 206
119 205
120 204
120 370
120 378
121 203
123 194
126 129
131 150
131 158
132 59
132 85
132 216
132 222
133 60
133 194
134 61
135 62
136 63
136 267
136 268
137 64
137 266
138 65
138 265
139 65
139 150
139 158
139 264
140 263
147 167
147 171
151 103
151 167
151 171
152 217
153 29
153 33
153 82
159 274
159 284
161 61
161 82
162 82
162 83
163 83
163 84
164 84
164 85
164 145
165 85
165 86
166 86
166 87
167 87
167 88
168 88
168 89
172 213
172 223
174 22
176 345
176 351
182 345
182 351
188 85
189 84
190 83
191 82
192 82
197 249
197 253
205 109
205 113
205 199
205 205
209 61
209 113
209 316
209 320
211 109
211 205
213 24
213 316
213 320
217 53
217 61
217 187
217 218
217 224
218 105
219 105
219 259
221 218
221 222
222 12
224 352
225 352
225 353
226 353
226 354
227 28
227 354
227 355
228 355
228 356
229 78
229 86
229 356
229 357
230 12
230 357
230 358
231 131
231 137
231 358
233 28
234 166
234 176
237 78
237 86
240 103
244 166
245 7
246 7
246 9
246 281
246 285
248 206
249 60
249 68
250 7
250 9
250 103
251 7
257 60
257 68
269 124
270 138
272 116
272 244
273 100
273 350
275 319
276 114
280 77
280 81
281 101
281 197
282 100
282 101
282 197
283 99
283 100
283 350
284 77
284 81
289 264
289 272
294 95
294 101
295 48
295 54
295 295
301 48
301 54
301 295
316 127
316 142
319 164
319 175
323 175
324 31
324 41
324 327
324 333
327 106
328 116
334 31
334 41
335 85
335 89
335 106
335 114
337 164
339 85
339 89
339 258
348 205
348 308
348 318
357 84
360 198
362 194
362 229
362 254
365 84
366 101
366 194
366 198
375 313
375 314
376 101
376 111
379 356
379 364
386 334
388 347
389 260
390 381
391 236
391 237
391 238
391 242
391 243
391 244
391 378
392 8
392 18
392 235
392 236
392 237
392 238
392 239
392 241
392 242
392 243
392 244
392 245
392 249
392 250
392 260
392 261
392 302
392 376
392 377
392 378
392 379

8
8 8
8 10
8 105
8 201
8 209
10 8
10 10
11 201
11 209
13 74
15 86
19 74
20 74
21 351
21 355
22 286
23 121
23 285
25 21
25 31
25 309
26 309
29 196
29 204
33 124
33 257
34 315
34 356
35 31
35 356
37 22
37 66
37 196
37 204
38 66
41 257
46 361
47 361
48 8
48 114
52 232
54 135
54 136
54 137
55 281
55 285
56 26
57 27
58 114
58 181
58 311
61 156
61 349
63 9
67 328
68 171
68 181
68 297
68 303
69 349
70 150
71 86
72 85
73 145
73 247
73 255
73 328
74 303
78 296
79 145
79 151
79 295
79 376
79 384
81 247
81 255
94 321
95 201
95 269
95 277
100 32
103 17
104 79
104 183
104 189
105 285
108 108
110 183
110 189
111 264
112 212
114 215
116 304
117 304
118 304
119 371
119 377
123 203
124 195
124 238
127 128
130 58
132 151
132 157
132 195
133 217
133 218
136 270
137 271
137 272
138 151
138 157
140 66
141 261
145 209
146 210
154 81
158 275
158 283
160 62
160 63
160 81
163 144
164 240
164 250
170 89
171 214
171 222
173 23
173 29
173 30
177 120
177 346
177 350
181 346
181 350
185 86
186 86
187 183
194 82
195 149
206 200
206 204
207 237
209 110
210 60
210 110
210 204
211 24
216 54
216 60
218 188
218 222
218 223
220 385
221 105
222 347
222 348
222 349
223 13
223 346
228 27
229 13
230 79
230 85
232 27
232 132
232 136
232 359
235 167
236 79
236 85
238 283
241 104
243 167
243 347
247 8
248 8
248 9
249 8
249 104
250 61
250 67
256 61
256 67
268 206
268 264
268 265
269 126
269 137
269 207
270 208
271 245
271 268
272 268
274 320
274 349
282 349
283 341
284 197
284 340
284 341
285 99
285 339
285 340
286 338
286 339
287 337
287 338
288 265
288 271
288 336
288 337
289 335
289 336
290 334
290 335
291 334
293 96
293 100
296 49
296 53
296 296
299 304
300 49
300 53
300 296
312 247
317 128
317 141
322 247
323 328
323 332
325 32
325 40
325 127
328 107
328 114
332 314
333 32
333 40
334 107
334 113
336 163
342 391
343 386
343 391
347 309
347 317
353 386
353 391
354 391
358 83
361 126
361 197
361 230
361 253
362 125
362 197
363 8
363 118
363 122
363 123
363 124
364 83
365 59
367 102
369 158
370 155
375 59
375 69
375 102
375 110
375 289
376 301
380 357
380 363
387 335
390 253
390 254
390 255
390 259
390 373
390 383
391 17
391 240
391 251
391 252
391 253
391 254
391 255
391 256
391 258
391 259
391 334
391 335
391 372
391 373
391 374
391 375
391 380

9
9 9
9 104
9 202
9 203
9 204
9 206
9 207
9 208
10 202
10 203
10 207
10 208
14 75
14 147
18 75
18 104
24 147
24 284
24 308
26 22
26 30
29 377
30 197
30 203
30 355
31 123
34 30
34 258
36 197
36 203
36 315
40 258
46 122
47 17
47 59
47 283
49 9
49 115
54 139
57 115
59 180
61 9
62 348
63 84
64 85
67 180
68 92
68 93
68 329
68 348
69 93
69 94
69 298
69 302
70 87
70 95
70 96
70 97
70 205
72 150
72 329
74 146
74 248
74 254
75 228
76 229
77 297
78 146
78 150
80 248
80 254
80 377
80 383
82 206
96 270
99 31
103 282
103 283
104 283
104 284
105 184
105 188
105 287
106 79
109 107
109 184
109 188
112 210
113 213
113 214
114 217
114 304
116 325
118 372
118 376
124 202
125 196
125 202
128 127
131 77
131 196
132 76
132 77
133 75
133 76
133 152
133 156
134 74
134 75
134 285
134 286
135 73
135 74
135 127
136 72
136 73
136 127
136 220
137 71
137 72
137 152
137 156
137 220
138 70
138 71
138 117
138 219
138 220
139 69
139 70
139 116
139 219
140 69
140 247
140 301
140 311
141 259
149 131
149 216
150 131
150 216
155 80
157 31
157 127
157 276
157 282
158 31
158 126
159 31
159 80
159 125
160 30
160 124
161 29
161 30
161 123
162 28
162 29
162 122
162 143
163 27
163 28
163 121
163 241
163 249
164 27
167 49
170 167
170 177
170 215
170 221
171 90
171 380
172 24
172 28
176 119
184 87
186 182
199 24
208 238
215 55
215 59
215 235
218 277
218 287
219 189
222 351
224 14
228 14
231 80
231 84
235 80
235 84
235 194
236 168
236 193
236 194
237 193
240 179
240 283
241 179
241 180
241 283
242 105
242 168
242 180
242 181
242 283
243 181
243 182
244 182
244 183
244 334
244 346
245 183
245 239
251 62
251 66
253 346
255 62
255 66
255 322
268 127
268 128
268 136
268 225
268 268
269 13
269 23
269 266
269 267
270 246
270 267
273 114
273 321
274 108
274 109
274 110
275 105
275 106
275 348
278 102
278 215
278 225
279 13
279 23
279 102
281 348
282 342
287 266
287 270
292 333
293 333
307 316
310 220
313 246
318 129
318 140
321 171
321 246
324 128
324 129
326 33
326 39
329 108
329 112
329 113
332 33
332 39
333 108
333 112
344 387
344 390
345 196
346 310
346 316
352 387
352 390
359 82
360 231
360 252
363 82
363 120
364 116
364 117
365 30
365 115
365 116
366 60
366 114
366 115
368 103
369 154
370 157
373 137
374 60
374 68
374 103
374 109
374 316
375 30
376 290
388 336
390 9
390 16
390 257
390 293
390 300
390 301
390 336
390 370
390 371

10
10 103
10 205
15 146
16 83
17 103
21 131
21 132
22 130
22 131
22 228
22 308
23 129
23 130
23 146
24 128
24 129
25 127
25 128
25 283
25 353
26 353
27 23
27 29
27 353
28 354
29 123
29 354
31 198
31 202
32 355
33 29
34 23
35 23
35 67
35 198
35 202
35 259
39 259
40 284
49 59
49 283
49 362
50 10
50 116
50 283
51 283
53 60
56 116
59 10
60 10
60 179
63 347
65 86
66 179
67 347
70 99
71 206
72 36
73 36
73 37
73 149
74 37
74 38
74 149
74 227
74 299
75 38
75 39
75 253
75 299
76 39
76 298
77 40
78 40
79 249
79 253
80 206
81 378
81 382
98 30
102 60
107 80
109 265
109 266
110 106
126 197
126 201
129 78
129 126
130 78
130 197
133 126
134 126
134 220
135 284
137 118
139 310
140 218
141 217
141 248
142 216
143 215
144 68
144 215
145 68
146 68
146 69
146 279
148 215
149 169
151 132
152 132
153 105
154 106
154 142
155 31
156 277
156 281
158 65
159 65
161 142
162 242
162 248
163 119
169 216
169 220
171 49
171 168
172 91
174 103
174 104
175 118
181 88
182 87
182 88
185 181
199 251
200 25
200 250
201 250
202 49
203 50
204 51
205 52
206 53
207 54
207 111
208 25
208 55
209 25
209 56
209 201
209 239
210 56
210 200
210 201
211 199
211 200
211 318
212 198
212 199
213 197
213 198
214 196
214 197
215 195
215 196
216 194
216 195
217 193
217 194
218 192
218 193
219 220
219 278
219 286
234 195
236 134
237 134
237 169
238 134
241 169
243 106
244 240
244 283
245 345
256 323
262 247
263 247
269 224
269 247
270 14
270 22
271 211
274 112
275 102
276 103
276 104
276 347
277 103
277 216
277 224
278 14
278 22
279 268
280 347
282 79
287 98
288 97
288 98
289 98
298 300
298 301
298 302
300 312
311 221
311 324
312 325
313 326
314 245
314 327
315 328
316 329
317 330
318 330
319 130
319 330
321 166
321 173
322 167
322 169
322 170
324 167
325 166
325 167
326 165
326 166
327 34
327 38
327 164
327 165
328 163
328 164
329 162
329 163
330 161
330 162
331 34
331 38
331 161
334 157
334 158
335 156
335 313
336 155
337 87
337 154
337 212
338 153
338 211
339 152
339 210
340 209
341 208
341 256
342 207
342 255
343 206
344 205
345 198
345 204
345 311
345 315
345 388
345 389
346 388
346 389
347 389
349 389
350 388
350 389
351 388
351 389
359 232
364 10
364 196
366 29
367 61
367 112
367 113
368 111
368 112
369 104
372 138
373 61
373 104
373 108
374 29
377 291
377 298
377 299
388 339
389 10
389 15
389 299
389 337
389 338
389 339
389 340
389 341
389 342
389 343
389 344
389 368
389 369

11
11 102
14 90
16 79
16 80
16 81
16 102
16 145
20 133
22 145
23 353
25 123
26 124
26 125
26 126
27 124
27 125
28 24
28 28
28 124
32 24
32 28
33 24
38 284
50 58
51 11
51 58
51 117
53 58
53 283
54 126
55 22
55 117
57 11
58 11
58 31
61 178
65 178
66 87
67 90
69 335
69 336
70 223
70 333
70 334
70 335
71 222
71 223
71 224
72 207
73 226
73 300
76 249
78 207
79 39
79 207
80 39
81 39
81 40
82 39
83 38
84 37
85 36
86 35
87 34
88 33
89 32
90 31
91 30
92 29
93 29
100 20
101 19
108 81
108 267
111 105
112 374
113 374
114 374
123 107
123 108
124 108
124 109
125 109
125 110
126 110
126 111
127 111
127 112
128 112
128 113
129 113
129 114
129 201
129 202
130 114
130 115
130 203
131 115
131 116
132 116
135 282
136 119
136 281
136 282
138 309
142 68
142 249
142 256
142 257
145 214
146 214
146 215
155 107
156 108
157 109
158 110
159 111
160 112
161 113
161 243
161 247
162 114
164 117
164 118
166 26
167 26
168 26
172 169
173 92
174 117
179 89
179 348
180 89
184 180
185 48
186 48
199 48
200 48
201 26
202 249
203 248
203 249
204 247
204 248
205 246
205 247
206 245
206 246
207 26
207 244
207 245
208 202
208 244
210 240
211 57
214 237
220 279
220 285
229 23
229 24
230 25
230 195
231 195
232 195
234 134
240 176
243 241
246 344
251 120
252 344
264 248
265 248
266 131
267 130
270 223
271 15
271 21
271 213
272 323
276 223
277 15
277 21
281 268
282 268
283 268
291 98
298 51
298 298
309 323
312 222
315 244
319 244
320 244
321 330
323 168
328 136
328 137
329 137
329 138
330 138
330 139
331 139
331 140
332 140
332 141
332 160
333 141
333 142
333 159
333 160
334 142
334 161
334 228
335 228
335 229
336 214
336 215
336 229
336 230
337 230
337 231
338 231
338 232
339 232
339 233
340 150
340 233
340 234
341 234
341 235
342 235
342 236
343 236
343 237
343 254
344 237
345 202
346 199
346 200
346 201
347 200
348 388
361 77
361 78
365 11
367 28
368 62
369 110
369 151
370 108
370 109
371 139
372 62
373 28
378 292
378 296
378 297
388 11
388 14
388 298
388 366
388 367

12
14 92
15 101
16 77
17 144
20 135
21 144
27 274
28 273
28 274
28 275
28 282
36 283
37 263
37 283
55 20
58 33
62 171
65 340
65 341
65 342
65 343
66 339
67 88
67 338
68 38
68 337
69 38
70 37
70 331
71 300
72 220
72 221
72 225
73 208
76 148
77 208
85 380
86 380
87 380
88 380
89 379
90 378
91 377
91 378
92 376
92 377
93 376
94 28
95 27
96 26
99 21
99 271
107 186
109 82
110 375
116 374
122 105
122 106
128 305
135 154
137 279
137 280
137 308
138 276
139 277
140 278
143 250
143 254
143 255
149 279
150 278
150 279
151 279
152 279
156 66
156 67
156 76
156 77
157 78
162 218
163 218
164 218
165 218
170 26
173 106
173 107
173 170
174 49
175 48
175 49
175 101
176 48
176 49
176 92
177 49
177 91
178 90
181 49
182 49
182 171
183 49
184 49
187 47
188 46
197 47
198 47
202 27
206 27
213 57
221 191
221 192
221 284
222 192
222 193
223 192
226 16
226 194
227 20
227 21
227 193
227 194
228 21
228 22
228 194
228 195
233 82
239 173
239 174
239 175
242 242
244 246
245 246
251 118
251 343
252 121
253 64
263 133
264 132
264 133
265 132
265 133
266 134
267 251
267 252
267 253
267 254
268 332
269 333
270 334
271 222
271 335
272 16
272 20
272 336
273 337
274 338
275 222
275 339
276 16
276 20
276 340
277 341
278 342
278 343
285 268
295 331
296 330
307 323
313 223
320 138
321 137
326 136
331 110
334 226
335 216
335 217
338 313
339 313
340 313
341 313
344 239
344 253
357 249
358 250
361 80
362 76
363 75
364 74
365 73
366 12
366 72
367 71
368 27
368 70
369 68
369 69
370 140
384 358
387 12
387 294
387 297
387 364
387 365

13
13 93
13 94
13 95
13 96
13 97
13 98
13 100
13 101
14 94
14 95
14 96
14 97
29 271
29 272
29 276
29 277
30 270
30 271
31 269
31 270
32 268
32 269
33 200
33 267
33 268
34 266
34 267
35 265
35 266
36 264
36 265
37 261
52 13
52 56
53 13
53 123
53 124
55 13
56 13
63 172
63 173
63 174
65 345
66 40
67 39
73 219
74 217
74 218
75 217
77 251
83 380
94 375
96 28
97 23
97 24
97 25
98 22
98 23
106 269
107 269
108 375
126 81
127 80
128 199
131 124
132 119
132 121
132 122
138 278
150 69
154 73
154 74
154 279
155 68
155 74
155 75
155 139
156 132
158 139
159 140
165 115
167 218
172 108
175 96
175 97
175 98
175 99
179 49
190 46
191 46
222 280
224 193
225 193
226 19
226 253
227 252
230 282
239 171
242 245
243 245
245 108
246 109
250 116
250 117
252 123
253 123
259 196
259 197
260 196
261 131
261 195
262 132
262 195
263 195
267 249
269 325
270 324
271 195
272 215
272 216
278 345
297 329
317 237
317 238
317 239
317 240
318 237
321 132
322 133
322 136
329 36
336 143
337 143
343 313
345 240
345 252
346 251
351 138
355 138
356 235
356 248
357 234
367 13
368 149
370 66
370 67
371 106
382 294
383 294
384 13
384 294
384 295
385 13
385 294
385 295
385 362
386 13
386 295
386 296
386 361
386 362
386 363

14
14 99
19 137
19 138
19 139
19 140
30 26
30 278
30 281
31 279
31 280
31 281
32 280
32 281
33 281
34 282
51 121
52 52
52 53
52 54
52 120
52 121
52 122
53 16
53 17
53 119
54 14
54 15
54 16
54 17
54 18
59 35
63 176
75 212
75 213
75 214
75 215
96 375
97 375
98 375
99 375
103 375
104 375
105 270
105 271
105 375
106 375
113 103
114 102
120 102
121 103
125 82
130 306
131 306
133 120
135 302
153 69
153 72
154 69
155 134
156 134
156 135
156 136
156 137
156 138
157 135
157 136
157 137
157 138
157 245
158 245
159 245
167 114
168 114
171 110
171 111
171 114
172 110
172 115
175 94
175 176
181 177
182 178
192 45
193 44
193 45
194 43
194 44
194 45
195 42
195 43
195 46
196 41
196 42
197 40
197 41
198 39
198 40
199 38
199 39
200 37
200 38
201 36
201 37
202 35
202 36
203 34
203 35
204 31
204 32
204 33
204 34
225 252
225 282
226 282
227 282
228 251
228 282
229 250
230 249
247 110
248 342
249 341
257 198
263 327
264 196
264 327
265 326
268 326
268 329
269 196
270 196
273 217
273 218
298 328
317 242
323 134
323 135
324 135
333 223
333 224
338 144
339 144
343 143
343 144
344 142
344 143
345 142
345 242
346 249
349 139
350 139
353 138
355 236
355 247
368 147
370 64
380 294
382 14
383 14
385 360

15
19 142
53 51
75 210
101 375
102 275
102 276
104 272
111 84
112 85
114 93
115 94
115 101
116 94
116 95
119 101
124 83
132 305
133 304
133 305
134 303
134 304
134 305
135 306
145 252
146 251
147 251
152 70
156 246
169 113
170 112
170 113
175 172
176 173
180 173
180 176
204 29
223 252
223 282
232 248
233 247
234 247
237 245
238 245
238 246
239 245
240 244
248 111
248 112
248 113
249 112
249 114
262 328
266 196
266 197
266 327
267 197
267 198
267 327
267 328
268 197
273 220
274 18
299 326
299 327
301 317
301 318
315 225
316 226
318 234
332 220
332 222
333 219
340 145
341 144
341 145
346 141
347 247
347 248
348 140
353 245
354 237
354 246
367 145
367 146
368 15
369 15
370 25
371 24
380 15
381 15

16
53 49
54 48
54 49
102 273
103 273
103 274
113 86
116 100
117 96
118 100
120 86
121 85
121 86
122 84
122 85
123 84
153 247
154 246
154 247
177 174
177 175
178 174
178 175
179 174
179 175
213 243
214 243
214 244
215 244
215 245
216 245
216 246
217 246
217 247
218 247
218 248
219 248
219 249
220 249
220 250
221 250
222 251
235 246
236 246
250 339
251 337
251 338
253 197
254 196
254 197
255 197
259 329
260 328
260 329
300 319
300 320
317 227
330 221
331 221
348 246
352 244
353 238
366 144
370 16
378 16
379 16

17
55 46
55 47
114 87
115 91
117 98
117 99
118 88
119 87
149 250
150 249
151 248
152 248
245 192
246 135
246 192
246 193
247 135
247 193
247 194
248 194
248 195
249 195
249 196
250 196
251 196
251 197
252 196
252 335
252 336
253 334
253 335
254 333
254 334
255 332
255 333
256 331
256 332
257 330
257 331
258 330
300 323
300 324
301 321
301 322
301 323
302 322
318 228
319 232
327 223
328 222
328 223
329 222
348 244
349 242
349 243
349 244
350 241
350 242
350 243
351 240
352 239
359 137
360 136
360 137
361 137
361 138
362 138
362 139
363 139
363 140
364 140
364 141
365 141
365 142
366 142
371 17
372 22
376 17
377 17

18
56 44
56 45
57 43
57 44
60 40
115 88
115 89
116 88
116 89
319 229
319 230
320 229
320 230
321 228
321 229
322 227
322 228
323 226
323 227
324 225
324 226
325 225
326 224
372 18
372 20
374 18
375 18

19
58 42
59 41
249 134
250 133
251 133
254 130
373 19

20
252 132
253 131

