0
0 0
0 279
0 290
0 318
0 344
0 385
182 399
211 0
225 0
322 399
323 399
345 399
346 399
351 0
352 0
368 0
369 0
399 203
399 227

1
1 1
1 50
1 100
1 124
1 278
22 196
29 1
32 196
43 208
43 245
53 208
53 245
72 377
86 55
86 65
99 285
99 295
100 309
100 319
131 226
131 236
139 163
141 226
141 236
148 259
180 123
180 227
190 123
190 227
199 113
199 123
213 7
216 364
216 374
224 15
226 225
226 235
226 364
226 374
234 5
234 15
234 375
237 50
244 375
244 385
247 50
248 10
248 20
254 387
254 397
258 10
258 20
264 387
264 397
290 270
290 280
295 52
300 270
300 280
304 1
305 52
307 24
316 181
316 191
317 24
317 34
326 191
344 398
345 181
353 1
367 1
376 97
376 107
384 31
386 107
390 318
398 276
398 292
398 319
398 343
398 367

2
2 2
2 277
2 291
2 292
2 316
2 317
2 345
2 384
13 49
13 66
13 82
22 36
28 17
35 28
38 136
39 2
47 28
47 275
47 287
52 338
54 136
54 152
59 2
59 32
59 275
61 370
68 338
82 231
85 149
85 161
117 240
117 252
119 142
124 262
129 240
136 250
142 380
142 396
162 146
167 262
167 274
170 155
177 145
179 262
179 274
181 397
195 256
211 256
212 2
212 42
213 2
213 106
216 226
228 42
228 58
229 106
229 172
229 188
231 152
242 169
242 181
247 152
251 36
251 48
257 197
263 36
269 6
269 22
277 107
277 123
284 137
285 22
286 50
292 33
294 167
296 137
303 2
307 239
307 255
321 62
321 78
323 255
329 93
329 105
336 148
341 288
341 300
343 397
352 148
352 164
353 288
354 2
358 38
360 377
361 362
362 34
362 50
362 362
366 2
372 377
375 114
375 130
375 271
387 259
387 271
397 86
397 98
397 204
397 226
397 318
397 344
397 366

3
3 3
3 49
3 101
3 123
3 293
3 315
3 346
3 383
10 153
11 295
11 313
16 184
17 121
22 250
22 268
25 296
34 184
41 86
45 164
47 357
50 118
68 10
68 117
68 129
74 320
79 331
80 10
80 117
80 129
80 278
81 271
94 38
97 349
99 271
102 330
109 148
112 38
113 276
115 167
127 167
131 113
131 125
131 309
147 199
147 211
169 347
178 383
180 396
185 163
186 57
186 75
187 347
198 278
198 290
210 278
210 290
214 3
239 321
239 339
243 302
244 269
244 287
250 259
252 90
252 108
257 321
257 339
262 212
266 360
266 372
278 360
278 372
283 338
283 356
291 95
293 233
296 289
299 330
300 15
301 338
301 356
302 3
314 289
315 160
315 172
319 303
326 350
326 362
329 11
329 23
335 301
337 185
341 11
341 23
342 396
351 114
351 126
354 312
355 3
365 3
371 326
374 162
374 180
381 206
381 224
383 326
386 278
391 376
392 162
392 180
396 87
396 97
396 277
396 345

4
4 4
4 48
4 102
4 122
4 251
4 275
4 276
4 294
4 314
4 347
4 382
22 210
23 60
24 198
27 373
27 381
28 4
28 123
30 198
30 210
31 60
40 4
45 210
45 243
51 210
51 243
55 93
58 4
65 294
88 63
88 385
88 393
96 385
96 393
97 287
97 293
98 311
98 317
105 232
105 240
106 86
108 377
108 389
114 118
114 126
118 74
118 86
120 377
120 389
132 271
133 228
133 234
137 161
139 228
139 234
140 73
140 81
144 283
146 261
148 81
179 395
182 125
188 125
188 225
201 115
201 121
203 58
203 70
212 84
215 4
215 5
216 4
216 5
216 383
216 395
217 4
218 366
218 372
219 4
219 204
220 4
220 76
220 84
224 366
224 372
226 13
228 227
228 233
232 7
232 13
235 395
236 377
239 52
242 118
242 377
242 383
245 52
246 81
250 12
250 18
256 12
256 18
256 389
256 395
262 389
262 395
270 263
279 332
288 106
288 118
292 272
292 278
293 212
297 50
298 272
298 278
300 118
301 4
303 50
304 368
304 376
309 26
312 368
312 376
315 26
315 32
318 183
318 189
340 323
340 335
340 395
341 395
343 179
345 32
345 40
348 72
348 247
349 248
353 32
356 4
357 4
358 4
359 4
360 4
360 5
360 72
361 4
362 4
362 365
363 4
364 4
365 339
378 99
378 105
380 236
380 244
384 105
388 236
388 244
389 88
392 316
395 88
395 96
395 205
395 225
395 278
395 316
395 317
395 346

5
5 5
5 47
5 103
5 121
5 274
5 295
5 313
5 381
11 47
20 34
23 209
25 199
26 374
26 380
27 5
29 199
29 209
29 333
30 61
37 26
41 5
43 333
45 26
46 211
46 242
49 277
49 285
50 211
50 242
54 300
56 16
56 17
57 5
57 17
57 18
57 277
58 18
58 19
59 19
59 20
60 20
60 21
61 21
61 22
61 30
62 219
62 233
79 182
85 32
86 211
87 151
87 159
89 62
89 386
89 392
92 370
95 386
95 392
96 288
96 292
97 312
97 316
104 233
104 239
111 219
111 306
114 346
114 360
115 13
115 27
115 125
119 242
125 219
126 260
127 242
128 191
128 346
128 360
129 13
129 27
134 229
134 233
135 144
135 145
136 143
136 144
137 142
137 143
138 141
138 142
138 229
138 233
139 140
139 141
140 126
140 140
141 74
141 80
145 262
147 80
151 58
151 171
154 126
156 227
163 191
165 310
169 264
169 272
177 264
177 272
178 394
179 143
179 310
183 126
187 126
187 224
191 234
202 116
202 120
213 83
215 137
215 138
216 136
216 137
217 136
218 5
219 83
219 367
219 371
221 5
222 5
223 367
227 12
229 228
229 232
231 8
231 12
234 394
237 378
240 53
241 378
241 382
243 239
244 171
244 179
247 80
251 13
251 17
253 38
255 13
255 17
257 225
257 390
257 394
259 164
259 289
260 289
260 290
261 38
261 290
261 291
261 390
261 394
262 291
262 292
262 327
262 328
263 292
269 262
272 238
284 52
286 139
286 252
292 165
293 182
293 273
293 277
294 35
294 139
297 273
297 277
298 49
302 49
305 369
305 375
311 369
311 375
314 27
314 31
319 184
319 188
319 314
319 315
320 313
320 314
321 312
321 313
322 311
322 312
323 311
323 379
329 235
331 95
331 103
337 379
339 394
342 178
343 235
343 290
343 298
346 33
346 39
350 366
351 249
352 33
355 102
362 375
371 247
377 269
379 100
379 104
381 237
381 243
383 100
383 104
384 100
385 55
385 99
385 261
385 269
386 98
387 97
387 237
387 243
388 96
389 95
390 89
390 95
394 206
394 224
394 279
394 315

6
6 6
6 104
6 120
6 252
6 273
6 296
6 312
6 348
6 349
9 297
9 311
10 46
12 155
15 119
17 106
18 105
18 106
18 182
19 33
19 104
19 105
20 103
20 104
20 252
20 266
21 102
21 103
22 101
22 102
23 101
24 208
25 375
25 379
26 6
27 298
28 208
29 62
32 182
38 25
42 6
43 162
44 25
48 116
50 278
50 284
56 6
56 278
59 283
60 283
60 284
61 284
61 285
62 29
62 285
62 286
70 12
70 119
70 127
76 318
78 119
78 127
81 333
83 269
88 152
88 158
90 387
90 391
94 387
94 391
96 40
97 269
100 332
103 234
103 238
107 69
107 150
108 70
109 71
110 40
111 156
111 157
112 157
112 158
113 158
113 159
115 278
116 124
117 165
120 243
126 243
127 259
129 115
129 123
129 307
136 258
136 259
137 259
137 260
138 260
138 261
139 261
139 262
140 262
140 263
141 263
142 75
142 79
144 393
149 201
170 265
170 271
171 345
176 265
176 271
176 385
180 142
184 59
184 73
185 345
187 165
200 280
200 288
208 280
208 288
209 117
209 118
210 116
210 117
214 82
217 393
218 82
222 371
223 6
224 6
224 7
225 7
225 8
226 8
226 9
227 9
233 393
236 230
237 231
241 337
245 172
245 178
245 304
246 271
246 285
248 79
254 39
254 92
254 106
255 337
256 121
257 120
257 121
258 119
258 120
259 118
259 119
259 287
260 39
263 294
264 210
268 261
268 362
268 370
276 362
276 370
283 53
285 340
285 354
287 140
291 164
293 140
298 13
299 6
299 340
299 354
300 6
301 328
306 370
306 374
310 370
310 374
312 291
317 162
317 170
323 304
324 393
328 352
328 360
331 13
331 21
332 96
332 102
333 303
337 393
338 393
339 13
339 21
344 291
344 297
347 34
347 38
351 34
353 38
353 116
353 124
353 249
363 367
363 368
363 374
373 328
376 164
376 178
378 268
381 328
382 238
382 242
383 208
383 222
384 262
384 268
386 238
386 242
388 280
389 374
390 164
390 178
391 90
391 94
393 89
393 90
393 94
393 95
393 207
393 223
393 313
393 314
393 347
393 348

7
7 7
7 45
7 46
7 272
7 297
7 298
7 310
7 311
7 350
7 362
7 379
7 380
9 45
16 69
16 79
18 32
25 7
25 14
30 121
39 24
41 139
42 161
43 7
43 24
47 115
51 139
51 149
51 279
51 283
53 95
55 7
63 28
64 367
65 341
71 13
71 120
71 126
77 120
77 126
77 317
85 234
89 153
89 157
92 290
93 314
99 333
106 151
108 84
109 156
110 379
110 387
116 76
116 84
116 279
118 164
118 379
118 387
121 244
122 145
125 244
127 280
127 281
128 116
128 122
128 258
128 279
128 280
128 306
129 278
129 279
132 145
134 258
142 281
143 266
145 383
145 392
150 202
171 266
171 270
175 266
175 270
176 392
177 392
181 141
184 131
185 130
185 131
191 139
191 140
201 231
201 281
201 287
202 230
203 229
204 228
205 60
205 68
205 226
205 227
206 118
207 118
207 281
207 287
208 253
211 72
212 72
212 73
213 73
213 74
213 223
214 74
214 75
215 45
215 75
215 76
216 109
217 206
218 385
218 392
219 135
225 45
225 55
226 109
226 175
226 185
232 388
232 389
233 230
233 387
234 149
234 230
234 386
235 385
236 384
237 383
238 382
244 120
244 149
246 173
246 177
246 305
252 243
253 243
253 244
254 244
254 245
255 40
255 245
258 392
259 40
259 391
259 392
260 392
261 118
264 295
264 296
265 209
269 363
269 369
272 9
272 19
274 120
275 363
275 369
277 330
282 54
288 141
290 108
292 141
298 7
298 116
303 35
304 35
305 34
306 33
307 32
308 31
309 30
310 29
310 242
310 252
312 337
318 65
318 163
318 169
325 304
325 310
326 310
329 353
329 359
331 313
332 14
332 20
332 304
333 97
333 101
336 392
338 14
338 20
338 325
338 333
339 151
345 292
345 296
349 151
349 161
350 74
351 37
352 37
354 117
354 123
354 250
355 250
358 74
364 369
364 373
372 117
372 127
374 329
380 329
383 263
383 267
388 373
389 281
391 92
392 91
392 92
392 93
392 208
392 222
392 280
392 281
392 311
392 312
392 349

8
8 8
8 39
8 40
8 41
8 42
8 43
8 44
8 105
8 106
8 118
8 119
8 253
8 271
8 299
8 300
8 301
8 302
8 303
8 304
8 305
8 306
8 307
8 308
8 309
8 351
8 360
8 361
8 363
8 364
8 378
9 43
9 304
15 107
15 354
17 70
17 78
20 377
21 377
24 13
26 202
26 203
26 204
27 201
31 120
41 160
41 331
42 140
46 114
47 350
48 213
48 240
48 349
48 350
49 214
49 215
49 238
49 239
49 348
49 349
50 140
50 347
50 348
52 96
52 302
54 14
56 282
57 282
60 221
60 231
64 342
65 366
72 14
72 121
72 125
76 121
76 125
78 316
81 184
83 30
86 235
88 209
90 312
90 368
91 60
91 291
91 312
92 313
94 290
95 314
98 334
106 66
109 83
110 74
111 380
111 386
113 217
113 304
115 77
115 83
116 348
116 358
117 15
117 25
117 280
117 380
117 386
123 146
123 217
125 281
126 193
126 348
126 358
127 15
127 25
127 117
127 121
127 305
131 146
132 257
133 257
136 157
136 231
140 269
140 270
141 268
141 269
141 280
142 128
142 138
142 267
143 264
146 384
146 391
151 203
152 128
153 60
153 169
158 225
165 193
167 312
174 170
175 170
175 391
177 312
179 217
179 218
183 133
184 221
185 128
185 222
189 139
193 236
202 282
202 286
204 118
206 61
206 67
206 282
206 286
207 252
211 70
212 222
213 116
216 46
216 77
216 78
217 110
219 386
219 391
221 135
221 369
222 124
223 124
223 125
224 46
224 54
224 125
224 126
225 110
225 176
225 184
229 10
231 230
231 391
232 391
235 148
239 380
242 55
243 56
243 148
247 306
253 15
254 122
255 227
255 247
256 267
257 266
257 267
257 307
258 265
258 266
258 285
259 264
259 265
260 264
266 208
270 364
270 368
273 10
273 18
273 119
274 240
274 364
274 368
276 329
284 250
288 155
289 149
289 150
289 151
290 115
290 149
291 109
291 115
291 184
295 275
297 8
297 36
297 115
298 45
299 44
299 45
299 46
300 47
302 101
311 243
311 251
312 29
317 66
317 75
319 164
319 168
321 186
322 185
323 185
325 381
325 391
326 305
327 305
327 309
330 354
330 358
331 305
331 311
333 15
333 19
335 381
335 391
337 15
337 19
337 326
337 332
341 237
343 246
348 152
348 160
351 75
353 100
355 118
355 122
357 75
357 258
369 249
371 118
371 126
371 258
372 258
372 259
373 259
373 260
374 260
374 261
375 261
375 262
375 330
376 262
376 263
377 263
377 264
378 264
379 330
381 102
382 37
383 53
387 372
390 282
390 286
391 282
391 283
391 285
391 286
391 287
391 309
391 310
391 350

9
9 9
9 10
9 37
9 38
9 107
9 117
9 254
9 269
9 270
9 352
9 358
9 359
9 365
9 366
9 367
9 377
10 366
13 107
14 157
17 374
18 77
18 254
18 264
18 375
19 376
20 180
23 9
23 81
23 377
24 9
24 81
24 82
25 82
25 83
26 65
26 83
26 84
26 206
27 64
27 84
27 85
28 85
28 86
29 86
29 300
30 180
32 119
32 331
40 330
43 141
44 9
45 9
49 141
50 216
50 237
51 97
51 217
51 218
51 235
51 236
51 303
52 218
52 219
52 234
52 235
52 347
53 9
53 13
54 9
55 281
59 222
59 230
63 343
66 365
82 29
82 185
83 335
85 267
86 352
86 353
87 236
87 352
89 208
89 367
92 389
93 60
93 155
94 155
95 155
95 267
97 154
98 42
99 237
100 237
101 236
106 64
106 155
107 155
108 42
110 76
110 82
112 381
112 385
114 78
114 82
114 216
114 303
116 381
116 385
117 349
117 357
118 16
118 24
118 122
119 119
119 121
119 288
122 216
124 147
125 194
125 349
125 357
126 16
126 24
130 147
132 278
133 156
134 156
134 157
139 271
140 279
143 129
144 77
145 76
146 75
146 76
147 74
147 75
147 385
147 390
148 73
148 74
149 72
149 73
150 71
150 72
151 70
151 71
151 129
152 69
152 70
153 69
154 61
154 168
159 224
160 390
161 390
168 313
173 169
173 343
174 387
174 390
176 313
177 217
182 61
182 71
183 343
194 237
201 234
206 251
210 138
211 221
216 80
217 47
222 122
222 134
223 47
223 53
223 134
224 111
224 177
224 183
225 127
229 390
230 390
236 147
242 147
243 335
244 57
244 58
245 58
245 59
248 273
248 283
249 314
250 77
250 175
251 76
251 175
252 122
252 175
253 335
254 174
254 228
255 173
255 308
256 94
256 172
256 269
257 44
257 45
257 46
258 46
258 47
258 283
259 47
259 48
260 48
260 49
261 49
261 50
262 50
262 51
267 327
272 118
274 11
274 17
275 241
275 328
283 249
287 342
287 352
288 157
288 158
288 159
289 147
289 298
290 145
290 146
290 147
290 185
292 110
292 114
296 9
296 11
296 107
296 108
296 114
297 106
297 107
297 342
297 352
298 37
298 41
298 42
298 43
298 105
298 106
299 104
299 105
300 37
300 103
300 104
301 36
301 98
301 102
301 103
302 99
303 326
308 372
310 293
312 244
312 250
316 67
323 246
324 184
324 245
324 246
325 183
325 244
325 245
326 182
326 243
326 244
326 382
326 390
327 181
328 180
329 180
330 309
330 310
334 382
334 390
336 327
336 331
340 238
341 246
347 153
347 159
349 36
349 294
352 76
352 99
356 76
359 310
365 39
366 39
368 250
370 119
370 125
378 166
378 176
379 265
382 52
384 240
385 210
385 220
388 166
388 176
388 305
388 306
389 306
389 307
390 209
390 210
390 220
390 221
390 284
390 288
390 289
390 307
390 308
390 351

10
10 35
10 36
10 108
10 116
10 255
10 268
10 353
10 354
10 356
10 357
10 368
10 369
10 376
12 108
12 354
15 158
17 255
21 179
22 10
23 79
25 66
29 88
29 179
30 301
33 329
33 330
38 351
39 329
39 351
41 22
42 20
42 21
43 351
44 142
44 351
45 351
46 10
48 142
50 304
52 10
52 12
53 233
53 281
58 223
58 229
62 344
65 26
66 25
67 364
81 28
83 186
84 336
86 266
88 237
88 291
88 366
90 207
90 247
91 155
94 266
97 238
98 238
99 43
99 154
100 154
101 154
105 154
107 43
111 77
111 78
115 215
115 302
118 350
118 356
119 17
119 23
119 285
119 286
120 120
121 119
121 120
121 215
122 119
122 120
122 282
123 119
123 246
123 282
124 195
124 247
124 248
124 350
124 356
125 17
125 23
125 148
129 148
129 254
129 255
130 256
132 155
139 273
144 130
148 386
149 142
150 130
150 143
151 144
152 145
153 146
154 68
155 62
155 68
155 167
157 389
158 388
158 389
159 389
160 223
162 389
163 389
164 388
164 389
165 388
165 389
166 388
166 389
167 388
167 389
168 389
169 314
170 168
170 389
171 168
171 169
171 388
171 389
172 388
172 389
173 268
173 388
173 389
174 342
175 314
181 62
181 70
182 219
182 342
183 139
184 135
184 136
184 138
186 138
187 138
195 238
205 250
206 222
206 223
210 67
210 68
210 220
218 48
220 389
221 387
221 389
222 48
222 52
223 112
223 182
223 389
224 388
224 389
225 129
225 388
225 389
226 388
226 389
227 389
228 389
237 146
241 146
244 334
246 60
247 61
247 62
248 175
249 274
249 282
249 312
250 123
251 123
252 75
252 239
252 334
253 229
253 308
256 249
256 250
257 42
257 282
264 117
265 117
266 298
271 117
275 12
275 16
279 57
280 56
281 237
281 238
282 236
282 248
283 235
284 234
285 233
286 232
287 10
287 224
287 225
287 229
287 230
287 231
288 10
288 343
288 351
289 10
290 10
290 143
291 10
291 11
292 10
293 10
294 10
295 10
295 109
295 110
296 343
296 351
298 39
299 38
299 39
299 40
309 294
313 245
313 249
315 68
324 333
324 334
325 332
325 333
326 331
326 332
327 330
327 331
327 383
327 389
328 329
328 330
333 383
333 389
335 99
336 98
337 98
339 239
339 245
340 245
346 154
346 158
347 294
350 295
351 98
351 295
351 296
352 296
352 297
353 297
353 298
354 298
354 299
355 299
355 300
355 354
356 300
356 354
357 252
357 353
360 353
361 352
361 353
362 351
362 352
363 350
363 351
364 349
364 350
366 371
367 40
367 251
367 370
368 40
368 257
368 370
369 120
369 124
369 257
377 334
377 335
379 167
379 175
381 39
381 51
381 265
386 211
386 219
386 293
386 294
387 167
387 175
387 292
387 293
387 304
388 291
388 292
389 211
389 219
389 290
389 291
389 352

11
11 11
11 21
11 22
11 23
11 33
11 34
11 109
11 110
11 111
11 112
11 115
11 256
11 266
11 267
11 355
11 370
11 371
11 375
14 374
16 159
16 256
21 11
22 69
22 70
22 77
22 78
22 178
23 68
23 69
24 67
24 68
28 178
31 302
34 328
37 352
38 328
41 351
43 18
43 19
44 17
44 18
47 11
49 305
50 11
51 11
53 221
53 222
53 231
57 224
67 24
68 286
74 123
80 27
80 314
84 187
85 337
87 265
87 349
87 365
91 206
93 265
95 59
95 337
96 336
100 44
103 154
105 61
105 62
106 44
116 214
116 301
119 160
119 282
119 351
119 355
120 18
120 22
120 214
120 283
120 284
121 283
123 196
123 351
123 355
124 18
124 22
124 302
125 119
125 249
125 250
125 303
126 250
126 251
127 251
127 252
128 252
128 253
134 277
135 277
136 277
138 274
138 275
145 131
148 140
148 388
149 131
149 388
151 388
152 387
152 388
153 205
153 387
153 388
154 206
154 387
154 388
155 387
155 388
156 63
156 67
156 166
156 388
161 222
168 167
169 167
169 388
170 315
174 315
175 341
180 63
180 69
181 341
183 218
184 217
185 137
185 216
186 215
187 214
188 213
189 212
190 211
191 210
192 209
196 140
196 239
200 236
200 237
204 284
207 139
208 139
209 62
209 66
210 61
210 62
211 60
211 61
212 59
212 60
213 58
213 59
214 57
214 58
215 56
215 57
216 55
216 56
217 54
217 55
218 53
218 54
219 52
219 53
222 388
225 133
226 130
226 131
243 231
245 333
248 63
249 64
249 65
249 308
250 275
250 281
250 309
250 310
250 311
251 309
251 310
252 230
252 309
253 74
255 271
256 281
257 251
264 256
266 116
267 116
268 206
269 205
269 326
270 326
272 366
273 322
273 323
278 58
278 170
279 169
279 170
280 168
280 169
280 207
280 208
281 167
281 168
281 208
281 209
281 247
282 166
282 167
282 209
282 210
283 165
283 166
283 210
283 211
284 164
284 165
284 211
284 212
285 11
285 163
285 164
285 212
285 213
286 11
286 162
286 163
286 213
286 214
287 161
287 214
287 215
287 216
287 220
287 221
287 222
287 227
289 344
289 350
295 344
295 350
301 95
306 309
307 310
308 295
321 166
321 334
322 167
322 334
328 384
328 388
329 243
329 307
330 329
331 179
332 178
332 356
332 384
332 388
333 357
334 357
335 17
338 97
338 240
338 244
339 96
339 97
340 96
349 87
349 88
350 86
350 87
350 97
351 85
351 86
352 84
352 85
352 356
353 83
353 84
353 355
353 356
354 80
354 81
354 82
354 355
357 120
359 121
359 252
359 256
360 121
361 121
366 252
366 256
367 256
369 369
370 368
370 369
371 341
371 342
371 367
371 368
372 340
372 341
372 366
372 367
373 339
373 340
373 365
373 366
374 338
374 339
374 364
374 365
375 337
375 338
376 336
377 332
380 50
380 168
380 174
385 370
386 168
386 174
386 303
387 212
387 213
387 217
387 218
388 212
388 213
388 214
388 216
388 217
388 218
388 353
388 354

12
12 12
12 19
12 20
12 24
12 25
12 26
12 27
12 28
12 29
12 31
12 32
12 113
12 114
12 265
12 372
12 373
12 374
13 26
13 27
13 28
13 114
13 373
15 257
17 160
19 12
20 12
21 71
21 72
21 76
21 353
23 177
27 177
30 90
30 91
32 303
35 353
38 156
39 155
40 154
41 153
42 152
43 151
44 150
45 16
45 149
46 15
46 146
46 147
46 148
47 14
48 12
48 13
48 100
49 12
49 99
54 223
54 224
54 229
54 230
55 346
56 346
57 346
60 349
60 350
61 350
61 351
62 351
62 352
63 352
63 353
64 353
64 354
65 354
65 355
66 355
66 356
67 356
67 357
68 23
68 357
68 358
69 358
69 359
78 18
85 292
85 356
86 292
86 311
86 338
88 264
90 243
90 244
90 253
92 264
94 239
94 338
95 239
101 45
104 59
104 60
105 45
112 80
114 383
118 292
123 301
137 276
138 277
148 138
150 387
154 149
154 150
154 151
155 207
165 65
165 164
166 66
166 165
167 166
175 327
176 327
176 328
176 340
177 198
177 328
177 329
178 329
179 64
179 68
180 340
198 248
203 148
204 148
204 149
205 140
205 149
206 140
209 64
221 118
221 119
227 132
227 133
228 133
228 134
229 134
229 135
230 135
230 136
231 136
246 332
247 125
248 124
251 65
251 236
251 237
251 280
254 73
255 273
255 280
257 253
258 253
258 254
262 92
263 91
264 90
265 89
266 88
266 255
266 256
267 87
267 254
267 255
268 86
268 253
268 254
269 85
269 252
269 253
270 204
270 251
270 252
271 250
271 251
271 325
272 249
272 250
272 324
272 325
273 248
273 249
273 319
273 326
274 247
274 248
275 246
275 247
276 246
277 59
280 240
280 241
283 12
284 12
285 299
286 299
287 218
290 345
290 349
294 112
294 345
294 349
305 307
307 296
308 312
317 247
318 247
319 247
320 247
320 333
324 167
331 328
332 327
332 328
333 328
334 329
335 358
336 358
336 359
341 95
350 358
351 357
354 78
358 301
359 301
360 253
360 255
361 308
362 122
363 122
364 122
365 122
379 40
379 41
381 169
381 173
385 169
385 173
385 296
385 297
387 215
387 355

13
13 13
13 17
13 18
13 30
13 257
13 258
13 260
13 261
13 262
13 263
13 264
14 261
14 262
14 263
17 13
18 13
21 74
23 353
24 353
25 353
26 353
30 353
31 92
31 93
31 164
31 352
31 353
32 163
32 352
32 353
33 162
33 353
34 161
35 160
36 159
37 158
46 144
47 101
55 228
58 347
59 347
59 348
60 346
69 362
70 287
70 360
70 361
71 287
80 299
80 300
80 301
80 302
80 306
80 307
81 311
84 311
85 358
88 347
90 239
90 255
91 240
91 241
91 242
92 240
92 241
93 240
93 339
97 58
118 294
118 295
121 159
122 158
122 300
123 158
127 150
147 135
147 136
147 137
155 152
160 65
161 65
162 65
163 65
163 164
168 67
169 68
172 319
172 320
173 319
173 324
174 323
174 324
174 325
175 198
175 325
178 331
189 171
198 141
199 141
202 247
203 145
203 146
203 248
205 151
218 115
219 115
219 116
220 50
220 115
220 116
220 117
220 179
221 114
221 180
238 142
238 143
239 144
245 232
246 126
246 232
247 232
248 232
248 323
250 234
250 235
254 71
254 274
254 275
259 255
259 256
261 171
261 258
262 94
262 257
268 111
268 112
269 112
269 115
271 203
273 317
275 172
276 171
277 14
277 245
278 13
278 244
279 13
279 205
279 242
279 243
280 13
281 13
282 13
283 300
284 300
298 298
300 93
308 314
312 71
313 70
315 247
317 332
318 332
318 333
329 386
330 385
330 386
331 242
331 386
332 242
333 242
334 176
334 242
335 176
338 359
339 359
340 359
341 359
342 157
343 95
343 157
344 95
344 156
345 359
346 359
347 359
348 90
348 91
348 359
360 302
361 254
361 302
362 254
362 307
367 122
370 42
371 43
371 47
374 304
375 303
375 304
376 302
376 303
377 302
378 42
379 301
380 301
381 301
382 301
384 298
384 299
386 356
386 357

14
14 14
14 15
14 16
14 259
15 14
15 15
16 14
28 353
34 115
35 114
36 114
36 326
37 322
37 323
37 324
38 323
40 110
46 102
46 308
47 307
55 226
71 23
71 362
72 288
72 363
73 364
74 364
74 365
75 365
77 20
77 24
77 366
78 25
78 365
79 365
80 304
81 308
81 309
82 309
82 310
83 310
84 359
84 360
85 363
86 189
87 190
88 344
88 345
90 257
90 258
90 259
90 260
91 340
92 340
93 204
94 203
98 57
99 57
102 52
102 53
102 54
103 49
103 50
103 51
103 52
117 210
117 211
118 212
118 299
119 296
119 297
119 298
120 297
120 298
121 198
121 299
121 353
122 20
124 157
125 156
125 157
126 155
126 156
127 154
127 155
147 133
158 65
158 164
161 163
162 163
163 220
164 219
170 67
171 67
172 66
172 317
173 199
173 321
173 322
174 66
174 199
175 66
175 67
176 67
178 333
178 334
178 335
178 336
198 241
199 240
199 241
199 242
199 246
200 142
201 142
201 143
201 246
202 142
202 143
202 144
203 141
205 153
205 154
205 155
205 156
218 178
219 178
233 137
237 141
244 128
244 129
245 127
245 128
248 325
249 233
250 232
253 276
255 69
255 70
260 257
261 95
261 96
261 97
261 101
261 102
261 103
261 104
262 105
262 172
263 106
263 172
264 107
265 108
266 109
267 110
272 202
273 201
273 314
273 315
274 173
275 60
279 203
279 245
300 89
300 90
300 91
300 298
308 316
308 317
308 318
308 319
308 323
308 324
309 315
309 316
315 331
316 331
326 168
327 168
330 168
331 167
331 168
332 166
332 167
333 165
333 166
333 174
333 175
334 164
334 165
335 163
335 164
336 162
336 163
336 242
337 161
337 162
338 160
338 161
339 159
339 160
340 158
340 159
341 158
343 359
345 94
346 93
346 94
347 92
347 93
347 94
348 95
363 306
364 254
371 306
372 44
372 305
373 305
377 47
378 48
383 300
384 301
385 358

15
19 162
20 163
24 172
24 173
25 175
28 165
32 95
33 96
34 305
35 306
37 113
38 112
38 113
38 321
39 111
39 112
39 319
40 112
40 318
45 309
74 288
74 289
75 289
76 21
76 23
80 364
81 363
82 362
82 363
83 361
83 362
88 191
88 340
89 341
89 342
89 343
90 262
90 341
90 342
100 56
101 55
101 56
102 57
103 47
116 208
116 209
119 199
159 160
159 161
159 162
160 162
165 218
172 200
173 67
177 66
178 338
200 243
200 244
200 245
204 159
204 160
205 158
216 177
217 177
235 137
240 133
240 134
241 132
242 131
243 130
248 330
249 326
249 327
249 329
251 329
253 278
261 99
264 173
272 312
272 313
273 174
278 202
279 302
280 302
281 301
292 347
299 88
301 299
302 299
304 299
305 298
308 321
309 325
310 72
310 73
310 326
311 327
312 328
313 329
314 330
328 169
329 169
329 170
330 170
330 171
331 171
331 172
332 173
363 303
364 304
364 305
365 304
367 304
368 304
368 305
369 305
370 305
373 45
373 46
374 45
374 46
375 45
375 46
376 44
376 45
376 46
377 44
379 364
383 171
384 365

16
21 164
22 169
23 170
23 171
26 165
34 97
36 307
73 22
74 21
74 22
75 22
76 290
89 192
155 156
156 156
156 157
157 157
157 158
158 158
158 159
166 217
169 201
170 200
170 201
170 216
207 216
215 176
236 138
237 137
237 138
238 136
238 137
239 135
250 328
266 173
266 174
267 174
277 303
278 303
286 74
287 75
288 76
289 77
290 78
291 78
291 79
292 79
298 86
299 86
303 300
304 301
305 302
308 74
309 74
366 305
371 348
383 360
383 361
383 364

17
22 165
35 98
37 308
43 310
77 291
90 193
103 195
104 195
105 195
105 196
106 196
117 200
167 202
168 202
168 216
203 162
207 214
256 66
267 306
268 175
268 306
269 175
274 306
275 305
276 304
282 72
283 72
284 73
293 80
294 81
295 81
306 75
307 75
372 349
373 350
374 351
375 352
376 353
377 354
378 355
379 356
380 357
381 358
381 363
382 359
382 362
382 363

18
23 166
23 167
24 166
38 309
40 314
41 105
41 314
78 292
79 293
91 194
92 195
102 196
107 197
108 198
109 198
109 199
110 199
110 200
111 200
115 205
116 201
161 208
161 209
162 207
162 210
163 206
163 211
164 205
164 212
165 204
165 213
166 203
166 214
167 215
195 192
195 193
196 191
196 192
197 190
197 191
198 189
198 190
199 188
199 189
203 164
206 212
206 213
269 307
270 176
270 307
270 308
271 176
271 177
271 308
271 309
272 177
272 178
272 308
273 178
273 179
273 307
274 179
274 180
275 180
275 181
276 181
280 71
281 71
296 82
297 82
297 83
298 82
298 83
299 81
299 82
300 80
300 81
301 79
301 80
302 78
302 79
303 77
303 78
304 77
305 76

19
36 100
37 100
37 101
38 101
39 310
40 311
40 312
41 311
41 312
93 196
94 197
95 197
95 198
96 197
96 198
97 197
97 198
98 197
98 198
99 197
100 196
100 197
112 201
113 202
114 202
114 203
115 202
115 203
200 186
200 187
201 185
201 186
202 165
202 184
202 185
279 70

20
39 102
40 103
194 195
203 183
204 208
204 209
205 210
274 194
274 195
278 196

21
192 198
193 197
193 198
194 197
194 198
195 199
196 200
197 201
198 202
199 203
200 204
201 205
202 206
203 181
203 207
276 185

22
276 187
276 188
276 193
277 186
277 187
277 192
277 193
277 194

23
204 179
263 65
263 66
264 66
264 67
265 67
265 68
266 68
266 69
267 69
273 69
274 69
276 191
277 189

24
201 171
204 177
268 70
272 70

25
202 172
203 173
204 174
205 175
205 176
270 70
270 71

