0
0 335
0 355
38 0
39 0
57 0
58 0
162 0
178 0
227 0
241 0
253 399
275 0
293 399
317 399
328 0
399 0
399 39
399 167
399 183

1
1 32
1 33
23 267
23 277
36 359
36 369
40 1
46 359
46 369
53 142
56 1
100 73
104 164
104 165
110 73
150 179
154 165
156 77
160 169
160 179
181 54
191 54
229 7
239 7
246 228
252 398
256 238
259 212
261 70
261 80
271 70
271 80
276 1
327 1
333 342
334 342
334 343
334 353
344 343
344 353
348 48
358 38
358 48
390 76
390 86
398 1
398 38
398 75
398 87
398 168
398 182

2
2 15
2 27
2 34
2 56
2 336
2 354
14 15
14 27
33 126
33 138
35 91
35 103
41 2
42 6
43 225
47 91
48 193
48 205
50 23
55 2
55 300
55 362
55 378
60 193
62 11
62 23
69 134
71 300
71 362
71 378
77 212
77 213
81 134
81 209
81 225
87 304
88 87
88 99
90 397
94 310
97 209
97 225
100 193
103 26
111 80
116 177
116 193
118 335
119 10
119 26
119 128
119 144
128 288
128 300
130 279
134 56
134 72
135 128
135 144
150 105
150 117
162 117
163 2
164 12
173 78
176 12
177 2
177 286
184 118
184 357
184 373
193 28
193 302
196 118
196 130
200 357
200 373
203 247
205 40
210 287
212 294
215 216
215 232
221 329
224 246
224 294
224 306
228 2
229 2
231 275
237 329
237 345
239 2
240 2
243 275
250 264
261 94
264 250
272 233
277 94
280 250
281 52
286 258
290 31
293 40
293 152
293 168
294 397
295 397
306 321
313 389
315 397
316 397
320 338
325 194
325 210
326 2
327 49
327 61
331 355
331 367
333 268
335 125
359 4
359 222
367 187
379 280
379 292
386 35
391 280
391 292
397 2
397 37
397 76
397 86
397 169
397 181

3
3 35
3 337
3 353
4 211
4 229
19 250
22 211
31 337
31 349
36 280
37 250
42 3
46 235
48 268
48 280
49 314
54 3
59 74
60 350
61 214
61 272
61 290
73 202
77 74
79 272
79 290
89 44
89 62
90 314
115 107
116 106
116 107
117 105
117 106
117 396
118 105
122 375
126 232
126 244
131 314
131 332
138 232
138 244
140 367
140 379
141 54
152 367
156 390
163 65
164 3
164 64
164 65
168 29
168 350
173 176
174 61
174 372
174 390
175 245
176 3
180 338
180 350
182 106
191 176
210 344
210 356
217 40
222 356
227 378
227 396
230 3
230 80
232 234
235 23
235 35
238 3
242 80
242 92
244 284
244 296
245 378
250 249
250 396
251 396
256 284
256 296
261 164
261 281
267 127
267 145
273 281
277 3
278 3
278 213
278 225
279 182
285 127
287 366
287 384
288 67
296 211
296 396
299 305
308 136
308 148
313 332
314 193
314 211
314 396
320 136
320 148
323 14
323 180
325 3
327 39
341 315
341 333
345 21
357 22
357 255
396 3
396 36
396 143
396 157

4
4 16
4 26
4 36
4 55
4 338
4 352
11 105
11 117
12 339
12 351
23 105
23 117
25 269
25 275
38 361
38 367
43 4
44 4
44 5
44 361
44 367
45 4
45 5
46 4
46 5
47 4
51 140
52 4
53 4
75 153
77 117
80 4
83 153
91 395
92 385
102 71
107 109
107 117
108 71
108 156
108 164
113 269
113 277
115 109
115 117
116 156
116 164
116 322
120 260
122 46
122 76
123 76
128 260
139 164
139 172
139 285
144 346
146 69
148 223
156 87
156 334
156 346
158 171
158 177
163 67
165 4
165 326
173 326
175 4
189 52
195 69
196 244
197 263
200 302
200 314
202 4
202 16
207 69
210 24
212 314
214 4
214 16
231 4
231 5
232 4
232 5
233 4
235 4
236 4
236 5
237 4
237 5
249 395
254 236
256 14
261 200
261 214
263 72
263 78
263 112
269 72
269 78
275 112
279 4
283 283
286 184
286 192
294 184
297 395
299 246
311 246
313 395
314 72
314 84
316 380
322 72
322 84
336 345
336 351
338 225
342 345
342 351
348 89
348 101
350 46
351 296
351 304
356 40
356 46
359 296
359 304
360 89
360 101
366 160
368 144
379 258
379 270
380 132
384 156
391 171
391 179
392 78
392 84
395 4
395 77
395 78
395 84
395 85
395 170
395 171
395 179
395 180

5
5 17
5 25
5 37
5 38
5 54
12 17
12 25
16 39
16 53
26 270
26 274
35 128
35 136
37 93
37 101
39 362
39 366
41 227
43 362
43 366
44 43
44 57
45 93
48 5
49 5
50 195
50 203
51 5
51 7
51 8
52 8
52 9
52 21
52 247
53 9
53 10
58 43
58 57
58 195
59 132
60 13
60 21
66 233
66 247
71 136
73 212
76 152
79 136
81 18
82 152
85 165
85 179
85 306
86 89
86 97
87 313
92 394
94 344
94 361
99 165
103 70
106 298
107 70
108 110
108 116
109 157
109 163
114 110
114 116
114 276
115 157
115 163
115 321
116 394
118 102
121 47
121 261
126 290
127 261
128 277
132 8
132 22
132 88
132 102
140 165
140 171
140 286
146 8
147 68
149 247
149 261
151 193
152 107
152 115
155 20
157 172
157 176
160 115
163 247
163 261
166 10
166 327
168 194
168 195
169 193
169 194
170 192
170 193
171 80
171 191
171 192
172 327
174 10
176 135
176 149
186 120
188 51
190 149
194 120
201 199
203 38
221 99
222 296
222 304
233 273
234 5
235 194
235 208
241 273
246 32
246 46
248 394
249 208
256 232
257 231
258 230
262 215
264 73
264 77
268 73
268 77
270 231
280 5
283 50
287 185
287 191
292 345
293 185
298 394
299 5
300 5
301 5
306 345
312 394
315 73
315 83
321 73
321 83
323 5
324 5
325 51
325 59
325 288
329 157
329 357
329 365
330 277
330 278
331 276
331 277
335 270
337 346
337 350
341 346
341 350
351 45
352 297
352 303
355 41
355 45
355 114
357 220
358 297
358 303
360 280
361 6
369 114
381 282
381 290
388 200
388 214
389 282
389 290
392 172
392 178
393 79
393 83
394 5
394 34
394 35
394 79
394 80
394 82
394 83
394 144
394 156
394 172
394 178

6
6 18
6 24
6 39
6 53
6 213
6 227
6 339
6 340
6 350
6 351
11 18
11 24
20 213
21 248
33 272
33 273
33 339
33 347
35 248
36 129
36 135
38 94
38 100
40 228
44 94
46 270
46 278
50 6
51 196
51 202
53 20
54 11
57 196
58 348
59 14
59 20
61 76
63 212
63 274
63 288
71 204
72 137
75 76
77 151
77 274
77 288
78 137
79 318
80 318
81 6
81 151
84 307
85 90
85 96
91 46
91 60
93 393
109 111
109 115
110 158
110 162
113 111
113 115
114 158
114 162
114 320
115 275
115 393
120 48
120 377
122 262
125 291
126 262
127 276
128 234
128 242
133 316
133 330
136 234
136 242
141 166
141 170
141 287
142 369
142 377
148 67
153 114
158 388
159 114
162 69
162 70
165 61
166 6
167 6
167 9
167 328
170 31
170 81
170 348
171 328
172 59
172 374
172 388
173 6
173 9
173 191
174 6
175 178
177 243
178 348
180 104
187 121
189 178
193 121
203 6
212 346
212 354
213 6
220 354
221 297
221 303
226 89
227 88
228 393
232 82
233 25
234 236
234 272
240 82
240 90
240 272
243 380
246 286
246 294
247 393
254 232
254 286
254 294
259 187
259 188
260 186
260 187
260 229
261 185
261 186
262 184
262 185
263 166
263 183
263 184
263 279
264 182
264 183
269 129
271 279
276 215
277 180
281 6
283 129
288 186
288 190
289 382
290 65
297 6
298 6
298 209
299 393
301 303
302 6
303 6
310 138
310 146
311 393
312 195
312 209
315 330
316 74
316 82
318 138
318 146
320 74
320 82
321 12
322 6
324 52
324 58
325 178
328 358
328 364
329 37
333 276
336 271
339 317
343 23
345 36
345 37
346 37
346 38
347 38
347 39
348 39
348 40
349 40
349 41
350 41
350 42
351 42
353 298
353 302
357 298
357 302
359 20
359 257
362 7
382 283
382 289
388 283
388 289
392 175
393 6
393 33
393 81
393 145
393 155
393 173
393 174
393 175
393 176
393 177

7
7 40
7 52
7 341
7 349
10 19
10 23
10 341
10 349
13 107
13 115
21 107
21 115
30 272
31 272
34 340
34 346
37 130
37 134
39 95
39 229
45 271
45 277
52 197
52 201
54 13
54 19
58 15
58 19
58 303
58 365
58 375
64 211
68 365
68 375
70 205
70 211
71 211
73 138
74 309
75 115
77 138
82 7
83 308
84 95
84 222
94 212
94 222
103 190
106 23
112 51
113 180
113 190
114 83
114 337
114 392
116 13
116 23
119 378
122 80
122 131
122 141
123 72
124 292
126 275
129 235
129 241
131 59
131 69
132 131
132 141
135 235
135 241
143 370
143 376
146 344
150 221
152 66
153 66
154 67
154 113
154 344
155 68
156 69
157 70
158 71
158 113
159 72
160 73
161 74
161 75
162 75
162 76
163 76
163 77
164 77
164 78
165 78
165 79
165 195
168 7
168 8
169 7
171 7
171 58
171 347
172 7
172 8
172 218
173 217
174 216
175 215
176 214
177 213
177 347
187 360
187 370
188 122
190 299
191 36
191 37
192 35
192 36
192 122
193 35
194 242
197 71
197 360
197 370
202 304
202 312
204 7
204 14
205 33
205 71
206 32
206 250
207 31
207 284
208 30
209 29
210 29
210 312
212 7
212 219
212 229
213 347
213 353
219 353
220 298
220 302
224 332
229 381
232 26
234 332
234 342
235 237
235 271
239 83
239 89
239 271
244 237
244 238
245 236
245 237
245 392
246 235
246 236
246 392
247 234
247 235
247 287
247 293
248 233
248 234
249 233
253 233
253 287
253 293
258 16
259 198
262 229
264 97
264 278
265 110
267 253
273 110
274 97
275 216
277 253
282 7
286 282
290 155
290 165
291 64
294 7
295 7
295 8
296 7
300 392
301 248
301 392
302 302
304 7
305 7
306 41
307 40
307 41
307 305
307 306
308 40
308 306
308 307
309 248
309 307
309 308
309 392
310 308
310 309
310 392
311 139
311 145
311 309
314 378
316 329
317 139
317 145
321 7
323 53
323 57
326 177
327 359
327 363
328 197
338 128
340 223
343 36
350 91
350 99
358 91
358 99
360 258
370 142
377 260
377 268
378 134
383 284
383 288
386 154
387 284
387 288
389 32
392 7
392 32
392 146
392 154

8
8 19
8 20
8 22
8 23
8 214
8 226
8 342
8 343
8 344
8 346
8 347
8 348
9 342
9 343
9 347
9 348
14 41
14 51
14 108
14 114
20 108
20 114
28 272
35 341
35 345
36 273
41 364
44 272
44 276
46 45
46 55
52 236
54 245
55 14
55 15
56 45
56 55
57 130
59 304
59 366
59 374
64 235
64 245
65 210
67 366
67 374
69 206
69 210
74 114
75 310
83 8
83 16
84 213
85 221
87 167
87 177
93 213
93 221
94 391
95 391
96 363
97 167
104 66
104 67
104 189
105 68
107 22
108 300
112 181
112 189
114 50
115 14
115 22
115 50
115 84
118 379
120 100
123 132
123 140
130 60
130 68
130 100
130 236
130 240
131 132
131 140
134 10
134 236
134 240
144 10
144 314
144 371
144 375
145 168
145 313
146 168
146 169
146 312
147 168
147 169
147 311
147 343
148 169
148 310
149 170
149 309
150 61
150 62
150 63
150 171
150 308
151 171
151 220
151 249
151 259
153 173
153 195
153 343
154 173
155 174
161 72
161 249
161 259
166 80
166 81
169 332
169 333
169 334
170 8
170 57
170 218
170 334
170 335
171 335
171 336
172 336
172 337
172 346
173 337
173 338
174 296
175 190
175 295
175 296
176 346
178 137
178 147
185 48
185 94
186 49
186 93
187 92
188 147
188 361
188 369
189 298
193 241
196 361
196 369
198 72
199 201
201 269
203 33
203 305
203 311
204 72
205 8
205 13
206 283
207 251
211 8
211 28
211 220
211 228
212 29
213 30
214 30
214 348
214 352
218 352
219 97
225 333
229 391
230 87
231 27
233 333
233 341
236 238
237 196
237 206
238 84
238 88
242 238
244 391
248 34
248 44
248 288
248 292
251 233
252 288
252 292
258 190
258 191
258 197
259 17
263 228
264 217
264 228
265 98
265 180
265 218
265 277
266 75
266 109
268 254
269 277
270 277
272 109
273 98
274 217
276 254
283 8
284 8
289 156
289 164
292 8
292 63
293 8
294 347
302 249
302 262
302 263
302 391
303 391
304 347
306 8
307 8
307 391
308 249
308 391
311 311
312 140
312 144
313 377
316 140
316 144
318 78
320 8
323 286
327 176
329 198
331 159
335 275
336 275
339 129
339 348
341 222
351 92
351 98
353 43
357 92
357 98
357 116
358 278
361 19
367 116
369 206
370 206
371 141
376 261
376 267
377 135
386 202
386 212
387 153
390 24
390 25
390 29
390 30
390 31
391 8
391 23
391 24
391 25
391 26
391 28
391 29
391 30
391 31

9
9 21
9 41
9 42
9 50
9 51
9 215
9 225
9 345
13 42
13 50
15 109
15 113
18 215
19 109
19 113
23 246
33 246
47 46
47 54
54 236
55 46
55 54
55 244
56 199
57 200
58 201
59 202
60 203
60 305
60 367
60 373
61 204
62 205
63 78
63 206
63 236
63 244
64 207
65 207
65 276
66 367
66 373
73 78
73 113
75 142
75 143
75 276
75 286
77 310
78 147
78 148
79 149
84 9
84 15
85 214
86 214
86 220
88 168
88 176
92 214
92 220
93 48
93 58
96 168
96 390
97 315
97 364
99 12
101 62
101 63
102 63
102 64
103 65
105 188
109 351
111 113
111 182
111 188
112 160
114 15
114 21
116 51
116 85
117 51
117 52
117 273
118 50
118 52
118 53
118 272
119 53
119 54
120 54
120 55
121 55
121 56
122 56
122 57
123 57
123 58
123 265
123 266
124 133
124 139
124 264
129 61
129 67
129 99
130 133
130 139
135 11
135 318
135 328
143 11
143 168
143 289
144 290
144 316
148 342
150 65
150 306
152 172
152 219
152 250
152 258
152 342
154 196
160 250
160 258
160 386
162 196
163 196
168 223
169 223
169 330
170 224
170 376
170 386
171 225
172 33
172 226
173 227
173 297
174 228
175 229
176 230
177 180
177 231
177 295
178 102
179 138
179 146
179 241
184 47
185 133
186 132
187 131
187 146
187 180
188 130
188 291
188 297
189 129
189 291
189 362
189 368
190 126
190 127
190 128
190 290
191 289
192 240
192 288
193 287
194 286
195 34
195 285
195 362
195 368
196 34
196 284
197 34
197 283
198 202
198 282
199 73
199 282
201 34
201 267
202 34
202 265
202 266
203 73
204 306
204 310
205 282
206 12
208 252
210 14
210 227
215 31
216 32
217 32
217 33
218 33
218 96
224 255
225 255
225 256
226 256
226 257
226 334
227 257
227 258
228 258
230 390
232 87
232 334
232 340
238 197
238 205
240 239
241 239
241 382
242 390
243 390
249 35
249 43
257 192
257 196
260 18
265 168
265 178
266 99
266 219
269 255
271 131
272 99
275 178
277 148
278 148
278 149
279 149
279 150
281 131
285 9
288 157
288 163
288 281
290 9
290 188
291 9
291 189
291 380
292 189
292 190
293 190
293 191
294 191
294 192
295 192
295 193
295 348
296 193
296 194
297 194
297 195
298 195
298 196
299 196
300 207
303 250
303 261
304 260
305 390
306 302
306 303
306 390
307 250
308 9
309 9
310 197
310 207
312 312
312 313
315 54
316 54
317 55
318 55
318 76
318 80
319 9
319 55
322 285
323 361
325 278
330 199
332 160
336 331
337 274
337 319
340 130
341 25
341 35
341 274
342 221
342 274
343 274
352 93
352 97
355 300
356 93
356 97
357 277
358 117
362 18
363 10
366 117
372 140
375 262
375 266
385 203
385 211
388 152
390 9
390 21
390 22
390 27
390 147
390 148
390 152
390 153

10
10 43
10 49
10 216
10 224
12 43
12 49
17 216
17 227
18 228
19 229
20 230
21 231
22 232
23 233
24 234
24 245
32 245
37 231
38 274
39 132
39 274
39 343
40 131
40 274
41 97
42 98
48 47
48 53
54 47
54 53
54 199
55 237
56 17
56 237
56 243
61 306
61 368
61 372
62 237
62 243
64 79
65 368
65 372
66 277
72 79
74 277
74 285
75 140
76 144
77 145
77 146
78 311
79 311
81 92
81 310
81 313
82 93
85 14
87 215
87 219
89 169
89 175
91 215
91 219
94 49
94 57
95 169
97 389
101 13
102 13
106 187
109 353
109 354
109 355
110 183
110 187
113 20
117 86
121 295
122 267
122 294
123 272
124 59
124 60
124 273
125 134
125 138
128 62
128 66
128 98
129 134
129 138
136 12
136 319
136 327
142 12
145 291
148 373
149 373
150 373
151 374
152 375
153 251
153 257
153 376
154 377
155 197
155 378
156 111
156 379
157 109
157 110
159 251
159 257
161 197
161 385
169 297
169 377
169 385
170 297
171 297
173 34
174 340
174 341
174 342
177 101
178 181
180 145
180 240
182 44
182 45
182 95
183 46
185 135
186 145
186 181
187 292
187 296
190 124
190 363
190 367
194 363
194 367
197 203
199 34
200 281
202 271
203 264
204 263
204 281
205 262
206 10
206 261
207 10
207 260
208 259
209 10
209 12
209 13
209 226
209 253
209 257
209 258
210 10
216 301
217 95
217 301
218 300
219 34
220 34
221 90
227 335
229 33
231 335
231 339
231 383
231 389
233 86
234 86
237 269
238 242
238 243
238 244
239 198
239 204
239 246
240 247
240 383
240 389
241 389
250 36
250 42
266 169
266 177
266 227
267 100
267 107
267 226
267 273
270 256
271 100
271 107
272 132
274 177
280 132
280 151
280 152
283 15
283 16
284 14
284 15
285 13
285 14
286 10
286 12
286 13
287 10
287 11
287 12
287 162
288 10
288 11
289 10
292 379
296 349
300 266
300 267
301 206
301 265
302 387
303 388
304 389
305 258
305 295
305 296
305 297
305 301
306 293
306 294
307 293
309 198
309 206
310 10
310 18
311 10
311 17
312 16
317 10
318 10
321 55
321 284
322 360
325 361
331 200
336 320
339 274
340 26
340 34
341 131
347 131
348 131
349 130
350 129
351 128
352 127
353 126
354 125
355 124
356 276
359 118
365 118
376 139
377 139
378 140
379 141
380 142
381 143
382 144
383 145
384 146
384 204
384 210
385 147
385 286
386 148
387 149
388 149
388 150
389 10
389 19
389 20
389 149
389 150
389 151

11
11 44
11 45
11 46
11 47
11 48
11 217
11 223
12 46
16 217
16 224
16 225
25 236
25 237
25 244
31 244
37 343
40 342
41 342
42 274
43 99
44 100
45 101
46 102
47 103
48 104
49 48
49 52
49 105
50 106
51 107
53 48
53 52
57 238
57 242
61 238
61 242
65 80
67 208
67 278
67 285
67 286
71 80
73 278
73 284
80 312
85 11
86 11
86 13
87 331
90 170
90 174
94 11
94 170
95 11
95 12
95 50
95 56
96 11
98 388
100 60
103 14
107 52
116 381
120 271
120 296
122 269
122 271
124 68
125 61
125 62
125 66
125 67
127 97
132 238
137 13
137 320
137 326
143 318
143 319
146 292
146 373
150 337
150 338
151 304
154 252
154 256
156 198
158 108
158 252
158 256
158 379
159 107
160 106
160 198
161 105
162 104
163 103
164 102
164 298
165 298
167 297
168 55
168 378
168 384
174 344
179 182
180 95
181 144
181 239
185 144
185 182
186 37
191 91
201 77
201 78
208 11
208 308
209 307
209 308
210 306
210 307
211 305
211 306
212 304
212 305
213 303
213 304
214 302
214 303
215 302
216 350
217 349
218 348
219 90
219 347
220 346
221 33
221 345
222 344
223 343
224 342
225 341
226 340
227 339
228 30
229 29
232 384
236 86
237 267
238 240
239 384
240 199
240 203
250 290
251 41
267 170
267 176
267 275
268 220
268 225
268 271
268 272
269 220
269 270
269 271
271 220
272 219
273 133
273 176
276 37
277 37
277 145
278 38
279 39
279 133
279 263
280 40
280 264
281 41
281 153
281 265
282 42
282 154
282 266
283 43
283 267
284 44
284 268
285 45
285 269
286 46
286 270
287 47
287 271
288 48
288 272
289 48
289 273
293 378
294 61
295 60
297 350
302 205
305 254
305 255
305 256
305 299
308 35
308 199
308 205
312 11
313 14
313 315
314 142
314 316
314 317
315 11
316 11
316 29
320 283
320 360
322 279
323 279
327 29
329 174
330 173
335 321
339 27
339 33
345 132
346 132
357 123
358 123
360 119
363 16
364 119
364 125
364 126
365 127
366 128
367 129
367 262
368 130
368 263
369 131
369 263
369 264
370 132
370 264
371 133
371 264
372 134
373 135
374 136
375 11
376 11
376 12
377 11
377 12
378 11
378 12
379 11
379 12
380 11
381 11
382 11
383 205
383 209
388 11
388 17
388 18

12
15 218
15 222
15 223
17 111
26 238
26 239
26 243
30 243
35 234
36 234
42 341
43 131
52 108
66 81
68 279
68 283
68 284
70 81
70 110
71 111
72 279
72 283
85 332
87 12
88 12
88 13
89 12
90 12
91 12
92 12
93 12
94 173
95 173
96 51
96 174
97 175
98 176
99 177
99 387
100 178
100 387
101 179
102 180
103 181
104 182
105 14
105 15
105 52
105 183
106 15
106 184
107 358
107 359
108 347
108 357
111 16
113 387
119 297
121 96
121 270
138 321
142 320
142 321
142 328
142 329
143 330
144 331
145 332
146 333
147 293
147 334
148 34
148 294
148 335
149 35
149 295
149 336
150 36
150 296
150 340
151 302
154 217
155 216
158 207
163 299
166 54
166 221
167 379
167 383
180 183
180 294
181 294
182 238
182 294
183 192
183 193
183 294
184 137
184 138
184 183
184 193
184 194
185 194
185 195
186 195
186 196
187 196
187 197
188 197
188 198
189 198
189 238
190 238
193 91
201 75
202 274
202 275
202 276
202 277
206 308
212 254
213 254
213 255
214 254
214 255
215 255
217 91
218 91
218 254
219 254
220 254
221 254
223 32
223 33
224 32
225 31
225 32
226 31
226 32
227 31
227 32
232 387
233 385
233 387
238 385
238 387
239 387
253 195
254 195
255 194
262 20
263 21
268 171
268 175
269 104
269 105
269 106
269 223
269 224
270 221
270 222
270 223
270 269
271 268
272 175
272 267
273 266
274 134
278 134
282 18
282 19
282 156
283 156
290 49
290 275
290 279
291 49
291 50
291 275
291 279
292 50
292 51
293 51
293 52
294 52
294 53
295 53
295 54
296 54
296 59
301 198
302 199
303 204
305 252
307 200
307 204
309 21
312 53
313 12
314 12
315 318
318 361
319 361
320 280
321 280
329 29
331 172
334 322
338 28
338 32
343 135
343 136
343 137
343 138
344 137
344 138
344 139
345 139
345 140
345 141
346 140
346 141
346 142
346 143
346 273
354 95
359 122
360 122
363 123
363 124
365 12
365 15
365 16
365 205
365 263
366 263
372 12
373 12
373 264
374 12
374 138
374 207
383 12
384 12
387 12
387 15
387 16

13
13 218
13 219
13 221
13 222
32 236
33 235
33 236
34 235
44 341
52 121
52 122
52 123
53 109
58 317
63 308
63 370
69 109
89 217
101 366
101 370
101 371
101 386
102 386
105 361
105 362
106 360
106 361
107 16
108 16
108 17
108 185
108 345
109 16
109 17
110 17
111 18
113 302
113 303
115 300
116 299
116 300
117 299
118 298
126 64
127 136
141 326
141 327
148 29
148 30
148 31
148 32
150 38
150 52
152 300
152 301
156 215
157 211
158 45
158 46
158 202
158 203
158 204
158 205
159 46
159 47
160 47
160 48
160 380
161 48
161 49
161 299
161 380
164 219
165 99
165 219
178 96
183 139
183 140
184 38
185 294
192 365
194 90
195 90
202 279
206 223
207 224
211 255
212 92
216 92
216 254
229 337
234 386
235 386
236 385
236 386
237 386
241 251
244 201
245 201
246 201
250 197
251 196
251 197
252 196
264 22
269 102
272 258
273 259
276 143
281 20
281 21
284 158
297 58
303 200
309 23
309 24
309 32
309 33
310 53
315 281
316 281
316 319
317 320
318 320
318 321
319 321
332 171
333 202
333 329
334 203
343 133
346 145
347 147
347 148
347 149
348 148
348 273
349 273
350 273
351 273
366 13
366 14
367 13
367 14
368 13
368 14
369 13
369 14
370 13
371 13
376 207
377 207
378 207
379 207
385 13
386 13
386 14

14
14 220
29 239
30 238
31 237
45 130
46 130
51 50
53 120
54 110
54 118
54 119
55 111
55 117
55 118
56 116
56 117
57 115
57 116
59 240
59 316
59 318
60 315
61 314
62 313
63 312
64 311
65 309
65 310
66 102
66 308
66 309
67 101
68 100
68 108
69 99
70 98
71 97
72 96
83 331
92 172
101 368
102 53
102 365
102 372
102 373
103 53
103 364
103 373
103 374
103 385
104 363
104 385
107 343
107 344
112 306
112 307
112 385
113 305
114 301
124 94
125 95
139 15
140 16
140 325
147 26
147 27
148 27
150 50
152 297
153 298
155 298
156 254
156 298
156 299
157 213
157 298
157 299
158 200
158 299
159 299
161 217
162 217
162 218
162 381
163 218
163 381
165 97
176 97
179 38
180 38
182 38
182 187
182 188
182 189
182 190
183 142
189 201
196 89
205 222
210 91
211 91
214 92
240 252
240 253
242 201
247 200
248 199
249 198
253 39
254 38
265 23
274 35
274 260
274 261
274 262
274 263
275 260
275 261
275 262
276 138
276 139
276 140
276 141
292 277
293 277
298 55
298 57
299 56
299 352
300 353
304 201
308 52
309 52
310 25
310 26
310 30
310 31
312 283
313 282
313 283
314 282
314 363
315 363
316 362
318 281
320 322
321 322
323 328
331 30
332 30
332 328
333 30
333 170
334 30
348 150
348 151
353 273
354 272
355 271
355 272
356 270
356 271
357 269
357 270
358 268
358 269
359 267
359 268
360 266
360 267
361 265
361 266
362 121
362 265
363 264
381 207

15
28 241
46 340
47 340
50 126
50 127
50 129
51 125
59 320
67 107
68 83
69 84
69 85
70 281
71 332
72 332
72 333
74 332
75 332
81 331
98 53
99 54
99 55
100 54
100 55
101 54
104 375
105 376
105 384
106 377
106 384
107 378
108 379
111 308
111 309
111 384
121 88
122 89
122 90
122 91
122 92
122 93
123 90
123 91
123 92
123 93
140 323
141 17
141 18
146 24
146 25
151 40
151 41
151 48
151 49
154 299
158 214
159 215
160 216
165 381
166 95
166 96
175 96
176 39
177 38
177 39
181 39
182 185
184 236
185 235
198 88
198 89
199 88
201 83
203 221
204 221
205 87
206 87
206 88
207 88
207 89
208 89
209 90
255 37
256 37
266 24
270 173
271 172
272 171
273 170
274 169
275 168
276 136
276 167
277 166
278 165
279 24
279 25
279 164
280 23
280 163
281 162
282 161
283 160
295 276
295 277
300 55
301 54
301 354
302 53
303 52
305 202
306 50
307 51
331 325
331 327
332 324
336 30
347 152
349 191
350 190

16
48 129
48 339
49 128
49 339
57 112
58 112
58 113
59 111
59 112
60 110
60 111
61 109
61 110
62 108
62 109
63 107
63 108
64 106
64 107
65 105
65 106
69 331
70 86
70 87
70 331
76 331
77 330
78 329
78 330
79 329
79 330
80 330
96 327
97 326
98 325
99 324
100 323
101 322
102 321
103 320
104 319
105 315
105 316
105 318
105 339
105 340
106 314
106 315
106 341
107 313
107 314
107 383
108 312
108 313
108 383
109 311
109 312
110 310
110 383
142 19
142 20
143 20
143 21
144 21
144 22
145 22
145 23
152 42
152 43
152 47
165 49
165 50
166 48
166 49
167 47
167 48
167 89
167 90
168 46
168 47
169 45
169 46
170 44
170 45
171 43
171 44
172 42
172 43
172 95
173 41
173 42
173 95
173 96
174 40
174 41
175 40
186 234
200 87
201 87
238 256
238 257
238 261
239 255
239 256
257 36
258 35
258 36
259 35
278 26
278 27
302 355
305 51
311 28
323 323
324 324
324 326
325 324
325 326
329 325
330 326
344 215
351 187
351 188

17
67 329
68 330
71 88
72 89
72 90
73 90
73 91
73 92
74 91
98 333
99 333
100 334
101 335
102 336
103 337
104 338
109 382
152 45
153 44
153 45
168 91
170 94
171 94
190 204
190 205
190 206
190 207
191 206
202 85
202 86
203 86
236 259
237 258
237 259
237 260
260 34
261 33
262 32
263 31
264 30
265 29
271 31
272 31
273 31
274 30
274 31
275 30
276 29
277 28
303 356
303 357
304 357
304 358
326 325
327 325
328 326
352 185
352 186

18
51 338
52 337
53 337
60 323
95 330
95 331
96 331
96 332
97 332
168 93
169 93
187 232
188 231
188 232
189 230
189 231
190 209
190 229
190 230
191 228
191 229
192 227
192 228
193 226
193 227
194 225
194 226
195 224
195 225
196 223
196 224
197 222
197 223
198 222
267 28
267 29
268 28
268 29
269 29
269 30
270 30
299 275
299 276
300 276
300 277
301 277
301 278
302 278
302 279
303 279
303 280
304 280
304 281
305 281
305 282
305 359
306 282
306 283
306 360
307 283
307 284
307 361
308 284
353 183
353 184

19
54 336
55 336
60 325
190 212
191 212
191 213
192 213
192 214
193 214
193 215
194 215
194 216
195 216
195 217
196 217
196 218
197 218
197 219
198 219
198 220
199 220
301 371
301 372
301 373
301 377
302 372
302 376
352 181
352 182

20
56 335
57 334
58 333
59 332
60 331
61 326
61 327
301 375
302 370
302 374
303 368
303 369
304 367
304 368
305 366
305 367
306 365
306 366
307 364
307 365
308 364
355 205
356 205

21
61 329
62 328
350 177
350 178
351 179

22
349 175
349 176

23
344 207
346 161
347 172
347 173
348 174

24
345 206
346 164
347 162
347 163
347 164

25
345 168
345 169
346 167
346 168
346 169
346 170
346 205
347 166
350 204

26
347 204
348 203
348 204

