0
0 0
0 14
0 144
0 172
18 0
19 0
41 0
53 399
65 0
73 399
165 0
179 0
236 0
290 399
304 399
307 0
308 0
399 120
399 121
399 193
399 194
399 228
399 250
399 364
399 390

1
1 1
1 13
1 57
1 73
1 277
1 278
1 300
1 301
13 136
17 1
23 136
42 1
54 398
64 1
69 1
72 65
72 398
82 55
91 1
94 359
94 369
96 38
96 48
104 359
104 369
106 38
106 48
134 202
139 34
144 202
166 1
166 40
167 8
177 8
178 1
184 367
184 377
185 1
186 1
194 367
194 377
209 66
239 195
239 205
246 237
246 238
248 319
249 195
249 205
258 319
261 252
261 253
291 398
292 391
296 303
303 398
306 1
314 397
323 256
324 387
324 397
333 246
333 256
344 257
354 247
354 257
369 240
369 250
379 240
379 250
398 82
398 119
398 192
398 365
398 389

2
2 2
2 12
2 58
2 72
2 145
2 146
2 170
2 171
2 279
2 299
9 281
10 280
10 281
11 59
11 71
11 279
11 280
12 147
12 397
13 146
13 329
13 341
16 2
18 383
23 227
25 329
25 341
32 34
43 2
44 34
44 46
44 163
45 13
52 316
53 215
56 163
61 13
63 2
68 300
68 316
68 341
68 353
74 252
80 28
80 81
80 341
80 353
95 143
96 12
96 28
98 63
98 302
98 318
111 143
114 302
115 136
131 120
131 136
149 255
149 271
162 181
165 255
165 271
170 19
175 150
181 239
182 39
183 39
187 2
204 249
207 142
217 61
219 3
220 233
223 142
229 61
237 2
250 224
250 240
253 140
262 193
265 115
266 224
272 291
275 37
278 148
278 273
287 156
287 172
291 37
291 53
293 30
294 273
294 289
305 2
316 19
316 31
320 291
336 291
338 232
338 244
344 327
348 285
356 327
359 294
359 310
360 57
361 121
361 133
363 169
363 185
373 121
373 133
379 185
384 162
396 162
397 118
397 191
397 229
397 230
397 248
397 249

3
3 3
3 59
3 71
3 93
3 103
3 147
3 169
3 280
3 298
11 149
13 261
13 279
13 396
15 3
16 201
16 213
19 171
28 201
31 261
34 13
34 25
41 272
43 139
44 3
53 272
53 390
54 391
55 396
56 396
61 139
61 157
62 3
69 390
70 3
70 396
71 19
71 396
83 396
90 3
101 396
113 223
115 251
118 38
121 182
122 182
122 183
123 183
127 275
127 293
135 155
135 173
140 381
140 393
145 275
145 293
152 381
152 393
154 36
167 3
168 3
169 210
169 228
176 3
177 3
188 3
189 94
192 199
193 43
201 94
204 199
204 321
205 322
211 183
211 195
220 302
223 183
223 195
224 268
224 286
226 22
227 21
227 22
228 21
234 39
238 302
245 302
246 39
246 51
246 265
248 159
254 391
258 253
258 265
260 3
263 302
266 82
277 166
281 349
292 396
293 396
296 337
301 396
302 396
304 3
305 182
314 337
317 170
317 182
346 92
348 230
349 229
349 230
350 229
369 359
373 284
380 210
380 228
383 264
383 276
396 83
396 117
396 190
396 231
396 247

4
4 4
4 10
4 11
4 94
4 102
4 148
4 168
4 281
4 297
9 28
11 94
11 104
12 105
13 106
13 116
14 4
14 389
14 395
15 138
15 144
21 138
25 51
25 59
29 245
33 59
34 118
37 171
46 118
57 241
57 395
58 82
58 94
66 51
68 36
69 395
70 82
70 94
70 364
70 372
74 63
74 281
80 36
86 281
88 150
88 162
96 79
96 361
96 367
98 40
98 46
99 213
102 361
102 367
103 334
104 40
104 46
115 352
115 360
117 55
122 104
122 194
123 360
132 334
132 346
135 242
136 200
136 228
142 200
149 129
149 137
150 88
168 38
168 133
169 4
169 6
175 4
175 6
176 82
176 90
177 255
177 263
184 272
186 369
186 375
188 159
188 171
189 4
192 369
192 375
193 122
196 260
196 310
196 318
204 310
207 64
217 21
218 22
219 23
226 119
226 358
228 19
230 394
238 131
241 197
241 203
247 197
247 203
249 279
250 317
256 317
268 198
277 300
283 131
285 300
286 191
286 199
294 393
294 395
298 305
301 381
303 4
309 381
310 298
313 139
313 151
316 228
316 240
316 395
320 111
320 123
320 363
320 375
322 389
322 395
325 254
328 228
329 51
329 63
331 248
331 254
332 4
336 166
336 174
341 51
344 4
344 166
344 174
346 255
348 213
348 232
349 269
351 20
351 32
352 255
367 385
368 105
371 242
371 248
373 49
373 57
377 242
377 248
379 394
381 49
381 57
391 233
391 245
391 355
391 394
395 84
395 116
395 189
395 232
395 246

5
5 5
5 9
5 60
5 61
5 69
5 70
5 95
5 101
5 149
5 167
5 282
5 296
9 61
9 69
10 27
10 95
10 101
10 102
12 5
13 5
14 108
14 109
14 115
15 331
15 339
16 139
16 143
20 139
23 331
23 339
26 52
26 58
31 49
31 84
32 48
32 49
32 58
33 47
33 48
34 36
34 46
34 47
35 46
36 170
38 150
38 151
42 36
42 44
43 354
45 5
45 84
46 5
46 161
46 375
47 374
57 354
57 392
58 394
68 394
69 365
69 371
70 343
70 351
75 204
75 218
76 254
78 343
78 351
84 394
85 382
89 5
89 204
97 362
97 366
98 214
99 41
99 45
99 382
100 394
101 362
101 366
102 109
102 123
103 41
103 45
109 177
116 359
118 54
121 105
122 79
122 359
123 186
123 193
136 79
137 199
141 199
153 335
153 349
154 108
167 335
167 349
168 108
168 122
169 37
170 5
171 5
172 5
172 6
173 5
174 5
175 83
175 89
178 256
183 43
184 342
184 356
187 370
187 374
190 5
191 8
191 370
191 374
197 311
197 317
198 356
199 296
203 311
203 317
203 318
205 122
206 63
206 123
207 124
208 125
209 126
213 296
216 19
220 25
220 26
223 12
226 25
227 59
227 252
228 75
228 89
230 51
231 50
231 393
232 49
241 238
242 75
242 106
242 198
242 202
246 198
246 202
251 316
253 351
255 316
256 120
259 5
263 113
265 51
265 65
266 252
269 197
271 7
271 21
278 301
279 65
279 327
280 238
280 252
280 326
284 301
285 33
285 192
285 198
295 394
296 394
297 394
299 110
301 5
302 5
302 21
302 382
308 382
311 299
311 387
312 388
313 389
314 390
317 394
318 21
321 390
321 394
325 244
326 245
326 253
327 246
330 253
332 190
332 204
337 167
337 173
340 234
340 242
342 362
342 376
343 167
343 173
346 190
346 204
346 325
347 254
350 270
351 254
354 325
363 123
363 131
371 123
371 131
372 243
372 247
374 50
374 56
376 243
376 247
380 50
380 56
386 164
392 114
392 187
394 85
394 114
394 115
394 164
394 187
394 188
394 233
394 245

6
6 6
6 8
6 62
6 68
6 150
6 166
6 283
6 284
6 295
8 62
8 68
9 96
9 100
9 151
11 26
15 110
15 114
15 162
15 263
15 393
16 163
16 332
16 338
16 393
18 203
21 169
22 332
22 338
26 203
27 53
27 57
29 263
31 51
31 57
32 15
32 23
35 37
35 44
35 169
41 37
41 43
45 141
47 6
47 160
47 297
48 297
48 298
49 298
49 299
49 389
50 299
50 300
51 274
51 300
51 301
52 301
52 302
53 302
53 303
59 141
59 392
59 393
60 392
60 393
61 392
61 393
62 393
64 393
65 392
65 393
66 392
66 393
67 392
67 393
68 366
68 370
71 344
71 350
73 17
77 255
77 344
77 350
85 393
88 6
97 215
99 393
113 249
115 225
117 358
120 40
120 106
121 358
124 187
124 188
124 192
129 277
129 291
137 157
142 383
142 391
143 277
143 291
150 383
150 391
152 38
171 212
171 226
174 84
174 88
179 257
191 6
191 96
192 6
198 312
198 316
199 96
202 201
202 312
202 316
213 185
213 193
221 185
221 193
222 304
225 26
225 27
226 58
232 392
234 48
236 304
244 41
244 49
247 300
248 263
250 157
252 389
253 309
256 255
256 263
258 6
261 300
264 84
274 283
274 284
275 283
279 302
279 347
281 324
283 302
284 193
284 197
298 335
298 393
299 307
299 393
303 383
307 180
307 383
309 387
312 335
315 172
315 180
316 391
317 391
319 22
327 248
333 6
338 168
338 172
341 235
341 241
342 168
342 172
343 6
346 244
346 245
347 234
347 235
347 246
347 324
348 90
348 247
350 225
351 271
351 282
351 283
353 324
364 124
364 130
370 124
370 130
371 282
371 361
375 51
375 55
378 212
378 226
379 51
379 55
381 173
381 174
381 266
381 274
382 172
382 173
383 171
383 172
384 170
384 171
387 165
392 109
392 110
392 111
392 112
392 178
392 182
392 183
392 184
392 185
392 235
392 236
392 237
392 241
392 242
392 243
393 86
393 106
393 108
393 109
393 110
393 111
393 112
393 113
393 165
393 177
393 178
393 179
393 181
393 182
393 183
393 184
393 185
393 186
393 234
393 235
393 236
393 237
393 238
393 240
393 241
393 242
393 243
393 244

7
7 7
7 63
7 64
7 65
7 66
7 67
7 96
7 97
7 99
7 100
7 151
7 152
7 164
7 165
7 285
7 286
8 7
8 65
17 333
17 337
17 392
19 204
21 333
21 337
25 204
30 52
30 53
31 16
31 22
31 243
36 38
36 42
36 43
40 38
40 42
44 116
47 389
48 7
48 10
48 159
50 218
50 275
55 239
55 303
55 313
60 7
60 84
61 7
63 392
65 303
65 313
68 49
68 84
68 92
72 345
72 349
74 54
75 55
76 56
76 279
76 345
76 349
77 57
77 58
78 38
78 256
83 78
84 279
86 392
87 7
90 152
90 160
93 25
95 66
98 392
101 305
105 332
108 146
111 305
112 248
115 331
115 332
116 332
116 333
117 333
117 334
118 133
118 334
118 335
119 335
119 336
120 336
120 337
120 351
120 352
121 177
121 350
121 351
122 349
122 350
123 348
123 349
124 348
128 123
128 133
130 336
130 344
133 240
143 384
143 390
149 384
149 390
151 39
152 86
152 258
152 268
159 178
162 258
162 268
173 22
184 45
184 46
184 236
186 161
186 169
186 270
192 97
193 7
194 7
194 8
195 7
195 120
196 7
197 7
198 7
198 97
201 202
203 120
206 327
207 246
210 129
210 139
214 186
214 192
220 139
220 186
220 192
225 57
226 12
228 360
236 48
236 129
241 250
242 250
242 251
243 42
243 48
243 251
243 252
244 252
244 253
245 253
245 254
246 254
246 255
247 255
247 256
248 256
249 262
251 281
253 227
253 237
253 311
253 312
255 256
255 262
257 7
263 227
272 284
278 40
281 276
281 322
282 310
286 30
288 50
290 159
290 169
291 276
291 286
299 156
300 7
300 155
300 392
301 154
301 391
302 153
302 390
303 152
303 389
304 151
304 387
304 388
307 386
308 179
308 386
311 141
311 149
314 173
314 179
318 113
318 121
318 230
318 238
318 392
319 391
319 392
320 23
320 392
322 365
322 373
326 230
328 249
331 53
331 61
334 7
339 300
339 301
340 301
342 7
342 236
346 236
348 323
349 30
349 249
349 250
350 215
352 281
352 323
356 297
357 60
365 125
365 129
366 172
366 182
369 125
369 129
369 383
370 103
376 182
379 174
380 267
380 273
388 166
389 357
389 392
392 104
392 105
392 107
392 166
392 175
392 176
392 180
392 239

8
8 98
8 153
8 154
8 155
8 156
8 157
8 158
8 163
8 287
8 288
8 294
9 8
10 8
18 141
18 391
19 112
19 142
20 112
20 143
20 205
21 111
21 112
21 144
22 110
22 111
22 145
23 109
23 110
23 146
24 108
24 109
24 147
24 205
25 108
25 148
26 108
26 149
26 150
30 17
30 21
30 389
31 388
32 242
32 387
33 86
34 151
43 86
43 115
45 356
45 379
49 8
49 9
49 219
49 276
50 8
50 9
51 8
51 9
52 8
54 8
54 238
55 8
55 9
55 356
56 8
56 9
56 304
56 312
57 8
57 9
58 8
58 9
59 8
60 91
61 85
61 91
64 304
64 312
64 368
67 85
67 91
70 39
71 8
72 8
77 39
77 60
77 206
77 216
77 278
78 60
78 61
80 264
81 255
81 256
82 254
83 253
83 278
84 77
84 252
85 251
86 8
86 250
87 206
87 249
87 384
87 391
88 248
91 153
91 159
92 24
94 67
97 384
97 391
99 364
101 43
102 306
104 121
106 331
107 147
110 306
111 175
113 331
119 132
119 353
119 354
122 337
124 77
124 346
127 124
127 132
128 60
128 190
129 190
129 337
129 343
130 190
138 195
138 196
139 197
144 385
144 389
148 385
148 389
150 40
153 85
153 259
153 267
155 337
155 347
156 110
158 177
161 259
161 267
165 337
165 347
166 110
171 35
172 34
173 67
174 23
174 66
175 65
185 47
185 162
185 168
185 235
186 344
186 354
187 269
189 372
193 98
196 119
196 354
197 24
197 98
198 23
199 8
199 22
200 8
200 21
200 203
201 20
201 294
202 19
202 119
203 18
204 17
204 61
205 16
206 329
208 245
211 130
211 138
211 294
215 187
215 191
219 138
219 187
219 191
222 242
222 243
222 272
222 282
223 243
223 244
229 361
230 77
230 87
235 128
236 43
237 47
238 47
239 240
240 77
242 43
242 47
244 200
249 257
250 257
250 261
253 314
254 228
254 236
254 257
254 261
262 228
267 53
267 63
268 250
273 19
277 63
277 194
278 141
278 194
278 195
278 240
278 250
278 331
279 41
279 140
279 195
280 139
280 195
281 138
281 306
281 307
281 308
282 320
282 321
283 312
289 318
290 277
290 285
291 160
291 168
299 131
300 19
300 130
301 112
301 129
302 128
303 127
304 149
309 178
310 142
310 148
313 174
313 178
317 114
317 120
319 231
319 237
323 366
323 372
324 240
325 231
328 251
332 54
332 60
334 192
334 202
335 8
340 364
340 374
341 8
344 192
344 202
345 241
345 242
348 29
349 252
351 216
351 222
351 223
356 61
367 173
367 181
370 382
371 102
374 245
375 181
379 268
379 272
388 358
391 87
391 88
391 102
391 103
391 173
391 174

9
9 159
9 160
9 161
9 162
9 289
9 290
10 160
10 161
11 9
11 161
12 10
13 11
13 24
14 12
14 23
15 13
16 14
16 294
17 15
17 16
17 112
17 265
19 390
20 389
20 390
21 389
21 390
22 389
22 390
23 390
26 389
27 265
27 389
28 107
28 108
28 389
29 55
32 166
33 167
33 241
34 87
42 114
45 295
45 381
45 388
46 357
47 143
48 220
53 9
53 237
54 357
57 143
57 305
57 311
62 86
62 90
62 368
63 305
63 311
66 86
66 90
66 368
73 9
73 51
74 9
76 40
78 207
78 215
78 277
79 62
80 63
80 260
80 261
80 262
81 64
82 65
82 277
83 66
84 67
85 68
85 76
86 207
88 385
91 23
92 158
93 68
93 76
96 385
100 241
100 242
101 242
101 243
102 243
102 244
103 244
103 245
103 307
105 111
105 120
106 148
107 318
107 319
107 330
108 320
109 307
111 330
112 174
112 330
117 109
117 227
118 108
119 356
120 131
120 174
120 175
122 42
123 167
123 338
124 338
125 76
126 125
126 131
126 190
128 338
131 279
131 289
132 238
137 194
139 70
139 71
139 159
140 69
140 70
140 185
140 186
141 68
141 69
141 184
141 185
141 279
141 289
142 67
142 68
142 183
142 184
143 67
154 84
154 260
154 266
156 338
156 346
157 111
157 127
157 176
158 126
158 127
159 125
159 126
160 125
160 260
160 266
163 146
163 147
164 147
164 148
164 338
164 346
165 111
165 148
165 149
166 149
166 150
170 85
171 85
172 86
173 33
173 214
173 224
175 24
181 259
182 260
184 163
184 167
187 345
187 353
195 106
195 353
196 25
196 29
196 106
196 107
197 29
197 107
197 108
197 118
198 30
198 108
198 109
199 31
200 32
200 314
201 9
201 33
201 118
202 9
202 34
202 293
203 35
204 36
205 37
207 330
209 244
210 293
212 131
212 137
220 242
222 30
223 29
224 306
228 13
229 13
229 14
230 13
230 362
231 78
231 86
234 13
234 306
234 390
235 13
235 389
237 44
238 44
238 241
238 249
239 249
250 387
255 229
255 235
261 229
262 86
268 54
268 62
268 285
269 249
269 285
270 285
272 168
274 18
274 142
275 142
275 193
276 62
276 142
276 193
277 241
277 249
277 345
278 282
278 333
281 304
282 195
283 138
283 314
287 318
289 278
289 284
292 161
292 167
298 159
298 160
299 9
299 18
299 167
300 167
300 333
301 168
301 309
302 113
302 169
303 170
304 171
305 172
305 385
306 173
307 174
308 175
309 147
309 175
310 333
316 115
316 119
316 303
317 302
318 301
319 300
320 232
320 236
320 300
324 232
324 238
324 367
324 371
333 55
333 59
335 193
335 201
336 300
339 365
339 373
340 170
343 193
343 201
344 240
347 28
350 88
352 217
352 221
353 273
354 298
354 299
355 62
368 174
368 180
371 381
372 101
373 363
374 180
376 214
376 224
377 53
387 359
390 89
390 100
390 101
390 167
390 168
390 171
390 172

10
10 291
10 292
10 293
11 292
11 293
12 293
14 294
15 22
17 293
18 266
18 292
18 293
19 292
19 335
24 19
24 389
25 18
25 19
26 19
26 266
27 158
28 155
28 156
31 152
31 165
32 152
35 88
35 386
38 40
41 88
42 88
44 294
44 382
44 383
44 387
47 221
47 358
48 144
48 368
50 157
53 358
56 144
58 306
58 310
60 367
61 367
62 306
62 310
71 41
74 347
75 10
76 10
79 208
79 214
80 258
80 269
86 69
86 75
88 245
88 389
89 386
89 389
90 22
92 69
92 75
95 386
95 389
96 389
104 308
105 149
105 245
106 112
106 119
106 245
107 245
108 308
109 322
113 173
116 110
118 228
119 173
123 43
125 126
125 130
125 343
125 344
126 75
131 230
131 237
132 280
132 288
139 187
139 188
140 160
140 280
140 288
143 181
143 182
144 180
144 181
145 179
145 180
146 178
146 179
147 178
155 261
155 265
156 175
157 339
157 345
158 112
159 261
159 265
162 145
163 339
163 345
164 112
165 80
165 81
166 81
166 82
167 82
167 83
168 83
168 84
169 84
174 32
174 215
174 223
175 31
176 25
183 261
186 27
188 27
188 346
188 352
194 352
195 102
195 103
195 104
199 110
201 60
203 10
203 292
204 10
207 38
208 38
208 331
210 243
213 132
213 136
221 31
221 32
223 55
225 307
232 13
232 79
232 85
233 307
236 12
236 388
237 11
237 242
237 248
238 10
238 11
239 10
239 11
240 10
240 357
241 356
241 357
242 355
242 356
243 354
243 355
244 353
244 354
245 353
249 386
252 284
256 10
256 230
256 234
257 11
260 230
261 87
268 187
269 55
269 61
269 187
269 188
270 248
271 143
272 142
272 143
274 192
275 17
275 61
276 242
276 248
276 344
277 334
277 335
283 318
284 315
284 316
284 317
285 316
285 317
286 317
288 279
288 283
293 162
293 166
297 161
297 162
297 166
298 10
298 17
298 166
301 332
303 114
304 124
309 332
313 304
314 303
314 304
322 25
323 25
323 29
323 236
323 237
336 10
336 194
336 200
337 10
338 366
338 372
339 10
340 10
342 194
342 200
343 302
344 238
346 314
347 312
347 313
347 314
347 315
347 316
348 315
349 319
349 320
350 321
351 87
353 300
354 63
354 279
355 273
355 278
367 127
369 175
369 179
373 179
374 364
375 175
375 215
375 223
376 175
389 98
389 99
389 169
389 170

11
16 21
19 267
20 291
21 18
21 290
22 18
22 164
22 207
22 289
23 18
23 164
23 208
23 209
25 267
28 19
28 152
29 153
29 154
30 153
30 164
36 89
36 101
37 100
37 386
38 386
39 385
39 386
40 89
40 385
43 293
46 279
47 278
48 359
48 366
54 155
55 145
72 42
72 47
72 48
73 48
77 11
80 209
80 213
80 271
80 272
80 273
87 70
90 387
90 388
91 74
91 388
93 388
94 387
94 388
107 113
107 118
109 244
109 245
109 324
109 325
109 326
110 244
114 172
115 111
118 172
119 229
120 168
121 168
124 44
126 342
127 74
133 281
133 287
136 191
137 190
138 189
139 281
139 287
141 161
146 387
148 42
156 130
158 340
158 344
159 113
160 122
162 141
162 142
162 143
162 340
162 344
163 113
169 67
175 222
176 30
177 29
179 65
179 165
180 165
184 262
185 262
185 263
186 263
186 264
187 49
187 264
187 265
188 50
188 265
188 266
189 347
189 351
190 27
191 27
191 28
192 27
192 266
193 266
193 351
195 100
196 346
197 206
197 345
197 346
198 205
198 344
198 345
199 112
199 113
199 114
199 343
199 344
200 342
200 343
201 341
201 342
202 340
202 341
203 339
203 340
204 291
204 338
204 339
205 11
205 337
205 338
206 11
206 12
206 336
206 337
207 11
207 12
207 336
208 11
208 12
209 11
209 12
209 39
209 332
210 11
212 11
213 11
213 12
214 11
214 12
215 11
215 12
216 11
216 12
217 11
217 189
218 35
219 34
219 133
220 33
220 133
220 274
221 132
222 131
223 130
224 129
225 128
226 127
226 308
227 126
227 244
228 125
229 125
230 125
232 308
233 80
233 84
233 336
234 125
234 337
235 124
235 338
236 123
236 243
236 247
236 339
237 122
237 340
237 387
238 121
238 341
239 120
239 342
240 45
240 119
241 11
241 118
242 11
242 83
242 117
243 11
243 12
243 84
243 116
244 11
244 12
244 85
244 115
245 11
245 12
245 86
245 115
245 351
246 11
246 12
246 87
247 11
247 88
248 89
248 385
249 11
250 11
250 12
251 11
251 12
252 11
252 12
252 259
253 11
253 12
254 11
255 11
256 147
260 88
264 287
265 287
266 286
269 144
270 60
270 144
270 189
270 190
270 191
271 190
271 191
271 247
272 191
272 192
273 12
274 12
274 60
275 243
275 247
275 343
276 16
281 282
284 40
284 41
285 137
286 137
287 137
291 137
292 137
293 137
297 11
302 331
304 115
304 122
308 309
308 331
309 308
310 307
311 176
311 306
312 305
337 57
337 195
337 199
337 367
337 371
338 11
338 12
338 13
338 14
338 57
339 57
340 58
341 59
341 195
341 199
342 60
343 61
344 62
345 63
346 64
347 64
348 310
348 311
348 317
348 318
349 309
349 310
350 309
356 219
356 277
357 219
358 219
373 176
374 176
374 216
374 222
375 271
375 365
376 271
377 270
388 96
388 97
388 388

12
17 20
18 19
19 18
20 268
24 210
24 211
24 268
25 211
25 212
26 212
26 213
27 213
27 214
28 163
28 214
28 215
29 163
29 215
29 216
30 216
30 217
31 217
35 239
36 238
38 98
39 111
40 112
41 386
42 292
43 385
45 280
49 364
49 365
50 234
51 235
54 146
56 365
57 365
58 366
64 88
72 45
73 43
73 44
73 45
73 46
74 42
78 12
80 275
88 71
89 242
89 243
90 73
90 230
91 221
92 387
94 156
95 155
103 154
103 155
104 156
105 157
106 158
106 312
106 313
106 314
106 315
107 159
108 160
109 161
109 328
110 162
111 114
111 163
111 243
112 114
112 164
112 242
113 113
113 165
113 241
114 112
114 166
114 167
114 240
115 239
116 238
117 237
118 169
118 236
119 169
119 235
120 230
120 234
125 45
126 340
129 65
129 231
129 236
134 282
134 286
136 47
138 282
138 286
142 162
148 44
156 82
157 81
157 131
162 80
171 158
172 158
172 159
173 159
173 160
174 160
174 161
175 161
175 162
176 162
176 163
177 163
178 164
180 27
181 27
181 28
182 27
182 28
182 165
183 27
190 266
193 348
194 27
194 267
194 348
195 268
195 347
196 207
196 269
197 270
198 56
198 271
199 55
199 56
199 59
199 116
199 272
200 54
200 55
200 273
201 53
201 54
201 229
201 274
202 52
202 53
202 230
202 275
203 51
203 52
203 231
203 275
203 276
204 50
204 51
204 232
204 276
205 49
205 50
205 233
206 48
206 49
206 234
207 47
207 48
207 235
208 46
208 47
208 236
208 335
209 45
209 46
209 237
209 335
210 40
210 44
210 45
210 238
211 12
211 239
214 241
215 241
216 241
217 37
217 38
217 134
217 241
218 134
219 275
221 52
222 52
227 309
230 335
231 309
231 335
232 125
232 364
233 365
238 386
240 83
241 343
242 343
246 114
247 114
247 384
248 12
250 90
253 286
255 101
255 102
256 100
256 101
257 100
257 338
258 158
258 338
259 89
259 159
259 233
259 337
260 160
260 233
260 234
261 161
261 234
261 235
261 338
262 162
262 235
262 236
262 338
263 163
263 236
263 237
263 288
264 148
264 164
264 165
264 237
264 238
265 147
265 148
265 238
265 239
266 146
266 147
266 239
266 240
267 146
267 240
267 241
268 145
268 184
268 241
268 242
269 242
269 243
270 243
270 244
271 244
275 13
275 338
276 13
276 337
282 281
283 42
283 43
283 281
284 281
289 137
296 12
303 330
305 120
305 121
307 145
307 311
307 312
307 330
313 117
314 117
322 234
323 299
324 299
325 26
325 28
325 299
326 299
326 369
328 369
330 299
331 299
332 299
333 299
335 57
344 25
345 26
346 302
348 65
349 65
351 307
352 68
352 69
352 70
354 219
357 274
357 276
362 219
372 273
373 217
373 221
373 272
373 273
374 99
374 272
375 98
384 362
385 361
387 90
387 94
387 95
387 387

13
25 163
25 288
26 162
27 162
31 219
32 219
32 220
37 237
38 93
38 94
38 95
38 96
38 110
44 224
44 281
45 223
49 233
50 363
53 153
53 363
54 363
54 364
55 364
60 308
79 13
87 19
88 20
88 73
89 72
90 71
90 219
90 220
90 232
90 233
90 234
90 235
95 241
96 154
97 154
99 152
100 152
100 153
101 152
102 152
102 153
103 151
106 310
109 114
110 115
111 116
111 117
112 117
112 118
113 118
113 119
114 119
114 120
115 120
115 121
115 168
115 169
116 121
116 122
117 122
117 123
118 123
118 124
119 124
119 125
120 125
120 126
121 126
121 127
122 127
123 128
128 234
129 67
129 234
134 47
134 72
149 54
149 55
150 55
150 56
151 56
151 57
152 57
152 58
153 58
153 59
154 173
157 133
157 263
158 80
158 133
158 134
160 137
160 138
161 117
161 118
161 119
161 120
161 139
166 68
167 68
169 157
170 157
177 216
178 27
181 64
182 64
190 51
190 52
195 208
198 58
200 226
200 227
205 277
206 278
212 241
212 333
213 334
215 47
215 134
216 39
216 47
216 48
217 48
217 49
218 49
218 50
219 50
219 51
220 51
225 322
225 323
226 321
226 322
227 320
227 321
228 319
228 320
229 245
229 318
229 334
230 245
231 245
232 245
237 82
238 82
239 82
239 384
243 344
244 344
246 348
246 349
252 90
254 103
254 340
255 339
255 340
256 339
257 98
257 149
257 155
257 156
258 156
258 232
261 288
263 149
263 339
265 166
265 167
265 340
268 182
274 339
274 341
282 46
282 47
283 45
286 281
295 164
298 137
299 137
299 138
300 138
300 139
301 139
301 140
302 140
302 141
303 141
303 142
304 142
304 143
305 143
305 144
306 119
306 313
306 314
307 118
308 117
309 117
310 117
311 117
326 27
327 27
328 299
330 369
331 369
332 369
333 369
343 24
347 303
348 303
350 66
350 303
350 305
350 306
351 66
351 67
351 302
352 65
352 84
364 219
371 177
371 274
386 92
386 93
386 386

14
22 272
22 273
22 274
23 272
27 288
33 221
37 109
38 91
38 236
40 285
40 286
41 284
41 285
42 283
42 284
43 282
48 232
50 361
52 152
52 362
80 14
82 211
83 212
84 212
86 18
90 237
91 240
91 241
93 240
94 240
98 153
109 116
116 170
124 232
125 232
125 233
126 232
126 233
127 53
127 232
127 233
129 72
130 68
130 69
130 71
132 71
133 71
141 46
142 46
159 78
159 79
159 135
159 136
160 79
160 342
161 115
164 69
165 69
183 63
184 63
191 53
191 349
194 209
206 289
207 288
211 334
214 333
215 333
216 332
216 333
217 277
217 332
218 277
224 324
226 333
227 333
227 334
229 313
229 314
229 315
229 316
234 245
235 82
239 382
240 362
248 345
249 113
249 345
250 112
250 344
251 343
252 342
253 91
253 341
254 91
254 105
254 112
254 295
254 296
254 297
254 298
257 94
257 95
257 96
258 150
260 150
261 149
261 150
267 340
268 177
268 178
268 179
268 180
268 340
269 340
270 340
272 58
273 56
273 57
273 245
274 55
274 56
275 54
275 55
276 53
276 54
277 52
277 53
278 14
278 51
278 52
279 50
279 51
280 49
280 50
281 48
281 49
294 14
295 14
305 325
305 326
306 117
328 26
335 369
339 197
342 23
349 304
353 72
359 275
360 275
361 275
362 82
362 275
363 82
363 83
364 83
364 84
365 84
366 219
366 275
367 219
367 275
368 219
368 275
369 219
369 275
383 91
384 91
385 91
385 385

15
22 270
23 275
24 276
24 277
25 277
25 278
26 278
26 279
27 279
27 280
28 280
28 281
29 281
29 282
30 282
30 283
31 283
34 222
35 106
35 107
36 108
36 289
37 289
38 288
38 289
39 235
39 287
39 288
39 289
40 234
40 290
46 230
47 231
49 149
51 149
51 151
52 148
81 15
82 15
85 15
85 17
85 213
86 214
87 215
88 216
89 217
91 238
92 239
122 232
127 47
128 48
131 48
131 70
132 48
136 284
147 47
147 50
147 51
148 52
155 168
156 167
157 166
158 165
159 75
159 164
160 163
161 162
162 161
163 160
164 159
165 158
166 157
167 156
179 217
208 279
208 287
212 42
213 43
214 44
216 42
218 331
219 330
219 331
224 326
224 332
225 332
229 311
239 363
239 364
240 381
244 381
245 382
246 345
247 346
251 111
253 106
253 107
253 111
254 293
255 92
255 288
255 289
255 292
255 293
256 92
256 93
257 91
258 153
258 289
259 151
259 289
266 169
267 170
267 171
267 172
267 173
267 174
268 175
272 340
280 15
281 15
293 15
303 323
304 316
304 323
304 324
305 316
305 328
330 25
330 26
331 25
341 22
353 74
353 82
364 275
371 219
379 366
382 92
384 384

16
29 287
30 287
33 287
34 287
34 288
35 223
35 288
41 233
42 232
50 150
83 16
84 16
128 51
129 49
129 50
130 49
144 47
145 48
146 48
146 49
152 169
153 168
153 169
186 62
187 61
188 61
197 225
209 285
209 286
215 43
215 278
215 279
221 330
223 327
223 328
237 367
237 368
238 368
238 369
238 370
239 371
240 372
241 373
241 374
241 375
241 380
242 375
243 380
252 108
252 109
252 110
253 109
256 290
256 291
257 290
282 16
283 16
290 16
291 16
291 17
292 16
303 317
303 321
332 24
333 24
354 75
354 76
359 81
360 81
367 85
368 86
369 86
380 92
380 93
383 366
383 383

17
31 286
32 286
36 224
37 225
38 226
39 226
39 227
40 227
40 228
41 228
144 166
144 167
145 167
151 168
180 219
181 219
189 60
190 60
191 57
193 59
194 213
210 280
210 284
211 280
211 282
211 283
213 280
214 280
222 329
223 330
238 366
241 377
242 377
242 378
242 379
284 17
285 17
288 17
289 17
301 318
301 319
302 318
302 319
302 320
334 23
335 22
335 23
336 22
355 80
355 81
357 80
358 80
370 87
371 87
378 93
381 370
381 371
382 367
382 369
382 370
382 371
382 372
382 382

18
42 229
43 229
146 168
147 168
147 169
148 168
148 169
149 168
182 220
191 59
192 58
212 281
286 18
287 18
337 21
355 78
356 79
372 88
373 89
374 89
374 90
375 90
375 91
376 91
376 92
377 92
380 375
380 376
380 377
381 368
381 373
381 374
381 375
381 376
381 377
381 378
381 380
381 381

19
193 215
194 224
380 379

20
154 66
155 67
156 68
157 69
158 70
184 221
185 222
186 222
186 223
187 223
193 217

21
192 218
192 219
192 222
193 222

22
189 222
190 221
191 220
191 221

