0
0 0
0 201
0 265
14 399
15 399
23 0
31 399
32 399
37 399
155 0
169 0
221 399
222 399
254 0
255 0
399 273

1
1 1
1 34
1 35
1 49
1 50
1 200
1 266
5 52
6 258
12 345
12 355
15 52
16 268
16 398
22 1
27 159
30 398
38 398
79 119
79 129
89 129
107 327
112 356
115 47
121 152
121 162
121 185
122 346
125 47
125 57
131 185
134 398
156 1
157 8
158 398
163 205
167 8
168 1
173 205
173 215
177 200
181 260
187 200
191 1
209 254
209 264
219 264
220 247
223 398
229 281
229 291
230 247
230 257
239 281
239 291
247 275
247 285
249 169
253 1
257 275
257 285
259 159
259 169
273 149
278 92
278 102
283 149
288 92
288 102
313 282
313 292
317 111
317 121
323 282
326 398
327 111
327 398
344 1
345 1
345 398
346 398
379 127
398 81
398 99
398 274
398 313

2
2 2
2 36
2 48
2 174
2 199
2 301
9 239
14 289
14 301
17 397
21 360
21 372
23 62
25 239
29 209
29 397
30 302
30 318
39 62
39 397
45 325
45 337
46 318
47 131
47 147
50 50
57 325
57 337
65 93
77 170
77 182
79 265
80 143
80 159
80 397
85 107
89 170
95 249
96 159
102 51
102 250
106 311
114 63
117 232
118 250
131 31
132 55
132 67
133 216
135 397
137 308
140 353
147 15
147 31
148 366
153 292
154 153
154 165
157 397
170 41
179 254
181 126
181 142
185 56
185 72
186 302
197 126
197 142
197 212
197 224
201 56
202 302
202 318
212 360
212 376
224 397
239 141
239 328
239 344
241 145
241 157
244 364
249 352
252 2
253 11
253 145
253 318
255 397
256 241
256 257
257 362
259 96
261 340
265 11
265 318
265 330
269 350
269 362
271 96
271 108
272 230
278 197
278 213
280 128
280 140
288 358
288 374
292 128
294 197
294 213
295 156
298 152
299 152
300 338
311 156
311 172
319 85
319 101
322 140
325 240
328 397
335 85
335 101
338 124
338 140
344 397
345 327
345 339
346 2
352 15
358 111
358 127
367 42
370 2
370 284
370 296
374 111
379 42
381 268
382 82
382 98
393 268

3
3 3
3 12
3 37
4 108
4 126
17 44
17 45
18 44
18 396
20 3
21 3
21 34
25 255
26 256
27 257
28 396
31 89
35 66
49 71
51 120
53 161
53 173
53 372
61 19
61 31
63 120
73 19
73 31
73 227
73 245
83 85
91 227
101 85
104 165
104 177
116 165
119 175
119 176
120 176
120 177
121 177
136 396
145 177
145 324
148 46
155 222
155 351
156 396
157 3
158 3
158 84
163 306
166 3
166 64
167 3
179 12
179 30
185 225
185 243
192 3
208 202
211 53
213 127
216 86
220 274
220 286
225 396
226 220
238 203
241 50
247 44
251 3
254 379
261 140
263 370
263 382
272 178
273 128
273 140
275 370
275 382
288 148
290 178
295 227
300 136
313 227
313 245
313 322
326 211
329 396
330 392
331 322
338 211
342 392
343 396
345 56
345 74
346 265
346 295
347 3
357 346
358 295
363 56
363 74
364 265
364 283
369 3
375 346
396 312

4
4 4
4 38
4 175
4 197
4 198
4 300
9 211
13 50
14 347
14 353
15 45
17 203
17 211
19 4
19 395
20 395
21 395
22 74
22 82
22 395
23 394
23 395
24 395
25 395
26 395
27 395
29 161
29 258
29 266
32 24
37 266
37 343
40 395
41 391
41 395
44 24
46 256
48 349
49 291
54 256
57 291
65 308
66 374
75 44
75 52
78 374
79 395
81 127
83 44
83 52
84 62
95 353
100 66
100 67
101 65
101 66
102 64
102 65
103 63
103 64
104 63
105 329
106 192
107 221
113 142
113 154
114 105
114 117
117 275
117 276
118 276
118 277
118 295
118 303
119 209
120 348
123 49
123 55
123 154
123 160
123 183
125 14
125 22
126 110
126 122
126 303
129 183
135 245
137 395
138 110
138 122
140 85
141 232
146 262
155 395
158 262
159 4
159 6
163 173
163 185
165 4
165 6
165 207
167 217
171 207
172 193
175 173
183 262
185 198
193 4
193 91
195 291
195 384
195 392
203 384
203 392
211 256
211 262
216 41
217 262
222 249
226 395
228 249
228 255
231 283
231 289
234 172
237 283
237 289
243 104
245 80
249 4
249 6
249 277
249 283
250 4
251 167
253 80
254 395
255 277
255 283
257 111
257 112
257 161
257 167
258 110
258 111
259 109
259 110
260 108
260 109
261 108
262 64
275 151
279 253
280 94
280 100
281 151
286 94
286 100
294 251
298 392
306 251
310 380
310 392
315 284
319 113
319 305
320 20
320 32
321 284
325 113
327 367
330 395
331 293
331 305
332 20
332 32
341 249
342 395
348 4
349 26
349 38
353 249
359 23
360 22
360 23
361 21
361 22
362 21
365 200
367 148
368 4
375 355
375 363
376 26
377 125
377 200
379 136
383 355
383 363
385 225
385 237
395 57
395 98
395 311

5
5 5
5 11
5 39
5 40
5 176
5 299
8 199
9 199
9 200
10 200
10 201
10 210
11 201
12 49
12 299
15 348
15 352
16 204
16 210
17 10
18 5
23 75
23 81
23 370
27 149
30 162
30 259
30 265
31 207
42 392
42 394
43 228
47 89
47 327
47 335
48 89
48 90
48 278
49 90
49 91
50 91
50 92
50 292
50 394
51 92
51 93
51 394
52 93
52 394
53 394
55 327
55 335
56 292
57 214
57 228
62 264
62 278
69 192
69 206
76 45
76 51
78 394
79 172
80 334
82 45
82 51
82 126
85 63
87 172
104 53
104 61
104 330
112 61
116 175
117 366
117 380
119 296
119 302
122 50
122 54
123 178
124 155
124 159
124 178
124 182
125 302
126 15
128 182
134 57
136 244
138 355
140 233
140 276
141 84
142 244
142 245
143 245
143 246
144 246
144 247
145 247
145 248
146 248
146 249
147 249
147 250
152 155
152 163
153 386
160 5
161 5
162 5
162 6
163 5
164 5
166 208
167 215
168 101
168 115
170 208
177 252
182 115
184 263
187 280
189 322
189 323
190 321
190 322
191 321
195 351
196 385
196 391
199 214
199 222
201 266
202 385
202 391
203 191
212 22
212 257
212 261
213 21
213 22
214 20
214 21
214 148
215 19
215 20
216 261
223 250
225 45
226 46
227 47
227 250
227 254
227 394
228 394
232 284
232 288
236 284
236 288
243 147
243 155
245 5
246 5
246 6
246 79
247 5
247 6
248 5
250 278
250 282
251 147
251 350
252 79
252 166
254 278
254 282
255 13
255 320
256 166
259 360
261 63
261 98
261 106
263 13
263 320
263 328
267 352
269 98
269 106
274 54
274 274
274 288
276 152
278 252
280 152
281 95
281 99
285 95
285 99
286 27
286 41
288 274
288 288
290 130
297 56
297 70
298 148
302 340
311 56
311 70
316 285
320 114
320 285
324 114
326 366
327 238
331 394
332 393
332 394
333 393
333 394
334 393
334 394
335 394
337 394
338 393
338 394
339 393
339 394
340 393
340 394
341 394
347 329
347 337
349 5
350 5
353 218
364 318
367 5
369 22
370 23
370 131
371 132
372 286
372 294
375 27
376 124
376 169
376 356
376 362
377 40
381 58
381 72
382 356
382 362
383 270
384 309
390 155
390 169
390 323
390 337
391 270
394 97
394 310

6
6 6
6 10
6 41
6 42
6 110
6 124
6 177
6 284
6 285
6 286
6 287
6 298
7 285
8 197
11 203
11 209
11 298
12 46
13 46
15 205
15 209
17 6
23 36
24 76
24 80
24 369
31 260
31 264
32 206
43 393
44 393
45 392
45 393
46 393
47 73
47 87
47 393
48 328
48 334
48 393
49 393
51 163
51 293
51 370
53 118
54 328
54 334
54 393
55 293
55 393
61 118
61 300
61 301
63 21
63 29
71 21
71 29
75 229
75 243
77 46
77 50
77 393
80 173
81 46
81 50
85 83
86 64
86 173
89 229
99 69
99 83
105 54
105 60
106 175
111 349
112 350
114 167
120 301
121 277
124 301
127 16
135 58
137 243
137 356
138 393
139 234
139 393
141 243
142 83
143 175
147 322
150 48
151 156
153 393
154 393
156 82
157 224
157 349
161 308
164 62
176 251
181 14
181 28
183 227
188 106
188 324
197 386
197 390
200 215
200 221
201 386
201 390
210 204
213 55
214 84
215 125
216 18
216 258
217 258
218 257
218 276
218 284
219 256
220 255
221 254
222 253
223 253
224 218
229 6
229 393
230 6
231 6
236 201
242 6
243 6
243 7
244 6
244 148
244 154
247 78
249 42
249 157
250 148
250 157
250 158
251 78
251 158
251 159
252 159
252 160
252 381
253 160
253 161
253 393
256 14
256 321
260 359
262 14
262 99
262 105
262 321
262 327
263 138
265 380
266 360
268 99
268 105
273 372
273 380
274 176
288 176
290 146
298 138
303 341
311 229
315 324
325 365
328 213
328 237
329 324
336 213
336 393
347 58
347 72
348 267
348 293
348 330
348 336
351 6
356 293
359 344
361 58
361 72
362 267
368 20
373 287
373 293
376 39
377 357
377 361
381 357
381 361
384 271
389 78
390 271
393 58
393 96
393 309

7
7 7
7 9
7 43
7 44
7 47
7 195
7 196
7 269
7 270
7 271
7 272
7 273
7 274
7 275
7 276
7 278
7 279
7 280
7 281
7 282
7 283
7 288
7 289
8 272
8 273
8 274
8 275
8 279
8 280
8 281
8 282
10 297
11 260
11 261
12 204
12 205
12 242
12 259
13 258
14 257
16 7
19 350
20 350
22 242
22 252
24 37
25 368
26 59
33 205
33 305
33 315
34 26
37 261
42 26
43 315
44 134
47 47
49 329
49 333
50 164
52 96
53 329
53 333
56 392
57 391
57 392
58 392
60 117
62 96
64 22
64 28
68 376
70 22
70 28
76 376
81 174
82 262
83 146
83 156
85 174
88 110
97 351
103 308
104 194
104 204
105 205
106 55
106 59
106 206
107 167
107 168
107 174
107 207
108 208
109 209
109 219
111 144
112 107
112 115
113 168
113 174
114 55
114 56
114 174
114 351
115 54
115 55
115 253
115 351
116 53
116 54
117 52
117 53
118 52
119 351
119 352
120 229
120 352
120 353
121 353
121 354
122 278
122 354
122 355
123 278
123 355
123 356
124 356
124 357
128 112
128 120
128 179
129 178
130 177
130 219
131 176
132 175
133 174
134 28
136 59
136 112
136 120
136 357
140 392
142 174
144 18
144 28
145 369
148 252
148 260
150 157
150 295
152 392
156 260
165 175
165 183
167 44
168 212
168 213
175 250
184 129
184 139
188 59
188 69
188 326
189 305
191 318
194 129
194 139
197 289
198 59
199 305
199 315
201 216
201 220
206 7
207 7
214 56
215 363
215 373
217 277
217 283
218 39
224 145
225 144
225 145
226 143
226 144
227 7
227 142
227 143
228 7
228 141
228 142
230 392
232 7
233 7
236 138
240 7
241 7
241 106
241 367
242 331
242 341
245 149
245 153
249 149
249 155
252 392
254 162
256 115
257 15
257 322
259 244
259 254
261 15
261 322
261 326
261 358
263 100
263 104
264 137
265 358
265 359
266 372
266 379
267 100
267 104
272 373
272 379
281 200
281 210
291 145
291 200
291 210
291 361
291 371
297 139
297 145
297 146
300 390
304 342
308 159
308 169
308 382
308 390
321 303
322 22
322 30
322 88
322 98
322 118
322 119
323 119
323 120
324 120
324 121
325 121
325 122
325 137
326 122
326 123
327 123
327 124
329 214
329 236
329 295
329 303
330 22
330 30
332 88
332 98
335 127
335 137
335 214
343 247
349 292
349 331
349 335
351 28
351 36
351 247
352 7
353 7
355 12
355 292
361 114
361 124
367 202
368 18
369 146
371 114
374 288
374 292
375 38
375 202
377 138
383 227
383 235
385 95
385 272
392 59
392 95

8
8 8
8 45
8 46
8 111
8 123
8 178
8 179
8 192
8 193
8 194
8 267
8 268
8 277
8 290
8 291
8 292
8 293
8 294
8 296
8 297
9 8
9 46
9 266
9 267
9 291
9 292
9 293
10 8
10 9
10 47
10 265
10 266
11 8
11 263
12 8
13 8
13 243
14 8
15 8
15 255
17 350
21 243
21 251
25 38
27 58
29 147
32 164
34 306
34 314
35 27
35 262
36 262
41 27
42 314
43 135
45 226
46 46
47 260
49 165
50 276
53 97
55 216
55 226
59 116
59 391
60 266
60 276
60 391
61 97
61 391
65 23
65 27
69 23
69 27
69 377
71 194
71 204
75 377
75 391
76 391
82 332
83 261
84 124
84 147
84 155
84 182
85 123
85 183
86 184
89 111
98 149
98 150
98 350
99 149
102 307
102 332
103 195
103 201
103 202
108 169
108 173
110 145
110 151
110 152
110 211
110 212
110 218
111 108
111 114
112 56
112 169
112 173
114 254
117 351
119 378
120 52
121 228
122 297
123 296
124 295
125 294
126 157
126 180
126 293
126 357
126 358
127 158
127 292
127 358
128 158
128 291
129 113
129 119
129 220
129 290
135 113
135 119
135 173
136 173
138 278
141 173
141 391
143 19
143 27
149 253
149 259
149 296
151 391
166 45
166 176
168 210
170 103
170 113
180 113
185 130
185 138
186 265
187 266
187 327
187 328
189 60
189 68
190 306
193 130
193 138
193 349
197 60
198 288
198 306
198 314
199 268
201 189
203 8
204 8
205 8
205 27
206 28
207 28
208 8
208 28
209 8
210 8
214 259
215 57
216 150
216 278
216 282
216 364
216 372
221 14
222 15
223 16
224 17
225 8
225 18
225 252
226 8
226 19
227 20
228 21
229 22
231 391
234 8
234 286
235 8
235 137
238 8
239 8
240 368
243 332
243 340
248 153
248 154
251 391
252 280
254 164
255 116
255 124
256 124
257 125
258 126
259 127
260 128
260 253
261 129
262 130
263 131
264 132
265 132
265 136
267 373
267 374
267 378
271 374
271 378
272 52
276 276
276 286
278 154
279 156
279 157
282 201
282 209
283 97
284 29
284 39
286 276
286 286
290 201
290 209
292 362
292 370
296 144
298 374
299 58
299 68
299 375
300 376
301 377
301 389
302 378
307 160
307 168
307 389
309 58
309 68
318 287
319 288
319 289
322 116
322 302
323 23
323 29
323 89
323 97
326 136
328 296
328 302
329 23
329 29
330 215
331 89
331 97
331 228
334 128
334 136
334 215
334 235
335 235
336 236
337 237
338 238
339 239
340 240
341 241
344 246
350 246
350 291
352 29
352 35
354 8
354 291
355 8
355 220
356 11
362 115
362 123
366 8
366 320
367 16
367 17
368 203
370 145
371 136
374 203
375 148
375 149
376 139
376 149
376 150
377 150
377 151
378 151
378 152
378 167
379 152
379 153
380 153
382 228
382 234
383 60
386 94
386 307
388 157
388 167
388 325
388 335
391 60
391 307
391 308

9
9 112
9 122
9 180
9 190
9 191
9 295
13 207
14 244
20 244
20 250
26 78
28 57
28 79
30 146
31 127
32 127
32 128
33 128
33 129
33 262
34 58
34 59
34 129
34 130
35 130
35 307
35 313
36 28
40 28
42 136
44 109
45 45
45 75
45 85
45 108
46 225
47 354
48 261
49 368
51 275
53 295
54 98
54 217
54 225
54 296
59 275
60 98
62 390
63 390
65 301
70 378
72 195
72 203
74 378
74 390
77 231
79 48
83 178
83 179
83 180
83 331
84 260
85 148
85 154
86 122
87 81
87 231
88 66
89 67
90 112
96 150
97 71
97 81
99 349
101 306
102 200
107 348
109 146
109 150
110 57
110 109
110 113
111 57
111 213
111 217
113 255
120 377
122 299
125 279
126 280
128 221
128 227
128 359
129 18
129 159
129 228
129 288
130 19
130 114
130 118
130 229
131 230
132 231
133 232
134 114
134 118
134 233
135 234
136 235
137 172
137 236
137 279
138 237
138 238
138 239
138 240
139 241
142 20
142 26
142 390
144 80
144 81
148 297
149 320
150 258
150 390
154 80
159 226
159 347
165 46
167 177
171 104
171 112
181 229
183 16
186 131
186 137
188 267
190 61
190 67
191 307
192 131
192 137
192 348
196 61
197 307
197 313
198 269
199 388
201 9
202 9
211 9
212 9
212 82
212 206
217 151
217 365
217 371
223 9
223 166
224 9
224 148
232 390
234 136
234 199
236 9
237 9
239 369
244 333
244 339
248 74
248 75
249 76
250 383
250 390
254 117
254 123
259 19
261 252
271 51
276 174
277 277
277 285
282 134
283 30
283 38
283 134
283 202
283 208
284 134
285 277
285 285
289 202
289 208
292 167
293 166
293 167
293 363
293 369
294 165
294 166
295 165
300 59
300 67
302 388
303 380
306 161
306 167
306 388
308 59
308 67
309 231
317 326
320 290
321 291
322 292
322 362
323 293
323 301
323 363
324 24
324 28
324 90
324 96
327 135
327 301
327 326
328 24
328 28
330 90
330 96
331 230
331 231
331 232
332 223
332 233
333 129
333 135
333 234
343 241
345 245
349 60
349 70
349 245
350 269
353 30
353 34
353 333
356 9
356 221
357 9
359 60
359 70
360 269
363 116
363 122
367 321
369 204
371 28
373 204
379 166
379 359
380 155
381 229
381 233
384 61
387 93
387 158
387 166
387 306
387 326
387 334
390 61
390 82
390 83
390 93
390 94
390 306

10
10 113
10 121
10 188
10 189
15 245
15 252
19 245
25 349
27 366
28 365
29 56
33 56
33 57
35 203
36 199
36 200
36 308
36 312
37 198
37 199
40 206
40 207
41 144
41 207
41 208
42 109
42 208
42 209
43 209
43 210
44 76
44 84
44 210
44 211
44 308
45 211
45 212
45 307
45 308
46 212
46 213
46 306
46 307
47 213
47 214
47 224
47 305
47 306
48 214
48 304
48 305
48 367
49 303
49 304
50 261
50 262
50 302
50 303
51 262
51 301
51 302
51 331
52 274
52 301
53 218
53 224
58 274
59 99
64 389
65 389
73 196
73 202
73 389
77 302
77 303
78 232
78 303
78 304
79 304
79 305
80 305
83 176
84 247
84 330
85 248
85 259
86 149
86 153
86 232
86 249
87 121
87 314
88 80
88 120
89 119
90 118
91 113
91 117
96 80
98 337
98 338
99 339
100 305
100 340
101 148
101 341
105 348
108 57
112 256
121 376
127 222
127 226
130 287
131 20
133 360
134 359
136 280
138 61
139 62
141 21
141 25
143 389
145 79
149 389
150 319
153 79
160 227
160 346
164 47
172 105
172 111
173 248
180 230
184 17
185 331
186 330
187 132
187 136
189 268
190 269
191 62
191 132
191 136
191 347
192 308
192 314
192 315
196 308
196 312
199 10
200 10
200 91
201 90
202 89
203 88
203 218
204 87
204 217
205 86
205 217
208 107
208 178
209 108
209 177
209 178
210 109
210 177
211 28
211 81
211 110
211 177
211 280
212 28
212 29
212 111
212 280
213 10
213 29
213 30
213 112
213 207
214 10
214 30
214 31
214 113
215 31
215 32
215 114
216 32
216 33
217 33
217 34
218 152
218 366
218 370
221 10
221 216
222 10
222 164
222 165
229 137
229 138
233 135
233 198
238 370
245 334
247 72
247 73
247 151
249 334
250 333
251 332
252 331
253 63
253 64
253 118
253 122
253 330
254 62
254 63
254 329
255 61
255 62
255 328
256 60
256 61
256 327
257 21
257 22
257 59
257 60
257 326
258 20
258 21
258 58
258 59
258 325
259 17
259 58
259 324
262 245
262 251
262 354
262 355
263 356
265 102
269 134
270 50
270 134
271 134
277 173
278 278
278 284
282 31
282 37
284 203
284 207
284 278
284 284
288 203
288 207
288 238
289 239
294 364
298 371
301 60
301 66
303 382
305 162
305 166
307 60
307 66
308 232
318 327
321 361
324 295
324 296
325 91
325 95
326 327
328 127
328 128
328 134
329 91
329 95
331 234
332 130
332 134
332 219
332 220
332 221
344 242
345 242
348 240
348 241
349 239
350 61
350 69
350 238
351 237
351 270
351 287
351 333
352 236
352 286
352 287
353 235
354 234
354 334
355 233
355 334
355 335
356 232
356 335
357 222
357 230
357 231
358 10
358 61
358 69
359 10
359 270
361 32
364 117
364 121
365 10
365 13
366 14
368 322
370 117
371 30
372 35
372 138
372 139
373 36
374 145
374 146
376 290
380 165
385 62
386 159
386 165
386 327
386 333
387 274
388 85
388 86
388 87
388 88
388 92
388 275
388 276
388 277
388 278
388 304
388 305
389 73
389 84
389 85
389 86
389 87
389 88
389 89
389 91
389 92
389 275
389 276
389 277
389 278
389 279
389 280
389 281
389 300
389 301
389 303
389 304
389 305

11
11 114
11 120
11 186
11 187
16 250
16 251
27 349
29 364
31 79
31 124
32 144
32 145
37 201
37 202
38 197
39 196
39 204
39 205
40 110
41 110
42 309
43 77
43 83
43 309
46 168
46 356
47 167
47 366
48 216
48 223
52 223
52 263
53 263
53 264
53 273
53 300
54 264
54 299
54 300
55 299
55 300
56 113
57 114
57 273
66 388
67 25
67 302
67 388
68 302
69 302
72 382
72 383
72 388
73 302
74 197
74 201
74 302
75 302
79 233
83 245
85 233
85 329
89 79
90 69
95 79
98 293
98 294
100 114
101 113
101 114
101 343
101 344
101 345
102 112
102 113
103 112
103 148
103 347
104 111
104 148
104 347
105 111
105 148
106 111
110 171
122 375
128 281
132 21
133 21
133 22
134 22
135 281
135 287
135 288
136 288
136 289
137 289
137 290
138 290
138 291
139 171
139 291
139 292
140 63
140 292
140 293
140 381
141 293
141 294
141 381
141 382
142 294
142 295
142 382
142 383
143 295
143 296
143 383
143 384
144 296
144 297
144 384
144 385
144 388
145 385
145 386
145 388
146 78
147 388
148 388
151 318
152 78
154 50
161 228
161 345
173 106
173 110
179 231
182 107
185 18
190 346
191 270
192 271
193 312
193 313
194 105
197 11
198 11
199 93
199 94
199 95
203 183
204 182
205 84
205 106
205 181
206 106
206 180
206 216
207 179
207 215
207 216
208 215
209 282
210 281
213 177
214 176
214 280
215 11
216 11
216 12
217 11
217 12
217 59
217 115
218 11
218 60
218 115
219 11
219 12
219 34
219 35
219 153
220 11
220 35
223 150
223 151
230 135
230 136
233 388
234 388
248 388
249 388
251 64
253 344
253 345
254 346
255 347
256 23
256 348
257 349
258 350
259 351
260 57
260 352
261 56
261 353
262 55
263 54
264 53
265 52
267 134
269 49
269 376
278 172
279 279
279 283
280 160
281 32
283 279
283 283
286 135
287 136
288 136
290 168
293 141
294 142
297 369
297 370
299 365
300 364
300 365
301 363
301 364
302 61
302 65
302 362
302 363
303 361
303 362
304 360
304 361
304 383
304 384
305 359
305 360
306 61
306 65
306 358
306 359
307 233
307 357
307 358
308 356
308 357
309 356
320 360
325 297
325 328
329 129
329 130
332 217
351 62
351 68
352 271
352 289
353 284
353 285
354 283
354 284
357 32
357 62
357 68
358 31
358 32
358 223
358 228
358 229
358 271
359 31
359 32
360 11
361 11
364 11
365 217
365 218
366 216
367 215
368 214
369 213
369 323
370 212
371 34
371 208
371 209
371 210
373 140
373 144
376 231
377 231
381 157
381 158
381 164
385 160
385 164
385 328
385 332
386 63
388 62
388 63
388 71
388 72
388 90
388 282
388 283
388 298
388 299
388 302

12
12 184
12 185
17 249
28 350
29 350
30 363
38 30
38 203
39 143
40 194
40 310
41 310
42 78
42 82
45 169
46 365
49 217
49 218
54 266
55 112
68 387
69 386
69 387
70 385
70 386
70 387
71 302
71 384
71 387
72 380
80 234
82 306
83 243
83 306
84 234
87 252
87 253
87 320
90 78
90 151
91 151
91 257
92 151
92 257
92 258
93 151
93 258
93 259
94 78
94 259
94 260
95 115
95 260
95 261
96 115
96 261
96 262
97 115
97 262
97 263
97 295
97 334
97 335
98 115
98 263
98 264
98 284
98 285
98 289
98 290
98 291
99 197
99 285
99 289
99 290
99 291
99 292
100 198
101 347
102 346
107 148
108 111
113 215
114 216
115 216
129 282
132 116
134 285
134 286
135 23
136 23
137 23
138 168
138 169
140 379
141 64
145 298
146 159
146 387
147 77
151 77
152 256
152 317
153 255
162 344
169 179
170 180
178 232
180 107
184 189
184 190
185 188
185 189
186 19
186 26
186 187
186 188
187 186
187 187
188 185
188 186
189 184
189 185
195 12
196 12
196 105
200 26
201 183
203 105
204 105
207 283
209 214
219 61
219 116
219 215
220 116
221 162
222 152
222 153
222 368
223 368
224 368
225 368
225 369
226 369
226 370
227 370
235 387
246 70
247 338
247 387
248 120
248 338
248 339
249 65
249 120
249 339
249 340
250 65
250 340
250 341
251 341
251 342
252 342
252 343
264 246
279 171
280 162
283 238
284 238
285 238
288 168
289 137
290 138
291 139
292 140
296 368
297 367
298 164
298 366
299 163
299 164
300 163
300 164
301 164
304 386
306 234
310 355
318 358
319 329
319 359
324 329
325 299
326 26
347 243
352 63
352 67
353 272
355 32
356 63
356 67
357 272
359 227
362 12
363 12
369 33
369 119
369 225
370 32
370 33
370 225
370 226
371 206
371 226
371 227
372 227
372 228
373 142
373 228
373 229
374 229
375 230
379 231
382 159
382 160
386 65
387 64
387 65
387 66
387 67
387 68
387 69
387 70
387 284
387 285
387 296
387 297

13
13 115
13 116
13 118
13 119
13 182
13 183
15 180
16 179
16 180
17 179
17 247
18 179
19 179
20 117
21 116
22 116
23 115
23 116
23 179
24 115
24 179
25 179
30 121
30 122
31 54
31 362
32 52
32 53
32 361
33 80
33 361
35 135
36 112
37 112
38 111
38 142
38 310
40 191
40 192
44 170
50 219
54 110
54 111
55 267
55 268
55 269
56 102
57 101
78 199
79 199
84 307
85 307
87 257
87 322
87 323
87 324
87 325
88 151
88 254
88 255
88 256
89 255
89 256
89 327
90 256
90 327
91 71
91 328
92 329
93 115
93 195
93 330
94 195
94 331
95 195
95 332
96 195
96 196
96 333
97 196
97 302
98 196
98 287
98 303
99 283
99 287
100 282
101 281
102 279
102 280
103 278
103 279
104 277
104 278
105 269
105 273
105 276
105 277
109 259
110 258
116 217
117 217
117 218
118 218
118 219
119 219
119 220
120 220
120 221
121 221
121 222
122 222
122 223
123 223
125 224
130 283
131 283
134 160
139 23
139 166
139 167
139 377
139 378
144 159
145 300
146 301
146 302
154 254
155 253
155 254
155 317
155 318
156 252
156 253
156 319
157 251
157 252
157 320
158 250
158 251
158 321
159 249
159 250
159 322
160 248
160 249
160 323
161 50
161 247
161 248
161 324
162 49
162 246
162 247
162 325
163 245
163 246
163 326
164 245
164 327
165 328
166 329
167 330
171 181
177 108
178 108
179 108
180 189
181 189
182 189
182 190
189 134
191 16
191 184
192 15
192 184
193 14
193 64
193 184
194 13
194 65
194 184
194 310
197 104
198 26
198 104
198 184
199 184
200 97
200 184
201 99
201 100
201 101
206 81
206 82
211 214
218 214
220 368
221 157
221 158
221 159
221 160
228 186
228 187
228 371
229 187
229 372
230 132
230 373
231 133
231 373
236 372
236 386
240 27
241 27
243 28
244 29
245 30
245 117
245 118
246 31
246 118
246 119
246 386
247 32
247 119
247 336
248 32
248 66
251 120
264 249
265 247
265 248
266 248
282 239
286 205
296 366
303 164
304 243
312 354
312 355
313 354
320 330
327 93
330 132
355 281
366 119
367 120
368 120
368 121
369 122
381 330
386 286
386 287
386 294
386 295

14
14 117
14 181
15 117
16 117
17 117
18 117
21 179
25 116
26 178
29 120
31 351
32 352
33 50
33 51
33 114
33 352
34 113
34 114
34 142
35 80
35 113
35 141
37 80
37 141
38 80
39 189
39 190
40 173
40 174
41 172
41 173
42 172
43 171
44 358
44 359
50 221
53 109
55 103
55 104
55 271
76 199
80 198
81 197
81 198
82 197
82 238
82 239
82 240
82 241
87 327
88 326
89 194
90 194
91 195
92 72
92 73
92 74
96 298
96 299
105 271
106 274
106 275
108 260
124 373
125 372
133 283
136 160
138 376
143 160
147 303
147 304
148 70
149 70
149 71
149 72
149 73
154 311
154 312
154 313
160 51
172 182
173 182
173 183
174 183
174 184
175 108
175 184
176 185
177 186
178 187
179 188
187 343
188 25
188 344
194 273
195 66
195 274
196 25
196 67
196 184
197 25
197 68
198 69
199 70
199 103
200 71
200 102
200 103
201 72
201 104
202 73
203 74
204 75
204 282
205 76
205 282
207 79
207 80
212 213
213 213
217 208
217 209
217 213
218 207
218 208
219 206
219 207
220 205
220 206
221 63
221 155
221 204
221 205
222 62
222 63
222 203
222 204
223 61
223 62
223 202
223 203
224 35
224 60
224 61
224 201
224 202
225 34
225 59
225 60
225 182
225 183
225 200
225 201
226 33
226 59
226 184
226 199
226 200
227 32
227 185
227 198
227 199
228 31
228 197
228 198
229 30
229 59
229 189
229 190
229 191
229 192
229 196
229 197
230 29
230 59
231 28
232 27
232 374
233 26
233 374
234 26
234 59
235 59
236 59
237 59
237 60
237 385
238 26
238 60
238 61
239 26
239 60
239 61
240 61
240 62
241 62
241 63
242 63
242 64
243 64
243 65
244 65
244 66
245 66
245 67
245 385
246 66
246 67
267 247
268 247
269 246
269 247
270 245
270 246
271 245
278 35
279 34
279 240
280 239
280 240
281 164
281 165
281 281
285 169
286 169
304 63
314 353
321 332
322 333
355 276
355 277
355 278
355 279
367 224
383 162
383 330
385 288
385 289
385 292
385 293

15
27 116
27 117
28 117
28 118
29 117
29 118
30 117
31 116
32 115
34 49
34 353
35 353
35 354
35 360
36 79
36 137
36 138
36 139
36 140
36 354
36 355
37 34
37 139
37 355
37 356
38 356
40 80
43 360
43 362
44 363
52 107
53 106
53 107
54 105
54 106
82 236
83 196
84 195
85 194
86 193
87 192
87 193
87 308
88 193
88 307
88 308
89 306
89 307
90 305
90 306
91 304
91 305
92 76
92 303
92 304
93 302
93 303
94 301
94 302
95 300
95 301
107 261
126 371
137 161
137 373
137 374
138 161
138 374
142 161
148 305
149 75
149 306
150 307
151 308
152 309
153 310
154 315
159 52
164 342
165 341
166 244
167 243
167 333
175 235
176 234
186 342
189 24
195 24
196 275
203 281
207 77
208 76
209 75
210 74
211 73
212 72
213 71
214 70
215 69
216 68
217 67
218 66
219 65
220 64
222 118
223 119
224 180
224 181
227 58
228 58
229 194
232 59
234 375
235 375
235 376
236 376
236 377
237 377
237 378
238 378
238 379
238 384
239 379
239 380
239 384
240 380
243 384
244 384
272 244
273 243
276 36
276 241
277 36
277 241
277 242
278 241
281 169
282 166
282 167
282 168
283 167
283 168
284 168
303 237
303 241
304 236
321 334
321 335
322 331
354 65
355 274
361 225
361 336
362 224
362 336
363 224
365 224
384 290
384 291

16
37 174
37 185
37 186
37 360
38 187
41 361
42 361
103 265
104 266
106 262
127 370
136 371
136 372
158 53
166 229
166 340
168 242
173 241
175 335
176 335
177 335
177 336
178 336
184 337
185 341
190 23
192 23
193 23
193 24
197 276
197 277
200 280
201 280
201 281
215 212
216 211
224 120
236 25
240 382
240 383
241 382
241 383
242 383
251 33
273 38
274 37
274 38
275 37
275 242
296 240
297 239
297 240
298 240
302 238
302 240
318 338
318 339
319 337
319 338
320 336
363 335
364 223
364 335
378 329

17
36 183
36 184
37 37
38 359
39 359
39 360
40 360
104 264
105 263
128 369
130 367
131 367
131 368
132 367
132 368
133 368
134 369
135 370
140 162
154 57
154 58
155 56
155 57
156 55
157 54
166 231
167 231
167 232
167 339
168 335
169 241
173 236
179 337
180 338
181 339
182 338
184 340
190 21
191 22
198 278
199 279
221 175
221 176
222 174
222 175
222 176
222 177
223 178
225 121
240 116
269 42
270 41
271 40
272 39
299 239
300 239
300 240
301 239
316 341
317 340
317 351
317 352
376 329

18
31 178
32 179
33 179
33 180
34 180
34 181
35 182
36 38
36 39
129 368
147 65
148 64
148 65
149 63
149 64
150 62
150 63
151 61
151 62
152 60
152 61
153 59
153 60
168 233
168 234
168 337
168 338
169 337
169 338
170 240
170 337
171 337
173 336
183 339
226 122
239 117
315 346
315 347
316 345
316 346
316 350
366 334
367 333
368 333
374 330
375 330

19
32 177
33 176
34 43
34 175
35 40
35 42
35 43
35 44
36 42
169 235
169 236
170 236
170 237
170 238
171 237
171 238
171 239
236 118
237 117
237 118
255 32
255 33
256 33
256 34
257 34
257 35
258 35
258 36
259 36
259 37
260 37
260 38
261 38
261 39
262 39
262 40
263 40
263 41
264 41
264 42
265 42
265 43
266 43
315 344
316 348
369 332
370 332
373 331

20
234 119
235 119
371 331

21
229 123
230 122
230 123
231 121
231 122
232 121
233 120

