0
0 24
0 25
0 56
0 135
0 264
0 280
0 316
0 328
0 355
0 367
79 399
97 399
269 0
270 0
288 399
296 0
297 0
312 399
399 7
399 8
399 84
399 85
399 170
399 171
399 199
399 200
399 269
399 297

1
1 26
1 134
1 373
1 391
3 305
7 44
9 181
9 191
13 315
19 181
19 191
20 309
36 162
36 172
38 261
38 271
38 311
46 1
46 162
48 261
48 271
48 311
48 321
66 1
86 349
95 47
95 57
96 349
106 186
108 270
112 46
112 56
114 134
123 107
123 117
126 1
127 1
133 107
151 1
152 1
156 298
166 298
166 308
171 57
180 384
180 394
181 57
183 90
190 384
190 394
193 217
196 334
196 344
198 352
198 362
206 334
206 344
208 352
210 372
220 372
271 1
272 134
279 287
289 72
289 82
289 398
311 398
363 398
364 398
387 312
387 322
390 398
391 398
397 312
397 322
398 9
398 83
398 172
398 198

2
2 27
2 40
2 41
2 42
2 54
2 55
2 133
2 265
2 279
2 327
2 356
2 366
7 61
8 221
8 233
8 293
12 266
19 61
20 221
24 277
24 293
25 110
46 172
47 2
47 173
55 327
64 285
65 2
74 378
74 390
80 285
80 397
94 158
96 397
110 142
110 158
112 182
119 313
120 76
122 86
122 98
124 390
128 2
134 98
135 349
143 282
146 18
150 2
150 154
151 349
151 365
153 230
155 282
155 294
158 18
158 374
158 386
159 346
161 192
162 142
164 289
165 163
169 214
171 358
175 265
180 273
180 289
183 13
183 29
187 40
187 56
187 163
190 127
199 13
199 29
199 163
203 40
227 206
231 155
233 7
233 23
234 220
234 232
238 123
243 155
243 167
245 217
249 7
249 23
249 102
253 64
253 80
261 217
262 77
262 93
270 153
272 2
277 319
278 77
278 93
284 351
289 258
290 193
290 397
292 387
300 297
306 177
306 193
308 387
310 397
319 2
320 110
320 122
327 179
331 290
331 302
332 110
337 77
338 311
339 179
353 61
353 77
362 165
365 397
371 332
372 306
374 165
374 177
378 196
380 49
383 19
389 397
397 10
397 82
397 173
397 197
397 270
397 295
397 296

3
3 28
3 38
3 39
3 43
3 44
3 109
3 132
3 266
3 326
3 357
3 390
5 6
5 18
16 32
17 6
17 18
26 380
26 392
29 22
38 392
40 358
48 3
49 23
49 174
49 186
58 358
58 376
61 174
61 186
63 337
64 3
81 396
87 15
87 33
88 136
88 137
89 137
89 138
89 370
90 138
90 139
92 193
92 211
95 396
97 247
101 382
105 15
105 33
109 247
110 211
111 342
119 289
120 145
120 157
129 3
130 237
130 255
131 183
132 145
132 157
133 115
134 116
135 117
136 320
136 332
138 134
143 89
148 237
148 263
148 332
149 3
152 139
154 305
154 306
156 116
156 134
166 245
167 336
171 188
177 240
179 336
189 170
189 188
200 383
200 395
205 152
208 200
208 361
209 258
209 270
209 362
210 363
211 243
212 383
212 395
216 47
216 59
218 248
225 323
225 335
225 349
230 248
230 260
232 61
232 184
237 335
241 312
243 349
261 371
261 372
262 370
262 371
270 262
270 274
273 3
301 335
311 262
312 301
313 301
313 335
319 330
331 330
348 375
349 49
351 184
359 117
360 363
366 396
367 31
367 49
376 106
386 389
388 106
388 396
390 176
390 194
393 12
393 80
396 11
396 44
396 53
396 81
396 174
396 196
396 271
396 294

4
4 29
4 30
4 31
4 32
4 33
4 34
4 35
4 36
4 37
4 45
4 46
4 110
4 267
4 389
5 33
5 307
11 183
11 189
13 388
14 147
14 155
14 333
17 183
17 189
18 307
20 358
20 370
22 147
22 155
23 239
31 231
31 239
38 164
38 170
40 243
40 251
40 263
40 269
40 313
42 335
43 64
44 164
44 170
46 263
46 269
46 313
48 243
48 251
50 11
52 121
52 129
55 64
59 312
62 11
62 262
67 312
71 343
74 98
74 124
74 136
75 73
77 40
77 48
78 302
78 314
82 395
85 40
85 48
86 98
86 136
87 73
92 139
92 272
94 347
94 395
97 49
97 55
106 268
110 48
110 54
112 132
114 229
114 237
122 229
122 237
125 109
125 115
130 4
131 109
131 115
144 316
145 316
148 4
150 312
156 305
158 300
164 300
164 306
173 59
177 154
179 59
182 386
182 392
183 350
188 386
188 392
194 69
198 336
198 342
200 354
200 360
203 167
204 336
204 342
206 69
206 354
206 360
212 364
212 370
215 167
218 370
219 284
227 276
227 284
230 170
231 169
231 170
232 168
232 169
233 167
233 168
245 382
247 190
257 382
261 293
261 305
271 198
271 336
273 293
273 305
274 4
274 136
281 285
291 80
291 395
292 395
308 395
309 395
311 313
318 4
319 305
322 187
322 195
327 395
330 195
332 356
332 368
333 61
333 62
333 133
334 62
334 63
334 321
335 63
335 64
335 320
335 321
336 320
343 395
359 139
367 131
367 139
367 395
375 298
376 351
378 83
384 66
384 351
386 83
387 298
387 375
387 395
389 314
389 320
395 12
395 13
395 79
395 80
395 175
395 195
395 272
395 293
395 314
395 320

5
5 47
5 48
5 111
5 130
5 131
5 317
5 318
5 324
5 325
5 358
5 359
5 388
6 308
6 316
6 317
7 315
7 316
9 59
9 324
10 223
10 231
10 268
10 324
10 325
11 325
11 326
12 184
12 188
12 326
12 327
15 148
15 154
15 332
16 184
16 188
17 59
17 306
18 223
21 148
21 154
24 238
27 134
30 232
30 238
37 380
38 379
39 165
39 169
39 378
40 377
41 244
41 250
41 264
41 268
41 314
41 376
43 165
43 169
45 264
45 268
45 314
47 244
47 250
49 5
50 5
51 122
51 128
58 33
62 5
63 5
63 263
66 313
75 230
75 244
76 380
76 388
78 41
78 47
84 41
84 47
89 230
89 244
93 140
95 114
98 50
98 54
105 267
105 358
109 49
109 53
109 114
111 131
115 230
115 236
119 358
121 230
121 236
124 49
124 96
126 110
126 114
130 110
130 114
130 220
131 5
132 8
132 96
138 118
145 284
146 8
147 5
148 20
152 152
153 142
153 284
153 292
156 20
156 376
156 384
159 301
163 51
163 301
163 305
165 149
167 165
169 356
173 267
174 60
176 153
177 147
178 60
182 349
183 387
183 391
187 387
187 391
189 161
194 102
197 161
199 337
199 341
201 355
201 359
203 337
203 341
205 355
205 359
213 110
213 365
213 369
220 283
220 365
220 366
221 364
221 365
222 363
222 364
225 143
226 277
226 283
230 172
232 230
233 157
241 157
241 165
254 168
267 358
270 197
275 5
275 137
275 321
276 5
276 7
282 284
286 98
286 112
291 26
292 79
293 137
293 151
293 394
296 376
298 61
300 98
300 112
307 394
312 75
312 312
316 16
316 148
316 162
317 5
318 306
322 112
322 120
323 188
323 194
328 381
329 187
329 188
329 194
330 112
332 17
333 292
333 300
337 64
337 177
340 313
341 198
341 212
343 151
346 17
360 138
362 290
364 167
366 132
366 138
368 394
369 330
370 308
371 222
372 167
372 175
374 273
377 352
379 84
379 144
379 158
383 352
385 21
385 84
385 208
385 222
386 394
390 315
390 319
393 74
393 144
393 158
394 14
394 15
394 16
394 71
394 72
394 73
394 74
394 75
394 76
394 77
394 78
394 176
394 177
394 193
394 194
394 273
394 292
394 315
394 319

6
6 49
6 50
6 129
6 268
6 269
6 319
6 320
6 321
6 322
6 323
6 360
7 8
7 16
7 322
7 323
8 323
9 269
10 58
11 224
11 230
14 327
15 8
15 16
15 49
15 299
16 48
16 49
16 58
16 149
16 153
16 331
17 47
17 48
17 224
18 34
18 46
18 47
19 45
19 46
20 149
20 153
28 382
28 390
29 233
29 237
31 24
36 382
36 390
42 245
42 249
42 360
42 374
46 245
46 249
47 25
50 123
50 127
51 6
51 176
51 184
56 360
56 374
59 176
59 184
61 6
64 264
65 314
65 335
77 381
79 42
79 46
83 42
83 46
88 127
89 17
89 31
89 126
89 127
90 125
90 126
91 124
91 125
91 372
92 393
93 393
94 141
94 195
94 209
99 249
99 380
103 17
103 31
107 249
108 209
109 340
116 231
116 235
120 231
120 235
121 291
122 147
122 155
125 95
129 185
130 147
130 155
131 95
132 6
132 239
132 253
133 6
138 322
138 330
140 118
140 132
140 293
141 292
142 291
143 290
145 6
146 6
146 285
146 330
149 21
150 306
152 285
152 291
153 144
153 151
154 118
155 21
155 377
155 383
158 304
159 304
159 354
164 247
168 166
169 338
171 225
172 226
172 268
173 186
173 227
175 148
175 152
176 148
179 238
181 348
187 172
187 186
190 160
196 160
202 385
202 393
209 241
210 385
210 393
211 260
211 268
214 49
214 57
218 272
218 366
219 273
220 250
220 274
221 275
221 276
221 282
225 278
225 282
227 325
227 333
227 351
228 250
228 258
230 182
231 229
234 63
234 158
234 164
234 165
240 158
240 164
241 351
243 314
257 372
269 196
272 264
272 272
274 322
277 6
278 6
278 7
279 6
279 7
280 6
280 7
281 6
281 7
282 6
294 393
303 337
304 26
305 26
305 27
306 27
306 28
306 393
307 28
307 29
308 29
308 30
309 30
309 31
309 264
310 31
311 337
312 297
313 305
313 311
316 6
317 307
317 313
317 314
318 314
318 315
319 315
319 316
320 316
320 317
321 317
321 318
321 328
322 318
323 113
323 119
324 189
324 193
328 189
328 193
328 393
329 113
329 328
330 61
330 176
330 177
334 293
334 299
336 176
338 319
341 314
342 393
351 47
353 186
357 119
361 137
362 365
364 180
365 33
365 47
365 133
365 137
365 168
365 179
366 177
366 178
368 329
369 393
370 393
371 168
371 174
378 104
378 353
380 85
382 353
384 85
384 391
384 393
385 393
386 22
386 104
392 178
392 192
393 17
393 18
393 69
393 70
393 178
393 179
393 191
393 192
393 290
393 291

7
7 51
7 52
7 112
7 113
7 128
7 270
7 271
7 361
7 386
7 387
8 9
8 15
8 270
8 312
8 313
11 386
12 225
12 229
14 9
14 15
15 51
15 57
15 301
15 302
15 328
16 225
16 328
18 229
18 360
19 35
19 229
19 230
20 44
20 230
20 231
21 231
21 232
21 280
22 232
22 233
23 233
23 234
24 234
29 383
29 389
35 383
35 389
40 333
43 318
45 62
52 7
52 9
52 177
52 183
53 62
58 177
58 183
60 7
60 9
60 315
67 282
76 96
76 126
76 134
77 75
77 282
78 382
80 304
80 312
84 96
84 134
85 75
91 392
92 373
97 155
100 250
102 52
103 52
104 51
105 51
106 250
107 145
107 155
108 339
123 148
123 154
126 94
127 387
128 186
129 148
129 154
130 94
134 7
135 7
136 7
137 7
138 7
138 352
139 7
139 8
139 323
139 329
140 7
141 7
142 7
143 7
144 7
144 320
145 290
145 312
145 329
147 286
148 307
148 362
149 307
150 22
151 286
151 290
154 22
154 145
154 146
154 150
154 378
154 382
158 195
161 354
162 149
166 217
167 286
169 167
169 225
170 339
177 286
186 16
186 26
186 85
190 43
190 53
191 159
191 222
193 130
195 159
196 16
196 26
196 71
203 386
203 392
205 169
208 240
209 386
209 392
212 261
212 267
213 50
213 56
215 202
216 202
216 203
217 203
217 204
217 270
217 367
221 251
222 277
222 278
224 209
225 363
227 251
227 257
228 326
228 332
229 174
229 175
229 181
230 228
235 64
235 120
235 159
235 163
236 10
236 20
239 159
239 163
246 10
246 20
246 99
247 380
248 214
249 192
250 67
255 380
258 214
263 295
265 80
265 90
267 370
271 295
271 303
273 265
273 271
273 323
275 80
275 90
283 7
284 7
295 390
295 392
303 180
303 190
303 294
304 24
304 338
305 390
305 392
310 33
310 338
314 306
314 307
315 7
316 311
316 312
322 320
322 327
324 114
324 118
328 114
328 327
329 392
330 358
330 366
331 175
331 322
335 131
335 175
335 294
335 298
340 74
340 319
341 392
342 315
350 64
350 74
356 120
366 169
367 328
370 169
371 392
377 296
379 103
380 392
381 391
381 392
382 391
382 392
383 392
385 103
385 373
386 64
387 23
387 48
388 47
389 46
391 185
391 317
392 19
392 20
392 67
392 68
392 180
392 181
392 182
392 183
392 184
392 185
392 186
392 187
392 188
392 189
392 190
392 274
392 275
392 316
392 317
392 318

8
8 53
8 114
8 127
8 272
8 273
8 310
8 362
8 376
8 377
8 385
9 10
9 14
9 54
9 309
9 310
10 54
10 308
10 309
10 385
11 307
11 308
12 306
12 307
13 10
13 14
13 305
13 306
14 52
14 53
14 186
14 304
14 305
15 304
16 228
17 228
17 361
20 36
20 42
20 281
20 329
21 329
22 329
25 235
29 132
30 384
30 388
34 384
34 388
38 323
39 322
39 332
40 321
41 167
41 320
42 319
43 266
43 316
46 61
46 125
52 61
53 8
53 178
53 182
54 8
55 8
56 8
56 9
56 35
57 8
57 178
57 182
58 8
59 8
68 281
76 281
77 95
77 127
77 133
77 232
77 242
78 76
81 305
81 311
83 95
83 133
84 76
86 128
87 232
87 242
90 391
97 116
98 154
100 52
101 251
103 265
105 251
106 146
106 154
107 51
107 116
107 338
107 360
108 128
109 129
117 360
119 369
120 370
121 371
122 372
123 373
124 153
124 374
125 375
126 51
127 187
128 112
128 149
128 153
128 386
132 218
137 294
137 302
138 303
139 304
139 353
140 79
140 80
140 305
140 328
141 306
142 307
143 308
144 308
144 328
146 289
146 310
146 311
147 289
157 196
161 49
161 303
162 353
163 353
165 218
168 285
169 150
170 150
171 150
171 151
171 340
174 65
175 64
175 65
176 62
176 285
180 80
181 80
182 81
183 82
184 83
185 84
185 389
187 17
187 25
191 44
191 52
194 131
195 17
195 25
196 100
197 72
201 339
203 357
204 387
204 391
206 170
207 239
208 387
208 391
212 51
212 55
213 266
215 200
215 367
217 268
222 128
222 129
222 252
223 127
223 141
224 126
225 125
226 124
226 252
227 123
228 176
228 180
229 327
229 331
234 119
236 65
237 11
237 19
245 11
245 19
245 98
248 379
249 68
249 213
254 379
255 373
256 170
257 213
264 296
264 303
266 81
266 89
269 360
270 296
270 302
274 81
274 89
274 266
274 270
277 139
278 140
284 282
285 8
285 281
286 8
288 100
288 110
291 139
293 24
294 77
294 374
295 76
296 391
297 391
298 100
298 110
298 391
299 391
300 63
300 390
300 391
301 391
302 181
302 189
302 391
303 391
304 293
304 391
305 339
309 339
310 73
314 14
318 150
318 160
323 321
323 322
323 326
327 326
328 60
329 322
329 359
329 365
330 383
330 391
334 19
336 130
340 65
341 65
341 73
341 153
341 318
342 318
343 200
343 210
343 296
344 19
349 65
349 73
355 121
355 125
355 126
356 127
357 128
358 129
359 130
360 131
360 292
361 132
362 133
367 174
367 175
372 384
372 391
373 220
373 385
373 391
374 386
376 275
378 295
378 391
379 391
380 102
380 357
380 358
381 146
381 156
382 89
382 90
382 91
383 220
384 102
384 372
387 63
391 21
391 22
391 65
391 66
391 146
391 156
391 276

9
9 115
9 126
9 274
9 275
9 374
9 375
9 378
9 379
9 380
9 381
9 382
9 383
9 384
10 373
10 374
10 382
11 55
11 372
11 373
12 371
12 372
13 370
13 371
16 362
18 151
18 329
19 282
21 40
21 41
27 235
33 26
38 325
38 331
44 126
44 247
44 362
44 372
45 126
47 60
48 125
50 50
50 51
51 60
54 362
54 372
55 36
61 317
61 318
61 319
62 317
62 318
62 319
63 316
66 266
67 267
69 280
75 280
78 94
78 128
78 132
78 233
78 241
79 77
81 44
82 94
82 132
82 306
82 310
83 77
84 128
84 338
85 338
85 339
86 233
86 241
86 339
86 340
89 390
91 19
91 29
92 265
93 264
93 265
94 263
94 264
95 262
95 263
96 197
96 207
96 261
96 262
98 117
99 153
101 19
101 29
103 263
105 147
105 153
106 117
106 207
107 127
108 361
116 361
117 369
118 233
124 150
127 52
128 88
128 89
128 90
129 87
129 88
129 385
130 86
130 87
131 85
131 86
132 84
132 85
133 83
133 84
133 217
134 83
134 241
134 251
135 294
135 302
137 369
138 368
138 369
139 367
139 368
140 354
140 366
140 367
141 365
141 366
142 120
142 130
142 365
143 322
143 323
145 309
146 308
150 380
151 132
152 26
152 27
152 28
152 120
153 29
153 30
154 30
154 31
155 31
155 32
156 197
158 148
159 148
160 48
160 148
161 261
162 249
162 262
163 263
164 219
164 264
165 265
166 266
167 267
168 268
169 269
169 284
173 150
175 284
177 228
178 345
179 346
181 236
185 184
188 18
188 24
190 224
192 45
192 51
194 18
194 24
197 99
198 73
207 171
216 266
216 267
218 206
222 140
223 280
227 362
229 353
233 118
238 12
238 18
244 12
244 18
244 97
245 316
248 69
249 378
250 212
253 378
256 212
257 171
265 297
265 301
265 302
267 82
267 88
269 297
269 301
269 369
270 361
270 369
273 82
273 88
279 141
287 9
287 182
288 9
288 182
288 183
289 101
289 109
289 183
289 184
290 140
290 184
293 373
296 75
297 101
297 109
301 64
301 182
301 188
305 292
307 266
309 72
311 35
311 293
311 294
313 9
313 13
314 9
315 309
319 151
319 159
326 60
326 191
327 323
328 117
328 323
328 360
328 364
329 118
330 119
331 120
331 384
331 390
332 121
333 122
333 171
334 123
335 20
335 124
336 125
337 125
337 129
339 296
340 154
340 296
341 296
342 66
342 72
343 20
344 201
344 209
344 386
345 385
346 317
346 384
347 383
348 66
348 72
348 382
353 45
355 188
359 293
363 35
363 45
363 135
363 184
364 367
368 173
374 219
374 390
376 390
377 276
377 390
379 294
379 359
380 355
382 87
382 94
382 147
382 155
382 219
383 371
386 51
389 27
389 28
389 29
389 31
389 43
390 23
390 24
390 26
390 27
390 28
390 29
390 30
390 31
390 32
390 42
390 43
390 63
390 64
390 147
390 155
390 277

10
10 116
10 124
10 125
10 276
10 277
10 363
13 55
14 227
18 283
24 38
30 329
37 326
37 327
45 363
45 371
49 52
53 363
53 371
61 321
62 321
62 322
68 268
70 279
74 279
79 234
79 240
80 86
80 384
81 85
81 385
82 129
83 129
83 337
85 234
85 240
87 389
88 341
88 389
92 20
92 28
97 143
97 198
97 206
97 376
98 143
98 144
98 261
98 375
99 118
99 374
100 20
100 28
100 152
100 325
100 373
101 372
102 371
103 255
103 256
103 370
104 148
104 369
105 118
105 125
105 206
105 368
106 126
109 362
115 362
115 368
116 368
128 53
128 92
128 191
128 376
129 192
130 193
130 384
131 194
132 195
133 196
134 197
134 216
135 198
135 242
135 250
136 199
137 200
138 200
141 355
142 324
143 121
143 129
147 355
147 382
148 355
148 381
148 382
149 288
149 381
151 121
151 130
152 24
152 380
155 198
156 33
156 148
159 47
161 250
161 259
165 224
165 352
166 224
166 351
169 271
170 272
170 273
170 283
171 169
174 283
175 183
177 79
177 342
177 344
178 79
179 228
182 235
184 174
184 183
189 19
189 23
193 19
193 23
193 46
193 50
193 157
194 154
194 155
196 233
197 233
197 234
198 98
198 234
198 235
199 235
199 236
200 236
200 237
201 237
202 237
205 52
205 235
205 389
206 52
206 53
206 234
206 388
206 389
207 53
207 233
207 389
208 53
208 232
209 231
210 230
211 229
212 189
212 228
213 227
214 192
214 196
214 197
214 198
221 131
221 132
221 139
223 178
224 178
227 225
228 119
228 120
228 226
229 362
230 354
232 117
233 329
234 329
235 329
236 328
237 161
237 327
238 326
239 13
239 17
239 325
240 324
241 323
243 13
243 17
243 96
246 317
247 70
251 211
255 211
258 172
268 83
268 87
269 331
271 325
271 362
271 368
272 83
272 87
289 10
289 141
290 10
290 102
290 108
292 372
294 22
296 102
296 108
297 74
298 73
299 72
299 73
300 71
300 72
300 183
300 187
300 361
300 362
301 71
301 360
301 361
302 65
302 359
302 360
303 359
306 267
306 291
307 343
307 344
307 345
308 71
308 346
308 347
309 347
309 348
310 291
310 292
310 348
310 349
311 349
312 10
312 36
320 152
320 158
325 59
326 116
332 385
333 173
336 21
337 296
339 155
342 21
342 386
343 27
343 67
343 71
344 27
344 28
344 317
345 28
345 29
345 126
345 127
345 208
346 29
346 30
346 125
346 126
347 30
347 31
347 67
347 71
347 124
347 125
348 31
348 32
348 124
349 32
349 33
349 123
350 33
350 34
350 123
350 381
351 34
351 35
351 123
351 381
352 35
352 36
352 381
353 36
354 44
356 189
358 294
362 36
362 44
363 186
364 325
365 326
365 368
368 171
375 218
375 389
378 277
381 218
382 96
382 97
382 98
383 148
383 154
387 52
387 53
388 37
388 61
389 25
389 33
389 34
389 35
389 36
389 37
389 38
389 39
389 40
389 41
389 60
389 61
389 62
389 148
389 154
389 278

11
11 12
11 117
11 123
11 278
11 364
12 279
13 280
14 281
14 367
14 368
15 282
15 283
22 38
25 37
26 36
26 37
27 36
32 329
32 386
33 329
34 329
46 364
46 370
49 54
49 55
49 56
52 364
52 370
55 180
63 323
63 324
69 269
79 337
80 88
80 89
80 90
80 235
80 239
80 337
81 81
81 82
81 83
81 337
82 386
84 235
84 239
84 266
86 308
86 388
87 308
88 266
88 308
89 266
89 309
89 340
90 266
90 309
90 310
91 310
93 21
93 27
94 377
95 376
95 377
98 199
98 205
99 21
99 27
99 145
99 146
100 119
102 261
103 253
104 119
104 123
104 124
104 151
104 205
104 335
105 336
107 367
108 367
110 363
114 363
114 367
126 151
129 54
130 376
132 295
132 301
133 295
133 301
135 215
136 243
136 249
141 52
142 52
142 326
142 362
143 51
144 50
144 80
144 122
144 128
145 49
145 356
146 48
146 356
146 381
147 47
148 46
149 45
150 122
150 128
150 129
156 35
158 46
160 251
160 257
160 258
163 223
164 223
167 350
171 274
171 275
173 170
173 171
174 69
175 78
175 343
176 78
176 343
183 182
183 234
195 134
195 152
195 153
195 232
199 97
202 49
203 50
204 51
204 237
205 237
209 137
209 138
210 53
210 137
213 190
213 191
214 194
214 224
214 225
215 264
216 262
216 263
217 261
217 262
218 260
218 261
219 259
219 260
220 133
220 134
220 138
220 258
220 259
221 180
221 257
221 258
222 179
222 256
222 257
223 255
223 256
224 254
226 178
226 224
229 118
230 361
231 329
231 355
231 361
238 67
242 365
243 323
243 365
243 366
244 366
244 367
245 367
245 368
246 368
246 369
247 369
247 370
248 370
248 371
249 371
249 372
250 372
250 373
251 373
251 374
254 202
259 173
272 363
272 367
281 142
282 142
288 142
291 11
291 103
291 107
291 371
292 11
295 103
295 107
302 70
303 66
303 70
305 268
307 341
311 11
313 37
321 153
321 157
323 362
324 58
324 362
325 324
332 388
333 386
333 388
337 22
338 156
341 22
341 127
342 127
343 127
346 207
353 123
354 37
354 381
355 37
355 43
355 380
356 380
357 190
357 295
361 37
361 43
363 324
376 217
379 278
380 217
382 100
384 149
384 153
387 55
388 54
388 55
388 56
388 57
388 58
388 59
388 149
388 153
388 279

12
12 118
12 121
12 122
12 365
13 365
13 366
14 364
15 118
16 287
16 288
16 289
16 290
19 118
20 118
21 118
28 35
29 34
30 33
31 32
36 329
41 127
47 365
47 369
49 58
51 47
51 365
51 369
64 325
65 326
66 327
67 328
68 329
69 330
70 270
70 331
71 271
71 332
71 333
72 272
72 273
76 336
77 336
77 337
80 92
80 130
81 79
81 268
82 267
82 268
83 267
83 387
84 308
84 387
85 386
85 387
86 266
86 385
86 386
87 384
87 385
88 383
88 384
89 382
89 383
90 381
90 382
91 339
91 340
91 380
91 381
92 311
92 339
92 379
92 380
93 378
93 379
94 22
94 26
98 22
98 26
98 124
99 200
99 204
100 147
100 260
100 328
100 329
101 148
101 259
101 260
102 258
103 204
103 334
109 196
109 366
110 195
110 196
110 366
111 194
111 195
112 193
112 194
113 192
113 193
113 305
114 191
114 192
114 305
115 190
115 191
115 305
116 190
117 190
118 190
122 190
123 190
124 190
125 190
128 65
128 66
128 70
128 71
128 72
130 296
130 300
131 296
131 300
131 377
135 79
137 244
137 248
140 201
143 359
143 360
143 361
143 380
144 380
144 381
145 81
145 123
145 127
146 80
146 81
147 80
147 81
148 80
149 123
149 127
151 45
151 81
152 80
152 81
153 80
153 81
154 80
155 80
156 37
156 79
157 79
158 79
159 79
159 252
159 256
163 79
164 79
168 348
168 349
169 347
169 348
170 346
170 347
171 345
171 346
172 276
172 277
172 278
172 279
172 344
172 345
173 343
173 344
174 172
176 181
181 229
182 175
182 181
184 233
193 232
197 48
198 48
199 48
200 48
200 75
209 173
210 174
211 136
213 187
214 185
214 186
215 222
215 223
219 210
225 223
232 356
232 360
241 362
241 363
242 363
251 376
253 204
253 205
253 206
253 207
254 200
267 299
268 329
277 268
278 157
278 158
278 159
283 143
283 181
284 181
293 12
293 185
294 12
294 185
295 185
296 20
296 21
296 185
304 269
305 358
309 12
310 12
314 38
319 358
319 359
320 359
320 360
321 360
322 361
323 57
326 362
334 387
335 386
335 387
336 387
337 387
338 387
339 127
339 387
340 387
348 297
356 38
356 42
357 379
358 378
358 379
359 378
360 38
360 42
362 188
362 189
362 323
379 363
381 292
382 291

13
13 119
13 120
14 119
16 285
17 118
22 119
23 120
24 121
25 122
26 123
27 124
28 125
29 126
30 127
31 127
32 127
33 32
36 127
37 127
38 127
39 127
51 45
72 277
72 334
73 274
73 275
73 276
73 334
73 335
74 274
74 275
74 335
75 273
75 274
75 335
76 272
76 273
77 272
78 271
79 270
80 269
93 338
94 311
94 337
95 336
96 335
97 334
98 333
99 123
100 122
101 330
102 150
102 333
103 201
104 201
105 200
106 199
107 198
108 197
109 306
110 306
111 305
116 304
117 303
118 302
119 301
120 190
120 300
121 299
128 68
129 63
129 64
129 73
130 62
130 63
130 74
131 60
131 61
131 75
132 76
132 382
133 77
133 381
134 78
137 54
138 54
139 53
141 379
142 379
143 357
149 81
150 80
152 44
152 201
153 44
153 200
156 39
156 40
156 41
160 221
161 79
161 222
165 78
166 77
166 78
167 77
168 76
169 76
172 281
173 71
173 72
175 173
176 174
177 180
181 176
183 229
191 21
195 48
196 136
196 150
206 138
211 175
213 136
214 136
215 136
215 183
215 184
216 136
217 213
218 211
218 212
222 221
223 221
224 222
229 114
229 115
230 115
239 357
240 360
240 361
241 15
245 322
246 322
253 209
255 198
255 199
267 325
267 328
270 85
276 365
277 162
277 163
277 365
278 161
278 365
279 156
279 268
279 365
280 155
280 366
281 154
281 180
282 153
282 180
283 152
284 144
284 151
285 145
285 150
286 146
286 147
286 148
286 149
295 13
296 14
296 362
297 19
298 185
307 13
307 67
307 68
307 287
307 288
307 358
308 13
308 66
308 67
308 289
309 65
309 66
310 64
310 65
311 63
311 64
312 62
312 63
313 61
313 62
314 60
314 61
315 59
315 60
316 58
316 59
316 358
317 57
317 58
317 358
318 56
318 57
319 56
345 69
350 297
355 302
355 303
356 303
356 304
357 304
357 305
358 305
358 306
359 306
360 321
360 377
361 190
361 322
361 376
362 375
363 374
364 373
365 373
383 290
385 151
386 150
386 151
386 152
386 280

14
34 31
34 127
35 31
36 31
50 43
50 44
82 237
95 312
96 312
100 332
101 332
102 121
107 307
108 307
112 365
123 298
124 298
125 298
126 298
131 56
132 58
132 59
134 56
134 380
135 55
135 56
136 55
140 378
141 246
142 246
143 246
144 246
144 247
145 247
151 202
151 253
152 253
152 254
153 254
154 43
154 254
155 42
155 43
155 254
156 44
158 220
159 220
170 75
171 74
171 75
172 73
172 74
172 75
173 76
177 175
177 176
178 176
178 177
178 179
180 177
190 231
191 231
201 95
202 94
212 176
217 215
217 216
217 217
218 136
218 214
220 220
221 220
228 112
228 113
236 358
237 358
238 358
239 359
244 72
247 321
248 321
252 321
253 321
253 322
254 321
261 175
262 176
274 365
276 164
276 165
280 269
281 269
282 367
286 144
293 105
305 14
305 68
306 14
306 285
306 286
308 357
309 357
314 357
315 357
321 53
323 155
324 156
325 156
327 38
327 39
328 37
329 36
330 35
331 34
332 33
333 32
334 31
334 165
335 30
335 159
336 29
336 158
337 28
338 27
339 24
339 26
348 205
349 204
351 298
352 298
354 298
354 300
354 301
355 297
359 320
366 372
367 372
377 213
377 214
378 215
378 365
378 366
381 280
382 281
384 289
385 281
385 288
385 289

15
38 31
39 32
40 32
49 42
49 367
96 24
97 313
101 202
101 312
101 313
102 311
102 312
103 310
103 311
104 310
105 309
106 308
128 298
133 57
135 379
139 246
146 248
147 125
147 249
148 250
149 251
150 203
150 252
151 213
151 214
152 214
152 215
153 215
153 216
154 216
154 217
155 217
155 218
156 218
156 219
157 219
157 254
179 178
180 179
185 230
186 230
186 231
187 230
188 229
188 230
189 230
196 146
196 147
197 145
197 146
213 177
214 178
214 179
215 179
215 180
216 180
216 181
217 220
218 218
218 219
219 219
225 109
226 109
226 110
227 110
227 111
234 358
242 72
250 321
255 322
256 196
257 194
257 195
257 323
258 324
259 324
259 325
260 325
261 326
262 326
263 177
263 325
263 326
264 325
264 326
265 326
265 327
272 169
272 170
273 168
273 169
274 167
275 166
278 178
279 179
290 274
291 274
291 275
293 274
293 363
294 274
294 363
295 273
298 17
299 15
299 16
299 17
300 15
300 16
300 278
300 279
301 15
301 16
301 272
301 279
301 280
302 15
302 16
302 271
302 280
302 281
303 15
303 16
303 281
303 282
304 15
304 283
305 284
310 356
311 355
316 40
317 41
321 55
326 157
327 157
334 160
350 203
352 316
353 299
358 40
359 318
360 309
376 211
376 212
377 367
383 282
383 283
383 284
383 285
384 282
384 283
384 284
384 285
384 286
384 287

16
41 33
42 33
48 39
48 40
49 40
99 313
99 314
136 377
136 378
137 377
137 378
139 213
141 206
149 204
149 213
198 138
198 139
202 139
203 139
241 73
258 193
259 192
260 191
261 190
262 189
263 188
264 187
265 186
283 270
284 271
284 366
285 271
285 366
288 273
289 273
292 364
300 273
312 356
318 42
326 41
328 158
329 159
330 159
330 160
331 160
331 161
332 161
332 162
333 161
333 162
333 163
351 202
352 202
354 316
359 310
366 200
366 201
367 202
368 203
369 204
369 373
370 205
370 374
371 206
371 374
371 375
372 207
372 373
372 374
373 208
373 372
373 373
374 209
374 371
374 372
375 210
375 370
375 371
376 369
376 370
377 369

17
43 34
44 35
45 35
45 36
46 36
46 37
47 37
47 38
141 213
146 207
147 206
148 205
198 143
199 140
199 141
199 142
200 140
200 141
201 140
240 74
267 185
267 186
268 185
286 272
286 365
287 272
287 365
288 365
289 365
289 366
290 364
290 365
297 274
298 274
298 275
299 274
299 275
299 276
319 43
321 49
324 42
324 43
353 201
354 200
355 199
355 200
355 315
356 198
356 199
356 315
357 197
357 198
358 196
358 197
358 312
358 313
358 315
358 316
359 312
362 197
363 197
364 198
365 199

18
142 208
142 212
144 208
145 208
146 212
147 212
239 75
271 173
320 44
321 47
322 47
323 44
357 314
360 196
360 197
361 196

19
143 209
143 210
231 83
231 84
232 82
232 83
233 81
233 82
234 80
234 81
235 79
235 80
236 78
236 79
237 77
237 78
238 76
238 77
268 182
321 45
322 45

20
144 211
207 88
208 88
208 89
209 89
209 90
210 90
210 91
211 91

21
201 85
202 85
205 87
206 87
230 86
269 179
269 180
271 177

22
203 86
204 86
213 92
214 92
270 178

23
215 93
216 93
230 89

24
218 93
219 94
220 94
229 90
229 91

25
221 95
222 95
228 92

26
223 96
224 97
225 96
225 97
226 95
226 96
227 94
227 95
228 94

