0
0 320
0 353
115 0
141 0
206 0
207 0
214 399
232 399
233 0
234 0
265 399
289 399
292 399
306 0
320 399
326 0
341 399
342 0
342 399
354 0
399 104
399 128
399 189
399 211
399 251
399 279
399 299

1
1 40
1 41
1 101
1 113
1 352
5 192
5 202
9 112
15 192
15 202
16 359
18 302
18 312
25 167
25 177
26 359
26 369
28 302
28 312
35 167
35 177
48 1
67 359
67 369
72 1
77 359
77 369
78 398
79 341
79 351
89 341
111 83
133 334
133 335
139 398
149 33
149 34
183 249
183 259
193 249
193 259
208 1
232 1
238 81
238 91
248 81
249 27
293 398
304 143
304 153
307 1
314 143
314 153
316 252
319 78
319 398
325 1
330 382
333 23
343 398
380 311
391 301
398 190
398 210
398 252
398 278
398 300
398 316
398 317

2
2 42
2 73
2 102
2 112
2 321
7 100
8 100
9 144
9 156
21 144
21 156
24 80
24 92
39 87
39 99
49 2
51 87
51 99
65 55
71 2
76 222
76 234
88 222
97 44
97 45
97 217
98 43
98 44
103 48
107 332
113 217
113 233
116 2
125 294
127 153
129 36
131 335
131 347
134 65
137 294
138 397
140 2
145 20
145 36
154 341
166 296
166 308
168 3
170 48
170 64
171 333
171 345
172 113
175 280
175 296
177 215
177 227
180 3
180 160
183 56
183 68
184 113
185 315
191 280
195 56
196 160
201 315
202 218
209 2
214 29
214 41
214 276
215 397
216 397
217 391
218 202
218 218
223 342
223 358
224 305
229 391
230 87
230 276
230 292
230 397
231 2
231 397
239 2
239 324
239 336
243 376
249 106
251 366
254 123
256 68
259 392
263 366
265 106
266 397
267 397
270 377
271 11
271 23
272 68
272 84
273 157
281 77
281 89
282 377
287 397
288 397
289 157
291 105
291 324
293 77
294 397
295 245
296 200
307 89
307 324
307 340
313 343
318 397
329 343
329 359
331 98
342 73
343 2
344 311
344 327
344 397
346 203
346 219
346 391
360 311
360 327
362 203
362 219
369 288
379 326
379 338
383 145
383 161
384 67
385 288
389 124
391 326
391 338
394 56
396 67
396 79
397 105
397 106
397 126
397 127
397 315

3
3 43
3 322
3 350
3 351
6 84
6 372
6 384
7 102
12 280
18 384
36 202
36 220
41 127
41 145
47 163
48 58
48 76
50 3
59 127
59 163
70 3
75 147
79 396
81 382
93 147
94 72
99 315
103 131
103 149
111 303
111 315
117 3
119 16
121 131
121 149
135 46
137 107
137 396
138 220
138 238
139 3
142 136
152 34
155 107
156 238
159 150
160 136
162 18
180 36
182 341
199 170
199 188
200 341
210 3
217 188
217 396
229 396
230 3
235 150
235 162
240 3
244 28
244 40
245 146
245 147
246 146
268 396
269 302
278 23
278 41
286 396
287 302
287 320
288 252
295 396
296 23
297 385
302 182
306 121
306 270
308 3
309 3
310 9
313 44
313 62
317 396
318 121
321 145
321 157
322 9
323 3
324 3
328 120
331 44
333 145
333 157
340 108
340 120
345 396
348 129
348 147
350 28
356 76
356 88
359 253
359 271
366 73
366 129
367 72
367 73
368 28
368 72
371 212
371 224
383 212
383 224
388 172
396 107
396 125
396 208
396 209
396 253
396 276
396 277
396 301
396 302
396 314

4
4 44
4 72
4 103
4 104
4 110
4 111
4 247
4 323
4 349
7 110
7 194
7 200
7 349
13 194
13 200
16 29
16 247
18 361
20 304
20 310
22 115
22 123
24 29
24 361
24 367
26 47
26 59
26 237
26 245
26 304
26 310
27 169
27 175
30 115
30 123
33 169
33 175
34 237
34 245
37 286
45 286
51 4
52 33
53 252
60 46
65 252
67 91
68 38
68 46
69 4
69 361
69 367
74 104
75 361
75 367
80 395
81 343
81 349
86 45
86 53
87 343
89 349
90 350
91 351
94 45
94 53
94 362
95 183
109 85
115 104
118 4
118 238
121 284
122 266
122 284
122 285
123 78
123 285
126 238
126 246
127 104
130 190
136 395
137 334
138 4
139 203
177 174
177 186
184 9
184 201
184 213
185 251
185 257
191 251
191 257
197 26
197 34
211 4
216 160
218 395
224 160
224 168
225 218
225 230
227 20
228 395
229 4
232 66
237 218
237 230
238 393
240 83
240 89
241 4
244 134
246 83
251 25
257 5
259 155
259 163
262 331
269 395
281 270
281 282
285 395
289 343
293 190
293 191
293 282
294 191
306 145
306 151
310 4
312 145
313 174
314 250
321 76
321 174
322 4
328 252
328 260
335 9
335 21
336 252
336 260
339 368
340 61
341 60
341 61
342 59
342 60
343 58
343 59
344 58
346 395
349 370
351 174
361 117
361 370
363 7
375 69
376 387
376 395
381 31
382 313
384 368
384 376
389 31
390 206
392 368
392 376
393 303
395 108
395 124
395 207
395 254
395 275
395 303
395 313

5
5 45
5 71
5 105
5 106
5 108
5 109
5 324
5 346
5 347
5 348
6 104
6 105
6 109
6 347
6 348
8 96
8 195
8 199
11 146
11 154
12 195
12 199
16 70
17 30
19 146
19 154
19 362
21 305
21 309
22 82
23 30
23 116
23 122
23 256
23 362
23 366
25 305
25 309
27 238
27 244
28 170
28 174
29 116
29 122
31 329
31 343
32 170
32 174
32 277
33 238
33 244
33 277
33 278
34 278
34 279
35 279
35 280
38 285
41 89
41 97
44 285
49 89
49 97
50 184
53 32
59 217
61 45
67 39
67 45
67 331
69 303
70 362
70 366
72 171
74 362
74 366
78 224
78 232
81 331
81 394
82 344
82 348
86 171
86 344
86 348
87 46
87 52
87 348
93 46
93 52
97 204
100 105
102 29
108 86
109 334
116 29
119 5
119 45
119 239
125 239
125 245
126 360
127 292
129 337
129 345
135 292
137 5
138 333
144 315
144 356
144 370
145 275
148 76
148 90
152 213
158 356
158 370
159 275
164 298
164 306
169 343
170 5
171 81
171 95
173 362
173 376
174 115
175 217
175 225
182 115
185 29
185 58
185 66
185 81
185 95
186 252
186 256
187 376
190 252
190 256
191 128
196 27
196 33
201 92
208 117
208 131
212 5
213 5
213 7
216 31
216 39
217 161
219 393
219 394
220 19
220 20
220 393
220 394
221 393
221 394
222 117
222 131
222 303
222 394
223 161
223 167
224 394
225 393
225 394
226 19
226 393
226 394
227 5
227 393
227 394
228 5
239 392
241 84
241 88
241 326
241 334
245 84
245 135
252 24
253 368
258 156
258 162
261 368
264 320
264 321
265 319
265 320
266 318
266 319
267 317
267 318
269 13
269 21
270 394
272 379
273 194
273 213
273 227
280 379
281 141
283 79
283 87
284 394
287 53
291 79
296 394
297 394
298 198
301 53
307 146
307 150
311 5
312 286
312 300
313 249
314 175
315 394
316 394
320 175
321 5
322 75
326 300
329 100
329 253
329 259
333 275
335 253
335 259
338 369
340 63
340 71
344 56
347 275
347 289
347 394
348 394
368 69
374 68
375 195
375 388
375 394
381 82
381 336
382 81
382 82
383 80
383 81
383 314
384 79
384 80
385 78
385 79
385 369
385 375
386 69
386 77
386 78
388 32
389 336
391 369
391 375
393 306
394 69
394 77
394 109
394 123
394 206
394 274
394 304
394 305
394 306
394 307
394 308
394 309
394 311
394 312

6
6 46
6 47
6 70
6 107
6 248
6 344
6 345
8 86
8 374
8 382
12 147
12 153
14 278
15 372
16 371
16 382
17 370
18 31
18 147
18 153
18 369
19 368
20 366
20 367
21 83
22 31
24 117
24 121
28 117
28 121
28 239
28 243
32 239
32 243
37 280
38 204
38 218
39 284
42 90
42 96
43 129
43 143
48 90
48 96
49 161
50 60
50 74
52 6
53 6
54 31
57 129
57 161
58 33
58 34
59 34
59 35
60 35
60 36
61 36
61 37
62 37
62 38
62 44
66 40
66 44
67 6
68 6
77 145
79 225
79 231
82 393
83 384
85 225
85 232
85 233
86 225
86 233
86 234
87 234
87 235
88 47
88 51
88 235
88 236
89 236
89 237
90 237
90 238
92 47
92 51
92 74
94 352
98 139
101 313
105 147
108 89
109 89
109 305
109 313
110 90
110 335
111 91
112 92
113 93
114 94
115 94
119 133
119 147
120 240
121 14
124 240
125 286
128 291
128 338
128 344
134 393
135 393
137 48
139 109
139 286
139 332
140 222
140 236
140 285
144 134
151 201
153 109
154 36
154 236
154 311
155 293
155 310
155 311
156 293
156 294
156 309
156 310
157 152
157 294
157 295
157 308
157 309
158 134
158 295
158 296
158 308
163 299
163 305
168 342
171 6
174 218
174 224
175 116
181 116
184 343
186 59
186 65
195 28
195 32
201 172
201 186
214 6
215 6
215 186
217 32
217 38
218 162
221 18
221 302
222 162
223 393
225 18
226 6
237 152
237 160
240 391
242 6
242 30
242 38
242 327
242 333
243 6
246 136
246 142
254 369
257 157
257 161
260 369
262 321
268 14
268 20
269 317
271 304
271 393
273 380
279 380
280 25
283 393
284 80
284 86
285 304
285 318
290 80
290 254
294 25
296 192
298 393
299 197
299 387
304 184
304 268
308 119
312 6
312 7
312 149
312 383
313 6
313 7
313 382
314 6
314 7
314 381
314 393
315 6
315 46
315 60
315 380
316 119
316 379
317 6
318 6
318 7
319 6
319 7
319 176
320 6
320 7
323 155
328 101
329 46
330 118
330 254
330 258
331 147
331 155
334 254
334 258
337 370
338 110
338 118
339 64
339 70
339 374
349 393
350 131
350 145
350 393
358 23
358 78
358 86
361 255
361 269
364 131
366 30
369 67
369 68
373 67
373 222
374 389
374 393
381 84
381 214
381 222
382 335
385 321
386 174
386 370
386 374
387 33
387 70
387 76
387 315
388 315
388 335
389 314
390 313
390 370
390 374
391 312
392 311
393 70
393 76
393 110
393 122
393 205
393 255
393 273
393 310

7
7 48
7 69
7 249
7 325
7 326
7 342
7 343
9 87
9 93
9 94
9 375
9 381
13 148
13 152
14 249
15 374
15 381
17 148
17 152
20 84
24 57
30 276
38 281
39 281
43 91
43 95
44 281
45 280
45 281
46 279
46 280
47 91
47 95
47 278
47 279
48 277
48 278
49 276
49 277
50 160
54 7
55 254
56 160
57 31
57 32
63 39
63 40
63 254
66 7
76 102
80 226
80 230
84 226
84 230
84 231
96 352
96 360
100 220
102 312
108 306
108 312
110 220
110 230
111 336
117 102
118 283
120 7
120 264
121 7
125 80
125 102
127 286
127 339
127 343
129 290
130 156
132 33
132 188
133 392
135 7
136 7
137 287
141 201
142 23
155 37
158 306
162 304
167 61
167 341
172 7
173 219
173 223
175 176
175 184
176 117
178 283
178 293
180 117
183 157
186 203
186 211
187 60
187 64
188 312
193 157
198 312
215 205
215 215
216 7
217 7
217 279
218 33
218 37
220 301
220 345
220 355
224 7
225 7
227 84
227 220
227 228
227 279
230 68
235 220
235 228
238 153
238 159
241 31
241 37
243 328
243 332
244 7
245 87
246 88
246 379
247 89
247 140
247 141
248 90
249 91
250 92
251 93
252 93
252 103
255 370
256 389
257 126
259 71
259 88
259 370
260 87
260 88
260 329
261 86
261 87
262 86
262 103
267 15
267 19
269 71
269 81
272 392
273 392
274 381
276 160
278 381
281 392
282 392
283 280
285 81
285 85
286 160
289 81
291 280
291 341
294 102
294 327
299 392
300 196
304 92
304 327
309 118
311 148
311 385
313 392
315 118
316 7
316 346
316 377
324 154
326 346
327 102
330 148
330 154
331 117
337 11
337 19
337 111
337 117
337 373
338 65
338 69
338 373
347 314
347 324
349 206
349 216
351 392
352 392
353 172
357 314
357 324
359 79
359 206
359 372
361 9
363 115
370 60
372 285
373 215
374 221
380 148
380 215
380 221
382 285
383 334
385 175
385 318
385 319
387 334
388 71
388 75
391 53
392 71
392 75
392 111
392 112
392 120
392 121
392 201
392 202
392 203
392 204
392 256
392 272

8
8 49
8 50
8 250
8 327
8 340
8 341
10 92
10 197
10 376
10 380
14 68
14 375
14 376
14 380
20 35
20 36
20 37
21 364
23 307
28 276
29 331
29 341
30 172
43 282
51 159
51 276
52 149
52 186
55 8
55 159
56 26
56 27
56 255
62 255
65 8
69 329
72 364
74 173
77 101
79 329
83 391
84 173
84 346
84 391
91 240
95 202
97 353
97 359
101 221
103 311
104 31
104 89
105 89
106 88
107 307
107 311
109 221
116 283
118 101
122 8
124 101
124 362
126 81
128 287
129 287
131 157
132 391
133 32
134 8
135 287
142 200
146 88
146 317
146 358
146 368
147 277
156 358
156 368
157 277
159 298
159 299
159 304
159 305
159 339
166 60
166 335
173 83
173 93
174 177
174 183
175 364
175 374
179 284
179 292
183 83
183 93
184 156
185 374
187 204
187 210
188 254
189 30
189 130
189 311
190 30
191 30
192 156
197 311
199 208
200 209
203 90
210 119
210 129
214 206
214 214
218 8
219 8
219 346
220 119
220 129
221 11
222 8
222 11
222 12
223 8
223 12
223 13
223 14
226 35
226 83
226 280
228 221
228 227
229 69
234 221
234 227
239 154
239 158
240 32
240 36
243 86
245 8
249 157
250 138
250 158
251 159
252 159
253 94
253 102
253 159
255 388
258 127
259 90
259 322
259 328
260 72
260 322
261 102
262 84
268 72
268 80
271 316
274 391
275 192
275 215
275 225
275 391
277 161
278 127
279 139
279 391
280 391
284 279
285 161
289 51
290 279
292 340
295 101
295 328
300 391
303 93
303 328
309 148
310 117
311 387
312 391
314 117
314 288
314 298
317 347
317 375
317 376
323 149
324 73
324 298
325 72
325 153
325 347
328 376
329 149
329 153
329 374
329 375
330 373
330 374
331 372
331 373
332 372
333 372
335 277
336 112
336 116
338 12
338 18
345 277
345 287
348 315
348 323
350 207
350 215
353 391
354 171
354 391
356 315
356 323
358 207
358 373
359 215
360 10
360 80
366 391
367 391
368 391
369 391
370 391
371 61
371 62
371 63
371 391
372 168
372 390
372 391
373 169
373 284
373 391
374 170
374 216
375 171
375 216
375 220
376 172
377 173
377 193
378 174
379 149
379 175
379 216
379 220
380 176
381 284
382 111
382 112
383 112
383 113
384 113
384 114
384 176
385 114
385 316
386 114
390 52
391 113
391 114
391 118
391 119
391 199
391 200
391 257
391 270
391 271

9
9 51
9 52
9 67
9 68
9 328
9 338
9 339
13 67
16 276
18 90
20 33
26 119
28 332
28 340
30 241
40 206
40 216
41 282
45 131
52 62
52 72
53 151
53 187
55 131
56 9
56 29
57 256
61 256
64 9
64 42
68 273
69 273
69 274
70 274
70 328
75 174
78 100
78 328
79 143
83 174
85 386
85 390
89 111
90 49
90 76
91 242
94 201
97 299
98 300
98 354
98 358
99 237
99 238
99 301
100 236
100 237
100 302
101 91
101 92
101 235
101 236
101 303
102 91
102 222
102 234
102 235
102 304
103 90
103 233
103 234
103 305
104 233
104 306
104 307
105 32
106 43
108 222
114 250
115 249
115 250
116 43
116 248
116 249
117 135
117 145
117 247
117 248
118 246
118 247
119 100
119 245
119 246
120 244
120 245
121 243
121 244
122 242
123 9
123 12
123 100
123 341
127 82
131 390
132 158
133 9
133 288
134 31
134 288
140 32
140 33
141 111
141 330
142 224
142 234
142 329
143 199
145 87
146 132
147 318
147 359
147 367
148 278
149 199
151 111
154 315
155 154
155 289
155 359
155 367
156 278
160 300
165 59
169 221
173 9
173 178
173 182
174 9
174 84
174 92
176 373
180 285
180 291
182 84
182 92
184 373
185 155
186 345
188 205
188 209
190 310
191 62
191 155
192 62
193 30
193 62
193 63
194 63
194 64
195 64
195 65
196 65
196 66
196 310
197 66
197 67
198 67
202 209
203 174
203 184
204 89
211 120
211 128
212 172
213 171
213 172
213 184
213 207
213 213
214 170
214 171
215 169
215 170
216 168
216 169
217 167
217 168
218 166
218 167
218 347
219 120
219 128
219 165
219 166
220 9
220 164
221 9
222 35
223 16
223 34
223 35
224 35
225 82
225 281
228 70
229 222
229 226
232 34
233 222
233 226
242 389
243 388
246 9
247 156
248 138
251 137
252 136
252 137
253 135
253 136
254 101
254 134
254 135
254 387
255 133
255 134
255 159
258 323
258 327
259 128
260 101
261 73
262 17
263 17
267 73
273 306
273 316
276 191
276 216
276 224
276 385
276 386
276 387
276 390
278 138
278 162
278 390
282 27
283 306
283 316
284 162
285 278
287 190
288 85
289 86
289 278
290 50
290 87
291 88
292 27
292 89
293 90
293 339
294 91
295 92
296 93
296 94
296 100
301 389
301 390
302 266
302 329
302 389
302 390
303 389
303 390
304 389
304 390
305 390
307 390
308 389
308 390
309 242
309 390
310 240
310 241
311 390
315 289
315 297
316 179
316 364
316 365
317 178
318 348
323 297
324 150
324 348
325 150
326 71
327 375
332 256
335 372
336 278
339 13
339 17
344 278
344 286
346 53
347 53
349 316
349 322
351 208
351 214
351 374
352 133
355 170
355 316
355 322
355 390
356 390
357 208
357 214
357 374
358 214
359 11
362 133
363 257
363 267
364 390
365 390
370 167
371 65
374 283
378 150
378 192
379 86
380 283
384 36
385 35
385 328
385 329
385 330
388 114
388 115
388 372
389 51
389 73
389 115
389 116
390 72
390 73
390 74
390 115
390 116
390 117
390 197
390 198

10
10 53
10 54
10 66
10 251
10 252
10 329
10 336
10 337
12 66
12 88
15 150
17 87
17 275
18 86
25 275
26 275
27 333
27 339
41 207
41 215
45 93
46 132
53 63
53 71
53 153
53 154
53 155
53 275
54 132
54 188
54 275
55 24
63 10
71 275
71 327
76 175
77 327
80 142
82 175
82 228
86 387
86 389
89 77
92 243
93 200
96 297
96 389
97 388
97 389
98 389
103 223
106 33
107 223
114 33
115 42
116 136
116 144
122 342
124 10
124 11
125 10
125 341
130 16
130 389
131 16
131 17
131 288
132 10
132 17
132 18
133 18
133 19
133 159
134 19
134 20
135 20
135 21
135 30
136 21
139 30
139 31
142 112
143 225
143 233
143 328
144 86
145 284
147 131
148 198
148 319
148 360
148 366
149 279
150 112
154 155
154 360
154 366
155 279
160 302
161 338
164 58
164 338
165 339
171 221
175 10
175 85
175 91
177 372
178 119
181 85
181 91
181 286
183 372
186 154
187 346
189 62
190 154
191 309
195 309
196 207
204 175
204 183
205 88
212 121
212 127
212 174
212 183
212 208
212 212
217 298
217 348
218 121
218 127
218 299
220 35
224 81
224 282
234 34
235 34
236 34
243 156
244 387
245 156
245 330
246 329
247 10
247 329
248 10
253 386
255 100
256 373
256 374
257 133
257 372
259 100
265 17
266 74
274 307
274 315
276 383
277 137
277 190
277 217
277 223
277 389
279 163
281 173
282 307
282 315
283 28
283 163
287 83
291 28
291 49
297 95
297 99
298 49
299 49
301 265
301 330
301 337
306 389
308 244
308 245
310 389
315 180
315 181
316 290
316 296
316 362
317 361
317 362
317 366
318 367
318 368
319 349
319 368
319 369
322 105
322 296
323 105
323 349
324 374
325 374
325 375
326 49
326 291
327 49
327 70
327 290
328 69
328 289
329 288
330 287
331 286
332 285
333 284
336 67
337 279
343 279
343 285
348 52
350 317
350 321
352 209
352 213
352 375
353 134
353 375
354 317
354 321
355 382
356 209
356 213
356 382
356 383
357 19
357 383
357 384
357 389
358 384
358 385
358 389
359 385
359 386
361 134
362 389
363 389
364 258
365 113
375 282
377 151
378 87
379 111
379 191
379 282
385 332
388 50
389 195
389 196
389 258
389 259

11
11 55
11 56
11 64
11 65
11 253
11 330
11 334
11 335
12 90
12 378
13 89
14 88
14 89
15 88
15 89
16 88
16 89
18 274
20 49
20 50
24 274
26 334
26 338
42 208
42 214
47 133
51 145
53 133
53 157
54 70
55 20
55 21
55 22
55 189
55 274
56 274
59 260
59 261
59 262
61 11
62 11
63 63
72 326
73 275
74 275
76 326
77 176
81 141
81 176
87 388
88 78
88 388
89 388
90 387
90 388
91 388
92 199
92 388
93 244
93 388
94 388
95 388
98 240
99 388
100 388
104 230
105 309
107 34
107 41
113 282
114 41
115 137
115 143
126 11
127 11
128 388
129 388
130 14
131 11
132 84
133 84
136 23
141 50
141 51
143 85
143 113
144 226
144 232
144 327
147 197
147 284
148 130
149 113
149 320
149 361
149 365
153 156
153 317
153 318
153 326
153 327
153 361
153 365
154 286
154 287
154 327
154 328
155 328
155 329
156 329
156 330
157 41
157 42
157 330
157 331
158 40
158 41
158 331
158 332
159 39
159 40
159 332
159 333
160 333
160 334
161 334
161 335
162 335
162 336
162 337
163 336
163 337
176 11
176 86
176 90
178 11
178 29
178 371
180 86
180 90
182 371
188 347
192 207
193 207
194 207
200 68
201 68
205 176
205 182
206 87
211 175
211 176
211 182
213 122
213 126
216 297
217 122
217 126
238 34
241 156
244 155
245 386
248 328
249 11
249 327
249 328
250 11
250 326
250 327
251 326
251 327
252 325
252 326
253 325
254 325
254 376
254 377
255 375
255 376
258 93
258 94
258 132
259 132
263 74
263 80
263 81
275 308
275 314
276 129
276 136
278 189
278 218
278 222
281 308
281 314
284 29
284 189
285 189
290 29
292 48
296 48
296 331
297 48
311 236
311 237
311 238
312 115
313 113
313 114
313 183
313 184
314 182
317 50
317 291
317 295
318 50
318 359
318 360
319 107
319 373
320 107
320 370
320 371
320 372
321 106
321 371
321 372
322 372
322 373
323 373
324 291
325 50
325 105
325 106
326 106
326 107
327 107
327 108
327 151
328 108
328 109
329 109
329 110
330 110
330 111
331 111
331 112
332 112
332 113
333 66
333 113
334 66
334 114
335 284
342 280
342 284
349 11
349 51
350 11
351 11
354 135
355 378
355 379
355 380
357 17
359 388
360 135
360 387
360 388
361 388
362 82
363 83
365 259
366 112
377 88
377 218
380 190
382 178
388 193
388 194
388 260

12
12 62
12 63
12 254
12 331
12 332
12 333
13 332
14 332
14 333
15 333
15 334
16 334
16 335
17 335
17 336
19 51
23 273
43 213
48 134
51 143
52 134
55 18
55 64
55 69
56 16
56 17
57 12
58 265
59 258
60 12
64 69
65 70
65 272
66 71
67 72
68 73
69 74
70 75
71 76
72 77
73 78
74 79
75 80
75 276
76 81
82 140
87 79
88 115
91 139
100 356
101 355
101 387
102 355
102 387
103 386
103 387
104 228
104 387
105 139
105 227
105 228
105 229
108 40
111 282
113 35
113 340
114 138
114 142
114 254
119 342
121 95
121 98
122 94
123 93
124 92
125 91
126 90
127 89
127 387
128 12
128 88
129 12
129 13
129 84
129 87
130 12
130 85
130 86
131 85
134 83
137 24
137 25
137 26
142 52
142 53
142 61
142 62
144 114
145 197
145 227
145 231
145 326
146 325
147 324
148 114
148 283
148 323
149 129
149 283
149 323
152 157
152 319
152 320
152 324
152 325
153 280
153 284
153 285
156 43
156 44
160 38
161 37
162 36
163 35
164 34
165 33
166 32
166 220
167 31
168 30
169 29
169 179
170 179
171 180
177 12
177 13
187 147
187 148
187 149
187 150
188 147
188 148
188 149
188 150
189 348
190 207
202 69
203 355
204 356
205 210
206 177
206 181
206 210
207 210
208 210
209 293
210 177
210 181
226 72
231 224
246 385
247 384
248 384
251 12
251 380
251 381
252 12
252 379
253 378
256 325
257 95
257 96
259 16
260 131
264 78
264 79
276 309
276 313
280 180
280 309
280 313
281 167
281 168
281 169
281 170
282 188
283 188
285 30
287 220
287 276
288 274
288 275
289 30
295 337
296 221
296 336
299 254
299 336
300 254
301 97
301 253
302 97
302 252
303 98
303 251
304 99
304 250
305 100
305 249
306 101
306 248
307 102
307 247
308 103
309 104
310 105
310 232
310 233
311 106
311 200
311 207
311 234
314 111
314 112
315 111
319 51
319 358
320 51
320 356
320 357
321 353
321 354
321 355
321 356
322 292
323 292
324 51
332 65
336 283
337 283
341 15
342 14
343 14
346 12
347 12
347 13
348 12
352 12
353 12
353 13
354 13
354 14
355 14
355 15
355 136
355 376
356 14
356 15
356 16
357 13
357 168
358 30
358 167
359 136
366 260
367 111
376 89
377 110
377 278
382 181
384 189
385 189
385 190
386 190
386 191
387 191
387 192
387 261

13
13 60
13 61
13 255
13 256
18 53
18 54
19 53
19 336
20 336
21 336
22 336
56 65
57 14
57 15
58 13
58 14
58 267
59 13
62 65
62 68
63 272
74 319
74 320
74 321
74 322
75 317
76 305
76 306
76 307
76 308
76 312
76 313
76 314
76 315
77 276
77 277
77 304
77 305
78 277
78 303
78 304
79 302
79 303
80 301
80 302
81 300
81 301
82 299
82 300
83 298
83 299
84 131
84 297
84 298
85 130
85 131
87 126
87 127
87 128
88 117
88 118
88 119
88 120
88 124
88 125
88 126
88 127
103 354
104 354
105 225
105 386
106 386
109 39
112 36
113 39
113 342
125 386
126 386
135 161
136 83
136 162
137 28
137 83
141 78
141 79
143 59
143 60
145 194
146 195
150 282
156 128
161 55
161 220
162 56
162 220
163 220
164 220
166 177
167 178
168 178
175 28
176 15
176 16
176 28
177 15
180 365
180 366
180 367
181 364
182 363
183 288
183 362
184 137
184 138
184 139
184 289
184 361
185 142
185 360
186 141
186 142
186 143
186 359
187 145
187 358
188 152
188 357
189 356
190 354
190 355
193 307
194 305
194 306
198 350
199 351
200 352
201 353
202 354
204 69
205 355
206 293
206 355
207 293
210 210
214 351
214 354
215 350
221 285
222 284
249 383
250 382
250 383
251 384
253 13
254 17
257 16
257 98
262 131
264 76
274 130
280 182
280 183
280 184
280 185
281 165
282 220
283 220
284 220
285 220
289 272
289 273
290 271
290 272
291 270
291 271
292 269
292 270
293 268
293 269
294 267
294 268
295 266
295 267
296 265
296 266
297 333
297 334
297 335
298 221
298 255
298 333
298 334
298 335
299 97
299 332
305 227
306 227
306 228
307 228
307 229
308 229
308 230
309 230
309 231
311 209
312 186
312 187
313 107
314 108
315 108
315 109
316 108
316 109
317 108
321 293
321 351
338 282
344 13
345 13
352 319
354 211
359 166
365 84
368 110
374 154
375 110
375 153
376 46
377 45
377 46
377 280
378 45
382 183
382 184
382 185
382 186
383 40
385 47
386 48
386 262

14
14 57
14 58
14 59
14 257
14 258
15 57
15 58
16 56
16 57
17 55
17 56
24 336
50 138
50 139
50 140
50 141
57 191
58 192
58 272
59 268
59 269
59 271
60 67
61 66
61 67
61 271
62 271
74 324
76 310
79 178
79 278
80 278
84 133
84 134
85 295
85 296
86 129
88 122
88 138
89 138
89 196
90 197
107 140
107 385
108 140
108 281
108 385
109 36
109 140
109 281
110 37
110 38
110 140
111 37
111 38
111 39
113 256
114 343
116 343
117 343
124 385
137 163
138 82
139 81
139 82
140 80
140 81
140 82
141 83
146 55
147 55
151 322
151 363
152 282
154 127
155 127
160 54
164 177
171 23
171 24
171 25
173 27
174 27
175 17
175 18
178 88
180 369
183 134
183 135
184 135
185 140
185 290
186 290
191 352
191 353
193 350
194 350
195 303
195 304
195 350
196 350
204 294
205 70
205 294
207 354
208 85
208 354
208 355
209 84
209 354
212 293
213 352
215 124
220 286
222 78
254 14
254 15
255 14
255 15
256 15
264 131
265 131
266 131
267 131
267 132
273 131
273 133
274 134
280 187
280 220
287 34
287 35
293 43
293 44
294 46
297 256
297 257
297 258
297 259
297 263
297 264
310 198
310 210
310 211
311 188
311 189
319 293
322 55
322 56
322 57
322 58
323 58
323 59
324 59
324 60
325 60
325 61
326 61
326 62
327 62
327 63
328 63
328 64
329 64
329 65
340 282
351 49
352 48
357 140
357 141
359 32
359 33
360 165
366 85
367 86
368 87
369 88
369 103
369 104
369 105
370 89
370 101
370 102
370 104
371 90
371 99
371 100
371 101
372 91
372 98
372 99
372 100
373 92
373 97
373 98
373 109
373 155
374 93
374 94
374 95
374 96
374 109
375 47
382 188
384 46
385 263
385 264

15
15 259
16 260
17 261
17 263
18 262
18 263
18 264
18 265
19 264
19 270
20 269
20 270
21 271
45 211
46 210
50 136
57 67
59 66
59 193
60 270
78 83
81 279
82 280
83 280
84 138
85 81
85 135
85 136
85 137
86 136
86 137
86 294
87 137
88 195
97 245
106 353
107 352
107 353
107 354
108 351
108 354
108 355
109 350
109 355
109 356
109 384
110 349
110 356
110 357
110 384
111 348
111 357
111 358
112 140
112 257
112 347
112 358
112 359
113 346
113 359
113 360
114 345
114 360
114 361
115 344
115 361
115 362
116 362
116 363
117 363
117 364
118 365
119 366
120 367
121 369
121 370
121 371
122 384
123 384
144 55
144 57
145 56
146 116
147 117
147 118
147 119
147 229
148 54
148 118
148 228
149 53
149 54
149 228
150 53
150 159
150 160
153 126
157 222
158 222
159 53
159 221
162 176
163 176
171 27
172 22
172 26
173 20
173 21
174 19
182 132
182 133
187 291
188 291
188 292
189 292
189 293
190 293
190 294
191 294
191 295
191 350
192 295
192 296
192 351
193 296
193 297
196 302
207 70
208 179
210 83
210 353
211 353
212 353
219 287
222 76
269 131
269 132
270 132
271 132
272 132
278 311
287 32
288 36
288 37
289 37
289 38
291 40
291 41
292 41
292 42
297 261
306 192
309 212
310 196
322 53
353 47
357 138
358 142
358 143
359 143
359 144
360 34
360 35
360 144
360 145
361 145
361 146
361 164
362 146
362 147
362 163
363 147
363 148
364 148
364 149
365 149
365 150
366 150
366 151
367 151
367 152
368 152
368 153
368 262
369 263
370 106
371 107
372 108
374 91
383 45
384 265

16
19 266
19 267
19 268
47 209
48 209
60 194
86 292
87 194
87 291
87 292
90 103
111 258
111 383
112 383
120 374
120 375
120 383
121 373
121 383
138 165
148 120
148 121
149 122
149 123
150 124
150 125
150 227
151 52
151 125
151 126
151 227
152 51
153 50
153 51
154 50
155 223
156 223
158 52
161 175
178 128
179 129
180 130
181 131
195 297
200 296
201 296
202 295
208 71
209 71
211 82
214 292
215 291
215 292
216 290
216 291
217 289
217 290
218 288
218 289
221 73
290 39
307 193
308 193
308 194
308 214
308 215
309 192
309 193
309 194
309 195
309 214
310 191
354 46
363 162
364 161
365 160
365 161
366 160
370 108
370 264
381 44
382 43
382 44
383 266
383 267

17
49 208
50 207
50 208
51 207
61 195
66 197
80 84
86 193
88 289
88 290
89 101
89 102
98 247
99 248
99 249
113 382
114 382
118 377
118 378
118 382
119 376
119 377
119 382
149 162
152 226
153 225
154 224
155 49
156 50
157 51
198 297
199 297
210 72
212 81
307 216
307 217
355 45
367 159
368 159
369 155
370 156
371 265
381 269
381 270
382 268
382 269

18
52 206
53 205
54 205
64 197
81 85
85 192
88 100
89 288
90 287
91 287
100 250
100 251
115 381
116 380
116 381
117 379
117 381
148 163
197 298
212 72
212 73
213 80
214 79
219 74
304 220
304 221
305 219
305 220
305 221
306 218
306 219
356 44
357 43
369 157
369 158
370 48
372 266
373 266
373 267
374 267

19
55 204
56 204
68 196
69 196
80 184
80 185
87 98
88 98
101 252
102 253
102 254
103 254
103 255
144 187
213 74
214 74
215 78
358 42
359 41
360 40
361 39
361 40
362 40
363 41
364 42
365 43
366 44
367 45
368 46
369 47
375 268
376 269
377 269
377 270
378 270
378 271

20
57 203
58 202
59 201
60 200
61 199
62 198
70 195
71 195
82 87
83 87
98 271
99 270
99 271
100 269
100 270
101 268
101 269
102 267
102 268
103 266
103 267
104 256
104 265
104 266
105 257
105 258
105 264
105 265
106 258
106 259
106 261
107 262
141 167
145 186
215 75
216 75
216 76
217 75

21
79 187
84 88
84 89
88 93
106 263
107 260
145 184
146 184

22
73 194
74 193
75 193
80 192
85 90
86 91
87 92
143 168

23
76 192
77 192
79 190
98 275
146 181

24
78 191
145 169

25
93 281
97 277
97 278
146 170
147 179

26
95 280
96 279
96 280
147 177

27
147 172
148 173
148 174
148 175
148 176
149 174
149 175

