0
0 220
0 244
0 311
0 312
0 349
0 365
78 399
104 399
178 0
215 399
237 399
240 0
294 399
379 399
399 122
399 123
399 147
399 148
399 242
399 269
399 270

1
1 221
1 243
1 313
1 350
1 364
9 304
19 304
21 120
31 119
31 120
32 119
41 199
51 199
51 209
58 130
79 398
80 143
90 69
98 20
98 30
103 398
123 231
123 241
133 231
133 241
136 182
136 192
146 117
146 127
146 182
192 320
192 330
202 330
228 227
234 94
239 1
272 83
272 93
273 364
273 374
283 364
283 374
284 268
284 278
294 21
294 31
295 398
296 391
304 21
304 31
321 398
322 398
323 266
330 94
330 104
332 384
332 394
339 1
340 94
340 104
354 137
354 147
355 1
364 137
364 147
368 1
372 366
372 376
374 186
378 398
382 366
382 376
384 186
390 1
398 124
398 146
398 268
398 273
398 295

2
2 222
2 242
2 314
2 345
2 351
2 363
9 80
9 96
13 224
13 240
15 322
23 348
23 364
25 80
31 54
31 66
34 311
35 242
43 66
47 242
50 51
50 67
50 311
50 393
51 340
51 379
52 105
55 185
58 229
58 245
61 259
61 271
62 393
63 20
63 32
63 379
64 217
66 51
68 351
68 367
74 229
74 245
80 217
80 397
82 149
82 165
91 48
91 60
93 322
94 322
98 300
102 397
108 37
114 300
114 316
119 74
124 276
125 331
135 74
136 264
136 276
137 331
141 388
154 145
154 260
158 396
166 260
171 83
173 109
179 2
180 2
191 142
193 385
193 397
196 88
196 100
201 152
201 168
209 122
209 134
211 243
216 397
217 168
217 397
223 174
223 186
224 58
225 115
235 186
235 397
236 397
241 115
242 27
242 39
254 27
254 39
259 215
260 157
260 323
264 302
264 314
270 111
276 173
276 302
276 314
280 150
282 111
292 150
309 138
310 204
320 289
320 397
325 122
325 138
334 69
334 85
334 165
335 6
336 289
338 26
339 323
339 339
346 201
347 201
347 202
348 202
350 85
350 165
350 181
351 22
354 2
355 323
355 339
358 190
364 74
370 202
372 47
376 62
376 74
383 244
384 35
384 47
384 196
385 197
391 127
391 143
397 125
397 145
397 267
397 274

3
3 223
3 241
3 315
14 344
24 319
26 210
26 228
31 173
31 185
36 370
43 173
43 185
48 370
52 348
66 287
66 305
74 320
81 348
81 396
82 347
82 348
83 347
85 198
91 100
94 262
94 280
101 354
101 396
105 49
106 48
106 254
106 266
109 100
109 392
118 254
121 264
121 265
121 347
122 265
122 266
128 20
130 390
136 9
153 108
164 12
164 346
169 268
169 286
170 168
181 3
181 364
182 18
182 36
187 286
188 168
200 36
213 15
215 381
228 239
229 238
230 237
234 396
237 3
237 163
238 3
238 164
239 165
242 47
242 59
246 323
246 335
253 246
254 47
254 59
259 258
259 270
260 148
263 120
265 234
265 246
271 258
271 270
281 138
291 282
295 80
295 92
296 396
297 396
299 242
299 254
302 368
303 270
303 282
305 123
306 124
307 396
308 359
308 396
309 396
310 396
319 396
320 359
320 394
320 395
321 393
321 394
322 392
322 393
329 255
336 258
345 377
345 395
346 199
351 95
353 3
354 258
359 38
363 377
367 28
369 3
369 95
369 113
369 252
369 270
373 308
374 387
376 396
377 396
388 19
389 3
391 308
396 126
396 144
396 243
396 266
396 275

4
4 316
4 317
4 361
4 362
6 186
6 198
8 284
8 361
8 382
8 394
9 31
9 39
11 302
17 31
17 39
17 302
18 186
18 198
20 284
26 381
26 389
32 115
43 201
49 201
60 128
64 320
77 37
82 141
89 37
93 176
93 188
96 22
96 28
103 50
104 4
104 16
108 47
116 4
116 16
124 266
125 233
125 239
131 233
131 239
138 184
138 190
144 184
147 231
147 243
148 119
148 125
148 200
149 289
149 297
150 62
150 70
156 192
156 200
157 289
157 297
158 62
158 70
159 231
172 303
172 315
182 4
182 6
183 106
184 224
184 236
184 303
184 315
191 106
191 194
191 206
192 395
194 322
194 328
196 224
196 236
200 328
203 194
203 206
216 145
226 285
226 297
230 235
231 309
231 321
232 92
233 395
236 4
252 101
253 84
255 342
260 101
264 282
264 294
267 330
267 342
270 85
270 91
275 366
275 372
276 282
276 294
281 366
281 372
286 270
286 276
294 115
294 123
296 23
296 29
297 168
298 393
298 395
302 23
302 29
302 115
305 160
305 168
305 395
306 395
311 395
312 395
314 391
315 13
317 395
318 395
324 392
325 268
330 386
330 392
332 96
332 102
338 96
338 102
339 351
339 359
347 117
347 351
347 359
349 230
351 294
356 139
356 145
361 230
362 139
362 145
363 294
374 368
374 374
375 32
375 395
376 32
380 368
380 374
382 188
382 194
387 199
387 207
395 127
395 143
395 199
395 207
395 244
395 264
395 265
395 276

5
5 224
5 225
5 239
5 240
5 318
5 352
5 360
7 360
10 32
10 38
12 301
16 32
16 38
16 301
18 127
18 141
20 104
25 382
31 151
33 56
33 64
34 90
36 273
36 287
37 240
44 202
45 240
48 202
50 273
50 287
52 391
53 381
59 81
60 391
61 127
61 381
63 261
63 269
65 22
65 30
73 67
73 81
75 113
81 351
82 394
83 140
83 394
93 50
95 23
95 342
99 394
100 394
101 50
101 142
110 39
110 47
118 264
126 234
126 238
126 274
127 333
130 234
130 238
134 266
134 274
135 333
139 185
139 189
142 83
142 97
143 185
143 386
145 50
149 120
149 124
149 199
150 290
150 296
151 69
155 193
155 199
156 258
156 290
156 296
157 63
157 69
159 50
164 258
167 145
168 146
169 147
170 148
171 111
171 149
172 150
183 5
184 5
184 107
185 5
186 5
186 6
186 117
187 5
188 5
189 5
190 5
190 107
191 387
191 394
195 327
198 90
199 327
202 50
202 64
205 107
211 124
211 132
213 245
216 50
217 146
219 107
220 82
223 375
225 176
225 184
229 258
231 91
231 234
234 10
234 68
235 5
237 221
237 375
241 167
244 29
252 29
253 100
254 85
255 181
259 100
265 35
265 49
266 312
269 86
269 90
272 113
274 312
276 367
276 371
279 35
279 49
280 113
280 367
280 371
282 152
286 180
286 194
287 271
290 152
295 116
295 122
297 24
297 28
298 167
299 394
300 180
300 394
301 24
301 28
301 116
301 122
301 394
302 122
303 391
303 394
304 161
304 167
304 390
304 394
305 389
309 125
310 34
310 48
313 394
314 393
314 394
315 393
315 394
316 394
321 82
321 96
324 48
325 391
326 269
329 387
329 391
332 234
333 97
333 101
337 30
337 97
337 101
340 352
340 358
346 352
346 358
348 206
351 5
352 5
357 140
357 144
360 192
361 140
361 144
366 72
370 5
372 193
372 194
373 192
373 193
374 45
374 64
374 72
374 192
374 394
375 369
375 373
379 369
379 373
381 189
381 193
382 37
382 45
384 272
385 272
385 273
386 273
386 274
387 274
387 275
388 5
388 200
388 206
388 275
388 276
394 128
394 129
394 141
394 142
394 200
394 206
394 245
394 262
394 263

6
6 226
6 238
6 319
6 320
6 344
6 353
6 354
6 355
6 356
6 357
6 358
6 359
7 357
11 33
11 37
12 342
15 33
15 37
24 383
26 321
28 212
28 226
33 175
33 183
34 57
34 63
38 239
41 175
41 183
44 239
46 368
50 350
53 390
55 116
56 117
60 382
64 262
64 268
66 23
66 29
68 289
68 303
76 318
82 322
83 322
83 323
84 323
84 324
84 393
85 324
92 264
92 278
94 51
98 393
100 51
103 356
105 6
108 256
108 264
111 40
111 46
115 6
116 256
126 267
127 267
127 273
128 334
133 267
133 273
134 334
138 11
143 188
144 188
144 189
144 385
145 189
145 190
146 190
146 191
147 191
147 192
148 192
148 193
149 193
149 194
150 194
150 198
151 291
151 295
152 63
152 64
152 68
154 194
154 198
155 106
155 291
155 295
156 64
156 68
157 257
160 393
162 14
162 348
163 257
164 361
165 362
166 363
167 364
168 365
169 366
171 270
171 284
172 152
172 166
179 366
184 20
184 34
185 108
185 284
186 166
189 108
190 393
191 6
192 6
198 34
199 91
212 125
212 131
217 6
218 6
218 393
221 95
222 94
223 93
224 92
225 91
226 90
226 177
226 183
227 90
234 6
244 57
245 30
248 325
248 333
251 30
252 57
254 99
255 86
255 244
258 99
258 146
261 260
261 268
263 244
265 122
267 311
269 260
269 268
273 114
273 311
279 114
279 136
283 153
289 153
292 158
293 159
294 160
295 161
296 117
296 121
296 162
297 82
297 90
297 162
299 166
300 117
300 121
301 244
301 252
301 272
301 280
302 393
303 162
303 166
310 361
318 361
327 253
331 17
331 18
332 16
332 17
337 32
338 260
341 353
341 357
344 197
345 353
345 357
347 379
347 393
350 6
352 260
353 97
357 40
360 62
361 62
361 63
361 193
361 379
362 63
362 64
363 64
363 65
364 65
364 66
367 71
367 97
367 111
369 26
370 194
371 6
371 254
371 268
372 389
373 65
373 71
373 393
375 44
375 306
376 35
381 38
381 44
384 270
386 17
387 6
389 201
389 205
389 306
392 135
393 130
393 131
393 132
393 133
393 134
393 135
393 136
393 137
393 138
393 139
393 140
393 201
393 205
393 246
393 260
393 261
393 277
393 278

7
7 227
7 237
7 321
7 322
7 342
7 343
8 188
8 196
10 227
10 237
10 286
10 384
10 392
11 341
12 83
12 93
16 188
16 196
18 286
24 327
26 351
26 361
27 322
34 176
34 182
35 58
35 62
39 238
40 176
40 182
43 59
43 238
45 367
49 108
49 351
54 337
54 383
54 389
58 182
59 383
59 389
61 232
61 242
62 322
63 54
65 267
67 24
67 28
67 214
71 232
71 242
71 354
71 364
77 214
77 317
79 152
85 392
87 35
91 178
91 313
93 328
95 52
97 392
99 52
101 303
106 7
106 14
109 257
109 263
111 303
111 313
112 41
112 45
114 7
114 14
115 257
115 263
116 263
127 388
128 268
128 272
129 335
132 71
132 268
132 272
133 335
139 12
145 384
149 233
149 241
153 383
154 383
154 384
155 384
155 385
156 105
156 385
156 386
157 142
157 233
158 256
161 15
161 392
162 256
168 86
171 367
172 367
174 305
174 313
178 367
181 145
181 146
182 145
182 305
182 313
186 226
186 234
189 388
193 7
193 196
193 204
194 7
194 226
194 234
197 323
198 322
199 321
200 92
200 320
201 196
201 204
201 319
202 318
204 155
204 165
213 126
213 130
215 7
215 246
216 7
219 7
219 95
220 7
220 8
221 7
224 287
227 178
227 182
227 244
228 118
229 87
229 311
229 319
233 7
234 160
238 118
245 56
246 31
249 326
250 31
251 56
256 218
256 243
257 145
262 243
262 261
262 267
263 160
264 88
264 89
265 88
265 332
265 340
266 284
268 261
268 267
268 310
272 310
273 170
274 284
276 162
277 161
277 162
278 115
278 160
278 161
279 159
279 160
280 158
280 159
281 158
288 154
290 158
298 83
298 89
298 163
299 163
300 273
300 279
302 245
302 251
305 188
305 189
306 386
311 362
312 125
312 135
313 201
317 15
317 362
320 383
321 384
322 125
322 135
322 385
323 286
323 386
324 387
325 388
333 286
337 72
337 82
337 168
341 184
342 326
342 336
343 196
347 82
347 168
348 19
349 7
349 115
351 228
352 326
352 336
353 292
359 228
362 194
366 66
366 287
367 286
368 70
370 25
372 7
372 66
372 70
372 392
375 28
376 43
376 191
377 191
380 43
386 7
392 279

8
8 228
8 229
8 230
8 231
8 233
8 234
8 235
8 236
8 323
8 324
8 340
8 341
9 189
9 195
9 228
9 229
9 230
9 234
9 235
9 236
10 340
11 287
11 385
11 391
13 84
14 299
15 189
15 195
17 287
20 139
22 102
26 327
27 352
27 360
28 323
32 92
33 149
35 177
35 181
38 275
38 285
39 177
39 181
44 366
45 205
45 206
46 204
48 109
48 275
48 285
48 352
51 148
52 149
53 150
55 336
55 384
58 388
59 181
61 79
61 323
62 55
62 233
62 241
63 125
66 263
68 213
70 233
70 241
71 79
72 355
72 363
76 213
76 335
78 153
78 285
79 284
79 285
80 283
80 284
80 354
80 355
80 363
81 282
81 283
81 363
81 364
82 282
82 364
82 365
83 365
83 366
84 366
84 367
85 367
85 368
86 34
86 368
86 369
86 391
87 369
87 370
88 370
88 371
89 371
90 179
92 26
93 25
93 340
99 140
102 304
107 8
107 13
110 258
110 262
110 304
110 312
113 8
113 13
114 258
114 262
128 236
131 70
131 343
140 13
141 187
144 85
144 95
147 48
150 234
151 122
152 123
153 123
157 48
158 141
158 386
160 16
167 87
173 368
175 306
175 312
177 368
181 306
181 312
186 121
187 112
187 113
187 114
187 227
187 233
188 391
189 391
193 227
193 233
194 197
194 203
195 8
196 8
197 325
200 197
200 203
203 316
204 52
204 62
205 156
205 164
207 105
213 8
214 8
214 52
217 105
219 391
222 8
223 8
223 288
224 8
225 8
226 8
227 8
227 9
227 246
227 256
228 8
228 86
228 312
228 318
229 8
229 89
230 8
231 8
232 8
232 70
233 159
233 232
234 231
235 179
235 377
236 178
237 119
237 177
238 176
239 223
243 169
245 140
246 55
246 141
250 55
250 327
253 179
255 219
256 95
256 144
261 242
263 262
263 266
264 333
264 339
267 37
267 47
267 88
267 262
267 266
267 285
272 169
273 285
277 37
277 47
278 369
282 157
283 157
288 157
288 182
288 192
289 157
289 273
290 274
299 26
299 84
299 88
299 274
299 278
303 246
303 250
306 384
307 189
312 46
312 363
313 126
313 134
314 200
316 363
318 16
319 84
319 94
321 126
321 134
324 285
327 389
330 236
332 194
332 195
332 285
333 194
335 16
335 99
338 73
338 81
338 169
342 195
343 327
343 335
346 81
346 169
347 18
348 8
348 391
349 276
350 114
350 208
350 277
351 278
351 327
351 335
352 227
352 279
353 280
354 281
354 291
355 282
358 61
358 227
359 142
367 67
367 195
368 67
368 195
369 285
369 391
370 285
370 390
370 391
371 391
373 8
377 37
377 38
377 371
379 191
383 268
385 8
390 203
391 202
391 203
391 204
391 247
391 248
391 280

9
9 232
9 325
9 326
9 331
9 332
9 333
9 334
9 335
9 336
9 337
9 338
9 339
10 190
10 194
10 332
10 333
10 334
10 335
10 338
12 288
12 386
12 390
13 35
14 85
14 190
14 194
16 288
21 138
21 386
22 385
27 326
28 326
28 353
28 359
30 214
31 93
39 60
39 212
39 276
39 284
40 60
40 211
41 60
41 210
41 234
42 209
43 208
44 207
47 110
47 276
47 284
49 148
56 335
60 180
61 56
62 78
63 234
63 240
64 124
69 212
69 234
69 240
70 78
70 291
71 26
72 26
72 335
73 26
73 27
73 335
73 356
73 362
74 27
74 335
75 212
78 287
79 356
79 362
82 280
87 390
89 28
89 180
90 27
90 28
90 266
90 276
90 372
91 27
92 330
92 331
92 339
94 314
95 313
95 314
97 56
98 139
105 358
108 12
109 305
109 311
112 12
130 69
131 339
131 340
131 341
145 86
145 94
148 47
150 382
151 235
151 382
152 196
153 293
154 66
154 124
155 125
156 47
156 125
156 126
156 235
157 245
157 246
158 247
159 140
159 248
160 105
160 106
160 250
160 251
160 252
160 350
161 106
161 107
162 107
162 108
163 108
163 109
164 109
164 110
165 110
165 111
166 88
166 111
166 112
167 112
167 113
167 117
173 272
173 282
173 377
174 164
174 376
174 377
175 376
176 307
176 311
180 307
180 311
184 164
186 22
186 32
187 110
187 390
188 228
188 232
192 228
192 232
195 198
195 202
196 32
197 9
198 9
199 198
199 202
203 314
205 53
205 61
206 157
206 163
210 9
211 9
211 10
212 9
213 53
216 96
216 104
217 96
217 128
217 247
218 128
219 128
220 390
222 289
226 247
226 255
227 313
227 317
231 71
231 180
232 158
232 180
233 180
234 378
235 230
236 120
244 170
248 35
248 36
248 37
248 142
252 178
254 220
256 97
256 141
257 88
257 93
257 94
257 141
258 89
258 92
258 93
258 140
259 139
260 138
261 89
261 137
262 136
263 135
263 338
264 134
265 133
268 38
268 46
268 286
270 304
270 305
270 306
271 168
272 286
276 38
276 46
277 134
284 156
289 183
289 191
291 275
292 275
298 119
301 164
313 45
314 127
314 133
315 199
318 85
318 93
319 17
320 127
320 133
325 284
327 18
328 195
329 195
329 237
330 195
331 284
334 193
339 74
339 80
339 170
340 9
340 187
340 262
341 181
343 355
344 328
344 334
345 70
345 80
345 170
346 9
346 17
346 69
347 9
347 68
348 67
349 66
349 274
349 381
349 390
350 65
350 262
350 328
350 334
351 113
351 209
353 226
355 42
355 99
355 284
355 290
356 61
357 226
358 205
358 206
359 204
359 205
360 203
360 204
361 202
361 203
362 201
362 202
363 200
363 201
363 287
364 198
364 199
364 200
365 99
365 109
365 197
366 196
367 390
368 390
371 286
373 256
373 266
374 26
377 304
378 39
387 304
390 249

10
10 327
10 328
10 329
10 330
11 328
11 329
12 328
14 296
15 86
19 387
20 387
20 388
22 137
29 354
29 358
31 215
37 60
39 214
39 232
40 232
40 233
40 277
40 283
41 236
43 122
43 123
44 121
46 277
46 283
47 147
48 147
56 387
57 334
57 385
60 57
61 118
63 77
64 235
64 239
65 123
67 265
68 235
68 239
68 264
68 334
69 26
69 77
69 264
69 334
70 211
70 264
70 335
71 292
74 211
74 357
74 361
75 28
76 29
77 30
78 357
78 361
85 136
86 30
87 30
88 29
88 389
89 267
89 275
89 389
91 332
91 338
91 373
97 54
97 138
97 312
97 313
98 57
98 58
98 312
99 58
99 59
99 79
100 59
100 60
101 60
101 61
102 61
102 62
103 62
106 359
108 10
108 306
108 310
109 10
111 10
112 10
114 43
115 44
116 44
125 386
129 68
130 270
131 337
146 87
146 93
149 381
156 243
156 244
159 104
159 351
159 361
160 139
160 254
165 89
165 119
166 118
166 119
167 115
174 273
174 281
175 163
175 372
175 373
175 374
182 389
183 163
183 389
184 389
185 123
185 124
185 389
186 389
187 23
187 31
195 31
195 269
195 270
196 268
196 269
199 10
200 10
202 94
203 95
204 10
204 312
204 313
205 10
206 10
206 54
206 60
207 10
207 158
207 162
208 10
209 10
212 54
215 97
215 103
215 128
221 389
225 248
225 254
229 180
230 72
231 157
232 389
233 379
235 121
241 176
248 33
248 49
248 50
248 51
250 142
251 142
252 142
253 221
255 172
256 171
256 172
257 170
257 171
258 169
258 170
259 90
259 91
259 168
259 169
260 90
260 167
260 168
261 166
261 167
267 133
269 39
269 45
270 167
270 308
272 163
273 163
275 39
275 45
275 118
276 117
276 133
286 156
290 184
290 190
293 276
294 276
295 276
303 86
307 248
307 381
307 382
308 248
309 190
310 190
314 44
315 128
315 132
316 198
317 86
317 92
319 128
319 132
321 25
322 26
326 195
326 196
326 283
328 238
328 273
330 283
331 36
335 36
336 193
340 75
340 79
340 171
340 189
341 10
344 72
344 73
344 79
344 171
345 10
345 16
345 329
345 333
349 263
349 329
349 333
350 382
350 389
351 62
351 63
352 210
354 43
355 60
356 100
356 285
356 286
364 100
364 108
364 196
365 389
366 389
370 68
373 24
373 286
373 287
374 10
374 257
374 265
374 287
375 10
378 41
378 303
383 10
384 10
386 303
389 250
389 281
389 282

11
13 388
14 292
14 293
14 294
14 387
14 388
15 388
16 388
17 388
18 388
23 129
23 136
30 325
31 324
32 216
32 324
37 179
38 215
38 216
41 278
41 282
42 364
45 278
45 282
45 355
46 354
57 150
63 118
64 76
66 332
66 333
67 333
68 76
72 264
72 265
72 293
73 201
73 265
74 200
75 198
75 199
77 289
79 31
80 31
81 31
81 316
83 278
85 31
88 268
88 274
90 333
90 337
90 388
92 374
96 137
99 76
99 77
99 311
100 311
103 64
103 65
107 360
110 11
112 260
117 45
118 45
118 46
119 46
122 67
123 67
144 377
144 378
145 378
145 379
146 379
146 380
147 88
147 92
147 380
147 381
154 45
154 46
155 237
157 19
158 18
158 352
161 387
162 387
162 388
163 387
163 388
164 387
164 388
165 388
175 274
175 280
175 370
176 162
180 150
180 388
181 388
182 162
184 125
188 24
188 30
194 20
194 30
195 19
196 18
197 17
198 16
199 15
200 14
201 11
201 13
202 11
202 12
203 11
204 96
205 311
207 55
207 59
208 264
208 265
208 277
208 278
209 263
209 264
209 278
209 279
209 280
210 262
210 263
211 261
211 262
212 260
212 261
213 259
213 260
214 98
214 102
214 258
214 259
215 257
215 258
216 256
216 257
217 255
217 256
218 249
218 254
218 255
219 249
219 253
219 254
223 315
224 249
224 253
228 82
229 73
232 380
237 229
248 53
252 329
253 330
254 142
258 239
259 240
263 166
265 264
268 132
269 132
270 40
270 44
270 164
270 290
270 291
270 292
271 164
274 40
274 44
274 119
274 120
275 132
291 185
291 189
297 276
300 188
301 86
304 87
305 87
305 88
305 248
306 88
308 380
309 247
311 191
313 366
313 367
314 365
315 43
316 87
316 91
321 22
321 23
324 19
325 19
327 239
333 36
336 37
337 38
337 192
338 39
338 191
338 192
339 40
339 190
339 191
339 192
340 41
340 193
341 42
342 43
343 44
343 74
343 75
344 11
348 264
348 271
348 272
351 383
351 388
352 61
353 44
353 60
353 211
355 222
357 208
357 209
359 288
360 288
361 288
363 101
363 107
363 388
364 388
375 258
375 264
375 288
376 11
376 288
379 302
382 11
385 302
388 251
388 283
388 284

12
12 192
14 290
24 130
33 217
33 323
33 356
34 322
34 323
35 322
38 319
39 229
39 319
40 319
42 125
42 126
43 145
44 145
44 319
44 356
45 146
45 319
46 319
53 59
54 59
64 119
64 332
65 119
72 204
72 205
72 206
72 207
74 266
75 266
77 291
79 306
79 307
80 307
80 308
81 308
81 309
82 309
82 310
83 31
83 276
86 183
87 182
87 269
91 387
92 387
99 110
100 82
101 310
102 309
103 308
104 66
104 308
108 361
120 47
123 385
124 66
125 66
127 53
127 54
127 55
127 59
127 60
127 61
127 62
127 63
127 64
142 375
143 376
153 237
154 238
154 239
154 240
155 241
156 20
157 353
166 387
167 387
174 131
175 132
176 279
177 161
178 309
178 387
179 387
180 152
181 161
183 127
183 128
183 139
184 127
189 25
189 29
190 230
191 270
192 270
193 22
193 23
193 29
197 200
199 267
205 97
206 274
206 275
207 276
211 160
212 160
215 61
215 62
216 62
216 63
217 63
217 64
218 64
218 65
219 65
219 66
220 66
220 67
220 250
220 252
220 313
221 67
221 68
221 313
221 314
222 68
222 69
222 314
222 387
223 69
223 70
223 387
224 70
224 71
225 71
225 72
225 315
226 72
226 73
231 387
239 229
243 175
244 175
252 173
253 173
254 331
257 237
257 238
260 335
261 336
264 165
265 165
266 165
270 131
270 288
273 121
273 122
274 131
307 89
311 246
312 368
312 369
313 191
313 192
314 192
321 19
321 196
322 20
322 21
322 196
323 20
323 196
325 248
328 276
339 15
340 14
341 14
342 175
342 176
342 177
342 178
343 12
345 45
346 45
347 265
347 269
347 270
352 59
352 384
353 111
354 110
355 220
355 224
356 210
356 211
357 102
357 288
361 387
362 102
362 387
374 22
375 20
375 21
376 259
376 263
377 12
377 289
378 290
379 291
380 301
381 12
384 301
387 252
387 285
387 286

13
17 88
18 89
31 356
34 357
35 357
36 321
37 320
38 227
38 228
41 127
41 144
42 144
42 319
43 357
47 320
48 321
49 322
50 323
51 324
52 325
53 326
54 327
55 60
55 328
56 60
56 328
58 59
59 151
60 151
62 331
63 331
66 70
66 71
66 72
66 120
66 237
70 120
71 120
72 120
72 209
73 120
74 121
75 122
76 123
76 196
76 267
76 292
76 293
76 302
76 303
76 359
77 124
77 268
77 303
77 304
78 125
78 268
78 269
78 304
78 305
79 126
79 269
79 270
80 127
80 270
81 128
82 129
82 314
83 129
83 311
83 312
83 313
84 312
85 184
93 386
94 386
99 112
99 113
99 114
99 115
100 74
100 84
100 98
101 71
101 72
102 70
102 71
103 69
103 70
104 68
104 69
105 68
106 308
122 47
122 48
122 384
123 46
123 47
123 48
123 49
124 45
124 46
124 49
124 50
125 44
125 45
125 51
126 43
126 44
126 52
126 65
127 42
127 43
127 57
127 66
128 41
128 42
129 40
129 41
130 39
130 40
131 38
131 39
132 37
132 38
133 36
133 37
134 35
134 36
135 34
135 35
155 21
156 360
162 92
162 137
163 91
163 136
168 386
169 386
176 386
177 386
182 129
182 130
182 137
182 138
189 271
190 271
192 24
192 25
206 98
207 99
208 99
208 100
209 100
209 160
210 100
211 57
211 58
212 58
212 59
213 59
213 159
214 60
214 158
214 159
214 308
215 157
215 158
215 308
216 156
216 157
216 309
217 155
217 156
217 310
218 154
218 155
218 311
219 154
219 312
220 153
221 152
224 386
227 77
227 78
227 79
227 80
228 154
229 155
230 386
232 124
233 123
240 228
241 228
242 228
245 174
246 174
250 174
250 224
250 230
251 174
251 223
251 231
252 232
253 233
254 234
255 235
255 332
256 236
256 332
256 333
257 333
257 334
258 333
258 334
259 334
268 165
295 187
296 187
297 187
298 187
309 89
310 89
311 89
311 370
312 89
312 380
312 381
313 246
313 382
315 193
316 193
317 130
319 194
320 195
328 281
329 277
329 279
329 280
342 13
342 77
342 173
343 14
347 46
347 331
348 46
351 56
352 46
352 386
353 386
355 109
355 215
355 216
355 217
355 218
355 386
356 385
356 386
357 385
357 386
358 385
358 386
359 385
359 386
360 386
376 18
376 19
377 17
377 18
378 13
380 13
386 253
386 254
386 287
386 288

14
19 90
26 96
26 131
26 132
27 97
28 98
29 99
30 100
31 101
32 102
33 103
34 104
35 105
36 106
36 358
37 107
37 219
37 226
37 359
38 108
38 360
39 109
39 360
40 110
40 129
40 130
40 143
40 359
40 360
41 111
41 112
41 129
41 359
41 360
42 358
43 280
57 61
58 62
59 63
60 64
60 329
61 65
61 152
61 330
62 66
62 152
63 67
64 68
65 69
66 74
68 120
75 294
75 298
75 299
75 300
75 301
76 193
76 194
81 271
82 271
83 335
84 130
84 185
84 334
84 335
85 333
85 334
86 333
86 334
87 334
88 335
93 134
94 135
94 376
95 385
96 384
96 385
98 117
98 118
99 117
100 86
100 87
100 88
100 89
100 93
100 94
100 95
100 96
121 383
136 33
137 32
149 90
150 91
151 42
151 91
152 43
153 23
154 22
155 359
159 99
161 93
164 135
170 385
171 385
174 385
175 385
179 154
179 155
179 156
179 157
181 131
181 132
181 136
201 268
202 268
205 268
205 271
205 272
206 267
206 268
207 309
208 308
209 57
209 302
210 302
212 100
222 251
225 383
225 385
227 75
227 153
229 383
229 385
230 382
231 125
232 133
232 134
233 134
233 135
234 135
234 136
235 136
235 137
243 227
244 227
244 228
245 227
248 174
249 225
249 227
249 228
272 42
272 124
272 125
272 126
272 127
293 187
311 372
311 373
311 374
311 375
311 379
314 89
315 246
316 246
317 41
317 194
318 40
318 195
324 242
324 246
325 241
330 278
331 277
332 276
333 275
334 274
335 273
336 272
337 271
338 270
339 269
340 268
341 267
342 267
343 267
350 49
350 51
350 52
351 48
351 52
351 53
351 54
354 385
355 213
356 108
378 16
379 14
379 15
380 261
382 296
382 297
385 255
385 256
385 289
385 290

15
20 91
25 95
35 219
36 220
36 221
36 222
36 223
36 224
37 142
37 224
38 142
38 143
39 131
39 132
42 113
43 114
44 114
44 115
45 115
58 329
59 330
66 166
66 167
66 172
71 154
75 296
77 191
77 192
83 186
83 272
84 272
84 273
85 271
92 133
97 119
97 120
97 383
100 91
150 41
152 24
152 92
153 92
154 356
155 355
160 94
165 134
172 384
173 384
178 277
179 133
179 159
179 275
179 276
180 133
180 134
180 276
181 134
185 273
186 273
187 272
191 27
203 269
204 269
204 270
209 304
209 305
209 307
210 284
210 300
211 307
212 307
224 152
226 152
226 384
227 384
228 384
229 130
230 126
230 131
231 132
246 226
247 226
248 226
272 129
311 377
317 245
318 244
318 245
319 39
323 243
323 245
345 267
350 47
351 50
357 107
358 105
358 106
359 105
359 106
360 104
378 261
381 260
382 260
382 299
383 292
383 294
383 295
384 257
384 258
384 291
384 292
384 293
384 294

16
21 92
22 92
22 93
23 93
23 94
24 94
27 134
28 134
34 137
35 136
35 137
35 141
36 135
36 136
36 141
37 134
37 135
38 133
64 153
65 154
66 154
67 165
67 173
67 174
87 131
91 132
95 122
95 123
96 121
96 122
97 381
149 39
149 40
153 357
154 93
155 94
156 94
156 95
157 95
159 95
164 126
166 133
181 275
182 274
182 275
183 274
183 275
184 274
210 306
225 151
226 150
227 149
228 128
228 148
229 127
229 128
229 147
230 146
231 145
232 144
233 143
234 142
235 141
236 139
236 140
320 38
320 244
320 245
321 244
322 244
383 259

17
29 135
30 136
31 137
32 138
33 139
34 139
34 140
67 155
67 163
68 155
68 156
68 159
68 160
68 161
68 162
68 163
68 175
69 155
69 156
69 157
69 158
69 159
69 160
69 161
69 162
70 157
90 128
90 131
91 127
92 126
93 125
94 124
98 379
98 380
151 358
152 358
158 96
165 127
166 128
167 129
167 132
168 130
168 131
210 287
321 37

18
68 177
69 177
69 178
89 130
99 377
99 378
100 376
100 377
101 375
101 376
102 374
102 375
103 373
103 374
104 372
104 373
142 22
142 23
147 361
148 24
148 36
148 37
148 360
148 361
149 360
150 359
211 288
211 289
211 296
211 297
322 36
323 35

19
70 179
71 180
72 181
73 182
74 183
75 184
76 185
77 186
78 187
143 24
143 365
144 364
145 363
146 362
147 34
147 35
211 292
212 290
212 291
212 292
212 293
212 294
212 295
213 291

20
137 362
138 363
139 364
140 365
141 366
145 25
146 25

21
144 26
145 27
145 28
145 29
145 30
145 31
146 32

22

23
110 371
110 372
111 372
111 373
112 372
116 374

24
113 373
114 373
115 373

25
118 373
119 372
120 371
120 372
121 370
121 371
122 369
122 370
123 368
123 369
124 367
124 368
125 366
125 367
126 365
126 366
127 364
127 365
128 363
128 364
129 362
129 363
130 361
130 362
131 361

