0
0 0
0 98
0 116
0 232
0 262
13 399
14 399
35 399
151 0
217 399
233 399
243 399
264 0
265 0
274 399
293 0
315 399
316 399
399 31
399 234
399 250
399 279
399 330
399 331

1
1 1
1 42
1 261
4 51
4 61
14 51
14 61
15 398
20 1
20 345
20 355
30 345
30 355
94 271
94 281
113 168
124 327
214 292
214 302
218 398
224 292
224 302
226 189
226 199
232 398
244 398
266 1
274 157
274 167
284 157
284 167
317 398
350 398
351 398
357 313
367 313
392 33
393 336
398 235
398 249
398 280
398 329
398 334
398 335
398 347
398 348

2
2 2
2 99
2 115
2 181
2 197
2 207
2 227
2 233
2 234
2 260
3 307
3 319
9 85
15 307
15 319
16 397
25 85
33 254
33 266
45 254
47 2
47 239
47 240
49 15
50 250
54 178
54 190
59 65
59 77
65 15
65 56
67 2
71 65
71 77
77 56
85 176
91 54
102 290
103 311
108 183
108 199
113 42
113 54
115 311
118 225
118 290
120 120
120 132
128 381
128 393
132 120
132 132
134 225
135 335
135 347
140 381
140 393
142 223
142 239
143 314
147 335
147 347
152 2
153 2
156 367
156 383
158 223
158 239
159 298
159 314
162 272
178 41
190 80
191 372
193 224
193 240
204 274
204 286
207 372
207 388
209 224
209 240
213 67
216 274
216 286
218 222
218 234
225 127
236 45
236 61
238 331
241 111
242 145
242 221
257 249
267 2
268 197
271 213
280 197
283 213
287 328
288 262
291 2
292 2
300 262
303 334
315 334
318 397
320 117
320 133
324 73
328 93
332 328
332 344
335 363
336 61
336 117
336 133
337 269
347 95
349 269
349 281
349 397
351 392
351 393
352 61
352 373
368 373
380 208
391 326
392 196
392 208
397 32
397 33
397 236
397 248
397 281
397 328
397 336
397 346

3
3 3
3 41
3 100
3 114
3 235
17 396
19 3
25 291
25 303
31 229
31 241
43 229
43 298
48 3
66 3
69 26
69 304
69 316
75 277
79 223
79 235
81 304
81 316
87 26
91 223
91 235
101 333
101 351
119 351
124 266
124 284
130 68
142 68
154 3
158 83
167 208
167 226
171 102
171 114
172 368
176 83
183 102
183 114
185 208
185 226
203 88
215 76
215 88
218 163
218 175
219 396
220 396
227 354
230 246
230 258
230 396
231 396
236 173
236 185
239 354
241 78
241 96
242 258
245 396
246 396
248 173
248 185
249 308
249 326
259 96
267 326
268 3
269 3
270 128
270 146
270 236
270 248
284 355
284 373
290 3
296 20
298 142
298 160
316 20
316 142
316 356
319 396
326 236
326 248
328 206
328 218
334 20
334 38
334 301
338 236
338 248
340 206
340 218
346 389
348 396
355 207
356 180
359 232
361 65
361 77
365 6
365 18
368 180
373 65
377 6
377 18
377 214
377 232
380 314
388 73
396 34
396 59
396 282
396 327
396 337

4
4 4
4 40
4 113
4 208
4 226
4 236
4 258
4 259
6 53
6 59
8 237
12 53
12 59
18 4
18 395
19 395
22 347
22 353
22 383
23 110
28 347
28 353
34 383
34 395
45 318
45 326
49 4
53 318
53 326
55 228
55 268
55 280
58 359
58 367
60 206
65 4
66 359
66 367
67 228
68 377
68 389
80 377
80 389
92 279
102 268
107 18
107 26
107 150
111 166
115 18
115 26
122 329
123 169
123 177
131 6
131 169
131 177
135 95
135 107
137 183
137 195
147 95
147 107
149 183
149 195
155 4
162 256
165 395
196 394
202 202
216 294
216 300
217 110
217 118
221 392
221 395
222 294
222 300
224 191
224 197
227 273
227 281
229 392
229 395
235 273
235 281
247 392
247 395
252 9
252 21
256 233
265 174
265 182
267 45
268 380
275 115
276 159
276 165
279 45
280 304
280 380
280 392
282 159
282 165
283 115
287 298
289 4
320 395
321 393
321 395
334 283
335 282
336 281
337 280
353 329
355 385
359 311
362 151
362 163
363 385
363 393
374 163
382 144
391 238
391 246
394 144
394 156
394 341
395 35
395 237
395 238
395 246
395 247
395 326
395 338
395 339
395 340
395 341
395 342
395 343

5
5 5
5 39
5 182
5 196
5 209
5 225
5 237
5 257
5 309
5 317
7 54
7 58
11 54
11 58
11 256
13 309
13 317
14 163
16 224
17 5
20 394
22 109
23 348
23 352
25 18
25 32
27 61
27 75
27 348
27 352
28 163
28 177
31 197
31 211
35 256
35 264
41 61
41 75
41 285
41 286
42 284
42 285
43 239
43 256
43 283
43 284
44 282
44 283
45 282
46 319
46 325
50 5
52 248
52 319
52 325
56 180
56 188
59 360
59 366
61 67
61 75
61 205
63 263
64 5
65 360
65 366
67 54
69 67
69 75
75 54
79 141
79 155
88 210
91 278
93 52
93 141
103 267
105 309
108 19
108 25
110 165
111 44
111 52
113 309
114 19
114 25
117 263
121 330
122 122
122 130
124 170
124 176
130 122
130 130
130 170
130 176
130 383
130 391
132 7
133 290
137 337
137 345
138 383
138 391
144 294
145 294
145 295
145 337
145 345
146 295
146 296
147 296
160 270
172 175
172 189
184 7
188 161
206 276
206 284
208 11
211 41
214 276
214 284
215 314
215 328
217 295
217 299
218 111
218 117
220 224
220 232
221 295
221 299
222 393
222 394
223 192
223 196
223 393
223 394
224 394
226 394
227 393
227 394
228 274
228 280
228 393
228 394
229 314
234 274
234 280
236 333
248 393
248 394
249 393
249 394
250 66
250 394
252 394
253 393
253 394
254 393
254 394
255 234
255 393
255 394
256 394
260 36
264 66
264 175
264 181
270 199
274 89
276 114
277 160
277 164
281 160
281 164
281 211
282 114
288 5
288 297
290 260
293 212
293 277
298 260
307 212
307 226
307 277
310 381
313 332
322 394
323 393
323 394
324 367
324 381
324 393
324 394
325 393
325 394
326 394
332 150
332 164
337 361
339 271
339 279
347 271
347 279
347 394
348 111
348 125
355 392
356 386
360 310
362 290
362 386
362 392
370 93
376 115
376 129
376 348
382 43
382 57
384 93
390 198
390 206
390 348
390 362
391 347
391 348
392 239
392 245
392 346
392 347
393 345
393 346
394 36
394 37
394 58
394 239
394 245
394 283
394 284
394 324
394 325
394 344
394 345

6
6 6
6 38
6 111
6 112
6 183
6 195
6 210
6 224
6 238
6 239
6 256
6 310
6 316
12 310
12 316
21 108
21 393
22 393
27 301
33 231
33 239
33 393
36 257
36 263
41 231
42 257
45 280
47 320
47 324
51 320
51 324
53 247
57 181
57 187
60 361
60 365
62 68
62 74
62 198
62 204
64 361
64 365
68 53
68 68
68 74
71 28
71 306
71 314
74 53
77 275
79 306
79 314
81 225
81 233
85 28
89 225
89 233
94 51
103 335
103 349
104 266
106 308
109 20
109 24
110 45
110 51
113 20
113 24
117 349
123 123
123 129
125 171
125 175
126 268
126 282
129 123
129 129
129 171
129 175
131 384
131 390
132 66
133 8
137 384
137 390
138 232
138 338
138 344
140 66
144 338
144 344
147 298
157 6
158 6
159 6
160 6
160 81
161 6
161 7
162 6
163 6
164 6
166 393
169 210
169 224
173 104
173 112
174 81
181 104
181 112
183 210
183 224
207 277
207 283
213 78
213 86
213 277
213 283
216 165
216 173
219 112
219 116
221 225
221 231
222 12
222 24
225 393
229 275
229 279
229 352
232 256
233 275
233 279
237 352
238 175
238 183
240 256
243 94
251 310
251 324
251 393
257 94
257 393
258 392
258 393
259 393
263 176
263 180
265 324
268 130
268 144
271 200
272 238
272 246
277 113
280 210
281 113
283 313
284 314
285 315
286 6
286 316
286 357
286 371
287 6
287 316
289 296
291 259
297 259
300 144
300 158
312 331
314 358
318 22
327 393
328 238
328 246
328 392
328 393
329 393
330 208
330 216
332 22
332 36
332 285
332 299
336 238
336 246
338 208
338 216
338 360
340 272
340 278
345 393
346 272
346 278
346 393
356 391
357 387
357 391
358 182
361 230
361 387
361 391
366 182
367 8
367 16
371 67
375 8
375 16
375 230
377 154
377 155
378 153
378 154
378 200
378 201
379 152
379 153
382 312
386 75
389 199
389 205
392 242
393 38
393 39
393 57
393 240
393 241
393 242
393 243
393 244
393 285
393 319
393 320
393 321
393 322
393 323

7
7 7
7 110
7 184
7 194
7 211
7 223
7 240
7 241
7 255
7 311
7 315
11 311
11 315
12 88
15 7
16 7
22 88
23 392
24 385
24 392
28 300
32 385
32 392
34 232
34 238
37 258
40 232
40 238
40 288
40 289
41 238
41 258
51 7
52 7
52 12
53 270
53 278
54 246
57 230
58 182
58 186
62 7
62 12
63 7
63 69
63 73
63 199
63 200
65 230
67 69
67 73
69 52
70 379
70 387
72 307
72 313
73 52
78 274
78 307
78 313
78 379
78 387
82 179
82 226
82 232
87 40
87 41
88 41
88 42
88 226
88 232
89 42
89 43
90 43
90 44
91 44
91 45
92 45
92 46
93 46
95 50
105 152
105 186
105 196
105 293
107 307
109 46
109 50
115 293
121 228
124 124
124 128
128 124
128 128
129 251
129 252
130 252
130 253
131 253
131 254
132 254
132 255
132 385
132 389
133 65
133 255
133 256
134 256
134 257
135 257
136 385
136 389
137 97
137 105
139 65
139 185
139 193
139 339
139 343
143 339
143 343
145 97
145 105
146 311
147 185
147 193
151 12
152 11
153 10
154 9
155 8
155 226
155 236
156 7
156 301
156 311
159 268
159 370
160 258
165 7
166 7
167 392
169 370
174 105
174 111
180 105
180 111
193 77
194 375
196 227
196 237
204 200
204 375
204 385
206 237
208 278
208 282
212 79
212 85
212 278
212 282
215 166
215 172
217 195
218 194
218 195
219 194
222 230
228 124
230 351
233 48
233 58
233 255
236 351
238 114
238 124
238 125
239 125
239 126
239 176
239 182
239 224
240 126
240 127
241 127
241 128
242 128
242 129
243 129
243 130
244 130
244 131
245 131
245 132
245 142
254 11
254 236
254 246
260 392
261 392
262 392
263 392
269 43
270 382
272 201
273 209
273 239
273 245
277 43
278 201
278 306
278 382
278 390
279 209
285 7
290 325
292 258
293 232
293 233
294 231
294 232
295 230
295 231
296 229
296 230
296 258
297 229
311 330
323 120
323 130
329 239
329 245
330 392
331 209
331 215
331 392
332 391
332 392
333 120
333 130
333 391
333 392
334 391
334 392
335 239
335 245
335 331
335 391
335 392
336 392
337 209
337 215
338 392
339 64
339 359
339 391
339 392
340 391
340 392
341 273
341 277
341 391
341 392
342 391
342 392
343 392
344 92
344 392
345 273
345 277
349 64
351 331
355 370
359 183
364 153
364 161
365 183
365 370
368 9
368 15
368 362
369 362
370 361
371 360
372 161
372 359
373 358
374 9
374 15
380 201
384 146
385 76
388 200
388 204
392 40
392 41
392 56
392 146
392 154
392 286
392 317
392 318

8
8 8
8 36
8 37
8 109
8 193
8 242
8 243
8 244
8 245
8 246
8 247
8 248
8 250
8 251
8 252
8 253
8 254
9 56
9 244
9 245
9 246
9 247
9 251
9 252
9 253
9 254
13 89
14 8
14 222
16 165
21 89
23 30
25 350
25 386
25 391
26 165
26 175
29 63
29 73
29 199
29 209
29 299
31 386
31 391
35 233
35 237
39 63
39 73
39 233
39 237
39 290
46 277
46 278
52 271
52 277
53 8
53 11
58 231
61 8
61 11
64 231
65 261
66 184
66 202
67 202
68 202
71 380
71 386
73 308
73 312
77 308
77 312
77 380
77 386
79 273
81 143
81 153
81 180
83 227
83 231
85 40
86 208
87 227
87 231
88 275
89 276
91 143
94 47
95 47
104 153
104 187
104 195
106 294
107 162
108 163
112 306
114 294
118 333
119 332
122 229
127 251
134 64
138 64
138 98
138 104
140 186
140 192
144 98
144 104
144 290
146 186
146 192
147 310
154 227
154 235
155 302
155 310
159 259
160 371
167 8
168 8
168 371
168 391
174 177
174 187
175 106
175 110
179 106
179 110
182 9
190 163
194 76
197 228
197 236
203 376
203 384
205 228
205 236
206 228
209 43
210 13
211 84
214 167
217 316
217 326
219 297
221 194
227 316
231 350
232 49
232 57
234 254
235 350
237 115
237 123
238 225
240 177
240 181
246 133
246 141
252 68
253 245
255 12
257 178
258 178
259 178
262 68
264 391
265 391
271 383
274 240
274 244
276 42
276 91
277 307
277 383
277 389
279 108
279 109
279 162
280 312
283 8
284 8
291 248
291 324
292 234
292 248
292 249
293 249
293 250
294 250
295 214
295 279
305 214
305 224
305 279
322 379
324 121
324 129
330 152
330 162
330 240
330 244
332 121
332 129
332 210
332 214
334 240
334 244
336 210
336 214
336 332
337 391
340 65
343 91
348 65
350 113
350 123
350 332
356 369
360 184
362 308
363 307
364 184
364 292
364 369
365 154
365 160
369 10
369 14
371 160
372 91
373 10
373 14
374 117
374 127
374 155
378 350
382 91
382 152
384 45
384 55
384 77
385 147
388 350
388 360
391 42
391 43
391 55
391 147
391 153
391 287
391 315
391 316

9
9 9
9 35
9 108
9 212
9 213
9 221
9 222
9 249
9 312
9 313
9 314
10 313
13 9
13 221
14 90
17 166
18 105
19 106
20 90
22 29
25 166
25 174
26 387
28 200
28 208
30 64
30 72
30 387
38 64
38 72
39 262
40 262
40 263
41 263
41 264
42 264
42 265
43 265
43 266
44 266
44 267
45 267
45 268
46 268
46 269
47 269
47 270
47 276
49 322
51 272
51 276
54 9
54 10
55 9
55 10
56 9
58 9
59 9
59 10
59 232
60 9
60 10
62 363
63 184
63 232
64 184
64 202
66 260
72 381
72 385
73 30
76 381
76 385
80 181
82 144
82 152
83 30
85 207
87 274
99 48
100 48
101 48
103 48
103 154
103 188
103 194
104 48
105 48
105 337
105 347
106 161
107 295
111 22
113 295
115 347
117 334
123 230
127 173
135 10
136 11
137 258
138 258
139 99
139 103
141 187
141 191
143 99
143 103
145 187
145 191
148 301
148 302
148 309
149 14
153 228
153 234
154 303
154 309
158 260
158 266
161 372
162 79
167 372
169 9
169 390
170 9
171 212
171 222
172 79
175 178
175 186
181 10
181 212
181 222
191 164
198 229
198 235
202 377
202 383
204 229
204 235
211 14
218 317
218 325
220 14
220 22
221 114
222 115
223 115
224 226
226 317
231 50
231 56
231 277
232 335
232 339
232 340
232 341
233 342
236 116
236 122
237 226
245 92
247 134
247 140
252 237
252 238
252 244
253 69
253 312
253 322
255 92
256 13
261 69
261 178
266 132
266 142
266 390
267 390
274 207
275 41
276 308
276 384
276 388
277 92
277 203
278 312
279 111
280 107
281 9
282 9
282 241
282 242
283 241
285 92
286 91
287 90
288 89
288 359
288 369
289 88
290 87
290 317
291 86
291 246
291 294
291 317
292 85
292 236
292 323
293 84
294 83
294 252
294 253
294 254
295 82
296 215
296 280
297 226
302 146
302 156
304 215
304 223
304 280
321 378
324 82
325 82
325 122
325 128
326 83
327 84
329 153
329 161
330 24
330 34
330 287
330 297
331 122
331 128
337 333
341 66
342 90
349 333
351 114
351 122
357 368
359 389
363 228
363 368
364 306
365 210
365 293
366 155
366 159
366 210
366 211
367 211
373 90
373 118
373 126
373 228
376 358
379 351
381 90
382 202
383 202
384 202
385 46
385 54
387 351
387 359
390 44
390 45
390 148
390 152
390 288
390 313
390 314

10
10 10
10 34
10 106
10 107
10 220
12 10
12 183
12 184
12 220
13 182
13 183
14 181
14 182
15 91
15 180
15 181
16 179
16 180
17 104
17 178
17 179
18 167
18 177
18 178
19 91
19 177
21 28
24 167
24 173
26 389
27 201
27 207
27 389
29 389
30 389
31 65
31 71
31 293
37 65
37 71
37 296
39 260
48 271
48 272
57 10
60 184
61 185
62 185
65 71
67 259
69 184
71 50
72 48
72 49
74 31
82 31
83 39
83 145
83 151
83 271
84 206
84 271
84 272
85 272
86 273
97 48
102 189
102 193
104 159
105 160
106 338
106 346
107 48
108 296
109 305
112 296
114 346
115 336
116 335
124 231
125 250
126 126
134 387
137 12
139 259
141 341
143 287
143 288
148 15
149 303
149 304
149 308
152 229
152 233
153 304
153 308
162 373
163 78
171 10
171 78
172 11
172 213
172 221
173 11
176 179
176 185
180 11
180 213
180 221
184 388
184 389
185 389
192 165
199 230
199 234
201 378
203 230
203 234
210 280
214 196
219 15
219 21
219 318
219 324
220 53
224 116
224 228
225 116
225 117
225 318
225 328
226 117
226 118
226 329
227 330
228 331
229 332
230 51
230 55
230 333
231 334
232 337
233 344
233 345
233 346
235 117
235 121
236 227
244 179
245 179
246 91
246 179
248 135
248 139
251 239
251 243
254 70
254 91
254 313
254 321
260 70
265 133
265 141
268 389
269 389
274 203
275 204
275 205
275 206
276 204
276 205
276 206
276 311
277 207
277 311
278 93
278 242
279 242
280 10
280 242
284 93
284 240
289 360
289 368
291 237
291 238
293 322
294 256
296 81
297 216
297 281
303 147
303 155
303 216
303 222
308 327
309 328
320 377
326 123
326 127
328 154
328 160
329 25
329 33
329 288
329 296
330 123
330 127
338 334
341 89
341 357
342 356
343 275
352 115
352 121
358 367
362 367
363 71
364 71
364 227
364 363
365 305
365 363
366 294
366 303
366 304
371 156
372 119
372 125
372 156
372 227
374 89
380 89
380 352
384 151
385 151
386 47
386 53
386 202
386 352
386 358
389 46
389 47
389 53
389 54
389 289
389 290
389 311
389 312

11
11 11
11 12
11 33
11 105
11 185
11 186
11 187
11 188
11 189
11 190
11 191
11 217
11 218
11 219
12 189
16 103
19 168
19 175
23 168
26 202
26 206
28 388
31 297
32 66
32 70
32 296
36 66
36 70
36 293
37 235
37 292
61 236
61 237
68 258
73 46
73 47
74 45
74 46
75 32
75 310
81 32
81 269
81 270
81 271
82 270
83 205
84 146
84 150
85 229
96 254
99 156
102 157
103 158
107 339
107 345
109 303
111 303
113 338
113 339
113 345
114 337
136 62
137 60
137 61
138 13
142 285
142 286
147 16
156 264
156 265
164 77
170 77
170 388
173 214
173 220
174 12
175 12
177 108
177 180
177 184
179 12
179 214
179 220
179 388
180 387
180 388
181 388
186 388
187 388
193 166
197 35
198 36
199 37
200 38
201 39
202 26
202 27
202 40
203 25
203 26
203 41
204 24
204 25
205 23
205 24
206 22
206 23
207 21
207 22
208 20
208 21
208 81
209 82
211 170
212 169
212 196
218 16
218 20
220 319
220 323
224 319
224 325
224 326
226 227
226 228
227 227
228 118
233 348
236 252
237 251
242 179
247 90
253 90
255 71
255 314
255 320
259 71
264 134
264 140
270 388
271 388
272 310
276 242
279 11
279 94
283 94
286 240
287 240
290 243
290 244
290 361
290 367
298 217
298 223
298 224
298 282
302 217
302 221
304 148
304 154
307 326
319 376
327 155
327 159
328 26
328 32
328 289
328 295
332 242
334 212
342 68
343 355
353 116
353 120
362 186
363 187
363 188
363 364
365 72
365 226
367 214
367 295
367 301
367 302
370 157
371 12
371 120
371 124
371 226
375 88
378 357
379 88
379 357
381 80
381 353
382 79
385 353
385 357
386 150
387 48
387 52
387 150
388 48
388 49
388 51
388 52
388 149
388 150
388 151
388 291
388 292
388 309
388 310

12
12 13
12 14
12 32
12 103
12 104
12 192
12 215
12 216
13 193
14 194
15 102
15 195
16 196
17 95
17 96
17 97
17 197
18 198
19 199
20 173
20 174
20 200
21 201
22 202
33 294
33 295
34 294
34 295
35 294
35 295
49 274
58 240
58 241
59 239
59 240
60 238
61 234
72 184
74 383
75 44
76 33
76 43
77 42
80 33
91 194
91 195
92 193
92 194
93 193
94 192
94 255
95 191
96 154
96 191
97 154
97 155
97 191
98 155
98 191
98 253
101 156
108 340
108 344
110 300
110 301
110 302
112 340
112 344
130 233
131 233
138 58
138 59
139 14
139 57
139 58
140 15
141 16
141 101
142 17
143 189
145 231
146 231
147 231
148 231
152 263
152 264
153 263
154 263
155 263
156 262
165 76
174 215
174 219
177 387
178 215
178 219
178 387
188 387
189 387
196 33
200 27
203 43
206 80
207 80
209 171
210 19
210 20
210 171
210 195
211 19
211 195
223 53
223 323
223 324
224 53
225 53
226 53
229 119
230 119
230 229
231 119
231 228
238 250
248 89
252 89
252 137
256 315
256 319
258 15
259 16
263 135
263 139
269 312
270 311
270 312
271 311
272 38
272 387
273 39
273 387
274 310
274 386
278 12
281 103
287 24
288 24
288 241
289 25
289 241
289 242
290 26
290 240
291 27
291 362
291 366
292 28
293 28
299 221
299 222
305 149
305 153
305 308
306 325
318 81
319 81
320 81
321 81
327 27
327 31
327 290
327 294
331 85
344 354
346 336
347 335
364 189
366 225
367 72
367 73
368 73
368 157
368 299
368 300
370 225
380 81
380 356
381 356
387 50
387 293
387 307
387 308

13
13 15
13 16
13 30
13 31
13 101
13 102
13 214
14 100
14 101
14 213
15 99
15 212
16 98
16 211
17 93
17 210
18 209
19 208
20 207
21 172
21 206
22 205
59 244
60 245
61 246
62 247
63 248
64 249
65 250
66 251
67 252
68 253
69 254
73 185
74 185
77 40
88 148
89 148
90 148
91 149
91 255
92 150
92 255
93 151
94 152
95 153
100 191
100 253
110 298
128 234
129 234
140 56
141 55
150 231
151 306
164 375
165 376
175 386
176 386
181 182
186 61
186 62
187 62
190 27
190 386
191 27
191 386
198 72
198 381
199 73
199 380
200 74
201 75
201 232
202 76
203 77
204 44
204 45
204 78
205 79
207 173
208 172
212 18
213 18
217 18
228 53
229 228
232 229
233 119
239 248
239 249
240 247
240 248
241 246
241 247
242 245
242 246
243 244
243 245
244 243
244 244
245 243
246 242
249 241
250 137
254 137
260 17
265 316
266 315
267 314
268 313
271 37
277 13
281 98
281 99
281 100
281 101
286 23
294 29
295 30
295 320
296 31
297 32
298 33
298 79
299 34
299 78
300 35
300 59
300 364
300 365
301 36
301 57
302 36
304 309
305 306
306 304
306 305
311 37
312 36
313 35
314 34
314 151
314 152
315 33
315 152
315 153
316 32
316 153
316 154
317 31
317 154
317 155
317 293
318 30
318 155
318 156
318 292
318 293
319 156
320 157
321 157
322 157
323 157
328 125
338 86
339 87
340 336
341 75
341 76
341 337
342 74
342 75
343 73
343 74
345 337
345 353
346 70
346 352
347 70
348 347
348 348
348 352
348 353
349 353
349 354
350 354
350 355
351 355
351 356
352 356
352 357
353 357
353 358
354 358
354 359
355 359
355 360
356 360
356 361
357 118
357 361
357 362
358 118
358 362
358 363
359 118
359 363
359 364
360 118
360 119
360 364
360 365
361 119
363 121
364 121
364 122
364 191
364 205
365 122
366 122
367 122
368 123
368 216
369 74
370 74
370 75
371 75
371 76
372 76
372 77
373 77
373 78
374 78
374 79
375 79
375 80
376 80
376 81
377 81
377 82
377 84
378 85
379 82
386 294
386 295
386 306

14
14 17
14 18
14 29
21 170
24 204
34 68
70 256
71 257
72 257
74 201
75 186
78 37
78 38
78 39
86 148
89 256
90 256
139 282
140 283
149 264
166 377
166 378
173 385
174 385
179 182
181 61
182 61
182 181
183 61
183 181
184 61
187 25
188 25
188 26
188 63
189 26
189 64
192 385
193 27
193 28
193 385
194 28
196 382
197 28
197 382
198 28
205 46
206 193
207 193
208 194
215 18
222 321
234 230
235 231
236 232
237 233
238 234
239 235
240 236
241 237
242 238
243 239
244 240
245 241
250 84
250 85
256 75
256 76
256 137
257 73
257 137
258 137
259 137
260 317
261 18
261 317
262 317
263 317
281 96
295 364
296 318
296 364
297 318
297 364
298 364
300 77
300 219
300 284
301 46
301 47
301 48
301 52
301 53
301 54
301 55
301 285
302 365
303 365
304 311
304 365
305 322
305 323
305 365
309 37
309 151
310 151
311 151
312 151
314 79
315 79
315 295
316 80
316 294
316 373
317 374
320 29
320 292
321 29
321 292
322 29
322 292
323 29
323 292
325 157
337 80
337 85
338 79
339 78
340 77
342 338
342 340
342 341
343 341
343 342
344 70
344 71
344 72
344 338
344 342
344 343
345 71
345 343
345 344
346 344
346 345
347 346
347 351
348 350
355 118
362 120
364 193
364 194
364 195
368 218
368 219
368 220
368 221
369 122
369 297
370 296
371 296
377 86
378 83
383 355
385 296
385 305

15
15 19
15 20
15 21
15 22
15 23
15 24
15 26
15 27
15 28
16 20
16 21
16 22
16 23
16 27
73 258
74 258
76 201
77 186
77 187
78 35
78 187
102 254
103 254
110 342
119 242
119 243
120 241
120 242
121 240
121 241
122 239
123 238
124 237
125 236
126 235
138 281
141 52
144 19
145 20
167 74
167 379
167 380
168 73
168 380
168 381
169 381
169 382
170 382
170 383
171 383
171 384
172 384
176 217
177 15
184 23
184 180
185 23
185 179
186 24
186 178
186 179
194 384
195 29
195 383
196 29
199 186
200 187
201 188
202 189
203 190
204 191
205 48
205 192
206 48
206 49
250 87
251 82
251 83
252 81
252 82
254 78
254 79
255 77
255 78
258 317
261 137
262 19
263 20
264 20
293 364
298 317
299 62
299 63
299 317
301 50
301 76
302 45
303 43
303 44
304 37
304 41
304 42
304 320
304 321
305 38
305 40
305 41
307 38
307 151
308 38
312 78
313 78
315 372
325 29
325 292
334 84
335 83
335 84
336 82
336 83
336 84
343 339
365 196
365 202
365 203
368 223
372 295
373 294
373 295
374 294
374 295
375 294
384 303
384 304

16
16 25
75 259
76 260
77 200
77 260
77 261
78 200
79 188
80 189
81 190
82 191
83 192
85 258
86 258
87 257
104 255
105 255
118 244
135 277
135 280
137 280
146 21
146 22
146 265
147 265
154 48
155 49
156 50
157 51
158 52
159 53
160 54
161 55
162 56
163 57
164 58
165 59
166 60
167 61
168 62
169 63
169 71
169 72
170 64
177 63
178 63
179 62
197 182
197 183
198 184
253 80
270 33
270 34
300 64
302 75
303 313
303 314
306 39
307 73
307 74
307 366
308 74
308 75
308 367
309 75
309 367
310 76
311 77
314 371
365 198
366 198
366 199
366 200
366 201
367 199
367 200
383 301
383 302

17
79 199
83 259
84 259
106 256
107 255
108 255
117 246
117 247
118 246
135 275
136 274
136 275
136 278
136 279
142 49
142 50
144 266
145 266
147 23
153 47
170 69
170 70
171 68
171 69
172 65
175 64
176 64
182 22
196 181
202 173
271 31
271 32
300 66
301 68
301 69
301 316
302 315
302 316
302 317
303 74
303 318
305 73
310 368
311 368
313 370
377 295
378 296
379 296
382 299
382 300

18
80 261
80 262
81 198
81 199
81 261
82 197
82 198
82 260
83 196
83 197
84 195
84 196
109 254
110 253
110 254
111 252
111 253
112 252
113 251
114 251
116 248
116 249
137 272
137 273
143 47
143 48
147 25
172 67
173 66
174 65
190 178
302 70
303 71
304 72
312 369
380 297
381 297
381 298

19
115 250
138 270
138 271
139 269
139 270
140 268
140 269
141 268
142 267
160 37
161 36
162 35
163 34
164 33
165 32
166 31
167 30
168 29
169 28
170 27
171 26
172 26
195 65
196 65
198 62
198 63
199 61
199 174
200 60
200 174
201 59
202 58
203 57
204 56
205 55
206 54
207 53
272 29
273 27
273 28
302 290

20
144 45
145 43
145 44
148 27
148 28
173 25
174 25
178 21
192 177
197 64
197 175
198 175
303 291
303 292

21
146 41
146 42
149 29
175 24
176 23
177 22
194 177
270 21
271 21
304 293
305 294
306 295
307 296

22
147 40
149 31
150 31
150 32
195 176
272 22
273 22
275 22
276 22

23
149 40
151 33
151 34
274 23

24
152 35

25
151 39
153 37

26
152 38

