0
65 0
85 0
153 0
171 0
178 399
190 0
212 399
214 0
233 399
252 399
253 399
266 0
267 0
269 399
270 399
293 0
294 0
381 0
399 341
399 354
399 372

1
1 303
1 315
9 304
9 314
13 83
13 93
34 237
34 247
42 169
43 169
54 5
54 15
71 49
71 59
112 110
112 120
117 183
117 193
127 183
127 193
150 122
150 145
159 398
173 398
176 248
191 1
213 1
213 398
214 196
224 202
232 398
234 192
234 202
239 378
239 388
249 388
254 398
267 291
268 1
268 398
275 99
275 109
290 286
291 111
292 1
300 286
320 241
330 231
330 241
335 349
335 359
343 229
343 239
345 349
345 359
352 200
352 210
353 239
354 68
354 273
355 273
359 146
359 156
361 398
362 200
363 29
369 146
369 156
373 29
373 39
380 1
381 45
381 68
381 98
389 340
391 45
398 18
398 36

2
2 150
2 162
2 304
2 314
29 173
45 137
45 173
45 189
47 380
47 392
59 307
59 319
59 380
59 392
63 27
64 72
64 88
66 2
71 307
73 298
79 27
80 72
80 88
81 367
81 368
82 368
82 369
84 2
84 76
88 80
88 125
92 185
92 197
96 261
96 273
97 97
98 208
100 125
101 44
102 43
102 44
102 228
103 43
104 185
104 197
108 273
110 323
111 255
123 255
123 267
124 141
130 25
130 37
147 114
147 264
154 2
155 2
156 8
160 386
163 264
168 8
169 2
170 2
172 386
176 230
179 397
180 397
184 258
191 107
191 119
192 2
194 12
196 228
196 240
203 107
208 228
208 240
210 12
212 2
215 170
220 48
221 256
221 268
223 103
223 119
227 79
227 170
227 182
231 397
232 48
233 256
233 268
239 97
239 119
243 63
247 119
247 131
251 97
251 109
255 397
267 397
269 2
287 18
298 138
299 6
299 18
309 349
321 349
325 31
325 47
334 2
354 349
354 361
366 349
366 361
377 51
382 19
386 264
386 276
397 340
397 355
397 371

3
3 151
3 161
3 231
6 282
7 108
7 342
7 354
19 342
19 354
24 282
25 126
28 30
28 42
29 143
29 161
39 55
39 73
40 30
40 42
42 84
42 102
46 48
57 73
64 66
65 341
70 326
72 120
72 138
83 3
83 46
83 64
101 46
101 343
101 361
125 73
137 361
137 373
143 307
143 325
149 361
149 373
150 299
150 360
150 361
151 359
151 360
152 358
152 359
154 228
156 3
160 180
160 198
160 310
160 328
160 379
160 396
162 127
162 287
162 299
167 59
168 3
171 295
172 379
172 396
178 180
178 214
179 59
180 127
181 396
188 282
188 352
188 370
189 295
190 331
196 214
200 282
204 300
204 318
206 37
222 156
233 85
234 156
240 47
245 85
247 21
253 153
256 318
256 336
256 396
266 396
270 3
274 43
274 192
274 204
279 218
279 236
283 253
286 192
286 204
295 253
295 265
297 218
297 236
311 214
311 226
318 104
318 116
323 214
328 381
328 393
330 104
333 158
333 170
336 373
337 306
337 324
342 276
342 288
345 158
345 170
348 373
350 142
354 276
355 270
355 306
359 370
360 396
363 166
363 184
374 279
375 278
375 279
376 278
377 370
377 388
378 3
379 3
381 184
383 238
383 256
384 134
387 357
387 369
395 292
396 134
396 192
396 202
396 339
396 356
396 370

4
4 152
4 160
4 305
4 306
4 312
4 313
7 306
7 312
15 85
15 91
28 197
32 239
32 245
36 197
39 119
39 127
56 7
56 13
65 250
69 51
70 155
70 167
70 367
71 233
78 367
82 4
83 233
83 245
85 141
85 377
87 316
87 324
93 377
94 279
94 291
110 132
110 144
110 305
112 64
114 112
119 185
119 191
123 102
125 185
125 191
136 49
136 57
140 239
140 247
141 20
141 28
144 49
144 57
145 276
148 124
148 143
149 20
150 39
153 276
154 346
154 358
157 4
161 395
162 27
166 346
167 4
171 395
174 246
177 7
177 15
182 395
183 391
185 15
193 4
193 186
194 4
194 62
202 62
205 186
205 198
208 116
208 386
210 4
211 4
211 144
211 392
212 393
214 57
216 194
217 372
217 380
226 200
229 323
229 324
229 336
229 391
229 395
230 324
230 325
230 395
231 24
231 32
231 325
232 194
232 200
235 367
235 375
238 292
238 293
239 291
239 292
241 386
245 328
245 336
245 374
253 374
253 382
257 395
258 395
259 395
260 395
261 259
261 267
261 394
261 395
262 161
262 395
263 395
264 395
265 282
265 283
265 289
265 395
266 281
266 282
267 59
267 67
267 280
267 281
268 279
268 280
269 279
270 161
271 4
273 21
275 59
275 67
277 101
277 107
285 87
288 316
289 109
291 381
291 393
292 288
293 87
293 95
303 381
303 393
314 283
321 228
321 229
322 229
322 230
322 239
323 230
323 231
326 283
328 233
328 239
331 16
337 351
337 357
343 351
343 357
345 231
345 237
351 237
354 202
355 44
356 66
356 248
360 202
361 97
361 148
361 154
363 314
363 326
365 31
367 148
367 154
371 31
371 37
371 267
376 276
377 4
377 261
378 261
383 43
384 89
384 333
388 193
388 201
389 43
392 159
395 19
395 193
395 201
395 357
395 369

5
5 232
5 307
5 308
5 310
5 311
6 307
6 311
16 86
16 90
29 196
31 240
31 244
33 341
33 355
35 196
40 126
42 208
42 222
43 164
47 139
47 341
47 355
48 282
48 296
49 382
49 390
56 208
56 222
57 8
57 12
57 382
57 390
61 309
61 317
66 249
68 52
71 296
71 366
77 366
86 140
86 317
86 323
86 376
90 127
92 376
94 187
94 195
98 263
98 271
100 210
102 187
102 195
103 25
103 39
104 226
106 271
113 257
115 113
120 186
120 190
121 257
121 265
124 186
124 190
128 27
128 35
131 206
131 220
137 50
137 56
141 240
141 246
142 21
142 27
143 50
143 56
145 112
146 277
147 125
147 142
152 277
155 151
155 165
157 88
157 102
158 5
158 6
159 5
159 6
160 5
160 6
161 5
162 394
163 5
164 5
164 6
165 5
165 6
166 5
166 6
169 165
170 394
173 245
178 8
178 14
183 394
184 14
185 8
186 260
188 172
193 109
193 117
195 5
195 61
198 230
198 238
201 61
201 109
202 158
202 172
206 230
206 238
207 258
207 272
207 387
209 5
214 394
215 58
215 394
217 172
218 373
218 379
220 185
222 50
223 258
223 266
225 172
228 392
228 394
230 50
230 335
231 195
231 199
231 258
231 266
232 25
232 31
234 368
234 374
235 135
239 234
239 248
242 385
244 280
244 329
244 335
246 375
249 99
249 107
252 375
252 381
253 234
253 248
262 260
263 160
264 284
266 118
268 60
268 66
269 160
269 277
272 5
272 362
273 5
273 7
274 60
274 66
278 102
278 106
283 277
286 88
286 362
287 317
288 108
288 148
288 162
289 16
292 88
293 289
297 8
297 16
300 140
302 162
319 347
322 150
323 238
325 309
327 234
327 238
332 15
338 352
338 356
342 352
342 356
346 232
346 236
350 236
351 16
355 203
356 351
356 359
357 65
357 249
359 203
362 149
362 153
362 298
364 351
366 32
366 149
366 153
370 32
371 215
372 94
373 93
374 92
375 10
376 5
378 100
378 101
378 164
379 163
379 164
380 162
380 163
381 119
381 161
381 162
382 161
384 42
384 266
384 274
388 42
389 194
389 200
394 20
394 135
394 194
394 200
394 337
394 338

6
6 158
6 159
6 233
6 309
8 280
9 110
9 344
9 352
17 344
17 352
22 107
22 108
22 280
23 106
23 107
24 105
24 106
25 104
25 105
26 103
26 104
27 102
27 103
27 145
27 159
30 32
30 40
30 195
34 195
38 32
38 40
40 86
40 100
41 71
41 125
50 383
50 389
56 383
56 389
62 310
62 316
67 248
67 343
70 122
70 136
70 295
72 365
80 6
81 6
85 48
85 318
85 322
87 139
87 375
90 366
91 128
91 375
95 188
95 194
99 48
99 264
99 270
99 345
99 359
101 188
101 194
101 211
105 225
120 258
120 264
123 75
127 28
127 34
138 51
138 55
139 363
139 371
141 309
141 323
142 51
142 55
142 241
143 22
144 111
147 278
147 363
147 371
151 278
152 297
156 230
160 289
160 297
162 6
162 182
162 196
162 312
162 326
164 129
169 57
173 297
176 182
178 129
179 9
179 13
180 212
183 9
183 13
184 9
184 393
185 392
185 393
186 354
186 368
186 392
186 393
187 261
187 297
187 392
187 393
188 329
188 393
190 280
190 393
191 392
191 393
192 392
192 393
193 392
193 393
194 110
194 116
194 212
194 393
195 393
196 60
196 393
198 280
199 231
199 237
200 60
200 110
204 39
205 231
205 237
206 302
206 316
206 388
208 6
208 392
216 65
216 393
217 192
217 393
218 173
218 392
218 393
219 186
219 374
219 378
219 392
219 393
220 393
223 51
223 393
224 154
224 173
224 259
224 265
224 392
224 393
225 392
225 393
226 392
226 393
227 393
229 51
230 259
230 265
231 328
231 334
232 154
233 26
233 30
233 369
233 373
235 83
235 293
242 45
243 83
243 330
243 334
248 100
248 106
251 376
255 151
258 320
258 334
263 261
264 159
268 159
269 61
269 65
272 41
273 61
273 65
274 6
275 6
275 7
276 6
276 7
276 194
276 202
277 6
277 7
278 6
278 7
279 6
281 6
281 220
281 234
282 6
282 7
283 6
284 194
284 202
285 99
285 255
286 98
286 99
286 318
287 89
287 97
287 98
288 97
290 15
291 89
293 255
293 263
295 220
295 234
296 9
296 15
309 35
309 43
313 216
313 224
318 346
320 106
320 114
320 226
321 216
324 233
324 234
326 118
327 118
327 119
328 106
328 119
328 120
329 120
330 383
330 391
333 14
335 160
335 168
338 375
339 308
339 322
343 160
343 168
344 278
344 286
348 140
350 233
351 232
351 233
352 231
352 232
352 278
353 230
353 231
354 229
354 230
355 228
355 229
355 285
356 228
356 285
356 286
357 6
357 268
357 286
357 287
357 352
357 358
358 6
358 250
358 287
358 288
359 6
361 372
363 352
363 358
363 359
364 41
365 40
365 168
365 182
366 39
367 37
367 38
375 6
375 372
375 386
377 273
377 274
378 166
379 182
381 240
382 159
383 267
383 273
386 136
389 359
389 367
390 195
390 199
393 21
393 136
393 294
393 336
393 358
393 359
393 367
393 368

7
7 157
7 234
10 345
10 351
16 345
16 351
26 242
26 243
27 242
31 33
31 39
32 176
37 33
37 39
42 120
42 176
42 186
51 384
51 388
55 384
55 388
63 311
63 315
66 24
67 75
67 85
68 157
68 165
69 294
73 235
76 24
77 85
79 7
81 235
81 243
90 76
92 281
92 289
96 189
96 193
100 94
100 189
100 193
100 265
100 269
102 212
106 224
108 134
108 142
108 265
108 266
109 264
109 265
110 66
110 263
110 264
111 262
111 263
112 307
113 320
119 259
119 263
125 100
126 29
126 33
127 138
140 364
140 370
143 110
146 364
146 370
150 261
152 37
153 296
156 348
156 356
159 290
159 296
160 29
160 261
163 392
164 36
164 392
165 37
166 38
167 39
168 392
169 392
170 56
172 232
188 262
189 392
191 279
195 111
195 188
196 7
197 392
198 392
200 232
200 236
203 188
203 196
204 232
204 236
206 391
207 7
207 9
207 391
213 142
219 174
219 188
219 189
220 182
220 190
221 191
221 392
222 192
222 392
223 174
223 193
224 194
225 153
225 195
225 260
225 264
226 106
226 116
226 196
227 197
228 52
229 260
229 264
231 153
232 329
232 330
233 294
234 294
236 116
240 66
242 82
247 101
247 105
256 150
271 23
271 40
277 195
277 201
280 7
281 105
283 195
283 201
284 7
285 7
285 101
288 95
292 256
292 262
293 383
293 391
295 10
295 14
301 383
301 391
314 217
314 223
316 285
317 345
320 217
320 224
321 107
321 113
322 34
322 44
324 285
326 116
327 107
329 122
331 390
336 161
336 167
342 161
342 167
345 279
345 285
351 279
354 284
355 7
356 7
357 46
357 207
357 208
357 227
358 209
358 267
358 353
358 357
359 210
360 7
360 211
361 7
361 8
361 212
361 316
361 324
362 7
362 353
362 357
363 99
367 232
367 266
368 36
368 233
369 234
370 235
374 7
374 54
374 284
375 89
376 71
378 272
382 87
382 272
385 22
386 331
387 137
390 157
390 360
390 366
392 22
392 137
392 195
392 196
392 198
392 199
392 335
392 360
392 366

8
8 156
8 235
11 346
11 350
15 346
15 350
18 88
19 89
20 89
21 110
28 100
29 242
32 34
32 38
33 177
35 343
35 353
36 34
36 38
41 177
43 121
44 210
44 220
45 162
45 343
45 353
48 121
50 284
50 294
54 210
54 220
59 10
60 11
61 11
66 54
67 23
67 158
67 164
68 76
68 84
74 236
75 23
76 84
76 282
77 282
78 8
78 283
79 284
80 236
80 242
89 369
89 370
89 371
91 75
91 282
91 288
101 93
105 27
105 37
106 266
107 135
107 141
113 262
113 308
114 319
117 115
118 116
122 188
128 137
129 208
129 218
141 365
141 369
144 128
144 139
145 127
145 140
145 365
145 369
149 282
149 283
151 260
153 36
154 295
155 90
155 100
157 153
157 163
157 349
157 355
158 295
159 30
159 260
162 35
165 391
167 163
167 391
169 40
170 40
170 242
171 55
171 243
190 170
192 278
197 8
198 8
199 8
199 391
200 8
200 170
200 390
200 391
201 8
201 390
202 8
202 9
202 189
202 390
203 8
204 8
205 8
205 260
206 8
214 141
218 64
219 191
222 377
223 376
226 152
227 107
227 115
228 319
229 197
229 371
230 152
233 137
235 115
235 332
236 332
237 332
238 332
239 67
239 332
241 81
241 236
241 246
244 291
244 383
245 382
246 282
251 236
251 246
252 121
262 286
264 120
270 24
270 39
271 275
274 360
278 196
278 200
280 104
281 275
282 196
282 200
284 360
285 105
286 8
286 106
287 8
289 93
289 94
290 150
290 160
291 257
294 384
294 390
295 291
296 292
300 160
300 384
300 390
315 218
315 222
317 286
319 218
319 222
319 223
320 148
321 35
321 43
322 108
323 286
325 236
326 108
332 389
335 8
337 162
337 166
340 354
341 162
341 166
346 280
346 284
348 234
349 14
350 280
352 284
353 8
354 8
357 205
358 47
359 63
359 227
359 266
360 62
360 323
363 8
363 44
364 8
364 100
364 151
364 296
365 8
365 266
366 8
367 8
368 8
368 9
368 34
369 8
369 217
370 8
371 8
372 8
372 67
373 8
373 68
374 69
375 70
375 87
376 73
377 74
377 75
377 168
379 117
381 86
383 156
383 157
386 23
386 40
387 38
387 39
388 138
389 156
390 363
391 197
391 295
391 333
391 334
391 361
391 362
391 363
391 364
391 365

9
9 155
10 278
11 112
13 255
20 278
21 90
21 112
22 91
25 147
25 157
28 98
32 193
33 191
33 192
34 178
36 344
36 352
38 88
38 98
40 178
43 69
43 123
44 122
44 344
44 352
45 122
45 211
45 219
46 121
46 122
46 161
47 122
49 122
50 122
50 123
51 123
51 124
51 145
51 146
51 147
51 285
51 293
52 124
52 125
53 125
53 126
53 211
53 219
54 126
62 12
64 54
66 159
66 163
68 22
68 124
68 134
69 77
69 83
69 246
69 345
70 245
74 22
74 363
75 83
75 283
76 77
77 9
77 77
79 237
79 241
82 320
83 320
87 50
89 137
89 373
90 136
90 283
90 287
97 50
97 347
97 357
102 92
104 267
105 267
106 28
106 36
106 136
106 140
114 261
115 261
115 318
119 117
120 31
121 31
121 77
122 31
127 98
127 99
128 209
128 217
129 136
131 117
132 116
133 115
134 114
135 113
136 112
137 111
138 110
139 109
139 311
139 321
140 53
143 129
143 138
144 243
145 24
145 244
146 25
149 280
150 284
151 285
152 259
152 286
153 287
154 35
154 91
154 99
154 288
155 289
155 290
158 31
158 162
158 232
158 259
158 350
158 354
160 35
164 184
164 194
164 324
166 131
166 162
166 388
166 389
166 390
170 233
171 41
174 184
175 299
181 11
182 210
184 356
184 366
185 299
186 327
191 169
192 210
193 139
194 139
195 138
196 137
197 136
198 58
198 135
199 134
199 169
200 133
201 132
202 41
202 131
203 130
204 130
204 261
204 390
208 304
208 314
219 63
221 178
221 179
221 180
221 376
224 375
225 374
225 375
226 373
226 374
227 372
227 373
228 108
228 114
228 317
228 372
230 296
231 295
231 371
232 138
233 332
234 114
235 28
236 29
237 29
238 68
241 332
242 237
242 245
243 103
244 43
246 381
247 283
248 379
249 378
250 237
250 245
259 141
260 322
260 332
263 121
265 155
265 156
265 263
266 157
266 264
269 25
271 63
272 274
275 359
280 274
283 104
283 222
283 232
283 321
283 359
284 103
284 104
284 320
288 9
289 9
289 91
291 151
291 159
293 222
293 232
295 385
295 389
297 293
299 159
299 385
299 389
312 36
312 42
318 287
319 147
320 36
320 42
322 287
325 113
325 114
335 12
336 9
341 310
341 320
346 138
350 283
351 9
351 283
352 9
359 48
359 322
360 226
361 61
361 215
362 288
363 265
364 265
365 101
365 295
367 170
367 180
367 229
368 218
371 238
373 374
373 384
376 85
376 86
377 170
377 180
378 116
379 242
380 85
384 155
387 24
388 37
388 155
389 35
389 36
389 142
390 23
390 24
390 34
390 35
390 138
390 139
390 141
390 142
390 143
390 296
390 331
390 332

10
10 154
10 236
10 237
11 277
12 113
12 131
12 132
12 133
12 137
12 138
13 129
13 130
13 253
14 128
14 129
14 256
15 128
19 277
20 113
24 91
24 148
24 156
34 189
34 190
35 179
35 188
35 189
36 188
37 89
37 97
37 345
37 351
39 179
43 345
43 351
44 68
46 212
46 218
47 160
51 143
52 141
52 142
52 212
52 218
52 286
52 292
53 386
65 313
66 314
67 125
67 133
67 292
67 314
69 21
70 78
70 82
70 346
71 244
72 284
73 21
73 283
73 284
74 78
74 82
74 320
75 10
75 78
76 10
78 320
79 320
80 320
82 285
88 51
91 135
96 51
96 348
98 191
102 267
103 91
104 214
105 215
107 29
107 35
116 317
117 261
120 78
120 118
121 119
122 119
124 31
127 210
127 216
129 118
129 119
130 135
138 312
138 320
141 131
141 136
142 130
142 137
146 245
147 26
147 245
148 26
148 27
149 27
149 28
150 28
150 29
151 29
151 30
152 30
152 31
153 31
153 32
153 92
153 98
153 258
154 32
156 291
157 258
158 34
159 34
159 161
159 233
165 161
165 185
165 193
165 323
166 375
166 376
166 377
167 132
173 41
173 42
173 185
174 42
176 300
183 209
183 357
183 365
184 300
185 326
190 264
191 209
192 168
197 113
198 114
198 168
201 42
201 191
202 118
202 119
202 234
203 119
203 120
203 262
204 120
204 121
205 121
205 122
206 122
209 305
209 313
221 176
225 55
226 54
227 262
227 315
227 316
229 109
229 113
229 297
231 139
236 109
237 69
237 108
237 109
238 30
238 107
238 108
239 30
239 31
239 106
239 107
240 31
240 32
240 105
240 106
241 32
241 33
241 104
241 105
242 33
242 104
243 238
243 244
245 42
245 103
246 290
247 290
247 380
248 284
249 238
249 244
254 122
259 143
259 144
259 145
259 149
260 149
260 150
261 150
261 151
261 323
261 331
262 122
262 151
262 152
263 152
263 153
264 153
264 154
267 265
273 273
276 358
279 273
282 322
282 358
284 223
284 231
290 10
291 10
291 11
292 11
292 152
292 158
292 223
292 231
293 12
298 158
298 294
299 295
299 296
300 296
300 297
313 37
313 41
314 342
315 343
318 146
319 37
319 41
324 112
330 125
330 126
337 10
337 11
338 10
342 311
342 319
345 137
348 129
349 10
349 128
350 10
350 127
351 126
352 125
353 124
354 123
355 122
360 355
361 225
361 261
361 262
362 60
366 294
367 219
368 171
368 179
371 63
371 64
371 240
372 375
372 383
376 171
376 179
377 115
377 254
378 77
378 243
378 268
379 268
379 269
380 270
388 25
388 29
388 30
388 31
388 32
389 25
389 26
389 28
389 29
389 30
389 31
389 32
389 33
389 140
389 144
389 145
389 297
389 327
389 328
389 329
389 330

11
11 153
11 238
12 135
12 276
13 114
13 139
13 348
14 140
14 141
14 258
14 259
14 260
15 126
15 141
15 142
16 142
16 143
17 143
17 144
18 144
18 145
18 276
19 114
23 155
34 36
36 90
36 96
36 186
38 346
38 350
42 346
42 350
45 67
47 213
47 217
48 159
51 213
51 217
53 140
53 287
53 291
54 139
55 138
56 127
56 137
57 136
58 135
59 134
60 132
60 133
61 161
62 55
62 161
63 290
64 290
65 290
66 126
66 132
68 315
69 315
69 316
70 285
70 316
70 317
71 285
71 317
71 318
71 347
72 243
72 318
72 319
73 319
74 11
76 320
84 285
85 285
86 285
89 52
92 133
92 134
93 133
93 134
94 132
94 133
95 52
95 133
95 349
102 138
106 216
108 30
108 34
119 79
123 120
124 120
126 211
126 215
131 96
137 319
139 134
140 135
143 367
152 93
152 97
156 293
160 160
166 186
166 192
166 322
168 133
168 234
172 186
173 53
174 52
175 43
177 301
182 358
182 364
183 301
184 208
184 325
190 208
193 167
194 276
195 275
197 167
198 55
199 115
200 43
200 116
201 117
202 263
206 124
206 125
206 126
210 312
224 56
224 57
226 314
228 298
230 140
234 110
235 110
238 78
239 79
244 239
244 243
246 41
248 239
248 243
248 289
249 285
249 289
255 123
258 286
258 288
259 147
261 123
262 324
262 330
267 36
268 37
268 266
269 266
269 267
270 267
270 268
271 268
277 357
278 272
280 198
281 357
285 224
285 230
288 260
289 259
291 224
291 230
293 153
293 157
297 157
301 298
301 299
313 341
317 145
317 220
319 141
320 140
320 141
321 139
321 140
322 138
322 139
323 137
323 138
324 110
324 136
324 137
325 135
325 136
326 134
326 135
327 133
327 134
328 132
328 133
329 132
331 127
331 128
334 387
335 386
339 11
339 164
340 11
341 11
342 11
343 11
343 312
343 318
344 11
344 12
344 136
345 11
345 130
346 11
346 130
347 11
348 11
348 282
357 121
358 121
361 264
362 217
362 218
362 224
362 260
363 258
363 259
364 60
364 258
364 289
365 289
366 220
366 226
366 227
367 293
369 172
369 178
370 61
370 62
371 376
371 382
375 172
375 178
376 114
377 244
378 79
378 80
378 81
386 149
386 150
386 151
387 147
388 27
388 146
388 298
388 325
388 326

12
12 239
13 153
13 275
14 115
14 251
14 262
15 264
17 275
18 115
22 154
26 92
35 91
35 95
37 183
37 184
37 185
46 66
50 150
57 157
57 158
58 127
58 158
58 159
59 159
60 160
62 289
64 161
65 127
65 131
66 289
67 288
68 287
69 286
71 17
72 12
72 348
73 12
73 242
74 241
74 359
75 240
77 239
88 285
90 53
94 53
94 350
96 134
97 134
99 136
100 136
100 137
101 137
104 138
107 217
108 220
112 219
117 32
117 309
118 84
118 85
119 85
119 86
120 86
120 87
121 87
121 88
122 88
122 89
123 89
123 90
124 90
124 91
125 91
125 92
125 121
126 92
126 93
127 93
127 94
128 94
128 95
129 95
129 96
132 97
133 97
133 98
134 98
136 318
139 132
155 253
155 254
156 33
160 352
161 353
162 353
167 187
167 191
167 321
167 373
168 371
168 372
169 134
171 187
171 191
172 191
173 192
174 193
175 51
175 194
176 44
176 195
177 196
178 197
178 302
179 198
180 199
181 200
181 359
181 363
182 201
182 302
183 202
183 324
184 203
185 203
185 207
189 207
190 142
191 141
193 265
196 274
198 193
199 44
199 192
206 128
207 128
207 129
208 129
208 130
209 130
209 131
210 131
210 132
211 132
211 133
211 311
212 133
212 134
213 134
213 135
214 135
214 136
215 136
215 137
216 137
217 138
218 139
219 139
221 61
225 300
226 300
227 299
228 149
233 111
235 73
235 74
236 73
237 77
247 40
259 132
263 325
266 28
266 35
267 27
272 269
273 269
278 269
279 268
279 269
280 267
280 268
281 266
281 267
282 265
282 266
283 264
283 265
284 263
284 264
285 262
285 263
286 225
286 229
286 261
286 262
287 261
290 225
290 229
297 387
302 300
302 301
305 146
306 145
306 146
307 144
307 145
308 143
308 144
309 323
310 318
312 340
314 39
315 39
317 142
318 142
319 290
319 291
320 289
336 385
343 131
343 135
344 131
344 313
344 317
351 387
352 387
353 387
354 387
356 319
357 320
359 120
360 120
363 219
363 220
364 256
365 59
365 224
365 225
366 290
367 103
367 290
368 104
370 173
370 177
370 377
370 381
372 242
374 173
374 177
376 245
376 251
376 252
378 83
386 153
386 310
386 312
386 313
386 314
386 315
386 319
386 320
386 321
386 322
387 310
387 311
387 312
387 313
387 314
387 315
387 316
387 318
387 319
387 320
387 321
387 322
387 323
387 324

13
13 240
13 249
15 266
16 124
28 92
37 181
48 57
50 152
55 64
55 157
57 289
58 289
59 128
59 289
60 56
60 128
60 289
67 13
68 13
70 13
70 15
70 16
71 13
71 19
72 80
83 351
85 352
98 135
105 89
106 88
108 218
110 219
112 32
113 32
113 218
114 32
114 217
114 218
115 32
115 217
118 214
118 314
118 315
119 213
119 214
120 213
121 213
122 213
127 121
127 122
128 122
128 123
132 133
135 99
136 100
137 101
137 132
155 256
163 354
164 354
164 355
165 355
165 356
166 236
166 356
166 357
167 236
167 357
167 358
168 358
168 359
169 359
169 360
169 369
169 370
170 360
170 361
170 368
170 369
171 361
176 50
183 43
187 43
189 143
195 161
195 162
195 163
197 53
197 194
197 273
220 140
221 140
221 141
222 141
223 59
223 60
224 60
224 61
225 61
225 62
226 62
226 63
227 63
227 64
228 64
228 65
228 147
229 65
229 66
230 66
230 67
231 67
231 68
231 111
232 68
232 69
233 69
233 70
234 70
234 71
235 71
236 75
236 76
253 287
254 287
255 287
256 125
256 287
257 125
259 130
265 29
265 34
274 270
279 350
279 351
279 352
279 353
280 349
280 350
294 337
295 337
296 337
297 336
298 335
298 336
299 334
299 335
300 333
300 334
301 332
301 333
302 148
302 332
303 148
304 147
309 325
310 143
310 316
310 337
310 338
311 143
311 339
312 143
313 143
317 39
317 293
317 294
318 292
318 293
349 386
350 386
355 318
355 386
356 386
362 50
363 50
363 51
365 254
365 255
368 58
369 59
371 291
375 249
375 250
385 306
386 299
386 300
386 305
386 306
386 307
386 308
386 317

14
14 241
14 247
14 248
15 152
15 268
15 269
15 270
15 271
16 119
16 120
16 121
16 122
16 152
29 93
30 93
31 93
40 348
49 215
50 157
51 153
51 154
51 156
53 156
54 156
55 289
58 57
59 57
61 129
69 14
75 357
81 351
87 352
92 57
92 58
92 59
107 87
110 32
116 216
117 215
119 313
124 213
129 124
129 125
135 131
136 131
148 96
149 96
150 95
162 158
163 157
165 237
171 367
172 362
172 366
173 365
176 361
177 49
177 361
178 45
178 47
178 48
179 46
179 47
181 44
182 44
185 43
185 151
186 152
187 153
188 44
188 144
188 154
188 203
189 44
189 155
189 202
190 44
190 45
190 156
190 201
191 45
191 157
191 200
192 158
192 199
193 159
193 198
194 160
194 197
195 165
195 196
195 266
196 195
197 51
199 266
200 265
222 302
223 142
223 301
223 311
224 143
224 312
225 143
227 143
227 145
227 146
228 142
246 241
251 287
258 126
258 127
258 128
258 129
259 125
264 30
264 33
276 270
279 355
281 348
282 347
295 155
296 154
297 153
298 152
299 151
300 150
301 149
303 303
304 304
309 335
309 336
315 143
316 295
332 131
334 132
335 132
336 132
336 133
337 132
337 133
338 133
339 133
347 385
348 315
348 385
349 315
350 315
351 315
351 316
352 316
353 316
353 317
354 317
357 385
358 385
362 119
363 118
364 52
364 53
364 222
366 379
367 57
369 291
373 291
373 292
374 292
374 293
375 293
375 294
376 294
376 295
377 295
377 296
378 296
378 297
379 297
379 298
380 298
380 299
381 299
381 300
382 300
382 301
383 301
385 301
385 303
385 304

15
15 242
15 243
15 245
15 246
15 273
16 117
17 151
17 243
18 150
18 151
19 149
19 150
19 151
20 152
33 93
48 64
49 63
52 155
57 58
63 129
74 350
75 351
88 353
89 353
91 353
91 355
91 356
92 55
92 352
93 60
94 61
94 62
95 62
95 63
96 63
96 64
97 64
97 65
98 65
98 66
99 66
99 67
100 67
100 68
101 68
108 86
116 82
119 311
120 311
120 312
121 311
121 312
122 311
122 312
123 312
130 126
131 127
132 128
132 129
133 129
133 130
133 315
134 130
134 316
146 97
147 97
164 155
164 156
169 189
169 319
170 318
171 136
172 137
174 362
174 363
175 362
179 305
179 306
179 361
180 45
180 304
180 321
181 322
186 146
187 145
187 205
192 46
193 47
194 47
196 47
196 49
196 50
196 267
197 46
197 270
198 267
198 269
198 270
213 309
214 308
221 303
222 310
226 144
249 38
259 33
260 33
261 32
263 31
265 327
266 328
266 329
267 328
288 227
304 331
305 305
308 327
308 328
308 334
316 297
339 384
340 384
341 133
341 384
342 383
342 384
343 384
344 384
345 384
346 315
346 384
359 384
360 383
361 382
362 381
363 380
364 117
364 379
365 54
366 55
366 56
366 252
367 251
368 250
368 379
369 249
370 248
371 105
371 247
372 175
372 246
373 246
374 247
384 302

16
16 244
50 59
50 62
53 62
54 59
55 58
55 59
76 352
76 354
76 355
78 352
79 352
90 354
101 70
109 85
124 311
125 312
126 312
127 312
127 313
128 312
130 314
131 313
131 314
132 313
132 314
141 101
141 102
142 100
142 101
143 99
143 100
144 99
145 98
163 238
163 239
165 154
166 153
167 152
168 151
169 150
170 149
171 148
172 147
173 138
173 146
174 145
178 307
178 308
179 320
195 48
197 268
215 307
220 304
221 309
257 33
258 34
268 329
269 329
306 306
306 330
306 331
307 329
307 330
307 331
307 332
308 332
315 298
315 299
365 116
371 107
371 108

17
51 60
51 61
52 60
52 61
53 60
77 353
102 71
102 72
113 82
129 313
161 240
162 240
172 317
174 139
175 143
175 311
176 310
176 311
177 309
178 319
180 144
181 144
182 145
183 146
184 147
216 306
217 307
219 305
220 308
249 34
250 34
250 35
251 34
251 35
252 35
254 35
255 34
256 34
270 330
271 331
272 331
272 332
273 332
314 300
366 115
370 109
370 110

18
155 246
156 245
157 244
158 243
159 242
160 241
175 140
175 141
175 313
176 140
176 141
177 141
177 142
177 318
178 142
179 143
218 306
219 307
253 34
274 333
275 334
309 310
313 302
313 303
314 302
367 114
368 113

19
103 74
103 75
104 75
104 76
105 76
105 77
106 77
106 78
107 78
174 314
174 315
174 316
175 315
175 316
176 317
312 304
312 305
369 112

20
108 79
109 79
109 80
110 80
110 81
310 307
310 308
311 306
311 307

21

22
280 334

23
281 335
282 336
283 337

