0
0 274
0 275
0 299
0 300
1 399
17 399
22 0
23 0
39 0
40 0
45 0
46 0
92 399
118 399
341 0
359 0
399 71
399 95
399 137
399 178
399 202
399 297
399 321
399 374

1
1 34
1 64
1 80
1 276
1 298
2 398
16 398
24 1
38 1
47 1
52 143
73 301
76 242
76 252
86 242
86 252
93 398
117 62
117 72
117 398
123 11
125 398
127 72
128 21
128 367
131 263
131 273
136 234
141 263
141 273
143 398
146 224
146 234
159 365
159 375
162 93
175 346
175 356
180 29
180 39
185 346
190 29
217 140
217 150
235 373
235 383
245 373
245 383
254 144
264 134
264 144
265 17
275 17
276 1
290 28
295 64
295 74
300 1
304 11
304 21
305 64
305 74
310 31
310 41
333 253
342 1
358 1
398 72
398 94
398 330
398 373
398 378
398 388

2
2 33
2 277
2 297
6 9
8 279
8 295
10 57
25 2
26 57
28 172
28 188
34 17
34 33
35 203
37 2
38 262
44 188
44 270
44 287
44 303
44 316
44 328
48 2
50 8
51 203
51 219
54 246
61 269
71 171
71 183
74 374
78 60
78 76
83 183
86 113
86 125
86 374
86 386
88 187
88 203
89 15
94 60
94 397
95 231
98 113
98 125
98 374
99 33
104 187
104 203
107 214
114 2
116 397
117 118
123 201
126 243
126 397
136 243
136 255
139 201
142 397
148 243
148 255
149 389
156 155
156 171
162 4
162 20
172 155
178 4
178 20
182 319
185 45
185 61
188 41
189 41
191 224
191 240
201 61
215 217
227 217
227 229
237 93
237 105
237 151
245 224
245 236
249 105
277 2
290 277
290 289
299 2
301 191
313 201
313 213
314 338
314 354
317 191
319 317
323 264
323 276
325 201
326 290
332 42
334 153
335 264
341 182
341 194
343 2
344 10
344 302
345 141
346 165
353 182
353 194
356 10
357 2
361 141
361 157
362 114
371 395
387 395
388 75
389 182
391 140
392 112
397 138
397 139
397 179
397 180
397 200
397 201
397 298
397 320
397 331
397 372

3
3 65
3 79
3 140
3 152
3 278
3 296
3 396
4 396
13 214
14 396
15 140
15 152
15 396
23 83
26 3
30 385
35 148
36 3
46 59
48 367
48 385
49 3
61 383
61 395
64 59
64 77
69 90
69 102
73 395
86 309
86 327
95 257
95 396
97 178
99 144
113 257
115 282
115 294
115 396
116 100
117 320
118 343
124 42
127 282
127 396
130 343
135 320
140 96
141 396
152 70
158 114
164 70
188 39
197 332
199 114
202 348
214 348
215 162
215 174
215 314
217 114
226 316
226 334
228 126
232 165
233 49
233 61
235 264
235 282
236 361
244 165
244 177
245 61
246 126
246 144
253 282
254 343
254 361
267 49
269 393
270 243
270 261
275 80
278 3
285 49
285 227
287 375
287 393
297 215
297 227
298 3
311 232
311 250
327 88
339 29
339 88
342 207
349 266
349 278
351 29
381 300
381 318
384 334
391 245
393 178
396 73
396 74
396 92
396 93
396 140
396 199
396 332
396 387

4
4 31
4 32
4 66
4 78
4 279
4 295
5 392
5 395
10 316
10 324
13 392
13 395
14 368
14 376
15 242
18 316
18 324
25 129
27 4
28 4
29 4
30 4
31 4
31 5
32 4
33 4
34 4
35 4
37 129
50 4
50 145
71 289
78 244
78 250
83 277
83 289
84 244
84 250
95 152
95 153
107 128
108 140
109 139
113 4
115 128
115 136
119 64
119 70
121 13
124 61
124 62
125 60
125 70
133 265
133 271
138 232
139 265
139 271
144 232
146 365
148 298
148 306
157 367
157 373
177 348
182 31
182 37
183 348
188 31
188 150
194 295
194 307
194 395
196 277
200 150
204 277
206 295
206 383
206 395
214 40
214 52
218 237
219 142
219 148
223 183
223 195
235 195
237 375
237 381
243 375
243 381
256 142
258 62
260 306
260 318
262 136
262 142
262 371
263 226
266 62
266 204
266 216
278 108
278 204
279 4
281 214
281 215
282 215
282 216
283 216
283 217
297 4
297 66
297 72
299 151
299 163
301 98
301 106
302 19
303 66
303 72
310 275
311 151
312 33
312 39
313 366
313 378
323 60
325 378
329 171
331 251
336 278
344 4
345 4
346 373
346 381
347 77
351 229
351 241
354 381
355 4
356 4
356 63
357 211
357 219
366 162
366 174
371 36
377 53
377 65
395 75
395 141
395 299
395 319
395 333
395 370
395 371
395 379
395 380
395 386

5
5 30
5 77
5 141
5 151
5 280
5 281
5 293
5 294
6 393
6 394
7 393
7 394
8 394
10 394
11 317
11 323
11 393
11 394
12 393
12 394
15 369
15 375
16 241
17 317
17 323
23 104
46 318
46 326
49 146
51 5
52 5
64 5
65 5
66 5
67 5
73 181
76 376
79 245
79 249
81 181
83 245
83 338
83 352
84 376
84 384
88 115
88 123
89 83
96 115
96 123
96 394
97 233
97 338
97 352
97 394
100 376
108 129
111 75
111 89
112 5
114 129
114 135
115 176
120 14
120 65
120 69
122 152
122 367
124 69
124 241
125 45
131 136
134 266
134 270
136 152
136 166
138 245
138 253
138 266
138 270
139 231
143 231
145 136
146 245
146 253
147 299
147 305
147 366
150 44
150 58
156 372
163 299
163 313
172 215
177 299
178 349
180 317
182 349
182 374
183 32
183 36
186 215
187 32
187 36
187 37
194 378
195 379
196 80
196 360
196 380
197 278
203 278
210 80
211 193
211 207
220 143
220 147
225 219
225 227
236 309
238 376
238 380
239 103
242 14
242 376
242 380
247 103
247 226
247 234
248 78
254 138
256 14
259 63
261 137
261 141
262 227
263 372
265 63
279 107
285 217
289 103
290 103
292 279
292 287
298 67
298 71
300 99
300 105
301 18
302 67
302 71
309 276
313 34
313 38
315 203
315 211
323 203
324 61
324 292
325 266
328 170
330 250
333 266
335 277
336 155
342 304
343 184
343 192
344 49
344 163
346 5
346 8
347 374
347 380
349 323
351 184
351 192
353 380
354 5
354 8
358 212
358 218
367 284
376 204
381 270
381 284
393 142
393 143
393 144
393 148
393 149
393 150
394 76
394 142
394 143
394 144
394 145
394 147
394 148
394 149
394 150
394 151
394 181
394 182
394 300
394 318

6
6 29
6 142
6 150
6 282
6 283
6 284
6 285
6 286
6 287
6 288
6 289
6 290
6 291
6 292
7 287
9 393
12 318
12 322
13 142
13 150
15 216
16 318
16 322
16 370
16 374
17 240
25 81
25 373
32 383
37 150
46 369
46 383
47 319
47 325
53 6
54 6
55 6
56 6
57 6
58 6
58 7
59 6
60 6
61 6
62 6
62 61
62 75
63 6
63 385
63 393
66 280
66 281
67 92
67 100
67 281
67 282
68 6
69 6
71 393
74 180
77 377
78 169
79 168
79 169
80 168
80 180
83 248
83 377
83 383
84 311
84 325
85 6
86 6
89 116
89 122
95 116
95 122
97 255
98 234
98 393
101 146
101 377
109 130
109 136
111 6
111 255
113 130
113 134
117 284
118 102
119 318
120 345
122 297
123 38
123 64
123 65
123 240
123 297
123 298
125 47
125 284
126 57
128 345
133 318
139 246
139 252
142 98
145 246
145 252
146 300
146 304
154 72
156 112
162 72
179 316
191 204
192 203
195 393
198 279
201 112
202 279
204 346
205 393
212 346
213 164
213 172
213 316
215 112
224 220
228 318
228 332
230 128
234 167
235 51
235 59
237 266
237 280
238 359
239 337
239 338
240 102
240 338
240 339
241 339
241 340
242 167
242 175
243 59
244 128
244 142
246 102
248 227
248 233
251 280
252 345
252 359
256 138
260 64
261 228
264 64
264 373
268 245
268 259
271 391
273 82
273 96
274 96
274 97
275 97
275 98
276 98
276 99
277 99
277 100
278 100
278 101
278 214
279 101
279 102
280 6
280 102
280 106
281 6
283 47
285 377
285 391
287 225
293 280
295 6
295 217
295 225
296 6
299 100
299 104
308 277
313 234
313 248
316 204
316 210
323 293
325 62
326 267
327 169
329 86
329 165
330 165
331 164
332 163
332 267
333 162
334 161
334 276
337 86
337 156
340 209
341 305
344 185
344 191
347 6
347 7
348 6
348 7
348 375
348 379
349 6
349 31
350 185
350 191
351 6
351 268
351 276
352 6
352 7
352 379
353 6
353 7
359 213
383 302
383 316
386 336
388 202
389 201
389 202
389 243
390 200
390 201
391 199
391 200
392 198
392 199
393 77
393 146
393 152
393 153
393 183
393 184
393 196
393 197
393 198
393 301
393 317
393 334
393 335
393 368
393 369
393 381
393 382
393 384
393 385

7
7 27
7 28
7 75
7 76
7 143
7 149
9 12
12 143
12 149
13 60
27 127
31 20
31 30
31 185
35 127
38 151
38 206
41 185
47 300
48 206
48 216
48 320
48 324
51 249
60 300
61 301
62 302
63 303
64 280
64 304
64 386
64 392
65 305
66 93
66 99
66 306
70 7
70 392
71 7
72 7
72 8
73 7
73 8
74 7
74 8
75 7
75 8
75 179
76 7
78 7
78 171
79 7
79 8
79 153
79 179
80 7
80 8
81 7
81 8
81 63
81 73
81 279
81 287
82 7
82 8
82 378
82 382
83 7
84 7
87 7
87 161
88 7
90 117
90 121
91 153
91 190
91 200
94 117
94 121
99 235
99 392
100 176
101 200
102 147
102 378
107 144
110 134
110 135
110 217
118 285
119 103
120 115
121 346
122 239
123 36
123 359
123 360
123 364
123 365
124 285
126 48
126 49
126 55
126 204
127 346
136 204
138 223
139 224
140 225
140 247
140 251
141 226
141 227
144 247
144 251
154 368
155 73
157 85
157 86
157 90
159 158
159 168
161 73
165 7
165 17
175 7
175 17
178 315
180 353
180 354
181 354
181 355
182 355
182 356
183 356
183 357
184 357
184 358
185 358
188 58
190 152
194 227
194 237
196 392
197 383
198 152
204 385
204 392
205 345
211 345
212 42
212 50
212 165
212 171
216 235
223 221
225 185
225 193
232 181
233 180
233 193
234 179
235 168
235 178
236 52
236 58
236 177
241 101
241 168
241 174
242 58
245 101
249 228
249 232
257 139
258 308
258 316
260 73
261 72
267 22
268 22
268 206
268 214
276 206
282 7
287 218
288 218
288 224
294 7
294 218
294 224
294 281
301 153
304 188
309 153
314 188
315 368
315 376
317 36
317 205
317 209
317 341
317 351
318 36
319 168
322 294
322 314
322 366
323 365
323 376
324 364
325 363
326 362
327 166
327 268
327 361
328 166
332 35
336 161
338 157
339 210
340 306
345 186
345 190
348 32
348 144
349 186
349 190
350 7
352 269
352 275
358 144
358 154
365 111
368 164
368 172
369 38
374 392
375 63
384 392
388 204
389 109
391 155
391 190
391 383
392 78
392 154
392 155
392 172
392 173
392 185
392 186
392 187
392 188
392 189
392 190
392 191
392 192
392 193
392 194
392 195
392 302
392 316
392 336
392 367
392 383

8
8 26
8 74
10 13
11 144
11 148
20 372
21 372
22 372
25 106
28 126
30 29
32 184
34 126
39 152
39 207
40 184
46 149
47 148
47 207
47 215
48 299
50 250
55 95
57 299
58 299
58 300
65 94
65 98
65 387
65 391
68 306
68 307
69 307
69 391
77 8
80 165
80 280
80 286
81 247
82 64
85 340
85 350
89 8
90 8
92 191
92 199
95 340
95 350
100 190
100 199
100 391
101 174
101 175
104 31
107 146
109 77
109 87
111 218
113 174
119 286
120 104
121 114
122 34
122 35
122 67
122 294
122 347
123 286
123 362
124 154
126 347
127 53
127 54
127 205
133 134
134 154
134 164
135 205
136 268
137 220
137 221
141 229
141 302
142 302
143 134
148 46
148 56
153 94
154 93
155 92
156 74
156 91
157 88
160 74
160 159
160 167
165 301
165 311
166 8
166 16
174 8
174 16
174 213
175 301
180 351
184 213
184 372
185 34
185 360
189 48
189 57
191 153
193 374
194 362
195 228
195 236
197 153
197 385
197 391
198 82
199 178
199 179
200 177
200 178
200 283
200 284
200 285
201 176
201 177
202 175
202 176
203 174
203 175
203 386
203 391
204 173
204 174
205 172
205 173
206 171
206 172
206 344
207 170
207 171
208 82
209 195
209 205
210 344
211 43
211 49
211 166
211 170
215 234
222 145
223 144
226 186
226 192
231 183
232 192
236 169
236 175
237 53
237 57
240 169
240 173
240 378
241 57
244 16
254 16
257 238
257 309
257 315
258 239
259 139
259 240
262 68
262 69
262 70
269 207
269 213
275 207
275 213
276 213
283 8
284 104
285 21
285 104
286 20
286 104
287 18
287 19
288 18
289 219
289 223
293 102
293 219
293 223
294 102
295 102
298 15
299 16
300 69
302 154
305 187
308 154
311 289
312 290
313 187
313 291
314 292
315 36
315 293
316 294
316 369
316 375
317 295
318 295
318 342
318 350
320 36
321 167
322 167
322 368
322 375
323 167
323 313
327 247
328 248
328 274
330 84
336 84
337 160
338 160
338 211
346 47
347 33
347 325
349 145
353 274
357 145
357 153
366 110
368 39
369 165
369 171
373 375
374 376
375 377
375 391
376 378
377 379
379 282
388 108
388 385
389 385
390 384
391 79
391 80
391 157
391 170
391 171
391 337
391 365
391 366

9
9 73
9 144
9 145
9 147
9 148
11 14
14 320
17 218
18 372
19 238
20 237
26 107
27 79
29 21
29 28
33 125
33 183
34 381
37 241
37 242
38 242
38 243
39 183
39 243
39 244
40 208
40 244
40 245
41 245
41 246
42 246
42 247
43 247
43 248
44 371
44 381
45 150
46 208
46 214
49 251
49 298
50 266
50 267
52 322
53 322
54 322
55 272
55 273
56 298
56 323
57 96
57 324
60 63
60 73
69 388
70 308
70 388
71 282
71 387
72 386
73 385
74 384
75 383
76 382
77 173
77 174
77 175
77 381
78 380
79 281
79 285
82 313
82 323
83 65
86 341
86 349
88 154
89 154
91 9
92 9
92 10
93 9
93 10
93 192
93 198
94 9
94 10
94 341
94 349
95 9
95 10
96 9
99 191
99 192
99 198
99 253
101 390
105 156
106 147
106 148
106 157
107 158
108 86
109 253
111 132
112 173
112 219
121 316
122 113
124 355
125 155
128 206
130 51
131 51
131 316
132 51
133 155
133 163
134 133
134 206
135 308
136 219
136 307
137 306
138 305
139 304
140 303
142 133
144 302
147 47
147 55
152 96
152 370
153 370
154 110
158 82
161 160
161 166
166 302
166 310
167 9
167 15
173 9
173 15
174 302
175 212
183 212
185 371
190 49
190 50
190 56
192 154
193 363
193 372
196 154
196 158
196 229
196 235
197 158
198 159
198 180
198 386
198 387
199 83
199 160
200 161
200 281
201 162
201 308
202 163
202 309
202 387
203 110
203 164
203 310
204 165
204 311
205 166
206 167
207 83
207 167
207 335
208 204
208 336
210 44
210 48
213 110
225 144
227 187
227 191
230 330
231 185
231 191
232 130
237 173
237 174
238 334
239 268
239 278
240 357
242 130
242 343
245 17
249 266
249 278
250 81
250 265
250 347
250 357
251 264
252 263
253 17
253 262
254 261
255 260
256 259
256 310
256 314
258 231
259 230
262 66
263 38
264 38
264 39
266 247
266 257
266 375
267 376
270 23
270 208
270 212
271 24
271 84
271 94
272 24
273 389
274 208
274 212
281 45
282 104
283 24
283 25
283 379
283 389
284 9
284 23
296 286
297 14
297 102
303 155
306 186
307 155
308 288
309 288
312 186
315 236
315 246
317 370
317 374
319 343
321 207
321 369
321 370
321 374
322 36
322 207
322 208
323 36
323 208
323 209
324 36
324 209
324 210
324 312
325 167
325 210
325 211
326 211
326 212
326 246
327 64
327 212
327 213
328 36
328 65
328 213
328 214
329 36
329 273
330 36
331 83
331 270
331 273
332 274
335 317
336 317
336 318
337 318
337 319
338 319
338 320
339 320
339 321
340 321
346 326
347 46
347 70
350 146
350 377
351 376
352 375
353 374
354 373
355 372
356 45
356 70
356 146
356 152
356 371
357 43
357 44
357 370
358 43
358 369
359 368
361 215
362 216
366 48
366 49
367 40
367 49
367 50
367 109
368 50
368 51
369 51
369 52
370 52
370 53
370 166
370 170
376 390
378 281
385 304
385 314
387 107
387 206
387 207
387 241
387 386
388 338
390 81
390 82
390 158
390 159
390 169
390 303
390 304
390 314
390 315
390 338
390 349
390 364

10
10 72
10 146
12 15
18 219
21 236
27 108
28 27
29 124
30 374
34 182
35 380
38 182
41 156
41 157
41 209
43 152
43 372
43 380
44 151
44 249
44 250
45 209
45 213
48 252
49 263
49 264
50 264
50 297
50 322
51 268
52 269
53 270
53 287
54 271
54 286
54 297
55 275
55 285
55 297
56 275
56 276
56 284
57 283
59 64
59 72
59 96
59 325
60 96
61 96
66 389
67 388
67 389
68 389
71 309
72 310
72 311
73 311
73 312
77 177
80 380
81 155
81 162
81 163
81 314
81 322
84 66
87 155
87 342
87 348
92 119
93 342
93 348
94 193
94 197
97 10
98 10
98 193
98 197
100 252
101 237
102 389
103 389
104 380
105 154
105 381
106 30
107 85
108 252
113 220
116 166
116 167
117 165
117 166
118 164
118 165
119 163
119 164
120 162
120 163
120 237
121 161
121 162
121 290
121 291
121 292
122 161
122 315
123 112
124 302
124 351
124 352
124 353
128 51
129 207
130 315
132 156
132 162
133 207
133 308
135 132
135 216
135 217
136 217
141 132
142 249
146 48
146 54
152 98
153 109
158 78
158 79
158 80
162 161
162 165
167 303
167 309
168 10
168 14
172 10
172 14
172 164
173 165
173 303
174 166
175 167
175 312
176 168
176 211
176 313
182 211
186 362
186 363
186 370
191 51
191 55
192 364
192 370
192 371
197 181
197 202
197 230
197 234
198 389
199 389
200 84
201 306
201 389
202 389
204 109
206 84
206 231
207 203
207 232
208 338
208 339
208 340
212 109
220 224
221 223
230 186
230 187
233 131
238 332
240 53
240 269
240 277
241 52
241 131
241 356
242 51
242 345
243 50
243 99
244 49
244 97
244 98
245 48
246 18
246 47
247 46
248 45
248 268
248 269
248 277
249 44
249 348
249 356
250 43
251 230
252 231
253 231
257 232
257 256
257 257
259 243
262 37
265 256
268 377
270 85
270 93
273 25
274 26
274 27
274 388
275 27
275 28
276 28
279 29
280 28
280 44
281 27
282 26
282 380
282 388
285 10
293 10
294 11
294 12
295 12
296 13
296 283
297 284
306 280
306 281
306 287
307 185
307 287
308 175
311 185
316 245
319 207
320 296
320 344
321 297
321 298
324 245
325 245
325 311
326 36
329 66
329 270
330 214
330 271
330 272
337 309
338 308
340 159
340 323
341 35
341 158
342 158
347 188
351 147
355 147
355 151
359 42
363 217
364 217
366 251
368 108
377 280
377 382
377 389
386 106
386 208
386 240
386 305
386 313
388 343
389 83
389 84
389 160
389 161
389 305
389 313
389 339
389 340
389 341
389 342
389 343
389 344
389 345
389 346
389 347
389 348
389 350
389 351
389 362
389 363

11
11 25
11 70
11 71
19 220
22 235
27 22
28 109
32 374
36 238
36 239
41 154
42 153
42 158
42 168
42 169
42 373
42 379
43 160
43 161
43 162
43 166
43 167
43 168
45 251
45 252
48 261
48 262
57 277
57 278
58 65
58 71
58 281
59 280
61 325
62 325
63 96
63 325
73 283
74 283
75 283
80 315
80 321
82 156
82 161
84 156
85 155
85 156
88 343
88 347
92 343
92 347
99 11
100 11
101 251
103 151
103 152
103 172
104 151
104 152
104 153
104 171
104 388
105 150
106 84
106 382
107 251
117 221
118 220
118 221
119 31
119 219
119 220
120 32
120 218
120 219
121 217
121 218
121 288
122 106
122 216
122 217
123 107
123 215
123 216
123 314
124 214
124 215
124 304
124 349
125 213
125 214
126 212
126 213
127 211
127 212
128 210
128 211
129 314
131 157
131 161
134 214
134 215
136 131
140 131
142 378
142 379
143 377
143 378
144 376
144 377
145 49
145 53
145 375
145 376
146 374
146 375
147 373
147 374
148 372
148 373
149 372
150 371
152 108
158 76
168 304
172 304
174 311
177 210
178 169
181 210
187 364
187 365
187 369
191 365
191 369
196 182
199 202
200 297
200 298
200 299
200 303
200 304
200 305
200 388
201 85
205 46
205 85
205 108
205 314
206 46
206 202
207 332
208 231
208 342
209 168
209 231
210 231
211 108
219 225
227 143
228 143
234 132
238 171
239 55
240 132
241 270
241 276
242 355
245 95
245 96
246 94
246 95
247 19
247 93
247 94
247 270
247 276
248 92
248 93
248 349
248 355
249 91
249 92
250 90
250 91
251 42
251 83
251 89
251 90
254 232
255 232
255 233
256 233
256 234
258 255
264 255
269 86
269 92
269 378
275 387
277 30
279 43
281 381
281 387
286 11
287 11
291 11
291 221
292 11
305 159
305 160
305 282
308 177
309 173
309 174
310 172
310 173
317 244
322 299
322 300
323 300
323 301
330 67
333 82
333 218
334 219
335 214
335 314
336 213
336 310
342 36
343 36
343 157
344 71
344 156
345 71
345 155
346 154
347 153
347 235
348 44
348 152
348 235
348 353
349 151
349 235
349 353
349 354
350 150
350 354
350 355
351 150
351 355
351 356
352 356
352 357
353 44
353 357
353 358
354 44
355 272
356 271
358 69
361 42
362 42
362 72
362 73
363 73
363 74
364 74
364 75
365 45
365 46
365 75
365 76
366 76
366 77
367 77
367 78
367 249
367 250
368 78
368 79
369 79
369 80
371 55
371 56
371 57
374 168
375 168
376 168
376 279
378 167
378 383
378 384
379 166
384 386
385 209
385 239
387 306
387 307
387 311
387 312
388 85
388 86
388 162
388 163
388 167
388 168
388 306
388 307
388 308
388 310
388 311
388 312
388 352
388 353
388 360
388 361

12
12 69
16 65
20 221
23 234
29 118
30 118
30 119
30 120
30 121
30 122
31 108
31 109
31 123
32 107
33 106
34 105
35 104
35 236
35 237
36 103
36 175
36 176
36 177
36 178
37 102
37 174
38 101
38 173
39 100
39 172
40 99
40 171
41 98
41 170
41 374
41 378
42 96
42 97
43 164
46 256
46 257
46 258
46 259
47 260
50 94
52 290
52 291
52 292
52 293
57 66
57 70
58 279
77 283
79 316
79 320
82 159
83 157
83 158
83 159
101 12
102 12
102 250
105 170
105 387
106 250
106 387
107 383
108 29
108 162
114 228
115 224
115 225
115 226
115 227
118 30
124 108
124 160
124 313
125 160
128 313
130 210
130 309
131 211
131 309
132 212
133 213
136 51
151 100
151 101
151 107
166 163
167 163
168 163
169 12
169 163
170 12
170 13
171 12
173 310
180 169
182 168
183 167
184 166
185 165
186 164
187 163
188 162
189 161
190 160
191 159
192 158
193 157
194 156
195 53
196 53
197 53
198 52
198 53
199 51
199 52
200 50
200 51
200 201
200 301
201 49
201 50
201 201
201 232
202 48
202 49
202 232
203 48
203 232
204 47
204 232
205 316
206 107
208 46
210 107
212 231
213 230
214 229
214 230
215 228
215 229
216 227
216 228
217 226
217 227
218 226
229 142
229 189
235 133
237 330
239 133
241 137
242 137
242 271
242 275
243 347
243 348
243 354
246 271
246 275
247 350
247 354
252 41
252 84
254 312
259 37
259 254
260 245
263 254
268 87
268 91
270 379
271 380
272 210
272 381
273 382
274 382
276 31
276 386
278 42
280 382
280 386
288 12
288 13
289 12
289 13
290 12
299 285
300 285
301 285
304 283
305 157
306 161
307 162
308 163
309 164
309 178
309 179
309 180
309 181
310 165
311 166
311 171
312 167
312 170
313 168
313 169
318 243
319 372
324 302
325 303
326 304
327 305
327 306
330 309
331 68
331 309
332 69
332 215
332 221
333 70
333 80
333 215
333 216
333 220
334 71
334 80
334 215
334 216
334 217
335 72
335 311
341 325
341 326
343 72
343 234
344 234
345 235
346 352
347 352
350 44
351 43
352 43
355 358
357 270
358 270
361 366
363 43
364 43
364 44
365 42
366 218
366 254
366 255
366 256
366 257
366 261
366 262
367 219
368 219
368 248
370 59
370 60
371 59
372 168
378 387
379 362
379 385
379 386
379 387
380 361
380 362
380 386
380 387
381 165
381 360
381 361
381 387
382 360
382 387
383 387
387 87
387 88
387 164
387 166
387 309
387 354
387 355
387 358
387 359

13
13 24
13 67
13 68
14 17
14 66
14 67
15 18
15 66
18 65
19 66
20 66
23 232
25 25
26 25
30 113
30 114
30 115
30 116
31 223
32 222
33 221
34 220
34 375
35 219
35 375
36 180
36 218
37 217
38 84
38 216
39 84
39 85
39 215
40 85
40 86
40 214
41 86
41 87
41 213
42 87
42 88
42 212
43 88
43 89
43 211
46 254
48 94
52 295
65 324
66 323
67 323
86 68
87 69
96 195
103 13
104 13
106 169
107 386
108 164
108 384
108 385
108 386
109 385
109 386
110 385
110 386
111 386
112 386
115 222
117 29
117 382
118 381
118 382
119 380
119 381
125 109
125 306
125 307
126 159
127 159
130 386
131 209
131 386
132 386
136 121
137 122
138 51
138 123
138 124
138 125
138 126
138 127
139 51
139 127
140 51
140 382
140 386
141 51
141 381
150 102
150 103
164 163
170 308
171 307
171 308
172 309
176 197
181 170
182 171
183 172
184 173
193 53
199 232
202 92
202 200
203 89
203 90
203 91
203 92
203 93
203 199
204 197
204 198
206 330
231 141
231 142
232 141
244 349
244 350
249 25
249 26
250 28
251 29
251 313
252 30
252 87
252 313
253 31
253 40
253 85
253 86
254 32
254 39
255 33
255 34
260 247
269 40
275 383
276 33
276 383
302 284
303 284
304 285
309 183
322 346
323 347
327 309
328 307
328 308
329 308
331 223
332 310
333 311
334 312
335 78
335 79
340 73
340 232
341 72
341 73
341 232
341 233
342 233
342 327
342 328
342 332
342 333
342 334
342 335
345 37
345 351
346 38
347 39
348 40
349 41
350 42
353 149
359 269
361 69
361 70
362 68
362 69
363 67
363 68
364 66
364 67
365 65
365 66
366 64
366 65
366 259
367 63
367 64
368 62
368 63
368 246
369 61
369 62
369 245
369 246
370 82
370 83
370 106
371 105
377 363
378 363
383 103
383 165
383 238
383 359
384 104
384 165
384 358
385 165
385 357
386 89
386 90
386 165
386 356
386 357

14
16 19
21 67
22 67
24 24
29 74
30 74
30 111
33 233
34 234
36 376
37 376
43 94
44 90
44 91
44 93
46 93
47 93
51 68
52 68
53 68
68 322
69 321
69 322
70 321
75 318
88 70
90 345
103 78
103 81
103 247
104 82
104 246
105 14
106 14
109 27
110 27
111 168
113 385
114 231
114 385
115 384
116 28
116 383
121 379
121 380
122 379
123 380
124 381
125 382
126 110
126 308
126 309
126 383
127 111
127 384
128 111
128 112
128 385
129 112
129 159
129 385
133 385
134 385
135 385
138 129
139 383
139 385
143 51
170 306
176 199
177 195
177 196
177 200
177 201
179 208
189 367
193 186
194 187
195 188
196 189
197 190
198 191
199 192
200 193
201 194
202 195
203 87
203 196
204 94
204 95
204 200
206 318
206 319
206 320
206 327
206 328
208 101
208 102
208 103
231 325
233 140
234 140
249 21
250 22
250 23
250 24
250 314
251 22
251 23
252 22
255 37
255 38
256 35
256 36
256 37
257 36
261 248
261 249
261 250
324 348
336 76
336 77
337 74
337 75
337 76
337 229
338 74
338 75
338 230
339 74
339 231
341 336
341 337
342 330
342 350
343 350
343 351
357 359
358 359
370 243
370 244
371 84
371 85
372 104
373 276
374 277
382 212
383 211
384 92
385 91

15
15 23
22 22
22 23
22 223
23 23
23 68
23 224
24 69
24 230
25 70
26 71
27 72
28 73
32 232
39 376
41 77
42 76
42 77
43 75
43 76
44 74
44 75
45 73
45 74
45 92
46 72
46 73
47 71
47 72
48 70
48 71
49 70
50 69
55 68
71 320
72 319
73 318
74 317
77 318
89 71
102 80
104 248
105 244
105 245
107 15
108 15
108 168
109 166
109 167
110 18
110 167
111 19
111 26
112 20
112 21
115 26
116 26
126 311
127 310
130 113
131 114
132 115
133 115
133 116
136 384
137 384
138 384
147 106
148 106
149 105
178 194
178 202
178 203
179 192
179 193
179 206
180 191
180 192
181 190
181 191
182 189
182 190
183 188
183 189
184 187
184 188
185 176
191 182
191 183
192 183
192 184
193 184
205 96
205 97
206 98
207 100
207 321
207 325
207 326
208 105
232 324
233 324
235 139
236 138
237 135
237 137
238 136
244 273
245 352
247 315
248 314
248 315
261 252
264 88
265 88
266 89
271 39
272 39
275 35
275 36
275 39
276 40
278 384
320 241
321 240
325 349
326 349
332 225
340 349
341 349
359 360
360 360
371 242
372 241
372 275
373 103
373 240
375 364
381 102
381 213
381 236
382 236

16
16 22
17 21
17 22
18 21
18 22
19 21
19 22
20 22
20 23
24 225
24 228
31 231
32 75
33 76
34 76
90 72
91 72
91 73
92 73
93 74
94 75
95 76
96 77
97 78
99 79
100 79
101 79
106 243
107 241
107 242
108 240
108 241
109 16
110 16
113 233
113 234
135 117
145 107
146 107
179 204
180 205
185 178
185 185
185 186
207 323
208 323
208 324
245 316
246 316
257 85
262 87
263 87
273 38
274 37
274 38
322 239
327 350
328 351
329 350
339 340
339 341
339 348
340 339
363 362
364 361
364 362
365 361
367 361
368 362
369 362
369 363
370 363
371 274
372 87
373 88
373 89
374 102
380 101
380 214

17
25 226
29 227
30 230
35 77
36 77
38 79
39 78
109 238
109 239
110 237
110 238
111 236
111 237
112 235
112 236
113 23
113 24
113 25
136 116
137 115
138 114
139 113
140 112
141 111
142 110
143 109
144 108
186 179
186 180
186 184
240 320
241 319
241 320
242 318
242 319
243 318
244 317
259 84
259 85
260 85
261 86
323 237
323 238
324 236
324 237
325 235
325 236
326 234
326 235
327 233
327 234
328 232
328 233
329 231
329 232
330 230
330 231
331 229
331 230
331 349
332 228
332 229
332 348
333 228
333 348
338 342
338 343
362 361
366 362
370 273
371 364
372 365
374 90
375 101
375 226
376 96
376 100
376 101
377 97
377 98
377 100
379 100
379 215
379 234
379 235
380 92

18
26 227
27 227
27 228
28 228
29 229
37 78
186 182
187 181
187 182
236 323
237 322
237 323
238 321
238 322
239 321
334 347
335 346
335 347
336 345
336 347
337 344
365 268
366 269
367 270
368 271
369 272
374 220
375 91
375 219
375 220
375 228
376 218
376 219
376 227
377 217
377 218
378 99
378 216
378 233

19
376 92
376 229
377 93
377 94
378 93

20
373 234
374 233
374 234
375 232
375 233
376 231
376 232

