0
0 164
0 304
0 336
0 337
0 357
0 358
21 399
47 0
49 399
73 0
160 0
178 0
206 399
230 399
386 399
399 48
399 49
399 83
399 265
399 291
399 380
399 381
399 399

1
1 99
1 100
1 114
1 115
1 338
1 356
22 398
27 7
27 17
37 7
37 17
37 122
47 122
48 1
48 398
72 1
89 114
89 124
99 114
103 126
113 116
113 126
118 1
119 1
131 350
131 360
132 288
132 298
137 95
137 105
139 368
141 350
142 288
142 298
147 95
147 105
149 358
149 368
157 89
158 89
159 386
159 396
161 1
169 386
169 396
170 261
170 271
177 1
179 76
180 76
180 261
180 271
181 227
181 237
182 372
182 382
185 161
185 162
191 227
191 237
208 175
214 202
214 212
218 267
218 277
224 202
224 212
249 234
250 234
301 276
301 286
302 63
311 276
312 63
316 374
316 384
329 44
332 348
332 358
339 44
339 54
342 270
342 280
342 348
342 358
348 371
348 381
358 371
358 381
369 209
372 1
373 1
379 209
386 114
386 124
387 398
393 1
394 1
396 114
396 124
398 50
398 266
398 290
398 382
398 398

2
2 101
2 113
2 163
2 302
2 303
2 339
2 355
10 300
17 113
17 125
20 172
23 397
28 315
28 327
29 125
32 160
32 172
34 145
40 315
40 327
45 162
45 174
47 397
50 145
51 67
51 79
52 149
63 67
63 79
64 149
64 161
64 226
73 285
74 139
74 155
78 364
79 193
84 67
86 313
86 320
86 336
90 139
92 204
94 364
96 67
101 251
101 267
102 313
104 287
113 73
113 85
115 9
117 2
117 267
118 152
118 168
128 161
128 177
144 177
144 182
149 126
155 308
155 320
160 154
160 166
160 182
160 198
162 2
163 10
166 72
167 308
167 320
169 139
175 10
176 2
182 56
182 72
187 162
187 174
188 303
188 315
200 303
200 315
206 37
206 49
206 158
207 397
208 397
213 225
213 241
218 49
221 28
226 389
228 397
229 225
229 397
233 278
237 28
242 53
242 230
246 68
246 80
248 337
249 96
249 112
258 68
265 96
265 112
273 38
273 127
273 143
289 54
289 127
289 143
330 376
330 388
332 299
338 82
342 376
342 388
358 29
368 198
369 145
369 161
369 199
374 2
376 146
376 162
388 397
392 2
392 146
392 162
397 51
397 267
397 289
397 383
397 397

3
3 102
3 112
3 162
3 301
3 340
3 354
5 140
12 44
14 82
23 140
24 396
26 82
30 281
30 299
35 40
42 19
42 37
44 385
46 396
48 281
48 299
49 3
50 3
60 37
66 251
70 3
71 3
81 170
81 208
84 251
93 3
93 15
93 220
105 15
108 317
109 186
109 198
116 3
118 248
120 317
125 70
125 82
129 379
129 391
131 46
141 379
141 391
145 86
148 37
157 74
157 86
158 92
167 174
178 35
178 47
179 174
179 356
180 79
186 139
198 79
203 60
203 72
204 139
206 370
206 382
209 396
215 119
215 131
218 370
225 366
227 396
230 156
230 174
243 348
243 366
248 156
250 219
250 231
255 178
259 281
264 50
267 166
267 178
274 320
277 281
277 299
281 303
282 256
286 332
292 253
294 176
294 332
294 350
295 199
299 33
299 45
299 303
299 321
307 220
311 284
312 284
312 285
312 350
313 285
313 286
315 238
319 271
321 10
321 22
331 259
331 282
331 283
332 281
332 282
333 10
333 280
333 281
334 280
337 115
345 99
352 284
357 99
359 272
364 296
370 350
370 368
371 272
371 284
373 237
373 255
388 350
388 368
389 396
391 3
391 237
391 255
394 28
396 52
396 82
396 268
396 288
396 384
396 396

4
4 103
4 104
4 105
4 106
4 108
4 109
4 110
4 111
4 161
4 300
4 341
4 353
5 103
5 104
5 105
5 109
5 110
5 111
7 267
19 233
19 245
19 267
19 279
23 378
29 9
29 15
31 233
31 245
31 378
35 9
35 15
51 4
55 190
57 315
57 323
58 344
58 356
64 122
65 315
65 323
66 99
67 212
69 4
72 122
77 87
78 111
78 256
79 256
84 260
85 95
91 116
91 122
100 46
100 54
100 200
101 120
108 46
108 54
111 118
111 124
115 4
115 215
125 186
127 215
133 352
133 358
134 290
134 296
136 198
139 97
139 103
139 306
139 314
139 352
140 290
140 296
141 366
144 206
145 97
145 103
147 306
147 360
147 366
161 388
161 394
163 4
164 4
167 388
167 394
172 263
172 269
174 4
174 340
175 4
178 263
178 269
181 153
183 229
183 235
184 374
184 380
189 229
189 235
195 372
195 380
206 173
210 395
216 204
216 210
222 100
222 108
222 204
222 210
226 395
230 100
230 108
234 72
234 263
244 294
249 265
260 202
260 336
260 348
261 265
267 365
269 353
272 202
275 357
275 365
284 78
285 79
286 80
287 81
303 278
303 284
304 65
307 120
307 322
309 278
309 301
310 65
314 376
314 382
315 322
316 139
317 309
324 139
325 50
325 58
327 27
329 184
329 196
333 58
334 278
334 350
334 356
335 27
337 46
340 272
340 278
340 319
340 350
340 356
345 301
347 201
347 209
350 373
355 209
356 373
356 379
357 189
357 313
365 189
365 197
371 201
371 207
376 69
376 77
376 318
377 207
379 184
388 116
388 122
390 4
391 184
391 196
394 116
394 122
395 53
395 81
395 385
395 395

5
5 107
5 299
19 115
19 123
21 340
21 354
22 170
24 379
25 394
26 394
27 123
30 10
30 14
30 162
30 170
30 317
30 325
32 207
32 221
33 99
34 10
34 14
38 317
38 325
44 394
45 394
46 207
46 221
47 99
47 113
47 164
47 172
52 5
53 69
53 77
54 151
58 316
58 322
61 69
61 77
62 151
62 159
64 316
64 322
65 121
67 10
68 5
68 213
71 121
78 88
84 94
86 69
91 208
92 117
92 121
93 199
93 200
94 5
94 69
99 120
99 199
101 47
101 53
103 120
107 47
107 53
110 119
110 123
111 75
111 83
114 5
114 356
127 132
131 205
132 204
132 205
133 203
133 204
134 353
134 357
135 291
135 295
138 353
139 291
139 295
140 98
140 102
140 307
140 313
141 78
142 365
143 205
144 98
144 102
146 135
146 136
146 307
146 361
146 365
147 134
147 135
157 318
162 156
162 389
162 393
165 5
165 8
165 310
165 318
166 389
166 393
173 5
173 8
173 264
173 268
175 341
177 264
177 268
180 154
184 230
184 234
185 379
188 230
188 234
190 305
190 313
194 373
194 379
198 305
198 313
204 160
205 172
208 39
208 47
208 320
211 394
217 205
217 209
221 205
221 209
221 275
223 101
223 107
223 303
225 394
229 101
229 107
230 341
231 276
231 340
231 341
232 339
232 340
233 264
233 338
233 339
234 337
234 338
235 253
235 337
248 70
248 78
249 239
268 364
273 378
273 392
274 358
274 364
279 97
279 111
283 76
286 8
286 22
293 111
299 371
300 8
300 22
304 279
304 283
305 66
308 279
308 283
308 323
309 66
309 283
309 308
310 302
313 377
313 381
314 323
316 286
316 308
317 140
323 140
326 51
326 57
332 57
332 378
332 386
334 26
335 277
335 351
335 355
336 47
339 273
339 277
339 351
339 355
340 386
341 107
341 318
348 202
348 208
349 123
350 378
351 374
351 378
354 208
355 374
355 378
358 190
362 48
363 109
363 123
364 190
364 196
372 202
372 206
376 48
376 206
377 70
377 76
377 317
378 299
387 271
387 285
389 5
389 117
389 121
390 394
391 394
392 55
392 299
392 313
392 387
393 117
393 121
394 54
394 55
394 80
394 269
394 270
394 286
394 287
394 386
394 387
394 394

6
6 159
6 160
6 298
7 142
16 80
20 116
20 122
21 142
23 169
24 80
25 380
26 122
27 393
29 163
29 169
31 318
31 324
32 283
32 297
33 42
37 318
37 324
42 387
43 393
44 21
44 35
46 283
46 297
48 171
53 6
54 70
54 76
55 152
58 35
59 317
59 321
60 70
60 76
61 152
63 317
63 321
66 120
67 6
68 249
69 214
70 120
87 70
91 210
91 218
93 70
94 198
95 6
95 13
98 198
102 48
102 52
106 48
106 52
109 6
110 6
110 7
110 76
110 82
111 6
111 7
111 188
112 6
112 7
113 6
116 250
118 319
127 72
127 80
131 381
131 389
133 48
139 381
139 389
141 308
141 312
142 204
145 308
147 84
147 312
149 134
150 39
155 76
155 84
158 317
160 94
163 157
164 311
164 317
166 6
166 7
167 6
167 7
168 6
169 172
170 6
171 6
171 7
172 6
172 7
176 37
176 342
179 155
181 354
182 81
188 137
191 306
191 312
193 374
193 378
196 81
197 306
197 312
203 161
205 62
205 70
208 372
208 380
209 40
209 46
212 393
213 121
213 129
214 385
215 386
216 372
224 102
224 106
224 393
227 364
228 102
228 106
230 275
232 158
232 172
232 265
241 350
241 364
246 158
249 71
249 77
252 221
252 229
261 283
265 168
265 176
266 52
269 363
270 336
271 335
271 336
272 334
272 335
273 333
273 334
273 363
274 332
274 333
275 283
275 297
275 331
275 332
276 330
276 331
280 254
283 305
284 330
289 83
296 178
296 334
296 348
297 43
297 197
297 305
297 319
305 222
306 379
309 324
310 307
310 348
311 307
313 240
313 324
315 307
318 141
321 269
322 141
323 12
327 56
329 261
331 12
333 25
333 379
333 385
335 113
339 379
339 385
340 379
342 317
347 101
349 203
349 207
353 202
353 203
353 207
354 201
355 101
355 200
356 199
357 198
358 197
359 191
359 195
359 196
361 274
363 191
363 195
369 274
372 352
372 366
375 6
375 201
375 202
375 239
375 253
376 200
376 201
377 199
377 200
378 71
378 75
378 198
378 199
378 316
379 197
379 198
380 196
380 197
381 196
386 352
386 366
389 239
389 253
392 26
392 57
392 58
392 59
392 60
392 389
392 390
392 391
392 392
392 393
393 56
393 57
393 58
393 59
393 60
393 61
393 79
393 271
393 285
393 388
393 389
393 390
393 391
393 392
393 393

7
7 158
7 284
7 285
7 286
7 287
7 288
7 289
7 290
7 291
7 292
7 293
7 294
7 295
7 296
7 297
7 342
7 352
8 286
8 292
9 269
17 79
17 269
17 277
21 117
21 121
21 235
21 243
23 79
24 168
25 121
28 168
28 392
29 235
29 243
32 319
32 323
36 319
36 323
37 142
42 124
42 125
42 392
47 142
49 170
54 7
55 16
55 71
55 75
56 15
56 153
57 14
57 188
59 71
59 75
60 153
60 346
60 354
66 7
68 101
76 282
77 142
77 152
79 260
81 361
87 142
88 71
89 333
90 211
90 217
96 7
96 12
96 119
97 119
101 290
104 264
105 121
106 121
107 7
108 7
109 77
109 81
112 189
114 264
115 155
115 165
115 251
117 213
117 320
123 188
125 213
128 79
131 174
132 382
132 388
136 203
138 382
138 388
141 174
145 311
146 311
147 185
154 77
154 83
157 185
157 195
157 312
159 316
163 312
163 316
164 158
166 136
169 7
169 69
170 171
175 38
179 59
179 69
187 375
192 307
192 311
196 307
196 311
202 162
206 63
206 69
209 373
210 41
210 45
212 122
212 128
213 392
214 392
215 373
216 228
216 238
219 392
220 392
221 392
222 392
223 274
223 392
224 31
229 57
229 274
230 56
230 57
231 55
231 56
232 55
232 70
234 31
239 50
245 334
246 296
250 72
250 76
251 168
251 169
251 263
252 99
252 109
252 169
252 170
253 170
253 171
253 222
253 228
259 263
262 99
262 109
262 204
262 338
262 346
264 169
264 175
270 204
270 338
270 357
270 358
276 41
276 130
276 140
277 329
283 329
286 130
286 140
290 84
296 42
304 223
307 70
307 71
308 72
308 73
308 379
309 73
309 74
309 118
309 379
310 74
315 255
316 256
317 257
318 258
319 259
320 260
321 261
322 262
322 268
324 13
327 194
328 262
328 268
329 268
329 286
329 296
330 13
330 269
331 270
332 271
333 272
334 273
334 380
334 384
335 85
335 274
338 380
338 384
347 303
354 102
355 311
361 32
362 275
368 275
381 186
381 194
388 7
389 149
389 159
389 186
389 194
392 62
392 63
392 272
392 284

8
8 157
8 282
8 283
10 270
16 270
16 276
18 78
19 342
19 352
22 78
22 236
22 242
25 118
26 118
27 117
28 116
28 236
28 242
29 115
29 391
30 114
31 113
32 12
32 112
33 111
34 209
34 219
35 101
38 141
41 391
44 209
44 219
45 101
46 141
52 170
52 171
53 172
54 173
55 8
55 174
56 8
56 175
57 176
58 177
58 187
59 178
61 8
61 347
61 353
62 8
63 8
64 8
65 8
68 115
68 116
69 102
73 349
74 99
74 349
75 98
75 99
76 97
76 98
77 96
77 97
77 281
78 95
78 96
78 143
78 151
79 94
79 95
80 93
80 94
80 261
80 262
81 93
82 360
85 282
85 283
86 283
86 284
87 284
87 285
88 285
88 286
89 212
89 216
89 286
89 287
90 287
90 288
90 332
91 288
91 289
92 289
94 119
97 11
100 291
101 79
105 8
105 263
106 8
108 121
112 354
113 190
113 263
114 156
114 164
114 252
116 321
118 212
122 189
124 212
129 78
129 134
132 70
132 173
133 69
133 383
133 387
134 68
135 67
136 66
136 355
137 77
137 202
137 293
137 356
137 383
137 387
138 202
138 357
139 358
140 173
140 359
141 360
142 100
142 361
143 362
144 363
145 79
148 186
151 133
152 133
153 78
153 82
156 186
156 194
158 313
159 313
164 391
165 135
174 39
175 266
178 60
178 68
186 232
187 377
188 376
189 376
202 169
203 170
207 64
207 68
210 322
210 374
211 123
211 127
213 382
214 374
215 391
216 389
216 390
216 391
217 229
217 237
217 390
217 391
218 391
219 207
225 32
225 305
231 69
232 53
233 32
237 251
238 49
244 333
247 241
252 262
253 100
253 108
254 223
255 171
258 262
261 79
261 100
261 108
262 79
263 170
263 174
263 205
263 339
263 345
268 348
269 205
269 339
270 310
271 310
271 359
275 380
275 390
277 42
277 131
277 139
278 328
281 74
281 99
281 109
282 328
285 131
285 139
288 10
291 85
295 41
298 10
306 281
307 68
310 117
311 379
313 252
313 303
314 253
314 302
314 303
315 301
315 302
316 300
316 301
317 299
317 300
318 298
318 299
319 287
319 297
319 298
320 145
320 146
320 287
320 296
320 297
323 263
323 267
325 14
326 193
327 263
327 267
328 287
328 295
329 14
333 50
334 49
334 86
337 275
337 353
351 121
353 376
354 310
361 121
362 33
363 276
364 46
367 276
374 46
374 204
376 8
380 301
382 187
382 193
388 150
388 158
388 187
388 193
389 273
389 283
390 301
390 311
391 64
391 65
391 77
391 78
391 119
391 273
391 283

9
9 144
9 156
9 280
9 281
9 343
9 351
11 271
15 271
17 46
18 156
18 343
18 351
19 144
19 157
20 158
21 159
22 160
23 161
23 237
23 241
24 162
25 163
26 164
27 237
27 241
27 382
28 383
30 390
31 44
34 285
34 295
35 110
35 210
35 218
36 102
36 110
36 390
37 389
37 390
38 389
38 390
39 140
39 389
39 390
40 389
40 390
43 210
43 218
44 102
44 285
44 295
45 140
46 23
46 33
51 165
51 166
52 164
53 163
54 19
54 162
55 161
56 33
56 160
57 9
57 159
58 157
58 158
59 9
59 180
59 186
60 9
61 319
62 348
62 352
68 118
69 114
70 103
70 113
70 247
71 111
71 112
71 216
72 217
74 101
74 224
75 224
75 350
78 280
79 144
79 150
80 264
81 91
81 265
81 266
81 267
82 89
82 266
83 88
83 359
84 87
84 280
84 281
85 86
86 85
87 84
88 83
89 81
89 82
91 331
93 152
93 190
94 152
94 153
94 172
94 191
95 153
95 154
95 171
95 172
95 192
96 154
96 170
96 171
96 193
96 196
97 9
97 169
97 170
97 194
97 195
98 9
98 168
98 169
99 167
99 168
99 292
100 9
100 166
100 167
101 9
101 10
101 165
101 166
102 9
102 10
102 164
102 165
103 9
103 10
103 79
104 9
104 50
104 79
105 79
106 254
106 262
111 353
112 262
113 157
113 163
119 211
121 190
123 211
130 135
132 72
133 172
135 50
135 77
137 64
137 160
137 161
138 159
138 160
139 159
139 172
140 202
141 136
141 201
142 200
143 199
143 310
144 198
145 197
146 196
147 79
147 195
148 194
149 187
149 193
153 132
155 187
155 193
162 96
164 134
176 158
177 67
177 157
178 344
179 345
184 83
189 168
190 135
190 168
191 168
191 376
194 83
201 168
211 323
213 380
214 43
215 43
215 66
216 43
217 42
218 41
218 230
218 236
219 40
220 39
224 272
225 272
226 104
226 306
229 60
229 268
229 362
230 68
230 267
232 33
234 160
234 170
238 250
239 352
239 362
243 332
244 160
248 168
253 261
254 74
254 101
254 107
255 74
256 74
257 75
258 76
259 77
260 78
260 101
260 107
263 285
264 78
264 79
264 206
264 340
264 344
265 78
268 206
268 340
268 346
269 309
271 361
273 285
276 381
276 389
278 43
278 132
278 138
280 73
282 108
284 132
284 138
289 11
295 317
297 11
298 180
298 336
298 346
299 195
308 346
310 77
310 327
310 328
311 116
311 326
312 251
313 305
320 143
321 147
321 288
321 294
321 295
322 148
323 149
324 150
325 192
327 288
327 294
329 54
330 22
330 53
331 23
332 51
333 87
344 315
345 314
351 205
352 120
352 301
353 300
354 299
355 298
356 297
357 296
360 120
361 193
363 34
365 45
373 45
374 354
374 364
377 9
377 241
377 251
380 73
380 314
381 302
381 313
383 188
383 192
384 354
384 364
387 151
387 157
387 188
387 192
387 241
387 251
389 278
389 302
389 310
390 24
390 66
390 67
390 76
390 274
390 275
390 276
390 277
390 278
390 279
390 280
390 281
390 282

10
10 145
10 154
10 155
10 278
10 279
10 344
10 350
17 344
17 350
18 145
18 154
20 73
20 74
23 119
26 166
29 384
30 45
31 389
34 321
34 389
35 286
35 294
35 389
36 211
36 217
37 103
37 109
40 139
42 129
42 211
42 217
43 103
43 286
43 294
44 139
47 24
47 32
51 168
54 21
55 32
57 73
58 10
58 155
60 181
60 182
70 350
71 246
73 102
73 103
73 218
74 226
77 350
77 351
78 219
78 220
78 249
78 351
79 218
79 219
79 279
80 145
80 149
80 217
80 218
81 216
81 217
81 269
82 215
82 216
82 268
82 269
83 214
83 215
83 279
84 214
85 214
89 148
89 149
90 73
90 149
90 150
91 150
91 151
92 151
92 188
92 330
94 174
94 355
95 354
96 78
96 353
97 155
97 352
98 155
98 293
98 351
99 10
103 163
107 79
107 261
110 352
111 261
112 158
112 162
119 199
119 200
120 200
120 201
121 201
121 202
131 73
131 74
131 136
133 76
134 76
134 171
136 51
137 62
138 171
148 80
149 80
150 188
150 192
154 188
154 192
161 314
163 97
163 133
166 160
167 161
175 159
176 66
177 168
180 346
185 84
191 134
193 84
193 167
193 168
194 166
194 167
194 309
194 346
195 167
195 345
198 165
199 165
199 166
200 164
200 167
211 66
212 43
212 66
212 324
212 378
212 379
213 66
219 231
219 235
222 66
226 269
227 307
228 269
229 234
230 235
230 361
231 236
232 237
233 237
235 161
235 169
238 353
238 361
239 249
242 331
243 161
252 74
255 102
255 106
257 172
258 172
259 102
259 106
259 172
264 286
266 77
266 214
266 308
267 77
267 308
267 309
267 344
267 345
272 286
277 382
277 388
279 72
279 133
279 137
283 107
283 133
283 137
290 12
293 35
293 36
294 316
295 308
296 12
299 181
299 337
299 345
300 194
301 224
306 332
306 333
307 331
307 332
307 345
308 330
308 331
309 329
309 330
310 249
311 250
322 289
322 293
326 289
326 293
327 18
329 21
331 52
332 88
333 157
333 158
334 156
334 157
336 382
346 313
350 156
351 155
352 154
352 303
353 119
353 153
358 288
358 292
358 293
358 294
359 119
364 35
365 280
372 44
375 355
375 363
378 10
378 242
378 250
382 303
382 312
383 73
383 355
383 363
386 152
386 156
386 242
386 250
387 10
388 303
388 309
389 23
389 68
389 69
389 75

11
11 146
11 153
11 276
11 277
11 345
11 349
16 345
16 349
17 146
17 152
17 153
19 47
20 76
21 72
22 70
22 71
23 61
23 62
23 63
23 67
23 68
23 69
24 61
29 46
30 385
30 386
31 386
31 387
32 387
32 388
33 388
36 287
36 293
37 212
37 216
38 104
41 212
41 216
42 104
42 111
42 287
42 293
48 25
48 31
54 31
63 184
64 184
65 184
66 350
67 350
68 350
72 107
72 108
72 109
72 245
73 227
73 228
74 219
76 221
79 352
80 352
82 271
87 148
87 214
90 79
91 75
91 78
92 186
92 293
93 175
93 176
94 78
99 156
100 157
100 350
101 158
102 159
103 160
104 161
108 255
109 351
111 255
112 254
113 324
114 323
118 198
122 203
131 76
132 75
132 137
135 385
137 52
138 137
139 137
140 156
151 80
156 132
164 98
168 162
171 42
172 41
174 160
175 167
176 167
186 85
191 348
192 85
192 133
192 347
196 166
197 166
207 126
208 126
209 66
209 125
212 376
213 325
224 66
225 66
227 270
227 271
228 62
228 63
228 308
231 360
233 49
233 50
234 238
236 162
236 168
237 354
237 360
240 248
242 162
246 167
257 259
258 258
259 257
260 256
261 172
261 255
262 254
263 253
264 252
264 307
265 251
265 287
265 307
266 210
266 211
266 212
266 250
268 76
269 75
270 74
271 73
271 287
272 72
273 71
274 71
278 71
278 383
278 387
280 326
281 324
281 325
283 225
284 106
291 13
292 37
293 87
293 309
293 315
294 88
294 309
295 13
299 379
300 182
300 338
300 344
301 193
305 334
306 344
319 170
319 171
320 169
320 170
321 167
321 168
324 153
325 265
327 16
328 19
328 20
333 108
334 108
347 312
348 106
349 106
351 304
351 305
354 118
358 118
358 290
359 286
359 287
360 285
360 286
361 284
361 285
362 283
362 284
363 282
363 283
364 281
364 282
365 278
370 33
370 34
371 32
371 33
371 43
372 31
372 32
373 30
373 31
374 29
374 30
375 28
375 29
376 27
376 28
376 356
376 362
377 26
377 27
378 25
378 26
379 25
379 243
379 249
382 356
382 362
383 304
383 311
385 243
385 249
387 304
388 22
388 70
388 71
388 74

12
12 147
12 151
12 152
12 274
12 275
12 346
12 348
13 273
16 147
16 151
23 65
25 239
28 47
37 288
37 292
41 109
41 110
41 288
41 292
42 132
42 133
42 134
42 135
49 26
49 30
53 23
53 24
53 30
61 184
64 350
66 185
67 185
68 185
69 185
72 105
72 229
72 230
72 231
73 185
73 230
73 244
74 185
75 185
75 220
76 185
77 184
77 246
77 247
78 183
79 182
80 181
81 180
81 272
81 273
81 274
81 275
81 353
82 354
83 355
84 147
84 356
85 147
86 147
88 356
89 356
90 356
91 356
92 76
92 77
92 177
93 77
94 307
94 308
94 309
94 310
94 323
94 324
102 350
105 160
106 160
107 160
108 160
109 256
109 257
110 256
110 257
110 258
112 325
115 193
118 193
118 196
119 192
121 209
122 205
122 207
122 208
136 138
136 164
136 165
136 166
136 167
137 138
138 53
138 59
138 60
157 131
158 131
165 99
169 163
170 43
172 162
173 161
182 347
182 348
183 347
183 348
184 347
187 86
187 348
188 347
188 348
189 347
189 348
190 347
191 86
193 132
198 345
199 345
200 345
201 345
206 127
223 233
224 233
225 233
226 65
226 233
227 64
227 65
228 66
234 47
234 48
236 238
236 239
236 359
237 163
237 167
237 239
244 167
244 248
245 249
246 250
247 251
248 252
249 253
250 254
251 255
252 256
253 257
254 258
255 259
261 305
262 305
263 306
266 208
266 342
268 249
269 249
270 288
282 322
282 323
283 321
283 322
284 320
284 321
285 225
285 319
285 320
286 318
286 319
287 317
287 318
288 42
288 316
288 317
289 41
289 42
290 40
290 41
291 39
291 40
292 39
292 310
292 314
295 89
301 343
302 192
305 336
305 343
307 248
308 248
313 114
314 113
318 172
318 173
322 189
323 190
325 154
325 155
330 158
337 156
338 156
339 156
340 156
344 156
345 156
346 156
347 156
348 311
349 310
350 309
351 307
356 153
357 153
358 153
359 153
363 153
364 153
365 153
366 42
366 153
377 357
377 361
379 12
379 23
379 154
380 12
380 22
380 23
380 154
380 244
380 248
381 154
381 357
381 361
382 154
384 244
384 248
384 309
384 310
385 190
386 12
386 73
387 21
387 72
387 73

13
21 48
25 58
40 108
42 137
52 25
52 26
71 185
73 232
74 233
76 244
76 245
81 277
82 147
83 179
86 356
91 183
91 184
93 295
93 296
93 301
93 302
93 303
94 305
94 328
95 296
95 325
95 326
96 295
103 349
104 349
107 345
107 346
108 342
109 259
109 341
109 342
109 343
110 160
111 326
116 194
117 194
117 195
123 206
134 141
136 169
138 153
139 57
139 58
139 152
139 153
139 154
152 190
159 130
161 131
165 122
165 123
169 44
170 164
171 164
171 165
172 165
173 63
173 166
174 64
185 348
186 347
203 344
203 345
204 344
212 335
213 334
213 335
214 333
214 334
215 332
215 333
215 339
215 340
216 340
216 341
217 341
217 342
218 342
218 343
219 343
219 344
220 344
220 345
221 233
221 345
221 346
222 346
222 347
223 347
223 348
224 348
224 349
225 349
225 350
226 350
231 37
238 240
239 240
239 328
240 329
242 166
242 243
242 244
243 166
257 104
265 233
266 234
267 235
268 236
269 237
270 238
270 248
271 239
271 248
272 240
281 135
283 47
284 46
285 45
285 311
286 44
286 311
287 43
293 17
293 18
293 19
293 20
294 378
295 378
296 378
297 378
299 226
302 183
304 337
304 338
306 247
314 177
314 178
315 112
315 176
315 177
316 175
316 176
317 174
321 188
322 165
323 163
323 164
324 291
326 156
329 91
330 90
330 106
331 107
342 156
351 107
352 108
353 108
353 109
354 109
354 110
355 110
355 111
356 111
356 112
356 113
356 114
361 153
366 37
367 41
369 36
369 37
381 13
381 20
381 21
384 154
385 308

14
14 148
14 149
14 150
14 347
15 149
39 214
40 106
73 234
74 235
74 236
74 237
74 238
74 239
75 237
75 238
75 239
75 240
85 179
86 179
87 179
88 179
90 181
90 182
93 299
94 297
94 298
94 299
94 300
96 327
97 328
98 329
99 330
100 331
101 332
102 332
102 333
103 333
105 348
106 331
106 347
106 348
107 330
107 331
107 349
108 329
108 330
108 338
108 339
108 344
109 328
109 329
109 339
110 327
134 139
135 142
135 143
138 147
138 148
138 149
138 150
138 151
139 150
142 55
143 55
144 55
160 129
163 125
163 126
164 124
164 125
165 47
165 120
166 46
166 47
166 119
166 120
167 46
168 45
172 62
205 343
206 343
215 327
216 330
216 331
226 38
227 38
227 351
228 351
230 310
231 311
232 43
232 44
233 45
238 327
240 241
241 165
241 242
242 246
251 304
252 303
252 304
273 56
273 57
273 61
273 62
273 63
273 242
273 243
274 62
274 66
275 65
275 66
275 67
275 68
276 69
277 247
278 247
279 246
280 48
280 245
280 385
281 47
281 48
281 244
281 384
282 243
282 384
283 242
284 241
285 240
286 104
286 239
287 103
287 226
287 238
287 312
288 226
288 312
290 379
291 379
292 378
293 15
297 226
303 339
320 187
324 161
324 162
325 160
325 161
327 158
328 92
356 116
368 38
368 39
368 40
369 41
382 14
382 19
383 19
385 14
385 19
385 20
385 306

15
22 50
23 50
24 56
25 50
26 49
39 290
51 28
75 242
89 180
90 179
107 336
107 337
136 144
137 146
140 55
145 54
146 53
147 52
147 53
148 52
161 128
162 52
162 53
162 127
163 53
163 54
164 48
164 54
164 55
165 55
165 56
166 56
166 57
167 57
167 58
167 101
167 117
167 118
168 58
168 59
168 102
169 59
169 60
170 60
170 61
171 61
189 88
195 130
196 129
202 128
207 342
208 341
208 342
209 340
209 341
210 340
212 338
217 328
217 329
218 327
218 328
219 326
219 327
220 325
220 326
221 324
221 325
222 323
222 324
223 322
223 323
224 321
224 322
225 320
225 321
226 319
226 320
227 319
229 352
230 352
230 353
231 41
231 42
232 312
233 356
234 357
237 326
239 165
239 312
239 313
240 311
240 312
241 310
241 311
242 309
242 310
243 308
243 309
244 307
244 308
245 306
245 307
246 305
246 306
247 304
247 305
248 304
250 303
254 303
254 304
255 303
267 291
268 290
273 59
273 247
274 54
274 55
274 64
274 244
274 245
274 246
275 53
275 54
275 245
275 246
276 52
276 53
276 246
277 51
277 52
278 50
278 51
279 49
283 383
284 383
288 102
288 380
289 227
289 313
289 380
290 227
290 312
296 227
299 93
300 94
300 95
303 341
304 189
304 190
304 246
317 111
317 184
317 185
318 185
319 186
326 159
327 93
379 359
382 246
383 15
383 16
384 15
384 16
384 17
384 18

16
24 51
24 52
24 53
24 54
105 334
106 334
106 335
149 51
150 50
151 49
152 48
160 52
162 48
168 115
168 116
169 103
169 114
169 115
188 90
188 113
188 114
189 115
190 116
191 117
192 118
193 119
194 120
195 121
196 122
197 123
197 128
211 339
229 39
230 40
231 354
232 355
236 325
237 313
237 314
256 302
257 302
266 292
266 293
285 382
287 381
289 101
295 228
303 244
304 185
304 244
305 185
305 188

17
153 49
154 49
155 49
155 50
156 50
158 50
159 49
159 50
160 49
160 50
161 49
170 104
170 113
171 111
171 112
188 92
198 125
198 126
198 127
199 126
199 127
200 127
231 320
232 320
232 321
233 321
233 322
234 323
235 314
235 324
258 301
259 300
259 301
260 299
260 300
261 298
261 299
262 297
262 298
263 296
263 297
264 295
264 296
265 294
265 295
290 100
291 99
291 100
292 98
292 99
292 228
293 97
293 98
293 229
294 96
294 97
294 229
294 230
295 95
295 96
296 94
296 95
297 94
302 243
306 187
308 187
309 186
309 187
310 186

18
157 49
171 105
186 109
186 110
187 93
187 94
187 111
230 318
231 317
231 318
232 316
232 317
233 315
233 316
234 315
264 227
301 242
307 186
311 185
312 184
313 183
313 184
324 106

19
172 106
172 109
173 107
173 108
174 107
175 106
176 105
177 104
178 103
185 107
185 108
186 95
264 225
265 224
265 225
266 224
297 239
298 239
298 240
299 240
300 241

20
184 106
185 97
185 98
186 97
294 237
295 237
296 238
321 105
322 94
322 105

21
183 104
184 99
184 100
319 104
320 104

22
182 102
183 101
183 102
316 101
316 102
317 102
317 103
318 103
320 95

23
318 95

24
316 96
317 96

25
311 93
311 94
312 94
312 95
313 95
313 96
314 96
314 97
315 97
315 98

