0
0 16
0 36
28 399
29 399
74 399
153 399
179 399
284 0
304 0
399 0
399 18

1
1 305
3 71
3 81
9 202
9 212
13 71
13 81
14 219
14 229
19 202
19 212
24 219
24 229
30 398
58 372
64 141
73 398
75 302
75 312
76 97
76 107
85 302
85 312
86 97
86 107
97 346
98 398
99 56
99 66
120 398
121 375
142 35
145 174
154 398
178 398
183 106
183 116
185 359
186 57
186 67
195 349
195 359
196 57
196 67
202 272
204 257
222 398
248 398
251 289
251 299
261 289
261 299
273 265
283 186
283 196
285 1
291 156
293 196
301 156
303 1
337 255
342 385
342 395
347 255
365 160
365 170
380 1
398 1
398 68
398 102
398 330

2
2 17
2 18
2 34
2 35
2 306
6 365
20 2
21 290
22 349
22 365
31 397
38 108
41 167
42 127
48 77
48 89
48 186
54 127
57 294
57 306
60 77
60 89
75 48
78 239
85 2
91 12
91 28
100 281
107 178
110 212
110 228
113 21
113 37
114 140
114 152
116 281
124 184
124 295
124 311
126 140
126 152
129 21
129 37
132 249
136 184
139 16
141 114
141 132
148 362
151 16
153 82
155 397
156 377
157 114
157 148
164 346
172 361
177 397
187 232
187 248
187 392
189 126
189 370
202 206
202 222
203 232
203 248
203 376
203 392
205 142
213 105
218 206
223 397
235 266
235 282
247 397
249 314
249 365
251 266
260 62
260 78
261 314
261 326
265 365
276 62
286 2
287 84
287 100
302 2
335 121
349 131
349 143
349 203
349 219
361 107
361 123
361 131
361 143
381 2
384 374
397 2
397 17
397 101

3
3 19
3 33
3 307
3 379
3 393
8 20
8 32
16 171
16 189
20 25
32 396
34 171
39 140
50 239
52 98
63 221
63 222
64 98
64 110
71 396
72 396
74 73
82 386
85 355
92 73
93 295
99 396
106 189
106 201
111 295
113 330
119 396
126 236
127 104
127 197
139 197
147 125
154 33
154 34
154 208
154 226
155 34
155 35
156 35
156 36
159 125
169 137
169 155
171 268
187 155
202 157
202 175
213 95
213 193
224 396
231 193
241 133
244 384
246 396
258 202
258 220
262 21
263 50
267 376
267 394
269 102
269 281
270 101
271 100
275 50
276 202
276 220
285 376
285 394
304 28
315 325
317 340
317 358
322 156
322 168
323 23
323 41
334 156
335 340
335 358
341 23
341 41
343 281
349 373
361 281
363 324
363 336
373 170
373 171
374 171
374 172
375 172
375 324
382 3
382 71
388 99
396 3
396 16
396 69
396 100
396 331

4
4 20
4 32
5 73
5 79
9 275
9 283
11 73
11 79
11 204
11 210
11 309
13 40
15 380
15 392
16 221
16 227
17 204
17 210
17 275
17 283
21 4
22 221
22 227
25 153
33 395
35 153
35 205
36 152
37 151
38 288
39 67
41 227
44 210
51 67
52 45
52 258
59 228
62 143
63 38
66 370
67 215
67 371
68 372
69 373
70 374
70 395
75 38
75 215
75 223
77 120
77 128
77 304
77 310
78 99
78 105
84 4
84 99
84 105
85 189
85 201
85 263
91 165
92 139
93 385
97 58
99 119
99 127
100 139
100 147
116 340
117 341
126 68
133 154
137 281
141 152
142 151
142 326
143 150
144 33
150 326
152 33
156 395
157 395
175 305
175 395
176 395
177 333
177 345
183 297
183 305
185 108
185 114
187 357
188 59
188 65
189 333
193 357
194 59
194 65
204 270
206 259
210 70
216 259
216 267
219 120
222 37
222 368
225 395
229 318
229 330
231 94
234 37
234 368
241 197
241 330
245 395
249 197
250 232
250 244
253 291
253 297
259 103
259 111
259 291
259 297
262 232
262 244
265 130
265 174
265 186
267 103
271 267
277 118
277 236
277 244
285 188
285 194
285 236
287 4
288 4
291 194
293 158
299 158
300 4
301 4
303 231
319 303
328 231
328 239
335 179
339 257
343 171
343 179
344 393
353 238
365 26
365 34
365 238
366 348
367 162
367 168
367 395
370 256
373 26
373 34
378 114
378 122
378 213
378 225
381 153
382 256
382 268
383 4
386 114
386 122
393 153
393 165
394 364
395 4
395 15
395 70

5
5 21
5 31
5 308
5 309
5 380
5 392
6 74
6 78
10 74
10 78
10 276
10 282
12 205
12 209
14 52
16 205
16 209
16 276
16 282
17 222
17 226
21 222
21 226
22 5
25 318
26 154
32 154
33 154
35 386
39 318
40 110
43 165
44 125
46 188
49 386
50 79
50 87
51 46
51 350
51 364
52 125
53 257
55 296
55 304
55 394
58 79
58 87
58 227
61 144
62 170
65 350
65 369
68 216
69 394
74 216
74 222
76 241
78 121
78 127
78 305
78 309
79 100
79 104
83 5
83 100
83 104
89 151
90 150
90 151
91 149
91 150
91 329
92 148
92 149
93 140
93 147
93 148
96 59
98 120
98 126
99 140
99 146
100 394
106 248
109 176
111 162
116 142
118 394
120 248
124 142
127 69
134 155
134 182
134 247
140 74
140 154
140 155
141 18
142 338
143 325
144 148
145 32
149 18
149 325
151 32
151 257
158 310
158 394
159 388
160 49
174 35
174 49
174 394
176 304
182 298
182 304
186 109
186 113
188 356
189 60
189 64
192 356
193 60
193 64
205 269
207 260
214 45
214 292
214 306
215 260
215 266
217 240
218 65
227 290
228 59
228 306
231 226
231 240
242 196
246 322
248 196
251 316
251 341
254 292
254 296
258 292
258 296
259 316
259 324
260 104
260 110
265 341
266 104
270 268
272 80
273 80
273 81
274 81
274 82
275 82
278 237
278 243
281 127
282 128
283 129
286 189
286 193
287 140
288 258
289 5
290 193
294 159
298 159
299 5
301 126
301 140
302 258
304 232
308 171
308 185
320 304
327 232
327 238
333 100
336 178
337 119
340 258
342 172
342 178
344 310
344 324
345 392
347 100
351 141
359 141
364 267
365 266
366 27
366 33
366 265
367 349
368 163
368 167
370 198
371 197
372 27
372 33
372 168
372 196
373 195
374 194
375 164
376 163
377 162
379 115
379 121
382 372
385 13
385 115
385 121
387 177
387 191
393 363
394 5
394 14
394 71
394 98
394 99
394 332

6
6 22
6 23
6 24
6 25
6 26
6 27
6 28
6 29
6 30
6 310
6 323
6 381
6 391
7 26
11 277
11 281
15 277
15 281
18 173
18 187
23 6
27 155
31 155
32 173
33 159
34 393
35 393
41 111
41 142
44 164
45 124
45 189
51 80
51 86
51 124
52 241
53 393
54 100
54 256
54 297
54 303
54 393
56 393
57 80
57 86
57 226
57 392
57 393
58 393
59 222
60 148
60 149
61 150
62 100
62 108
62 151
63 152
64 153
67 221
68 393
69 217
72 376
73 217
73 221
75 242
76 71
79 122
79 126
80 384
82 6
87 357
89 153
90 71
94 141
94 145
94 146
95 297
97 121
97 125
98 141
98 145
101 393
104 191
104 199
109 297
110 175
117 143
117 393
123 143
128 70
129 102
129 199
133 181
135 156
137 199
139 156
140 251
141 251
141 252
142 19
142 252
144 324
148 19
148 324
149 127
152 210
152 224
157 127
159 393
160 36
169 270
171 139
171 153
173 393
177 303
181 299
181 303
185 153
193 111
193 112
204 159
204 173
214 261
215 93
215 191
226 393
227 393
229 191
239 135
242 386
243 195
243 393
244 393
247 195
258 317
258 323
260 204
260 218
261 105
261 109
264 23
265 105
265 111
265 112
266 113
267 114
267 279
268 115
269 378
269 392
272 78
273 48
274 204
274 218
275 84
279 238
279 242
283 378
283 392
290 6
298 6
302 26
305 233
317 235
317 323
319 342
319 356
321 305
324 158
324 166
325 25
325 39
326 233
326 237
332 158
333 342
333 356
337 177
339 25
339 39
341 173
341 177
345 279
352 140
358 140
359 279
365 326
365 334
366 393
367 28
367 32
370 200
371 28
371 32
373 164
373 326
380 116
380 120
381 371
384 6
384 73
384 116
384 120
385 6
390 97
392 362
393 6
393 72
393 97
393 333

7
7 311
7 320
7 321
7 322
7 324
7 325
7 326
7 327
7 328
7 329
7 330
7 332
7 333
7 382
7 390
8 321
8 326
8 327
8 328
8 329
9 311
9 362
13 382
13 390
19 362
24 7
28 160
28 161
32 158
36 290
36 392
37 203
42 7
42 112
42 143
43 7
43 225
44 7
44 8
44 190
45 7
45 8
45 163
46 7
46 8
47 7
47 8
48 7
50 123
51 392
52 81
52 85
52 392
53 162
53 242
53 298
53 302
55 101
56 81
56 85
56 146
57 146
59 392
60 392
61 101
61 107
61 392
62 392
63 391
63 392
64 392
65 392
66 391
66 392
67 390
67 392
68 220
68 389
69 220
69 388
70 387
71 386
72 385
73 377
73 383
73 384
74 243
79 252
79 377
79 383
80 253
80 376
80 377
81 254
81 375
81 376
82 255
82 307
82 374
82 375
83 307
83 373
83 374
84 372
84 373
85 371
85 372
86 370
86 371
87 191
87 199
87 261
88 25
89 163
102 392
103 192
103 198
103 278
106 344
111 174
113 215
113 225
113 278
116 24
116 34
116 392
118 144
121 342
122 144
126 24
126 34
127 298
127 308
130 200
136 200
139 279
143 20
144 145
147 20
147 316
148 315
149 314
150 85
150 128
154 111
154 145
156 128
159 374
160 392
161 349
170 294
171 294
171 295
172 295
172 296
172 392
173 296
173 297
174 297
174 298
175 298
175 299
176 299
176 300
177 300
179 335
179 343
186 347
187 335
187 348
188 349
189 350
190 111
190 235
190 245
190 351
190 352
191 111
192 129
200 235
200 245
200 379
200 389
202 139
205 209
205 219
210 108
212 72
215 209
224 370
226 292
228 392
231 320
231 328
232 39
232 370
238 269
238 279
239 328
242 392
249 321
252 234
252 242
252 362
257 318
257 322
260 234
260 242
262 362
263 65
263 75
263 176
263 184
264 109
264 110
266 278
267 128
272 47
273 65
274 97
275 120
284 87
284 97
291 7
296 163
296 164
297 165
297 166
298 166
298 167
299 167
300 243
300 244
301 242
301 243
302 241
302 242
303 240
303 241
304 239
304 240
305 238
305 239
306 237
306 238
314 235
315 235
318 322
325 159
325 165
331 159
331 165
331 166
332 166
332 167
333 167
333 168
334 168
334 169
335 169
335 170
336 170
336 171
337 171
337 172
338 172
338 173
352 206
353 139
355 236
357 139
358 110
361 267
363 236
365 392
366 327
366 333
369 201
372 165
372 258
372 327
375 177
375 191
376 223
380 258
380 266
380 370
383 155
386 7
391 95
391 96
391 155
391 163
392 7
392 12
392 13
392 94
392 95
392 96
392 334

8
8 76
8 312
8 313
8 314
8 315
8 316
8 317
8 318
8 319
8 331
8 334
8 335
8 336
9 315
9 335
10 361
12 383
12 389
14 207
18 361
19 224
27 316
29 159
30 158
35 291
37 316
37 388
37 391
38 202
40 8
41 8
43 144
43 205
44 224
45 215
45 300
45 301
46 154
47 155
49 8
49 391
50 8
50 391
51 8
53 352
53 362
54 243
56 102
59 146
60 102
60 106
62 366
63 352
63 367
74 378
74 382
77 252
78 382
80 307
81 8
81 102
83 124
84 124
85 124
87 24
88 155
88 156
88 162
88 192
88 198
91 123
92 123
93 123
93 327
94 61
102 193
102 197
103 391
104 277
112 277
113 164
114 216
114 224
115 391
117 25
117 33
118 250
123 342
125 25
125 33
128 299
128 307
131 201
135 201
140 278
140 340
145 144
146 318
146 319
146 320
149 30
149 86
149 259
153 110
153 144
155 129
156 308
160 350
161 391
162 37
162 47
168 293
169 293
172 37
172 47
180 336
180 342
185 345
186 336
188 111
190 354
191 62
191 236
191 244
193 130
199 236
199 244
199 380
199 388
206 210
206 218
207 267
208 266
209 109
209 262
212 265
214 210
216 47
216 129
216 294
216 304
217 129
218 130
219 131
219 238
220 132
221 133
222 134
223 135
224 136
225 137
225 371
226 57
226 304
227 78
229 91
229 228
229 238
229 391
231 40
231 371
232 321
232 327
239 270
239 278
241 391
245 190
245 191
251 321
253 235
253 241
253 343
253 361
256 294
259 235
259 241
261 361
262 177
262 183
263 343
264 66
264 74
265 277
267 271
268 127
268 270
269 118
272 66
274 121
275 96
277 126
283 88
283 96
287 129
288 191
289 138
289 190
290 189
290 256
291 188
292 8
292 187
293 186
294 185
295 184
296 161
296 183
299 128
299 138
300 256
306 173
306 183
309 235
310 235
311 235
312 235
319 321
320 235
321 235
322 235
326 160
326 164
330 160
330 164
335 102
342 260
342 312
342 322
343 261
347 390
348 389
353 207
356 235
357 111
362 235
364 391
367 328
367 332
368 202
370 165
370 264
373 259
375 189
375 222
375 332
376 333
377 334
378 335
379 259
379 265
379 336
380 337
381 161
384 156
385 189
387 8
387 11
390 156
390 162
391 8
391 11
391 73
391 74
391 92
391 93
391 335

9
9 337
9 338
9 339
9 340
9 341
9 342
9 343
9 344
9 345
9 383
9 384
9 388
9 389
10 341
10 345
10 346
11 360
11 384
11 388
13 279
17 50
17 360
20 175
20 185
25 9
26 9
26 293
28 315
29 157
36 315
38 9
38 389
38 390
39 9
39 201
39 389
39 390
40 389
40 390
41 390
43 203
43 390
44 389
44 390
45 217
45 223
45 389
45 390
46 389
46 390
47 300
47 389
47 390
48 300
48 390
49 300
50 161
51 146
51 161
52 9
53 9
54 353
54 361
56 254
57 253
61 365
62 353
71 219
75 251
76 251
78 379
81 124
85 256
86 23
87 157
87 161
88 69
89 193
89 197
89 359
92 61
94 326
95 123
96 143
97 299
105 276
107 299
107 342
111 276
114 165
115 217
115 223
117 251
118 26
118 32
120 148
120 149
120 150
124 26
124 32
129 300
129 306
130 72
131 100
137 158
137 161
139 341
140 247
141 277
144 348
145 24
145 25
145 26
145 349
146 25
146 26
146 27
146 28
146 143
146 322
146 350
147 27
147 28
147 29
147 351
148 87
148 260
148 352
150 212
152 109
152 143
155 307
159 351
162 390
163 38
163 46
163 390
167 272
167 292
171 38
171 46
173 141
173 151
179 301
181 337
181 341
183 151
185 337
185 343
192 237
192 243
197 112
198 237
198 243
198 381
198 387
206 161
206 171
207 211
207 217
208 110
209 264
209 265
210 264
210 265
211 264
212 263
213 211
213 218
213 219
214 220
215 128
215 221
216 222
217 91
217 189
217 223
217 295
217 303
218 224
219 225
220 226
220 237
225 56
225 294
225 303
226 372
227 137
227 189
228 229
228 237
230 41
230 372
230 390
233 322
233 326
237 137
240 271
240 277
240 390
241 323
245 193
246 189
247 188
248 187
249 186
251 275
252 320
253 320
254 236
254 240
254 344
254 360
257 275
258 236
258 240
260 360
261 178
261 182
262 206
262 216
262 344
263 107
265 45
265 67
265 73
266 25
266 272
269 120
269 126
271 45
271 67
271 74
271 75
271 380
271 390
272 206
272 216
273 122
275 126
276 87
276 88
276 95
280 27
281 26
281 27
281 240
281 380
281 390
282 25
282 26
282 89
282 95
282 241
283 24
283 25
283 241
284 23
284 24
285 22
285 23
286 22
290 137
291 255
297 182
298 129
298 137
299 246
299 247
299 255
300 24
305 174
305 182
307 235
321 344
321 354
323 307
324 235
324 308
327 27
327 37
331 344
331 354
336 103
337 27
337 37
339 175
341 313
341 321
344 262
347 277
354 208
355 133
355 134
355 135
356 112
357 234
357 277
359 268
361 234
369 30
372 264
372 331
373 331
374 221
374 260
376 179
376 180
376 188
378 260
378 264
382 118
382 337
384 179
384 188
385 157
386 75
388 9
388 10
389 9
389 10
389 157
389 161
389 359
390 9
390 10
390 75
390 90
390 91
390 360

10
10 385
10 386
10 387
11 347
11 386
12 348
12 359
13 349
16 359
18 49
21 176
21 184
27 10
29 314
35 314
36 10
37 10
41 193
42 192
42 201
42 202
42 389
44 114
45 115
45 116
46 115
46 120
46 218
46 219
47 114
47 119
47 120
48 113
48 121
49 112
49 146
49 160
50 111
51 110
51 300
52 109
52 222
53 108
53 221
53 222
54 10
54 83
54 107
54 222
55 10
55 106
55 223
55 354
55 360
56 105
59 56
60 364
61 354
66 247
72 245
85 22
87 256
90 360
97 195
98 195
98 300
106 275
106 300
107 338
107 340
110 275
113 172
113 389
114 172
114 389
115 356
116 218
116 222
116 252
116 355
117 354
118 353
119 27
119 31
119 352
120 146
120 351
121 350
123 27
123 31
125 343
126 343
130 301
130 305
131 74
132 99
136 162
138 342
140 303
142 257
142 347
145 22
147 142
149 213
151 108
151 142
158 352
164 39
164 45
164 389
165 389
166 273
166 291
170 39
170 45
174 142
174 150
182 150
184 341
184 342
193 238
193 242
197 238
197 242
197 382
197 386
207 111
207 162
208 212
208 216
212 212
212 216
212 217
218 90
218 188
218 302
219 59
221 228
221 229
221 236
224 55
224 302
226 188
227 90
227 230
227 236
228 138
231 389
236 138
239 323
239 389
241 272
241 276
249 184
255 320
255 345
255 359
259 275
259 359
260 275
261 275
261 345
263 207
263 215
264 274
265 273
266 68
266 72
270 68
270 72
270 73
270 121
270 122
271 207
271 215
272 381
272 389
273 125
274 125
277 89
277 90
277 94
280 381
280 389
281 90
281 94
284 242
285 243
286 244
287 245
288 246
289 130
289 247
290 130
290 248
291 136
291 248
292 254
293 10
297 10
297 130
297 136
298 181
298 248
298 254
299 23
299 171
304 181
322 345
322 353
325 309
328 28
328 36
330 345
330 353
336 28
336 36
337 104
338 114
340 314
345 263
346 264
346 265
347 265
347 266
348 266
348 267
348 276
355 113
355 137
355 209
355 375
356 276
357 268
368 354
371 330
373 263
374 263
377 181
377 187
383 180
383 181
383 187
384 161
387 76
388 87
389 76
389 86
389 87
389 88
389 89
389 336
389 337

11
19 48
22 177
22 183
28 11
28 183
28 294
29 183
30 25
30 184
30 313
31 185
32 186
33 187
34 11
34 188
34 313
35 11
35 189
36 190
37 191
38 192
39 193
40 194
41 195
41 196
41 197
45 146
45 150
46 117
46 118
46 147
46 148
46 149
47 147
47 148
47 159
47 160
48 147
49 221
50 221
51 221
56 11
56 245
56 355
57 11
57 246
58 104
58 251
60 355
60 362
67 248
68 247
69 34
69 35
69 36
71 247
71 249
72 249
73 250
76 380
77 162
78 161
78 162
79 160
79 161
80 160
81 159
82 159
83 159
88 257
89 257
90 62
91 361
93 195
93 257
94 195
94 257
95 195
95 257
96 258
97 258
97 259
98 259
98 260
99 260
99 261
99 301
100 195
105 301
106 334
106 335
107 336
108 339
112 388
115 171
115 253
123 349
127 344
133 98
133 203
134 204
134 205
135 164
136 164
139 239
139 243
139 244
139 245
148 214
151 353
152 132
152 353
153 131
165 40
165 44
165 274
166 388
167 388
169 40
169 44
175 143
175 149
181 149
185 143
186 142
187 141
188 140
189 139
190 138
191 137
192 136
193 135
194 135
208 163
219 57
219 89
219 187
219 296
219 301
222 230
222 231
222 235
223 295
223 296
223 301
225 187
226 89
226 231
226 235
228 376
228 377
228 378
229 139
229 379
229 380
230 380
230 381
231 381
231 382
232 382
232 383
232 388
233 383
233 384
233 388
234 384
235 139
237 324
237 388
238 324
238 388
254 178
256 180
256 346
257 179
257 180
260 346
263 275
264 208
264 214
266 43
267 27
270 208
270 214
273 382
273 388
278 28
279 382
279 388
288 21
291 131
292 131
292 135
292 249
293 249
293 253
296 131
296 135
297 249
297 253
298 22
299 180
303 180
321 319
322 318
323 346
323 352
328 162
329 29
329 35
329 346
329 352
335 29
335 35
338 105
339 315
339 320
349 268
349 269
349 275
351 388
354 119
354 120
355 269
355 275
356 269
365 205
366 204
369 330
378 182
378 186
382 182
382 186
384 338
385 160
385 338
387 80
388 77
388 78
388 79
388 80
388 81
388 82
388 83
388 84
388 85
388 338

12
14 352
14 353
14 354
14 355
23 178
23 182
27 175
27 176
27 182
29 12
29 295
30 16
32 12
33 12
41 199
47 221
58 12
58 247
59 12
59 360
59 361
62 56
62 248
63 56
64 56
65 56
69 32
69 248
70 248
76 163
85 159
91 195
91 257
92 362
99 326
99 327
100 302
100 327
100 328
101 328
101 329
102 329
102 330
103 330
103 331
104 302
104 331
104 332
105 332
105 333
108 268
108 269
108 270
108 271
111 387
116 170
120 220
121 220
125 349
132 76
134 76
134 97
134 303
135 166
135 206
135 303
136 303
137 236
137 237
137 303
138 237
138 238
139 241
139 347
143 259
143 260
143 275
144 274
144 303
147 215
149 136
149 137
149 138
150 137
151 133
151 134
153 354
154 354
156 356
156 357
164 275
168 387
169 387
176 144
176 148
179 378
180 148
182 144
183 144
183 339
183 378
184 378
185 378
191 384
192 384
193 384
195 134
200 113
201 113
209 164
212 125
213 126
217 73
217 74
220 55
220 56
220 186
220 297
222 297
224 186
225 88
227 44
228 43
228 374
230 140
234 140
234 386
234 387
235 324
235 386
235 387
236 387
245 274
246 274
247 274
248 274
253 179
255 179
256 238
257 354
257 355
258 355
259 180
265 209
265 213
269 43
269 209
269 213
271 124
274 383
274 387
276 28
278 383
278 387
290 21
294 12
296 12
297 21
300 173
300 174
323 317
324 347
324 351
328 347
328 351
330 30
330 34
334 30
334 34
338 319
339 112
350 270
350 274
352 387
353 117
353 118
353 387
354 270
354 274
359 230
359 232
360 228
360 229
364 206
372 219
376 262
386 339
387 159
387 339
387 340
387 341

13
14 357
20 46
26 177
26 178
29 27
30 13
30 14
30 296
31 13
32 308
32 309
58 359
59 248
59 249
60 13
60 248
60 249
61 13
64 163
66 163
67 163
71 163
72 163
73 163
74 163
82 19
83 20
88 63
98 317
98 318
98 319
98 320
98 324
98 325
99 315
100 314
101 313
102 311
108 273
110 386
118 220
121 29
126 348
127 348
128 174
132 303
133 77
133 78
134 167
135 234
136 235
144 261
144 262
145 273
148 105
149 106
149 140
150 135
155 355
156 354
157 358
157 359
158 359
158 360
159 360
159 361
160 361
160 362
161 362
161 363
162 363
162 364
163 285
163 286
163 287
163 364
163 365
164 366
165 367
170 386
171 385
171 386
172 384
172 385
173 383
173 384
174 383
178 379
180 145
181 145
181 378
186 379
187 380
188 381
189 382
190 383
195 240
195 384
197 133
197 134
198 133
202 114
203 114
203 115
204 114
204 115
204 116
205 113
205 116
205 117
206 117
206 118
207 118
207 119
208 119
208 120
210 214
211 124
220 87
221 54
226 45
238 169
239 169
239 170
240 170
240 171
241 171
241 172
242 172
242 173
243 173
243 174
243 274
244 174
244 175
245 175
245 176
246 176
246 177
247 177
247 178
248 178
248 179
249 179
249 180
250 180
250 181
251 179
251 180
257 357
258 350
258 351
258 352
258 353
267 41
268 29
268 70
269 41
274 29
275 29
279 92
291 20
292 20
301 175
301 176
324 316
332 318
333 317
335 317
336 318
354 386
355 386
361 226
361 227
362 225
362 226
363 207
363 224
363 225
363 386
364 223
364 224
370 356
386 342
386 343

14
22 45
22 46
29 29
29 30
29 31
29 32
32 311
33 306
33 307
58 357
62 14
63 14
63 15
64 15
65 162
67 55
68 54
69 55
69 163
70 56
71 57
72 58
73 59
74 60
75 61
76 62
77 63
78 64
79 64
80 64
81 64
85 64
86 64
87 64
98 322
102 308
102 309
109 385
112 256
113 255
118 168
118 169
119 166
119 167
119 168
120 167
120 168
121 168
122 169
123 170
124 171
125 171
125 172
126 172
126 173
127 173
128 347
131 346
132 346
132 347
133 169
133 170
133 346
133 347
134 79
134 169
134 347
137 346
144 264
145 264
145 265
146 272
147 104
150 306
162 284
165 369
166 369
166 370
167 42
199 132
218 76
219 77
219 78
221 52
221 299
222 50
222 51
222 182
223 84
223 85
224 86
224 233
225 46
232 144
258 348
268 38
268 39
268 40
269 39
273 30
275 385
276 384
276 385
277 385
293 19
294 18
294 133
295 14
295 15
295 16
295 17
295 251
301 178
325 315
326 313
330 317
331 317
334 318
337 317
340 107
341 108
341 110
341 111
349 113
350 113
351 114
352 115
356 385
357 385
371 357
380 184
385 344
385 345

15
23 44
25 180
29 34
49 57
50 56
65 16
66 17
70 28
80 15
83 64
100 306
101 305
101 306
101 307
102 304
107 384
108 384
111 257
130 173
130 347
131 172
132 171
132 172
134 81
135 81
135 82
135 346
145 217
146 103
146 266
146 267
147 271
148 304
149 270
149 305
150 270
150 271
150 301
151 271
151 272
151 300
152 272
152 273
152 299
153 273
153 274
153 298
154 274
154 275
154 297
155 275
155 276
155 296
156 276
156 277
156 295
157 277
157 278
157 294
158 278
158 293
159 292
160 291
161 278
161 281
161 282
161 290
162 277
162 289
167 371
167 372
175 380
178 146
200 131
201 130
201 131
202 129
202 130
203 128
203 129
204 127
204 128
205 126
205 127
206 125
206 126
207 124
207 125
208 123
208 124
209 122
209 123
211 166
212 167
220 79
220 80
221 80
221 81
221 82
222 81
222 82
222 83
222 86
222 184
223 48
223 49
224 47
232 142
233 145
267 211
268 36
269 31
269 32
269 33
269 34
269 35
269 36
269 37
270 31
270 32
270 33
270 34
270 35
271 30
271 31
295 19
326 349
327 314
327 315
328 315
329 316
332 32
342 109
343 109
344 109
345 109
345 110
346 110
347 111
348 112
352 272
358 384
359 384
362 384
384 346
384 347

16
24 43
32 298
33 299
47 56
48 56
70 26
79 16
103 379
104 383
106 383
110 258
136 83
136 84
145 102
147 268
147 269
148 269
149 303
159 279
160 279
160 280
168 373
169 374
170 375
171 376
172 377
173 378
174 379
213 168
233 147
233 148
234 147
360 211
383 348
383 349

17
34 300
34 301
34 302
34 303
35 301
35 302
44 55
45 55
45 56
46 55
69 17
71 24
71 25
78 17
104 380
105 382
109 259
137 85
137 86
138 86
138 87
139 91
139 92
139 93
140 92
140 93
140 94
140 96
140 97
141 97
141 98
142 98
142 99
143 100
144 101
214 169
234 149
360 382
361 377
361 378
361 379
361 380
361 381
361 382
362 211
362 212
362 376
362 377
363 375
363 376
364 374
364 375
365 373
365 374
366 372
366 373
367 371
367 372
368 370
368 371
369 369
369 370
370 368
370 369
371 367
371 368
372 366
372 367
373 365
373 366
374 364
374 365
382 350
382 351

18
42 54
43 54
70 18
71 18
76 18
77 18
106 356
107 261
107 262
108 260
139 88
139 95
140 90
234 151
234 152
363 213
363 214
365 217
365 218
375 362
375 363
380 353
381 352

19
31 44
32 44
32 45
33 45
34 46
35 47
36 48
37 49
38 50
39 51
40 52
41 53
72 19
72 22
73 19
73 20
73 21
74 19
74 20
75 19
102 360
102 361
103 359
104 358
105 357
233 153
233 154
364 215
364 216
379 355
379 356
380 355

20
28 42
29 42
30 43
103 372
103 373
376 360
377 358
377 359
378 357
378 358

21
100 364
101 363
101 365
101 366
101 367
101 368
101 369
102 367
102 368
231 157
231 158
232 156

22
102 370
230 159
230 160

23
136 218
227 163
227 164
228 162
228 163
229 161

24
134 220
134 221
135 219
135 220
135 221
135 222
226 165

25

26
223 170
224 169
225 168

