0
0 123
0 187
0 188
0 208
0 209
0 221
0 239
0 246
0 266
0 381
0 388
0 399
150 0
224 0
225 0
251 0
252 0
314 0
346 0
347 0
399 5
399 6
399 30
399 31

1
1 98
1 148
1 170
1 189
1 207
1 222
1 238
1 287
1 398
4 313
4 323
7 390
8 398
14 313
46 104
54 276
80 291
90 4
90 291
96 398
99 358
99 368
101 193
101 203
106 292
109 358
111 193
111 203
116 292
118 398
151 1
214 274
224 274
226 1
232 268
232 278
242 268
242 278
250 1
251 67
251 377
251 387
252 318
255 116
255 126
262 56
262 308
265 116
265 126
265 137
273 7
273 17
273 34
273 44
275 137
275 147
283 7
283 17
288 55
288 65
290 262
290 272
298 55
298 65
315 1
316 96
316 106
336 119
345 1
345 324
346 109
346 119
355 314
355 324
368 305
374 51
374 61
378 295
378 305
381 230
381 240
391 230
391 240
395 34
395 44
398 7
398 29

2
2 121
2 122
2 190
2 206
2 286
2 356
2 379
2 380
2 389
2 390
2 397
7 397
14 284
22 189
23 189
23 259
23 275
27 345
29 22
29 34
33 195
39 333
39 345
41 22
49 211
61 156
61 172
63 53
71 300
77 185
89 185
90 166
90 306
90 318
94 114
102 328
102 344
105 7
109 368
110 114
110 369
117 113
117 129
119 295
122 199
123 283
123 299
131 392
133 113
133 129
134 187
134 199
139 283
139 312
141 370
141 386
146 77
146 93
151 319
156 221
156 233
162 69
168 233
170 19
178 85
181 53
188 163
188 164
189 162
189 163
190 162
195 283
197 53
197 69
197 228
199 6
199 18
202 327
202 328
203 326
203 327
206 69
209 128
209 144
209 189
214 163
218 357
220 231
222 69
224 246
227 2
230 179
230 357
248 292
248 334
249 2
256 256
261 66
282 84
282 100
294 335
294 351
298 84
307 43
307 59
310 335
310 351
312 65
314 347
316 2
318 343
318 355
320 376
323 43
324 65
330 343
336 360
336 376
337 94
338 70
338 86
339 172
339 188
340 22
344 2
349 237
349 238
355 188
365 138
366 111
380 180
382 95
382 111
391 10
396 180
397 8
397 28
397 115
397 131

3
3 99
3 149
3 169
3 191
3 205
3 223
3 224
3 236
3 237
3 247
3 285
3 357
3 378
3 391
3 396
8 74
21 139
21 173
26 92
30 355
30 373
33 68
33 139
33 151
33 173
33 185
35 225
36 226
39 49
44 111
44 123
51 68
56 111
56 123
61 376
61 388
73 376
73 388
97 396
120 185
121 186
122 187
144 329
144 347
152 3
153 3
155 12
155 42
155 54
166 219
167 42
167 54
167 218
167 219
168 218
172 357
172 375
177 290
177 302
187 178
188 179
188 340
190 148
190 160
190 242
190 357
190 375
200 328
201 375
201 393
202 148
202 160
219 393
220 196
228 3
231 110
236 315
239 35
243 110
247 225
247 237
248 3
257 35
259 225
259 329
261 282
271 317
272 221
290 221
306 195
306 213
314 263
324 195
324 213
326 252
326 263
337 127
343 3
353 275
354 241
355 127
362 286
362 349
362 361
366 14
367 77
372 223
372 241
374 349
374 361
383 258
383 270
395 258
395 270
396 9
396 27

4
4 100
4 119
4 120
4 150
4 168
4 192
4 193
4 248
4 358
4 377
4 392
4 393
4 394
4 395
5 392
5 393
5 394
5 395
6 315
6 395
47 226
48 249
56 274
68 33
69 95
69 103
74 148
75 122
75 130
82 148
82 289
83 122
83 130
84 51
86 20
88 289
91 206
91 214
92 6
93 265
96 57
98 395
100 78
101 360
101 366
102 60
103 61
103 195
103 201
104 49
104 277
104 285
107 360
107 366
108 294
109 195
109 201
111 175
111 183
112 66
112 78
115 18
115 26
119 175
119 183
128 30
128 38
128 157
128 169
136 30
136 38
140 157
140 169
154 4
156 188
156 196
162 137
162 149
164 188
166 221
171 161
174 137
174 149
175 100
186 176
206 318
209 179
209 344
210 46
210 178
210 179
211 177
211 178
212 176
212 177
214 318
216 272
222 272
229 4
232 208
232 220
234 270
234 276
240 270
240 276
247 4
249 379
249 385
253 65
257 118
257 124
263 118
263 124
263 143
272 267
272 379
273 139
273 145
275 9
275 15
275 36
275 42
277 335
279 152
281 9
281 15
285 311
285 319
286 30
288 264
288 270
290 57
290 63
291 152
291 164
293 110
293 319
296 57
296 63
296 300
298 30
298 42
301 110
309 291
317 4
318 4
318 98
318 104
319 10
325 231
335 106
336 33
336 107
337 108
338 109
338 117
342 4
344 111
347 322
349 217
353 316
363 319
363 331
366 91
367 92
368 93
372 53
372 59
375 319
375 331
376 297
376 303
383 232
383 238
385 117
389 232
389 238
393 36
393 42
395 10
395 26
395 116
395 130

5
5 101
5 118
5 151
5 167
5 194
5 283
5 284
5 359
5 375
5 376
7 316
12 282
12 335
15 116
15 166
23 185
26 321
27 254
29 343
31 24
31 32
32 224
37 335
37 343
39 24
39 91
39 227
40 227
46 227
51 299
56 334
57 188
57 273
61 258
62 219
67 34
68 96
68 102
70 334
71 188
75 149
75 258
76 123
76 129
76 219
79 183
81 149
82 123
82 129
83 50
83 288
87 183
87 288
88 168
90 207
90 213
92 308
92 316
93 7
97 56
99 394
100 93
100 384
102 361
102 365
103 9
103 50
103 278
103 284
104 196
104 200
106 361
106 365
108 196
108 200
109 295
112 176
112 182
114 19
114 25
114 93
114 107
114 370
116 317
118 176
118 182
124 189
124 197
129 31
129 37
131 220
131 234
132 189
132 197
135 31
135 37
141 310
145 220
145 234
148 109
148 123
151 259
151 273
155 5
157 189
157 195
158 223
158 231
162 123
163 189
163 195
163 196
164 197
165 198
165 259
165 273
166 199
166 231
167 200
170 328
172 162
184 314
186 166
186 174
194 267
197 8
197 16
197 285
200 304
204 336
207 319
211 47
213 319
214 176
217 271
218 229
220 359
221 271
228 291
230 5
231 5
231 7
232 60
232 303
233 304
234 305
235 271
235 275
239 271
239 275
242 159
245 5
245 7
246 5
248 380
248 384
250 294
252 183
252 197
254 64
258 119
258 123
258 254
259 64
262 119
262 123
262 160
265 143
266 197
272 140
272 144
273 266
276 10
276 14
276 37
276 41
276 174
277 287
277 301
280 10
280 14
286 312
286 318
287 250
287 265
287 269
291 58
291 62
292 318
294 109
294 363
294 377
295 58
295 62
297 301
300 109
314 63
319 5
319 99
319 103
319 136
319 150
322 63
328 345
331 313
335 96
335 104
336 50
339 111
339 112
339 116
341 5
343 112
348 321
352 321
353 321
365 89
366 175
367 298
367 299
368 299
369 95
370 38
371 54
371 58
375 298
375 302
384 233
384 237
388 233
388 237
392 41
394 11
394 12
394 24
394 25
394 117
394 129

6
6 102
6 117
6 152
6 166
6 195
6 196
6 282
6 374
10 76
11 98
11 281
12 97
13 96
17 153
18 152
19 151
20 150
20 239
21 149
21 240
22 241
23 141
23 175
23 242
24 90
24 243
28 357
28 371
30 224
31 141
31 149
31 175
31 183
32 25
32 31
35 70
36 336
36 342
41 47
41 228
45 228
46 113
46 121
49 70
54 121
56 99
63 378
63 386
66 35
67 97
67 101
71 378
71 386
77 124
77 128
80 150
80 182
81 124
81 128
86 182
87 169
89 208
89 212
93 309
93 315
98 55
100 393
102 10
102 57
102 279
102 283
113 20
113 24
113 177
113 181
113 296
114 296
117 177
117 181
125 190
125 196
130 32
130 36
131 190
131 196
134 32
134 36
142 309
142 331
142 345
156 6
157 10
157 44
157 52
158 190
158 194
159 224
159 230
162 190
162 194
165 44
165 52
165 223
165 224
165 230
168 202
168 214
173 163
174 359
174 373
175 292
175 300
177 71
177 72
178 70
178 71
179 69
179 70
180 68
180 69
181 67
181 68
182 66
182 67
185 167
185 173
188 359
188 373
190 338
192 150
192 158
192 244
196 9
196 15
198 286
198 330
200 150
200 158
203 377
203 391
206 180
207 180
208 320
212 48
212 320
217 228
218 198
221 360
232 6
233 6
233 7
233 112
234 6
234 7
235 6
235 7
236 6
236 7
236 306
237 6
238 313
239 6
240 6
240 7
241 6
241 7
241 112
242 6
242 7
243 6
243 7
244 6
249 227
249 235
251 295
255 37
257 227
258 63
259 253
263 284
269 319
274 223
274 265
287 313
287 317
288 223
291 313
291 317
292 312
293 311
294 310
295 108
295 309
296 308
297 307
298 302
298 306
299 108
308 197
308 211
316 265
320 6
321 62
322 197
322 211
324 265
327 346
328 250
332 6
334 6
334 97
334 103
335 6
335 7
336 6
339 129
342 116
342 117
351 277
353 129
360 288
364 16
364 351
364 359
365 87
370 225
370 239
372 351
372 359
385 260
385 268
387 26
388 25
389 24
390 23
391 22
392 18
392 21
392 22
393 13
393 14
393 15
393 16
393 17
393 18
393 19
393 20
393 21
393 22
393 23
393 118
393 128
393 178
393 260
393 268

7
7 116
7 197
7 198
7 281
7 360
7 361
7 372
7 373
10 246
11 245
11 246
12 244
12 245
13 243
13 244
15 154
20 272
22 195
23 148
24 142
24 148
24 176
24 182
24 183
30 142
30 148
30 176
30 182
33 26
35 337
35 341
46 208
47 120
51 101
51 102
51 200
52 199
53 120
53 198
64 159
64 169
64 379
64 385
68 303
70 379
70 385
81 181
81 211
85 181
86 170
91 267
94 310
94 314
95 45
96 46
97 47
97 111
98 48
99 49
99 50
101 55
101 56
102 76
105 341
110 68
110 76
120 116
120 126
126 191
126 195
126 286
130 116
130 126
130 159
130 167
130 191
130 195
136 286
138 159
138 167
138 373
138 383
143 308
149 80
149 90
157 7
158 45
158 51
160 225
160 229
164 45
164 51
164 139
164 147
164 225
164 229
168 204
172 139
172 147
174 293
174 299
175 72
184 56
184 66
184 168
184 172
189 184
193 151
193 157
195 10
195 14
199 151
199 157
199 287
200 225
204 196
205 181
205 197
206 198
207 199
208 200
211 342
212 131
212 141
216 227
217 166
217 199
221 249
222 361
227 176
230 210
230 218
234 113
238 7
238 306
239 312
240 113
242 381
243 381
243 382
244 382
245 337
250 228
250 234
252 296
256 228
260 252
262 180
263 179
263 180
264 178
264 179
264 285
265 177
265 178
266 177
267 142
268 142
268 320
274 377
280 39
281 39
282 38
283 37
283 38
285 87
285 97
289 154
289 162
295 87
296 32
296 40
297 338
297 348
307 338
310 46
311 293
317 266
320 46
320 61
320 347
321 7
321 8
322 7
322 8
323 7
323 8
323 101
323 266
323 373
324 7
324 101
325 355
325 356
326 7
326 234
326 347
326 356
326 357
327 7
327 8
327 357
328 7
328 8
329 7
329 8
330 7
331 7
333 7
333 98
333 102
333 373
337 7
337 220
338 7
338 35
338 256
339 257
339 269
341 83
342 175
342 185
350 278
352 185
364 86
365 329
365 352
365 358
369 98
369 108
370 300
371 300
371 352
371 358
373 321
373 329
379 98
379 108
383 177
386 261
386 267
387 119
392 177
392 261
392 267

8
8 115
8 153
8 154
8 164
8 165
8 199
8 280
8 362
8 370
8 371
9 318
10 248
10 319
13 114
13 154
13 164
14 333
19 271
24 323
25 143
25 147
25 177
25 181
27 243
29 143
29 147
29 177
29 181
43 232
43 233
45 207
48 94
48 119
49 94
49 95
49 201
50 95
50 96
51 96
51 97
52 97
52 119
53 98
53 301
58 332
59 190
59 271
60 270
61 99
62 99
63 99
63 260
64 217
65 160
65 168
65 380
65 384
68 332
69 190
69 380
69 384
75 47
76 47
83 210
84 210
85 210
85 286
86 284
86 285
90 268
94 43
95 9
96 10
98 110
98 281
100 11
100 51
101 391
102 95
102 386
102 391
103 75
104 66
104 363
106 198
106 340
109 22
109 69
109 75
110 298
110 299
111 297
112 95
116 372
121 117
121 125
126 295
127 287
129 117
129 125
131 160
131 166
133 222
133 232
137 160
137 166
137 374
137 382
143 222
143 232
150 81
150 89
150 121
153 261
153 271
158 8
159 8
159 9
159 46
159 50
160 8
160 9
160 121
161 8
161 9
162 8
162 9
163 8
163 46
163 50
163 261
163 271
165 8
165 140
165 146
166 8
166 9
167 8
169 205
169 211
169 212
171 140
171 146
172 326
173 294
173 298
174 73
182 316
185 57
185 65
189 186
194 152
194 156
196 265
198 152
198 156
200 335
201 224
202 302
210 200
210 324
210 325
210 326
211 327
212 328
213 132
213 140
213 329
214 330
216 200
217 175
218 167
218 175
218 267
218 268
219 269
220 250
226 175
226 293
228 302
229 211
229 217
230 58
235 114
237 273
238 124
239 114
239 307
240 157
240 307
240 311
241 380
244 338
246 382
251 143
251 144
251 229
251 233
252 54
252 55
252 144
253 55
253 56
253 144
254 56
254 57
254 185
254 195
255 57
255 58
255 229
256 58
256 59
256 62
257 61
257 144
258 144
259 144
260 121
264 162
264 195
265 286
266 329
266 330
267 321
267 330
267 331
268 331
268 332
269 332
269 333
270 142
270 333
270 350
274 172
275 258
275 299
276 259
276 260
278 12
278 39
281 265
282 265
282 266
283 266
285 248
285 267
286 88
286 96
288 155
288 161
292 365
292 375
293 60
294 88
295 33
295 39
297 104
298 339
298 347
302 304
303 304
304 303
304 304
305 302
305 303
306 339
311 47
312 294
318 267
319 47
321 101
321 138
321 148
321 348
322 267
322 348
324 372
325 8
325 100
332 372
338 48
339 8
339 36
340 8
340 9
340 259
340 260
340 261
340 265
340 266
340 267
341 9
341 10
341 114
342 10
342 11
342 82
343 11
343 12
343 176
343 184
343 311
343 312
344 12
344 13
344 312
344 313
345 13
345 14
345 313
345 314
346 314
346 315
347 315
347 316
348 316
348 317
349 279
349 317
349 318
350 319
351 184
356 237
363 85
364 173
365 322
366 322
366 328
366 353
366 357
367 57
368 57
369 56
370 99
370 107
370 353
370 357
372 322
372 328
373 300
378 99
378 107
383 134
384 27
384 133
384 134
384 176
385 132
385 133
386 131
386 132
386 235
387 130
387 131
387 262
387 266
388 120
388 129
388 130
389 38
389 129
390 39
391 119
391 120
391 176
391 262
391 266

9
9 113
9 114
9 155
9 163
9 249
9 250
9 278
9 279
9 363
9 369
11 102
11 320
12 78
12 113
12 155
12 163
14 92
14 241
15 332
23 324
26 359
26 369
28 81
28 222
29 80
29 81
29 251
30 79
30 80
30 251
31 79
42 234
43 45
43 230
44 206
47 72
51 113
52 99
54 302
59 331
60 191
61 269
64 37
64 261
65 99
65 216
66 161
66 167
67 331
68 191
72 47
73 47
77 46
77 153
78 46
78 152
79 126
87 210
87 283
88 281
88 282
89 269
89 281
94 41
94 277
94 278
95 278
95 279
96 279
96 280
97 11
97 280
98 312
99 109
100 53
100 281
103 387
103 390
104 68
104 74
107 20
107 21
107 339
108 21
108 70
108 74
111 22
111 96
115 179
117 373
119 337
120 337
122 118
122 124
127 294
128 118
128 124
128 288
128 294
132 34
132 161
132 165
134 223
134 231
136 161
136 165
136 375
136 381
140 333
140 343
142 223
142 231
151 82
151 120
154 262
154 270
159 120
160 192
162 262
162 270
164 9
166 141
166 145
168 9
169 9
170 141
170 145
170 206
170 210
173 74
173 325
175 165
176 166
176 169
176 361
176 371
181 317
186 58
186 64
186 361
186 371
189 12
190 12
190 187
191 12
194 246
197 264
198 335
202 223
203 301
205 379
205 389
210 322
211 201
212 201
214 50
214 133
214 139
216 264
216 265
217 266
219 168
219 174
219 251
225 174
225 294
226 302
228 212
228 216
237 122
243 339
251 53
253 39
255 144
255 186
255 194
255 232
255 311
255 312
256 232
256 233
256 312
256 313
257 233
257 234
257 313
257 314
258 234
258 235
258 314
258 315
259 235
259 236
259 315
259 316
260 236
260 237
260 316
260 317
261 237
261 238
261 317
261 318
262 183
262 238
262 239
262 318
262 319
263 194
263 239
263 240
263 319
263 320
264 240
264 320
264 321
265 163
266 174
270 335
273 171
274 298
276 225
276 263
277 261
277 262
278 262
279 263
280 264
286 37
286 225
287 89
287 95
287 156
287 160
289 315
291 366
291 374
292 99
293 89
293 99
293 100
294 34
294 38
294 100
294 101
295 101
295 102
296 102
296 103
297 106
299 340
299 346
300 304
305 340
306 346
307 302
307 346
310 199
310 209
312 48
318 48
320 199
320 209
322 139
322 147
324 351
324 352
324 353
325 371
327 100
327 360
328 100
329 100
331 371
339 47
340 263
343 81
344 177
344 183
350 183
351 131
362 298
363 172
366 58
367 323
367 327
368 227
368 237
371 100
371 106
371 323
371 327
377 100
377 106
382 27
383 136
385 175
388 37
389 121
389 125
389 126
389 127
390 121
390 122
390 124
390 125
390 126
390 127
390 175

10
10 103
10 104
10 105
10 106
10 107
10 108
10 110
10 111
10 112
10 156
10 157
10 158
10 160
10 161
10 162
10 200
10 251
10 252
10 253
10 254
10 255
10 256
10 276
10 277
10 368
11 104
11 105
11 106
11 107
11 111
11 112
11 156
11 157
11 161
11 162
11 252
12 321
13 79
13 322
14 90
14 323
15 239
15 324
16 325
16 331
22 325
25 360
25 368
27 221
29 244
30 244
31 250
31 338
32 338
33 339
35 28
36 29
44 44
46 73
46 201
48 91
50 114
50 115
55 303
60 330
61 192
62 268
63 268
65 262
65 304
66 215
66 330
67 162
67 166
67 192
71 46
76 154
76 155
77 266
77 267
78 267
78 268
79 268
79 269
80 269
80 270
81 270
81 271
83 173
83 175
83 176
83 179
84 172
96 312
98 12
99 13
99 311
100 108
100 311
104 388
104 389
105 69
105 70
105 388
105 389
106 389
108 338
110 97
118 336
118 374
121 338
123 119
123 123
127 119
127 123
128 193
129 289
129 293
135 224
135 230
135 376
135 380
139 334
139 342
141 224
141 230
145 306
152 83
152 119
155 263
155 269
158 119
161 263
161 269
162 227
170 10
171 10
172 75
177 167
177 362
177 370
180 169
181 169
182 170
185 362
185 370
186 11
187 59
187 63
191 188
192 207
193 12
193 208
194 209
195 210
195 247
196 211
196 334
197 212
197 334
198 213
198 263
199 214
200 215
201 216
201 289
201 290
202 184
202 217
202 290
203 183
203 218
203 222
204 300
206 380
206 388
215 134
215 138
218 252
220 169
220 173
221 338
223 337
224 166
224 167
224 173
224 295
224 301
224 363
225 165
225 301
225 364
226 164
227 163
228 162
229 161
230 160
231 159
232 157
232 158
237 118
237 119
237 120
238 379
239 155
244 309
251 51
251 307
252 40
252 308
253 309
254 310
256 187
256 193
257 359
258 359
258 360
259 360
259 361
260 361
262 193
262 250
263 249
265 241
265 325
265 326
265 327
266 164
271 347
273 289
273 297
277 226
285 226
288 90
290 367
290 373
292 90
292 97
300 341
300 345
304 341
304 345
305 345
311 200
311 208
313 49
317 49
317 58
318 59
319 200
319 208
323 140
323 146
324 349
326 370
330 370
331 100
337 252
339 222
340 38
344 80
345 182
346 16
347 17
349 224
350 132
350 225
351 226
352 227
353 228
354 229
358 236
359 236
362 171
364 59
367 228
372 101
372 105
376 101
376 105
380 28
381 28
382 137
382 138
386 37
386 174
388 264
389 123
389 263
389 264
389 265

11
11 109
11 159
11 232
11 233
11 234
11 235
11 257
11 258
11 274
11 275
11 367
12 233
12 234
12 235
12 236
13 237
14 80
14 238
17 326
17 330
21 326
22 330
23 330
24 331
24 361
24 367
25 332
26 82
26 220
26 333
27 145
27 179
27 334
28 335
29 336
30 337
31 245
32 245
32 249
37 30
38 30
38 31
39 31
39 32
40 32
40 33
41 33
41 34
41 237
42 34
42 35
43 35
43 36
44 36
44 37
44 202
45 37
45 43
45 74
45 202
50 117
56 304
60 40
61 40
61 329
62 318
64 267
65 329
66 193
66 263
67 214
67 382
68 45
69 45
69 46
70 161
71 160
72 159
72 165
73 158
73 165
74 157
74 166
75 156
75 167
75 266
76 168
77 169
78 170
79 171
80 45
80 172
81 44
81 173
82 43
82 44
82 174
83 42
83 43
83 271
84 41
84 42
85 40
85 41
86 39
86 40
87 38
87 39
93 38
93 39
103 98
107 388
108 388
109 98
119 375
136 225
136 229
138 335
138 341
140 225
140 229
153 118
156 264
156 268
157 118
160 264
160 268
161 48
169 297
170 297
171 296
172 11
173 11
173 12
174 11
174 12
174 208
175 11
175 12
175 208
176 11
176 12
176 208
177 11
178 168
178 207
178 363
178 369
179 11
179 168
179 206
180 11
180 12
180 205
181 11
181 12
182 11
182 12
183 11
183 12
184 11
184 363
184 369
191 206
192 189
192 333
193 333
194 334
196 154
196 248
199 262
201 185
203 291
205 299
207 381
207 387
214 202
215 53
215 262
218 338
219 338
223 168
223 169
223 296
223 300
225 337
226 337
226 365
227 337
234 369
234 370
235 368
235 369
236 47
236 48
236 367
236 368
236 379
237 46
237 47
237 116
237 366
237 367
238 45
238 46
238 154
238 365
238 366
239 45
239 128
239 364
239 365
240 363
240 364
241 340
241 362
241 363
242 309
242 361
242 362
243 360
243 361
244 360
245 308
246 307
246 308
247 307
251 41
253 231
256 299
257 188
257 192
257 298
258 297
259 296
260 295
261 185
261 186
261 192
261 294
264 248
265 323
267 165
267 171
267 172
271 337
271 338
271 339
271 343
271 344
271 345
272 296
278 227
282 158
283 158
284 227
288 36
289 36
289 368
289 372
290 36
291 95
291 96
312 201
312 207
316 57
318 201
318 207
320 269
321 270
321 271
324 141
324 145
330 246
337 250
340 223
346 223
347 223
348 18
349 133
356 230
360 82
360 235
360 297
361 83
362 59
366 229
366 235
367 235
368 355
379 29
384 36
385 36
388 171
388 173
388 174

12
12 201
12 230
12 231
12 259
12 260
12 272
12 273
12 364
12 365
12 366
13 271
13 272
13 365
14 270
14 271
15 81
15 87
15 88
15 269
15 270
21 329
23 362
23 366
24 82
25 219
37 203
38 203
39 203
41 239
41 247
43 203
46 38
46 42
47 88
47 89
57 40
61 316
62 41
63 41
63 305
63 320
65 266
66 44
66 266
67 44
70 163
71 164
84 272
85 272
87 271
88 36
88 37
90 277
92 36
92 37
102 310
106 72
109 303
109 387
110 331
110 332
110 387
114 336
115 336
124 338
125 338
126 338
133 291
134 163
134 291
135 291
136 292
137 293
137 336
138 294
139 295
140 296
141 297
142 298
143 299
160 105
160 106
161 104
161 105
162 103
162 104
162 311
163 311
164 312
165 313
166 299
166 314
167 298
167 299
167 315
168 143
168 298
168 316
169 317
170 318
171 319
172 208
172 320
173 320
178 12
179 364
179 368
182 204
182 324
183 324
183 364
183 368
184 325
185 326
186 327
187 328
188 329
189 330
190 331
191 61
191 332
192 61
193 61
194 61
197 249
200 186
204 292
208 382
208 386
209 61
210 61
212 337
213 337
214 297
214 298
215 204
216 205
216 206
217 206
217 337
219 136
220 136
226 214
227 366
229 337
230 338
231 338
233 154
233 155
234 48
239 130
245 359
246 359
248 306
249 305
250 42
250 48
250 49
250 304
251 303
252 302
253 301
254 300
255 358
260 187
260 188
262 362
263 294
265 247
268 169
268 170
269 355
271 290
271 341
273 166
274 166
275 165
276 164
277 163
278 162
279 161
279 228
280 160
281 159
283 228
285 158
290 94
292 36
310 301
311 301
313 202
313 206
315 53
315 54
315 55
315 56
317 202
317 206
322 272
322 273
323 273
323 274
328 363
328 364
328 365
328 366
333 142
333 143
334 141
334 142
335 140
335 141
336 139
336 140
337 138
337 139
338 137
338 138
339 137
341 224
345 224
348 134
349 19
358 230
358 297
359 81
364 24
365 24
365 25
365 230
365 234
366 25
366 26
367 26
367 27
368 27
368 28
369 28
369 29
369 325
370 29
370 30
371 30
380 141
381 140
387 169
387 170
387 172

13
13 202
13 228
13 229
13 261
13 262
13 263
13 264
13 265
14 262
14 263
14 264
14 265
14 266
14 364
15 267
16 85
16 86
31 209
32 208
33 207
34 206
35 205
36 204
40 240
40 241
41 203
46 86
46 87
55 40
62 306
63 322
63 323
63 324
63 325
64 42
64 200
64 201
65 43
65 202
66 203
67 204
68 205
69 164
69 206
69 207
70 265
71 265
72 265
73 265
74 212
86 273
87 274
88 275
89 276
102 106
103 105
107 105
109 305
109 314
109 315
110 336
111 333
111 334
111 335
111 386
112 334
112 335
112 386
113 335
125 121
128 338
131 291
131 379
132 379
133 378
137 339
145 300
154 85
155 86
155 113
155 114
159 107
159 108
161 310
163 101
163 102
164 100
164 101
165 300
166 98
169 78
170 77
174 321
175 321
179 321
179 322
180 321
180 322
181 323
184 204
189 61
195 190
196 189
196 190
197 188
197 189
198 188
199 187
205 220
205 293
206 219
206 294
209 297
210 297
211 60
211 297
212 60
212 297
214 336
215 255
215 259
215 336
215 337
216 254
216 298
217 136
217 298
218 298
219 298
221 137
222 137
222 138
222 171
223 138
223 139
224 139
232 49
232 339
233 49
233 339
233 378
234 152
234 153
234 340
234 378
235 340
235 341
236 153
236 341
238 131
238 132
239 342
239 344
239 345
240 342
240 345
240 346
241 44
241 346
241 347
242 347
242 348
243 348
243 349
244 349
244 350
245 350
245 351
246 351
246 352
247 352
247 353
248 353
248 354
249 46
249 47
252 358
253 358
264 362
266 246
270 291
271 167
272 167
282 371
283 370
284 370
285 370
290 92
302 343
315 51
324 275
325 276
326 277
327 278
328 143
328 279
328 280
328 368
329 143
330 143
331 143
331 244
334 233
334 234
335 232
335 233
336 231
336 232
336 247
336 248
337 230
337 231
338 229
338 230
339 228
339 229
340 227
340 228
341 226
341 227
342 225
342 226
343 39
343 40
343 41
343 45
343 46
343 224
343 225
344 38
344 47
345 37
345 48
346 36
346 49
346 78
347 35
347 50
347 77
347 180
348 34
348 51
348 179
349 33
349 52
350 20
350 32
350 53
351 21
351 31
351 54
352 21
352 22
352 30
352 55
353 22
353 29
353 56
354 28
354 57
354 58
355 27
356 296
357 296
358 80
359 60
359 231
360 60
360 231
372 31
373 31
374 31
374 103
375 31
379 142
380 34
381 34
382 35
386 167
386 168

14
14 203
14 226
14 227
16 364
17 364
18 364
19 83
19 328
19 364
20 83
21 83
22 83
34 247
35 246
36 246
39 246
44 77
50 40
51 40
52 40
53 40
58 306
59 307
60 313
61 312
61 313
63 196
63 198
63 199
63 327
64 195
68 265
69 212
70 208
70 209
70 211
72 211
73 211
90 30
90 31
90 32
91 31
91 32
104 101
104 104
106 101
106 104
107 100
108 306
108 307
108 312
108 313
113 385
114 385
130 338
130 380
131 338
132 338
133 338
138 227
147 300
155 116
156 87
156 111
156 112
157 110
157 111
158 109
158 266
158 309
159 309
159 310
163 301
165 99
168 79
177 321
185 203
186 203
189 204
194 191
201 260
207 295
207 297
208 219
208 296
212 256
212 384
213 256
213 257
213 384
214 256
214 257
214 258
214 384
215 383
215 384
216 383
221 298
225 140
226 140
228 368
231 377
232 377
237 342
238 343
243 44
244 44
245 44
246 44
248 358
249 355
249 356
249 357
250 356
250 357
251 357
259 190
265 293
265 361
266 293
268 293
269 167
269 292
269 293
270 294
280 370
281 232
281 370
287 370
313 300
314 300
326 143
329 281
335 245
335 246
341 136
342 136
343 43
344 136
345 137
346 138
347 139
348 76
348 140
349 141
349 178
350 142
350 177
351 143
351 176
352 144
352 175
353 68
353 69
353 75
353 76
353 145
353 174
354 23
354 67
354 68
354 76
354 77
354 146
354 173
355 23
355 59
355 63
355 64
355 65
355 66
355 77
355 78
355 147
355 172
355 295
356 78
356 148
356 171
357 79
357 149
357 170
358 61
358 150
358 169
359 23
359 151
359 152
359 168
360 23
360 152
360 153
360 167
361 23
361 232
362 23
377 31
377 32
378 32
378 33
378 143
379 33
382 162
382 163
383 163
383 164
384 164
384 165
385 166

15
15 204
15 225
16 224
17 83
17 223
18 222
19 221
20 220
21 364
37 78
37 245
38 78
38 244
38 245
39 243
44 82
44 83
45 84
48 40
60 308
60 309
60 310
60 311
61 308
62 197
71 210
90 34
91 29
92 27
92 28
93 26
93 27
100 19
105 102
105 103
106 309
107 308
115 384
116 384
127 381
128 380
128 381
135 338
156 308
157 308
161 301
164 94
164 95
165 96
167 80
181 366
187 202
188 201
188 202
189 200
189 201
190 199
190 200
191 198
191 199
192 197
192 198
193 196
193 197
194 195
194 196
195 195
199 251
200 252
201 258
210 384
214 59
215 58
216 57
216 58
217 58
217 382
218 381
219 380
220 379
221 55
221 378
222 54
222 55
222 377
223 53
223 54
223 376
224 52
224 53
224 376
225 52
226 51
227 51
227 141
228 51
228 371
228 372
229 51
229 370
229 371
230 50
235 150
237 134
248 44
267 292
280 233
280 234
281 230
315 204
316 299
316 300
317 299
329 283
330 283
330 284
333 236
333 237
333 242
334 241
343 135
346 136
349 73
349 75
350 72
351 71
351 75
352 70
353 294
353 295
355 61
356 24
356 61
356 62
357 23
361 154
361 165
361 166
363 232
377 144
381 160
381 161

16
17 204
17 205
18 205
20 218
21 215
21 216
21 217
21 218
22 217
39 79
40 79
43 81
94 25
95 24
96 23
97 22
98 21
99 20
107 310
117 383
118 382
119 381
120 380
121 379
121 380
122 380
123 380
123 381
124 380
125 380
126 380
149 301
150 301
160 89
160 90
161 90
161 91
162 91
162 92
163 92
163 93
166 81
201 253
208 255
208 256
210 218
211 218
218 57
219 57
220 56
225 375
226 374
226 375
227 373
227 374
227 375
228 375
229 141
229 142
229 376
268 360
276 368
277 237
277 238
277 368
278 236
278 237
278 369
279 235
318 298
319 297
319 298
320 297
333 240
334 238
334 239
334 243
350 74
362 163
362 164
363 162
363 163
380 159

17
19 206
22 214
23 212
23 213
24 212
41 80
42 79
42 80
151 302
152 302
158 302
159 88
159 302
160 87
161 86
162 85
163 84
164 83
165 82
202 254
202 256
205 256
206 255
206 256
212 217
269 361
270 362
271 363
272 364
273 365
274 366
275 367
276 239
276 240
321 296
322 295
323 294
364 161
365 160
366 159
379 156
379 157
380 157

18
21 206
21 207
22 207
22 208
23 208
23 209
24 209
24 210
25 210
154 305
156 303
157 303
203 255
204 255
214 216
214 217
215 215
215 216
216 214
216 215
217 213
217 214
218 213
275 241
275 247
370 153
371 152
371 153
372 151
372 152
373 151
376 148
378 154
378 155

19
154 303
155 304
273 244
273 245
274 243
274 244
274 245
274 246
275 243
368 154
369 154
376 151
376 152
377 152
377 153

20
347 290
347 291
367 155
375 150

21

22
236 142
236 143

23

24
331 293

25
333 294
342 294

26
334 293
335 293
341 293

27
336 292
340 292

28
338 291
338 292

