0
0 0
0 33
0 282
0 306
0 314
15 399
16 399
40 399
41 399
97 0
127 0
128 0
146 0
147 0
169 399
195 399
233 0
234 0
260 0
261 0
330 399
331 399
351 399
352 399
356 399
357 399
371 399
372 399
374 0
375 0
393 0
394 0
399 7
399 8
399 28
399 29
399 170
399 171
399 199
399 200
399 279
399 342
399 378
399 379

1
1 1
1 315
1 347
1 378
1 392
3 85
3 95
10 353
10 363
13 1
13 85
13 95
14 1
17 398
20 353
20 363
39 398
46 224
46 234
48 321
56 224
56 234
64 176
64 186
67 63
74 176
74 186
95 7
123 107
130 398
132 291
133 117
142 398
145 1
170 398
183 80
183 90
193 80
193 90
194 398
197 13
197 23
200 287
200 297
204 343
204 353
207 38
208 86
213 154
213 164
214 343
214 353
218 86
223 154
223 164
227 326
228 306
235 1
238 316
242 303
252 303
252 313
259 1
299 355
309 355
323 384
325 1
332 398
333 31
333 384
334 312
343 31
347 1
350 398
354 230
357 63
358 398
359 394
363 161
365 241
369 394
370 398
373 161
376 1
384 284
392 1
394 274
398 9
398 27
398 172
398 198
398 211
398 212
398 242
398 307
398 343
398 377

2
2 2
2 32
2 283
2 305
12 104
12 120
13 379
13 391
16 66
16 82
18 397
20 391
24 149
24 169
24 181
32 66
32 82
36 391
38 397
46 34
46 46
64 285
65 2
66 301
73 293
80 269
89 277
89 293
94 133
95 2
96 2
112 307
112 319
134 59
134 71
137 311
141 397
143 6
144 2
152 161
152 231
153 112
155 91
163 265
163 277
164 204
165 163
166 295
169 214
169 230
171 397
175 265
175 277
180 159
182 295
182 311
185 270
185 282
190 143
192 159
193 397
195 221
197 270
197 282
206 143
206 268
211 237
217 181
218 134
227 74
227 206
229 181
229 193
233 86
236 2
249 86
249 102
252 148
258 2
258 103
258 115
264 361
264 373
270 103
276 193
276 361
276 373
284 63
284 79
285 114
299 213
300 268
300 284
300 330
316 268
316 284
316 346
326 2
333 397
346 2
349 397
351 77
351 93
352 169
353 204
353 216
355 240
357 26
359 397
364 73
364 231
365 204
365 216
366 196
369 26
369 397
376 353
376 365
377 2
378 6
382 196
386 229
386 241
386 347
390 6
391 2
391 374
397 10
397 26
397 173
397 197
397 213
397 306
397 344
397 376

3
3 3
3 31
3 316
3 317
3 346
3 379
3 391
13 345
18 285
19 396
35 97
36 186
37 396
40 358
40 376
45 148
47 97
47 109
48 174
48 186
58 117
58 135
58 351
58 376
61 239
62 164
66 20
66 31
70 351
70 363
76 117
80 164
84 20
84 31
93 267
94 3
98 71
114 394
130 237
130 255
133 175
133 187
135 202
135 214
136 332
143 3
148 237
148 255
148 332
160 312
161 336
169 351
169 363
172 396
179 336
181 109
181 121
181 351
181 363
189 188
192 396
193 109
200 52
200 70
208 188
208 200
225 349
225 367
226 229
237 3
239 232
239 244
241 201
241 213
243 349
243 367
248 192
251 232
251 244
253 213
257 3
260 192
260 204
269 30
272 303
272 315
273 155
280 213
281 30
281 42
284 315
293 138
307 54
307 72
311 239
325 54
327 3
329 221
334 396
335 393
341 61
341 73
343 298
345 3
347 393
348 396
352 338
360 396
361 298
361 395
361 396
362 395
362 396
363 396
365 396
366 395
366 396
367 395
367 396
368 396
370 264
370 276
375 69
376 256
378 3
378 125
382 79
382 97
388 256
390 3
390 176
393 12
393 24
396 11
396 25
396 125
396 174
396 196
396 214
396 225
396 241
396 305
396 375

4
4 4
4 30
4 284
4 304
4 318
4 345
4 380
4 390
5 87
5 93
9 319
11 87
11 93
12 355
12 361
18 355
18 361
20 395
30 323
30 335
36 395
38 4
42 335
44 124
48 226
48 232
54 226
54 232
66 4
66 178
66 184
69 61
72 178
72 184
73 373
73 385
75 85
75 307
85 373
85 385
87 85
89 53
91 4
92 4
92 5
93 4
93 5
101 293
107 150
109 246
109 293
117 246
120 308
130 293
131 115
132 308
138 4
139 4
139 5
140 4
140 5
140 395
141 4
141 5
142 4
146 130
146 364
154 364
154 372
156 179
156 187
158 130
158 142
167 88
167 96
175 88
175 96
185 82
185 88
191 82
191 88
195 15
195 21
195 238
202 289
206 345
206 351
209 40
210 84
212 345
212 351
215 156
215 162
216 84
219 33
219 302
221 156
221 162
225 324
226 317
226 318
227 33
227 316
227 317
228 315
228 316
229 314
229 315
230 308
230 314
238 4
240 309
240 310
243 64
243 72
250 305
250 311
252 43
252 55
254 124
256 4
264 55
265 65
265 77
276 328
276 336
284 178
284 328
284 336
292 297
298 230
299 201
301 353
307 353
320 356
320 368
321 254
325 382
328 4
329 254
330 14
331 382
332 356
335 29
335 395
336 395
341 29
344 4
346 395
347 395
356 232
359 131
359 139
363 239
364 395
365 322
367 131
367 139
371 163
377 38
379 4
379 304
379 312
380 4
380 5
381 4
381 5
382 4
382 5
383 4
385 4
386 4
386 5
386 282
387 4
387 5
387 312
388 4
388 5
389 4
392 276
394 215
394 216
394 217
394 221
394 222
394 223
395 12
395 13
395 23
395 24
395 175
395 195
395 215
395 216
395 217
395 218
395 220
395 221
395 222
395 223
395 224
395 226
395 227
395 240
395 345
395 346
395 374

5
5 5
5 29
5 285
5 303
5 319
5 344
5 381
5 389
6 88
6 92
10 88
10 92
11 381
11 389
13 356
13 360
17 356
17 360
20 38
21 394
22 128
22 394
26 147
26 171
26 179
28 310
34 38
34 394
35 394
42 296
48 36
48 44
49 227
49 231
53 227
53 231
60 334
67 179
67 183
70 60
71 179
71 183
74 308
74 334
83 228
89 5
90 5
90 106
90 120
95 328
95 342
97 228
102 294
103 48
103 275
104 322
105 322
107 137
108 136
108 137
108 294
109 135
109 136
109 342
110 135
110 247
113 172
113 186
116 8
116 22
116 247
117 48
117 275
120 370
121 131
129 150
130 22
132 61
132 69
136 5
137 5
139 313
147 365
151 55
151 69
153 365
153 371
154 26
154 40
154 229
157 180
157 186
162 206
165 55
165 69
165 267
165 275
167 165
168 40
168 89
168 95
173 9
173 267
173 275
173 394
174 89
174 95
174 394
175 387
186 83
186 87
187 9
187 272
187 280
190 83
190 87
190 161
190 394
191 123
191 394
192 124
193 125
193 371
194 16
194 20
195 272
195 280
205 313
205 327
207 346
207 350
207 371
207 385
210 41
211 83
211 346
211 350
213 96
215 83
216 157
216 161
220 34
220 157
220 161
224 323
226 34
227 110
227 183
227 191
231 309
231 313
234 271
234 285
235 46
238 310
239 5
240 5
240 7
242 65
242 71
242 309
249 306
249 310
254 5
254 7
255 5
255 125
260 105
260 113
266 363
266 371
268 105
274 363
274 371
277 329
277 335
283 329
283 335
287 306
287 307
288 305
288 306
298 202
298 208
298 209
302 352
305 160
305 174
306 352
322 253
323 299
326 381
327 373
328 253
330 381
336 28
337 394
338 394
339 394
340 28
340 394
341 393
341 394
342 394
343 394
344 394
345 394
348 176
348 190
351 35
351 49
355 206
355 214
357 233
357 238
360 132
360 138
362 233
362 238
363 206
363 214
365 69
366 132
366 138
367 28
370 164
378 355
378 363
379 158
380 305
380 311
384 5
386 311
388 231
388 239
393 18
393 158
393 290
394 14
394 15
394 16
394 17
394 18
394 19
394 20
394 21
394 22
394 126
394 176
394 177
394 193
394 194
394 219
394 228
394 229
394 239
394 287
394 289
394 290
394 291
394 303
394 304
394 347
394 372
394 373

6
6 6
6 286
6 302
6 320
6 330
10 382
10 388
11 343
16 287
22 298
23 299
23 393
24 300
24 393
25 393
26 393
27 146
27 172
27 178
27 393
28 392
28 393
29 393
30 393
31 393
32 393
33 393
37 6
37 99
42 360
42 374
43 146
45 99
45 107
46 176
46 184
49 37
49 43
56 374
60 119
60 133
63 241
64 162
67 6
68 18
68 33
68 353
68 361
73 309
74 119
78 162
82 18
82 33
87 6
88 6
95 265
100 73
103 295
107 139
107 295
111 248
115 248
116 392
122 296
126 170
127 169
128 168
129 167
130 166
131 62
131 68
131 185
132 239
132 253
134 6
135 6
137 204
137 212
138 330
140 314
141 376
142 375
142 376
143 374
143 375
144 373
144 374
145 372
145 373
146 239
146 253
146 330
146 371
146 372
147 370
147 371
148 366
148 370
152 366
152 370
155 228
158 181
158 185
161 207
163 334
166 268
166 274
168 166
169 90
169 94
171 353
171 361
172 268
172 274
173 90
173 94
175 393
177 334
179 353
179 361
183 111
183 119
187 186
188 273
188 279
189 162
189 393
190 121
191 111
194 127
194 273
194 279
202 54
202 68
210 190
224 227
225 35
226 184
226 190
227 351
227 365
241 6
241 70
241 234
241 242
241 351
241 365
242 6
242 7
243 6
243 7
243 211
244 6
244 7
245 6
245 7
246 6
248 6
249 6
249 7
249 234
249 242
250 6
250 7
250 194
251 6
251 7
251 211
252 6
252 7
253 6
256 126
258 194
261 106
261 112
264 45
265 44
266 43
267 42
267 106
267 364
267 370
268 41
269 40
271 32
273 364
273 370
274 305
274 313
275 153
278 330
278 334
279 32
279 40
279 133
280 133
280 134
281 134
282 313
282 330
282 334
291 140
297 207
300 218
309 56
309 70
313 237
323 252
327 223
327 252
328 374
329 6
330 6
338 21
339 19
339 63
339 71
342 6
343 6
345 300
350 336
356 207
356 213
358 237
359 300
361 133
361 137
361 234
362 207
362 213
365 67
365 137
366 29
372 274
378 258
379 356
379 362
380 81
380 95
380 127
381 306
381 310
385 310
386 258
389 232
389 238
392 178
392 293
393 178
393 179
393 192
393 230
393 231
393 285
393 286
393 288
393 292
393 293
393 294
393 302
393 348
393 368
393 369
393 370
393 371

7
7 7
7 27
7 28
7 287
7 321
7 322
7 323
7 324
7 325
7 326
7 327
7 328
7 329
7 331
7 332
7 342
7 343
7 382
7 383
7 387
7 388
8 325
9 383
9 387
10 342
15 107
19 69
19 79
28 145
28 173
28 177
29 69
29 79
32 325
32 333
36 7
38 100
40 333
42 145
44 100
44 106
45 177
45 183
50 38
50 42
67 282
67 354
67 360
68 7
75 375
75 383
77 83
83 375
83 383
85 7
85 83
86 7
86 280
86 290
105 307
105 319
106 140
106 141
106 147
117 391
122 306
129 296
130 63
130 184
130 306
131 164
132 7
133 7
138 205
138 211
139 329
139 392
141 315
148 132
149 158
150 109
152 94
156 132
156 227
160 208
166 227
167 269
167 273
169 167
169 298
171 269
171 273
172 354
172 360
176 392
178 354
178 360
179 298
184 112
184 118
188 163
189 274
189 278
190 112
190 119
193 140
193 274
193 278
197 236
198 224
203 140
209 271
211 191
213 78
213 79
214 77
214 78
215 131
215 202
216 202
216 203
217 203
217 204
224 209
225 185
235 311
236 89
236 311
242 235
242 241
244 210
244 308
245 308
246 89
246 99
247 7
248 235
248 241
250 210
251 195
254 45
254 53
255 145
257 195
262 45
262 53
262 107
262 111
266 107
267 67
267 75
268 365
268 369
271 39
272 33
272 39
272 365
272 369
275 306
275 312
278 33
278 39
281 66
281 76
281 312
282 117
284 307
294 299
300 220
300 228
303 271
303 281
303 333
313 271
313 281
313 343
322 358
323 243
324 244
328 376
328 377
330 358
331 7
338 23
338 24
338 64
338 70
341 7
354 80
354 90
357 208
357 212
361 208
361 212
363 320
365 30
365 134
366 66
373 273
375 40
379 259
380 357
380 361
385 187
385 259
390 233
390 237
392 127
392 180
392 181
392 190
392 191
392 232
392 233
392 237
392 238
392 283
392 284
392 295
392 296
392 297
392 298
392 299
392 349
392 366
392 367

8
8 8
8 26
8 90
8 301
8 333
8 334
8 335
8 336
8 337
8 338
8 340
8 341
8 384
8 385
8 386
9 335
9 336
9 337
9 341
9 385
15 358
16 108
20 70
20 78
22 36
28 70
28 78
30 308
32 36
33 326
33 332
35 8
38 322
38 323
39 101
39 321
39 322
39 332
40 298
40 320
40 321
41 144
41 319
41 320
42 318
42 319
43 101
43 105
43 318
44 178
44 182
51 229
58 40
62 332
66 355
66 359
69 8
69 181
72 332
76 376
76 382
78 82
82 376
82 382
83 8
84 8
84 82
85 230
85 289
92 108
92 118
95 230
97 330
97 340
105 50
105 146
105 273
105 299
105 300
105 301
107 340
110 131
113 252
115 50
115 174
115 184
115 273
118 10
118 20
118 390
119 129
121 119
122 118
122 372
123 117
123 305
124 116
125 115
126 114
127 113
128 20
128 112
129 111
129 183
129 305
130 8
131 8
131 152
131 162
139 206
139 210
140 328
148 157
149 108
149 133
151 95
153 57
153 67
155 133
156 28
156 38
163 57
163 67
165 226
166 38
170 299
172 314
173 313
173 355
173 359
175 11
177 355
177 359
177 389
177 391
178 299
185 113
185 117
188 85
189 113
189 117
189 118
191 17
192 18
194 130
194 139
195 373
198 235
199 225
205 373
205 383
207 325
209 348
210 272
212 43
212 192
213 44
213 81
214 130
215 98
215 200
218 159
225 108
232 273
232 283
233 48
233 311
237 90
243 236
243 240
245 90
245 98
245 209
247 236
247 240
247 308
255 46
255 52
256 144
256 196
261 46
261 52
268 68
268 74
273 34
273 38
276 307
276 311
277 34
277 38
277 152
279 130
280 67
280 75
281 118
282 209
292 305
295 300
301 221
301 227
303 162
303 172
304 272
304 280
304 334
304 350
305 348
305 349
312 272
312 280
315 335
316 334
316 335
317 333
317 334
318 332
318 333
319 331
319 332
320 330
320 331
321 301
323 359
325 246
325 247
325 248
328 379
329 359
332 8
337 65
337 69
338 16
338 17
338 26
340 8
350 188
353 47
355 81
355 89
359 235
360 236
362 319
367 167
368 166
374 272
381 156
382 272
383 273
384 260
384 274
384 307
385 275
385 306
385 307
386 276
386 305
386 306
387 277
387 304
387 305
388 278
388 303
388 304
389 279
389 302
389 303
390 235
390 280
390 281
390 301
390 302
391 128
391 156
391 182
391 183
391 189
391 234
391 235
391 236
391 280
391 281
391 282
391 300
391 301
391 350
391 351
391 364
391 365

9
9 9
9 25
9 288
9 289
9 300
9 339
14 289
17 109
21 71
21 77
23 35
27 71
27 77
28 300
31 35
31 307
32 175
33 175
34 331
38 331
44 362
44 372
54 40
54 372
55 40
56 40
62 121
63 331
65 243
65 264
66 160
66 265
66 266
67 266
67 267
70 9
70 312
71 311
71 331
72 121
76 160
77 377
77 381
79 81
81 9
81 377
81 381
82 9
82 71
83 70
83 81
83 140
84 139
84 140
84 288
85 139
86 139
86 231
90 139
93 117
94 142
94 231
95 142
96 143
98 144
98 331
98 339
99 144
99 145
100 144
100 145
101 144
101 145
102 144
104 144
105 143
105 297
106 51
106 309
106 310
106 311
106 315
106 316
106 317
106 339
109 256
110 255
110 256
111 254
111 255
112 253
112 254
113 250
114 51
114 272
116 175
116 183
118 120
118 128
119 11
119 19
119 120
123 373
124 298
124 304
127 11
127 19
128 10
128 304
129 9
130 109
130 110
131 108
131 109
132 107
132 108
132 153
132 161
133 106
133 107
134 105
134 106
134 241
134 251
138 390
139 378
144 241
144 251
146 209
147 208
147 209
148 107
150 96
150 134
150 368
154 58
154 66
154 134
157 29
157 37
160 183
161 182
162 58
162 66
162 182
164 225
165 29
165 37
165 332
166 29
167 28
168 27
169 26
170 25
171 24
171 92
171 300
172 23
173 22
173 311
174 21
175 20
175 332
176 12
176 20
177 300
178 390
179 390
180 390
181 390
182 389
182 390
183 390
184 390
185 184
185 390
186 390
187 390
195 131
195 132
195 138
196 374
199 234
200 226
204 66
204 374
204 382
208 324
211 273
212 302
213 129
216 99
218 206
222 38
222 225
223 37
224 107
229 100
229 353
229 363
230 99
231 98
231 274
231 282
232 97
233 96
238 67
239 68
239 353
239 363
244 91
244 97
256 47
256 51
257 143
258 128
259 129
260 47
260 51
268 141
269 69
269 73
269 142
270 143
271 144
272 145
279 68
279 74
280 119
280 332
281 308
282 308
289 142
295 205
302 163
302 222
302 226
305 273
305 279
305 335
306 347
307 346
311 58
311 68
311 273
311 279
320 302
322 330
324 360
325 250
327 368
328 360
333 9
339 9
347 302
348 334
351 187
356 82
356 88
357 302
361 318
363 135
366 168
370 66
370 67
378 83
378 93
380 271
382 129
382 155
382 187
383 308
390 129
390 155
390 184
390 185
390 187
390 188
390 352
390 362
390 363

10
10 10
10 24
10 290
13 290
18 110
22 72
22 76
26 72
26 76
30 34
30 143
30 175
31 142
32 306
33 10
34 10
34 176
35 177
36 177
36 178
37 178
37 179
37 325
37 326
38 179
38 180
39 180
40 180
45 363
45 371
50 309
52 40
53 371
63 122
64 262
64 330
66 244
67 159
68 268
68 269
70 330
71 122
75 159
80 10
81 73
83 66
83 67
83 68
83 287
87 232
88 139
91 140
92 140
92 141
93 141
93 232
94 116
99 338
103 145
104 328
105 338
106 313
107 52
111 128
111 129
113 52
113 271
117 127
117 176
117 182
120 12
120 18
124 374
125 299
126 12
126 18
127 66
127 298
127 299
128 65
133 154
133 160
135 242
135 250
143 208
143 242
143 250
143 317
144 208
144 318
145 208
149 97
149 209
150 210
151 210
152 318
155 59
155 65
156 318
158 30
158 36
158 210
158 225
159 224
161 59
161 65
163 181
163 224
164 30
164 36
164 180
164 181
165 179
165 180
166 179
166 331
169 271
171 169
172 170
172 301
174 331
176 301
177 13
177 19
184 183
185 166
186 165
188 389
189 388
190 387
191 276
191 386
192 385
193 384
194 383
195 382
196 133
196 137
196 381
197 375
197 381
203 375
203 381
205 65
209 323
210 118
211 117
211 118
211 119
212 116
212 117
212 128
212 274
214 196
214 197
214 198
217 100
219 318
221 224
222 188
223 187
227 101
230 275
230 281
230 354
230 362
236 66
237 66
238 354
238 362
243 92
243 96
258 142
260 130
264 109
265 110
265 131
265 132
266 111
266 130
266 131
267 112
267 129
267 130
268 113
268 128
268 129
269 114
269 127
269 128
270 115
270 126
270 127
270 367
271 116
271 125
271 126
272 117
272 124
272 125
273 118
273 124
274 119
275 120
278 69
278 73
279 120
280 309
288 143
294 304
295 304
301 164
304 303
305 304
306 274
306 278
306 305
306 336
310 274
310 278
312 59
312 67
312 336
313 336
319 303
319 313
320 314
321 315
322 239
322 316
323 317
324 318
325 319
326 320
327 64
328 65
329 66
331 67
332 67
333 67
334 10
337 14
338 10
347 333
348 303
352 186
356 303
357 83
357 87
359 210
362 172
362 173
363 171
363 172
364 170
364 171
365 169
369 65
377 84
377 92
382 359
383 130
383 154
384 358
385 358
389 130
389 154
389 186
389 353
389 354
389 360
389 361

11
11 11
11 23
11 291
11 292
11 293
11 298
11 299
12 291
12 292
16 297
29 33
30 114
30 301
31 113
31 301
32 11
32 112
32 141
33 111
33 305
34 110
35 109
36 108
36 327
37 107
38 106
38 141
39 105
39 142
40 104
41 103
42 180
46 364
46 370
52 370
62 358
63 358
64 123
64 357
65 329
67 245
68 158
69 270
69 329
70 123
70 271
71 11
71 272
71 273
72 11
74 158
78 11
79 11
81 75
81 76
81 77
82 77
88 233
89 250
89 251
90 251
90 252
91 252
91 253
92 233
92 253
92 254
93 254
93 255
94 255
94 256
95 115
95 256
95 257
96 257
96 258
97 258
97 259
98 259
98 260
99 260
99 261
100 261
100 262
100 337
104 337
108 53
112 53
112 270
116 126
118 177
118 181
120 388
121 13
121 17
121 387
125 13
125 17
125 375
126 67
126 300
127 181
134 155
134 159
136 243
136 249
137 388
141 208
142 243
142 249
142 326
143 325
145 147
145 148
146 146
147 145
148 144
149 143
149 320
150 142
150 319
150 320
151 141
151 319
152 138
152 139
152 140
152 211
153 211
153 212
154 212
154 318
156 60
156 64
157 319
158 319
158 320
159 31
159 35
159 320
159 321
160 60
160 64
160 321
160 322
161 322
161 323
162 323
162 324
163 31
163 35
163 324
163 325
167 330
171 318
173 330
175 357
178 14
178 18
183 182
184 167
187 17
187 115
198 376
198 380
201 228
202 376
202 380
210 322
213 115
213 298
213 299
213 300
218 101
219 321
220 189
220 223
221 189
225 101
229 276
229 280
231 61
231 355
231 361
232 62
233 63
234 64
235 65
236 95
237 95
237 355
237 361
245 238
247 207
248 206
253 199
254 198
261 131
265 141
275 36
278 126
278 127
278 309
283 206
285 194
286 193
287 144
287 153
287 154
287 192
288 154
288 155
288 191
289 155
289 156
289 190
290 156
290 157
290 180
290 181
290 182
290 186
290 187
290 188
291 157
291 158
291 179
291 180
292 158
292 159
292 178
292 179
292 205
293 159
293 160
293 177
293 178
294 160
294 161
294 176
294 177
295 161
295 162
295 175
295 176
296 162
296 163
296 174
296 175
296 303
297 174
300 165
300 303
301 303
302 303
306 224
307 224
307 343
310 337
311 337
313 60
313 66
318 304
318 310
318 311
322 237
323 225
324 329
325 64
325 329
326 364
326 365
326 366
327 322
327 323
335 11
335 67
336 11
336 12
337 11
346 332
349 304
353 185
355 304
361 174
368 62
368 63
369 63
376 85
376 91
376 270
377 269
381 263
382 262
384 131
384 153
388 153
388 355
388 356
388 358
388 359

12
12 12
12 13
12 21
12 22
12 294
12 295
12 297
14 297
31 12
32 302
33 140
33 302
36 136
36 329
37 140
47 365
47 369
53 309
54 309
54 365
55 364
55 365
56 363
56 364
57 362
57 363
58 361
58 362
59 360
59 361
60 359
60 360
61 359
65 124
65 259
65 260
68 246
69 124
69 157
72 274
72 275
73 12
73 157
75 49
76 49
76 50
77 12
77 50
77 51
78 51
78 52
79 379
81 79
82 63
82 64
96 109
101 263
103 330
103 331
104 102
104 103
105 101
105 102
106 100
106 101
107 99
107 100
108 98
108 99
109 97
109 98
110 96
110 97
122 386
123 90
124 91
125 92
125 177
125 178
125 180
126 93
126 302
127 93
127 94
128 94
128 95
129 95
129 96
136 387
137 244
137 248
141 244
141 248
144 149
144 150
144 324
145 320
147 104
152 136
155 213
156 213
161 218
161 219
161 220
168 178
171 320
172 329
173 172
174 305
174 306
174 307
174 308
182 181
183 168
201 232
202 231
210 121
210 122
210 123
213 113
214 112
214 113
215 194
216 193
217 192
217 321
218 191
219 190
219 210
219 222
223 102
224 102
232 356
232 360
236 356
236 360
238 94
239 94
249 204
249 205
252 200
252 201
258 49
260 135
260 136
260 137
261 134
262 132
262 133
263 140
264 140
271 71
272 71
273 71
274 71
277 124
277 125
284 196
284 197
284 205
286 151
286 152
290 184
297 164
297 165
297 172
298 303
304 224
308 225
308 340
308 341
308 342
309 226
309 306
310 226
314 61
314 65
317 308
317 309
326 328
326 362
327 328
328 324
328 325
345 331
350 305
354 305
359 316
361 85
366 58
367 56
367 59
367 60
367 61
372 188
375 86
375 90
376 188
377 188
378 188
378 267
378 268
379 188
379 268
380 264
380 265
385 132
387 131
387 132
387 357

13
13 14
13 15
13 296
20 112
21 113
24 74
30 13
34 139
35 131
35 132
35 137
35 138
35 139
36 138
36 139
52 366
53 366
55 310
56 310
64 318
64 319
65 319
65 320
66 258
66 320
66 321
67 322
67 323
67 324
67 325
71 148
72 147
72 148
74 13
75 47
76 13
77 247
77 248
78 247
79 53
80 284
81 61
81 62
81 285
102 264
102 332
102 333
103 104
103 105
103 264
103 265
109 261
120 89
121 89
121 90
122 179
123 179
123 385
124 179
131 96
135 386
143 151
143 156
145 322
145 323
146 321
146 322
147 99
147 321
157 214
158 215
159 216
160 217
161 222
170 178
174 303
180 171
180 172
181 170
181 171
182 16
182 169
183 16
184 16
185 16
198 135
199 134
200 134
203 230
209 124
210 292
211 291
211 292
211 293
211 294
211 295
212 296
212 315
212 316
214 276
215 110
215 111
215 277
216 320
217 213
218 211
218 212
222 103
224 278
225 278
241 94
250 203
251 202
260 140
261 138
261 139
262 139
276 71
276 123
277 122
285 149
285 150
285 198
285 199
290 204
298 169
298 170
298 171
308 276
308 338
311 227
311 306
312 306
313 306
314 306
321 226
321 234
321 235
323 63
331 327
332 327
355 178
359 85
363 85
363 86
364 86
364 87
365 87
366 88
367 54
370 187
371 187
374 188
379 266
385 134
385 135
385 140
385 141
385 142
385 143
385 147
385 148
385 149
385 150
385 151
386 133
386 134
386 135
386 136
386 137
386 138
386 139
386 140
386 141
386 142
386 143
386 146
386 147
386 148
386 149
386 150
386 151
386 152

14
14 16
14 17
22 114
26 30
27 31
28 14
28 116
29 14
34 130
35 303
36 304
37 304
51 367
66 256
67 128
67 129
67 130
67 131
67 255
67 256
67 327
68 131
68 132
69 132
69 133
70 133
70 134
71 134
71 135
71 150
71 151
71 152
71 153
72 135
72 136
73 136
73 137
73 146
73 277
74 137
74 138
74 145
74 248
74 278
74 279
75 14
75 15
75 16
75 35
75 36
75 44
75 45
75 138
75 139
75 144
75 248
76 139
76 143
79 55
79 56
79 246
79 283
80 55
80 56
80 57
80 246
86 247
87 248
89 236
89 237
90 235
97 113
98 112
102 335
109 267
110 55
110 268
111 56
111 57
114 124
118 88
119 88
120 179
123 15
124 384
125 383
127 377
128 378
132 97
133 97
134 379
134 385
136 157
138 156
139 155
139 156
140 156
142 153
142 154
143 153
145 102
145 103
158 62
161 33
170 322
170 323
171 177
180 16
200 378
201 133
202 132
202 133
203 131
203 132
204 130
204 131
204 229
205 129
205 130
205 228
205 229
206 128
206 129
206 228
207 127
207 128
208 126
208 127
209 126
212 290
212 320
213 289
213 317
213 318
213 319
214 288
214 318
214 319
215 287
215 319
216 109
216 278
216 286
217 107
217 108
217 215
217 216
217 217
217 285
218 106
218 107
218 214
218 284
219 105
219 106
220 103
220 104
222 279
222 280
223 279
227 278
286 203
286 204
288 203
289 203
298 167
313 227
316 306
318 63
319 63
320 63
320 227
320 232
320 233
321 63
329 327
334 327
355 183
356 179
356 182
359 37
364 181
365 182
366 52
366 53
366 183
367 184
368 88
368 185
369 88
369 186
385 145

15
15 18
15 19
23 115
25 29
27 15
33 127
33 128
34 128
38 305
39 305
39 306
40 306
40 307
41 307
41 308
42 308
42 309
43 309
43 310
44 310
49 367
58 311
59 312
60 312
67 126
68 253
68 254
70 248
71 155
72 249
73 249
74 37
74 38
74 42
74 43
75 280
76 141
77 141
78 282
79 58
80 59
85 246
88 238
88 239
99 111
101 108
101 109
102 107
106 266
108 263
108 264
108 266
111 92
111 93
112 58
112 59
112 122
112 123
126 382
127 381
134 98
135 98
135 99
136 97
136 98
137 98
137 99
138 98
139 246
141 155
144 101
168 325
168 326
169 324
169 325
169 326
170 327
173 177
179 174
179 175
179 178
180 179
207 227
208 226
209 225
210 224
211 223
212 222
213 221
214 220
215 219
216 218
216 219
217 220
217 279
234 358
279 146
280 146
283 146
284 147
286 201
287 202
314 228
315 228
315 229
316 63
316 229
319 228
343 329
352 307
357 180
357 181
358 180
358 181
359 181
360 38
361 179
362 180
370 87
371 86
371 87
372 87
373 88

16
16 20
17 20
23 19
23 20
24 18
24 27
24 28
24 116
25 17
26 16
26 118
26 119
27 120
28 121
29 122
30 123
31 124
32 125
32 126
61 313
62 313
62 314
63 313
63 314
63 315
69 252
70 250
70 251
71 250
76 281
77 281
82 245
83 244
83 245
84 243
84 244
84 245
85 242
85 243
86 241
86 242
87 240
100 110
101 111
102 112
103 113
104 114
105 115
106 116
107 117
107 265
108 118
109 79
109 119
110 79
110 81
110 120
111 78
111 82
111 83
111 121
112 83
112 84
112 90
112 91
113 60
114 61
114 62
115 62
115 63
116 63
116 64
117 64
117 65
118 65
129 380
132 380
132 383
133 383
139 99
140 99
140 100
141 99
141 100
142 100
143 100
174 176
175 176
175 177
176 177
177 177
178 176
178 177
218 280
218 281
219 280
219 281
221 45
225 61
281 145
282 145
317 228
318 229
319 230
336 326
353 310
360 180
361 39
365 50

17
18 21
19 21
22 21
22 22
23 26
25 117
73 40
110 77
111 75
111 76
113 85
113 86
119 67
130 381
131 381
131 382
223 60
224 60
338 326
339 326
353 312
365 48

18
20 22
21 23
22 24
112 74
113 73
113 88
114 72
114 87
115 71
116 70
117 69
118 68
340 325
341 325
352 313
352 314
363 40
363 45
363 46
364 41
364 46
364 47

19
222 49
342 324
343 323
344 322
345 321
346 320
347 319
348 318
349 317
350 316
351 315
363 42
364 44

20
215 63
215 64
221 50
221 51

21

22
216 61
217 59
217 60
219 54
219 55
220 53

23
218 56
218 57
218 58

