0
0 180
0 212
0 213
142 399
164 399
245 0
254 399
274 399
289 0
313 0
399 45
399 74
399 98
399 250
399 311

1
1 19
1 20
1 40
1 41
1 211
19 310
33 264
33 274
39 119
40 316
43 66
43 76
49 119
49 325
53 66
53 76
58 364
65 326
103 158
103 168
113 158
113 168
154 77
154 87
154 94
154 104
160 288
164 94
164 104
175 334
223 91
223 101
225 398
234 228
245 398
246 1
255 398
257 333
271 346
273 398
277 232
281 346
287 232
287 242
304 117
304 127
304 321
314 311
314 321
314 343
314 353
323 398
324 343
324 353
324 398
326 365
326 375
343 92
343 102
353 92
353 102
353 274
355 237
356 390
357 398
360 127
360 137
368 252
370 127
370 137
398 10
398 218
398 249
398 286
398 287
398 322
398 344

2
2 21
2 39
2 109
2 125
2 181
5 159
13 341
21 159
21 175
29 341
41 83
47 54
49 10
49 22
53 83
53 301
56 161
60 140
61 10
61 22
65 301
68 71
69 192
70 219
75 209
75 289
75 305
82 219
82 281
84 71
90 19
90 31
91 193
91 209
93 60
94 281
97 166
97 182
102 31
107 301
115 355
115 371
119 311
119 327
124 35
124 51
128 381
128 393
132 67
132 79
135 327
140 381
143 397
144 67
144 397
146 121
147 388
157 18
157 30
162 121
162 397
163 397
173 105
173 121
181 291
184 342
189 105
189 121
196 330
196 342
197 291
201 31
201 43
201 168
205 56
208 265
208 281
213 172
214 135
214 172
217 168
226 397
230 135
238 350
241 111
241 127
244 397
245 314
247 2
254 350
256 397
257 314
257 326
261 371
272 397
273 371
277 210
279 66
279 78
289 7
289 198
290 2
290 89
290 105
291 2
291 66
293 10
293 316
299 264
302 58
306 105
309 10
311 2
312 2
314 58
314 179
314 195
316 136
319 292
322 228
325 397
330 179
332 344
341 177
341 189
344 270
344 282
349 378
351 2
353 189
355 352
356 397
360 181
364 200
364 212
366 260
367 2
376 200
376 212
378 272
379 134
380 181
385 221
385 237
387 257
389 78
389 94
395 134
397 11
397 43
397 44
397 75
397 76
397 96
397 97
397 105
397 219
397 248
397 288
397 310

3
3 22
3 38
3 63
3 77
3 210
3 312
3 324
8 226
8 244
15 324
26 226
26 288
26 306
40 333
40 351
42 257
54 257
58 333
59 262
59 280
72 39
98 244
99 349
107 41
107 53
115 95
115 107
141 95
141 107
141 261
142 391
142 392
143 158
143 170
143 392
143 393
145 396
147 10
150 232
155 158
155 170
158 321
161 396
162 144
166 16
166 34
166 215
176 303
178 215
182 271
183 272
184 16
184 34
204 8
208 299
222 8
226 299
227 396
230 168
233 28
233 46
235 56
235 68
242 168
242 180
243 396
247 56
247 68
248 3
250 14
254 206
258 389
262 265
262 276
262 294
266 89
266 101
267 24
272 251
277 388
278 89
278 101
280 276
285 24
289 376
289 388
292 3
295 28
295 46
303 168
310 3
313 46
320 255
326 396
328 389
332 218
332 255
344 206
344 218
349 119
349 131
353 56
371 56
373 77
377 307
379 40
384 14
387 357
396 12
396 42
396 77
396 95
396 106
396 220
396 289
396 309
396 323
396 343

4
4 23
4 37
4 110
4 124
4 209
14 111
14 123
15 64
15 76
17 312
17 365
21 40
25 11
25 365
30 96
30 108
35 266
35 272
37 11
41 117
41 285
42 284
42 285
42 314
43 283
43 284
44 283
45 68
45 74
47 117
51 68
51 74
60 362
63 324
66 34
72 237
84 237
102 268
102 281
105 160
105 166
111 160
111 166
114 293
115 18
115 26
121 278
129 231
130 23
130 130
130 142
131 6
138 359
138 371
140 391
152 79
152 85
156 96
156 102
157 371
160 395
162 45
162 57
162 96
162 102
174 45
174 57
177 332
184 395
190 314
214 110
215 145
223 153
224 382
225 93
225 99
226 204
231 87
232 226
239 87
239 95
241 388
243 265
255 335
257 395
258 395
264 122
264 134
265 177
265 189
270 395
271 395
273 348
275 240
275 241
275 361
276 239
276 240
277 239
279 234
279 348
283 361
284 181
285 234
285 240
293 4
301 23
302 119
308 241
309 4
309 23
310 82
312 313
312 319
316 345
316 351
320 115
320 123
322 240
322 345
322 351
327 395
328 115
328 367
328 373
332 133
338 66
338 74
343 296
345 94
345 100
347 253
347 261
351 94
351 100
352 4
353 14
353 179
353 341
354 178
354 392
354 395
355 177
355 272
355 395
356 176
357 239
359 165
360 295
362 129
362 135
365 14
366 4
368 129
368 135
368 295
369 239
372 245
372 246
373 246
373 247
374 247
375 372
377 165
379 112
387 295
387 307
395 13
395 41
395 78
395 94
395 107
395 221
395 246
395 247
395 290
395 308

5
5 24
5 25
5 36
5 64
5 76
5 111
5 123
5 208
5 313
5 323
15 207
16 313
18 364
21 253
24 364
35 239
35 253
36 267
39 31
42 116
43 85
43 313
46 69
46 116
50 38
50 69
50 73
51 12
51 85
54 105
55 303
56 351
57 352
58 353
59 12
59 20
59 354
60 355
61 356
61 357
61 361
62 323
63 303
72 221
73 351
80 221
84 283
87 365
92 21
92 29
93 141
93 155
103 267
106 161
106 165
110 161
110 165
114 19
114 25
130 383
130 391
132 7
133 276
134 69
134 77
138 383
142 69
145 38
145 52
146 394
151 84
153 340
153 354
157 97
157 101
159 394
161 97
161 101
167 340
167 354
178 331
180 174
181 268
183 237
184 275
185 147
185 161
185 394
186 340
187 215
194 174
194 340
198 246
201 215
202 85
203 41
208 221
208 235
210 347
215 111
216 85
216 146
216 376
222 145
222 146
224 347
226 98
226 192
231 225
238 88
238 94
241 394
242 394
249 5
250 5
254 336
255 316
255 324
259 394
263 373
267 233
269 394
272 336
274 349
276 360
279 208
280 235
281 68
281 76
282 360
284 235
284 239
285 8
285 146
286 336
293 226
295 314
301 120
304 60
308 5
308 24
311 318
312 60
317 346
317 350
320 230
321 116
321 122
321 164
321 346
321 350
328 394
329 368
329 372
339 67
339 73
342 272
342 280
343 179
343 187
346 95
346 99
348 254
348 260
348 394
349 393
349 394
350 95
350 99
350 394
351 179
351 187
352 394
353 5
353 393
353 394
354 254
355 253
355 254
356 252
356 253
356 271
357 251
357 252
358 240
358 250
358 251
359 249
359 250
360 249
361 294
363 130
363 134
365 5
366 202
366 210
367 130
367 134
367 294
368 240
374 202
374 210
375 248
376 270
378 179
380 113
385 255
394 40
394 79
394 93
394 108
394 245
394 291
394 292
394 324
394 342

6
6 26
6 65
6 75
6 112
6 122
6 207
6 314
6 322
10 228
10 242
13 322
19 363
23 363
24 228
28 290
28 304
41 288
42 335
42 349
44 86
44 259
44 280
47 73
50 86
51 19
52 13
52 19
53 322
53 323
56 335
56 349
57 278
58 13
58 19
62 304
73 222
93 22
93 28
97 347
100 246
104 23
104 24
104 266
105 23
105 43
105 51
113 20
113 24
117 97
117 105
131 390
133 8
135 70
137 384
137 390
138 390
139 97
139 105
143 259
145 12
145 160
145 168
147 393
148 234
148 393
153 160
153 168
155 388
156 387
156 388
157 386
157 387
157 393
158 385
158 386
158 393
159 384
159 385
160 142
160 319
168 18
168 32
168 217
174 305
176 217
182 18
182 32
186 393
187 339
193 339
204 40
206 10
210 301
216 112
220 10
221 147
224 301
231 30
231 44
232 170
237 58
237 66
237 89
237 93
240 170
240 178
240 393
245 58
245 66
251 6
252 12
252 208
254 317
254 323
260 263
260 393
264 278
264 374
265 386
266 385
268 91
268 99
268 393
269 22
270 249
276 91
276 99
277 359
278 278
279 238
280 207
280 238
281 359
282 69
282 75
283 8
283 22
286 207
287 207
287 208
287 378
287 386
288 208
288 209
289 209
289 210
290 210
290 211
291 211
291 212
292 212
292 213
293 73
293 74
293 213
294 6
294 74
294 75
295 6
296 313
297 44
305 61
305 166
307 6
311 44
311 61
320 239
322 117
322 121
322 257
329 393
330 257
330 391
330 393
340 68
340 72
341 273
341 279
342 208
342 216
344 180
344 186
345 393
346 392
346 393
347 121
347 129
347 393
349 255
349 259
350 180
350 186
351 393
353 255
353 261
353 262
354 6
354 262
354 263
355 58
355 263
355 264
356 264
356 265
357 265
357 266
362 293
364 6
366 293
367 203
367 209
367 241
369 58
371 75
373 203
373 209
375 309
377 178
377 248
381 38
384 254
385 355
386 16
393 14
393 15
393 39
393 80
393 92
393 222
393 223
393 239
393 240
393 241
393 242
393 244
393 293
393 306
393 307
393 325
393 341

7
7 27
7 28
7 66
7 74
7 315
7 321
8 162
11 178
12 113
12 121
12 178
13 66
13 74
16 344
18 162
26 344
27 13
32 98
32 106
35 13
45 87
45 260
50 51
53 14
53 18
57 14
57 18
59 158
61 305
65 359
66 359
71 68
74 223
74 235
78 206
78 302
81 68
82 235
88 206
94 23
94 27
94 169
94 179
102 24
104 44
104 50
112 291
118 98
118 104
118 358
118 368
122 314
122 324
127 38
127 48
131 233
132 21
132 132
132 140
132 324
132 384
132 385
132 389
136 71
136 361
136 369
136 385
136 389
138 98
138 104
144 13
146 161
146 167
149 124
149 275
149 392
150 274
150 392
151 273
151 392
152 161
152 167
152 272
152 392
153 271
153 392
154 270
156 392
159 124
159 373
160 383
164 47
164 55
169 218
172 55
175 218
176 108
176 118
184 278
184 288
186 108
186 118
188 316
192 338
194 288
205 39
205 268
205 278
206 196
207 195
208 194
209 193
210 192
211 191
212 190
214 178
217 132
217 239
218 239
218 240
219 240
219 241
220 241
228 206
229 392
230 392
233 171
238 59
238 65
238 114
238 124
239 171
239 177
239 390
239 392
241 347
244 59
244 65
251 209
251 347
252 7
253 318
261 392
265 375
266 124
266 132
266 383
267 179
267 187
267 392
269 92
269 98
275 92
275 98
281 206
282 183
283 70
283 74
285 206
286 379
286 385
288 286
291 73
293 92
293 102
296 7
297 7
297 312
298 7
299 7
300 7
300 87
301 7
301 8
301 86
301 87
302 7
302 85
302 86
302 267
303 7
303 85
303 102
304 7
305 7
306 7
306 62
306 165
310 62
310 239
313 139
315 268
315 276
316 267
316 277
317 182
317 266
317 278
318 265
318 279
319 264
319 280
320 263
322 289
323 258
327 182
329 258
331 392
332 391
332 392
333 391
333 392
334 131
334 391
334 392
335 341
335 391
335 392
336 392
338 392
339 391
339 392
340 274
340 392
341 209
341 215
341 298
342 392
343 392
344 392
345 181
345 185
346 122
346 375
348 69
349 68
349 181
349 185
349 367
350 367
351 339
351 366
352 259
352 260
352 365
353 364
354 363
355 12
355 363
358 267
358 355
361 167
361 247
363 12
368 204
368 208
370 74
372 204
372 208
373 370
374 261
374 262
375 167
375 260
376 177
376 259
377 258
378 249
378 257
379 249
379 255
379 256
382 131
383 253
384 354
385 249
386 249
387 248
388 224
388 247
389 246
389 305
390 245
391 86
391 244
392 16
392 38
392 81
392 82
392 83
392 84
392 85
392 86
392 87
392 88
392 89
392 90
392 91
392 109
392 110
392 131
392 224
392 237
392 238
392 243
392 294
392 295
392 305
392 326

8
8 29
8 30
8 113
8 114
8 120
8 121
8 205
8 206
9 163
11 114
11 120
12 67
12 73
12 320
13 205
13 316
14 315
17 163
17 345
23 251
25 345
28 14
33 99
33 105
33 241
33 251
34 14
37 29
40 290
43 113
44 114
45 278
47 311
48 71
48 87
48 312
51 50
54 320
59 320
60 321
63 359
72 67
75 234
79 205
79 301
80 67
81 234
85 363
87 205
91 143
93 170
93 178
103 45
103 49
107 22
108 22
108 163
109 22
117 272
119 99
119 103
119 359
119 367
123 315
123 323
128 39
128 47
131 323
132 234
133 20
133 133
133 139
135 278
135 362
137 99
137 103
143 40
143 50
147 162
147 166
148 81
149 82
151 162
151 166
154 268
154 391
155 342
155 352
155 391
158 125
159 99
160 374
160 381
165 48
165 54
165 342
165 352
170 219
171 47
171 54
174 219
177 109
177 117
182 176
185 109
185 117
185 279
185 287
187 149
187 317
187 391
188 391
189 213
193 287
196 248
199 213
203 197
204 83
204 197
204 277
210 223
210 233
212 345
213 165
214 83
214 190
217 51
217 52
222 345
222 387
223 386
224 190
224 387
225 388
226 389
227 390
228 96
228 391
229 95
229 207
231 391
232 391
233 322
233 323
233 391
234 323
234 324
234 391
235 324
235 325
235 390
235 391
236 325
236 391
237 115
237 123
237 391
238 172
238 176
238 391
239 60
239 64
242 346
243 60
243 64
250 210
250 346
253 8
262 391
263 391
265 389
265 391
266 391
267 125
267 131
268 180
268 186
270 93
270 97
273 378
274 93
274 97
274 334
274 379
275 380
276 351
276 381
277 352
277 381
278 356
279 129
279 195
279 355
280 196
281 184
281 197
282 198
282 237
284 334
285 380
285 384
287 144
294 93
294 101
295 214
295 224
298 123
299 122
300 89
302 101
303 268
307 164
308 315
309 316
311 238
312 140
318 183
318 238
319 162
319 348
323 288
324 259
326 119
326 183
327 119
327 120
327 208
328 120
328 121
328 208
328 259
329 121
329 122
329 209
330 122
330 123
330 210
331 123
331 124
331 211
332 124
332 125
332 211
335 130
336 340
337 391
340 210
340 214
340 299
341 391
344 70
345 70
345 123
345 374
346 70
348 97
350 338
355 8
356 8
356 11
358 269
359 269
359 270
359 356
360 242
360 270
361 243
362 8
362 11
362 168
363 8
364 289
365 132
369 73
372 369
373 263
373 264
374 168
380 253
380 254
383 130
383 250
383 353
384 250
389 225
390 297
390 298
390 299
390 303
390 304
391 17
391 37
391 111
391 130
391 225
391 235
391 236
391 296
391 297
391 298
391 299
391 300
391 302
391 303
391 304
391 327

9
9 31
9 32
9 35
9 67
9 68
9 72
9 73
9 115
9 116
9 118
9 119
9 204
9 316
9 317
9 319
9 320
10 115
10 119
10 164
11 68
11 72
11 181
12 175
12 204
12 230
12 240
12 317
16 164
18 346
21 361
22 230
24 346
29 15
30 292
30 302
32 250
34 100
34 104
36 28
39 304
40 292
40 305
41 306
42 307
43 308
44 309
44 337
44 347
45 310
52 49
54 347
55 276
58 319
63 145
73 66
76 233
79 66
79 225
80 204
80 233
80 300
84 362
86 204
90 144
92 177
95 345
98 25
99 25
100 25
102 248
110 282
110 283
111 22
111 281
111 282
112 280
112 281
113 279
113 280
114 278
114 279
115 277
115 278
116 270
116 271
116 276
116 277
117 274
120 360
120 366
124 316
124 322
127 101
129 40
129 101
130 322
134 19
134 134
134 138
134 363
134 367
134 368
135 10
135 11
136 279
138 76
141 73
142 41
142 49
145 79
146 79
146 80
146 236
147 80
148 278
153 24
154 24
155 24
156 343
156 351
157 126
158 140
161 375
161 379
161 380
162 317
164 343
164 351
166 49
166 53
170 48
170 49
170 53
172 307
178 110
178 116
180 20
180 30
183 177
184 110
184 116
186 280
186 286
186 318
188 150
189 390
190 212
195 249
198 212
202 198
203 276
205 82
208 12
211 224
211 232
212 163
212 164
212 303
213 82
213 344
214 55
214 56
215 54
215 180
215 181
215 189
216 53
218 12
218 114
218 150
219 115
219 130
219 131
219 149
219 259
221 344
221 386
222 303
223 189
229 32
229 42
230 94
230 208
231 93
231 94
232 92
232 93
233 92
233 93
234 92
235 91
236 116
236 122
237 326
243 345
249 345
254 9
254 10
255 9
255 10
256 9
256 10
257 9
257 10
258 9
258 261
260 9
261 9
264 390
266 280
267 380
267 381
268 126
268 130
269 181
270 377
271 377
272 297
273 297
273 298
278 353
278 354
279 193
279 357
281 10
281 20
283 200
283 201
283 202
283 333
287 72
288 72
288 143
289 72
290 287
291 287
295 100
296 215
296 223
297 124
299 42
301 100
302 310
303 82
303 310
303 311
304 269
304 311
304 312
305 312
305 313
306 313
306 314
307 28
307 314
308 66
309 42
311 141
311 269
311 275
312 237
312 269
312 275
316 213
316 214
317 212
317 213
318 161
318 211
318 212
319 184
319 210
319 211
320 209
320 210
321 208
321 209
322 207
322 208
324 119
324 287
325 184
325 198
326 207
327 267
328 268
329 269
330 270
330 291
331 271
331 292
332 293
333 294
334 125
334 295
335 296
336 129
337 339
342 70
344 128
344 373
349 337
351 257
357 9
357 10
357 60
358 9
360 9
361 9
361 10
361 271
362 175
362 244
363 169
363 175
364 291
365 287
365 288
366 245
366 278
366 279
366 280
366 284
366 285
366 286
367 60
371 368
373 169
373 311
383 36
384 114
384 129
388 18
389 229
390 18
390 36
390 112
390 129
390 226
390 227
390 228
390 229
390 230
390 231
390 232
390 233
390 234
390 301

10
10 33
10 69
10 70
10 71
10 117
10 182
10 183
10 195
10 196
10 197
10 198
10 199
10 201
10 202
10 203
10 318
11 70
11 165
11 196
11 197
11 198
11 202
11 203
11 318
13 231
13 239
15 165
19 347
21 231
21 357
23 347
31 249
31 293
31 301
35 27
39 293
39 302
45 338
45 346
53 41
53 48
53 346
54 275
55 16
56 317
57 318
58 308
59 307
74 65
76 225
77 226
81 203
81 299
83 361
85 203
89 145
91 176
92 51
93 50
93 51
94 49
94 50
95 48
95 49
96 25
96 48
96 310
97 47
98 47
99 47
103 249
109 284
109 285
115 269
121 361
121 365
123 101
124 101
125 101
125 317
125 321
129 317
129 321
130 41
130 316
130 317
131 101
131 315
131 316
132 101
132 314
132 315
133 101
133 313
133 314
134 312
134 313
134 387
135 311
135 312
136 310
136 311
137 280
137 309
137 310
138 73
138 308
138 309
139 74
139 75
139 307
139 308
140 74
140 75
140 307
141 42
141 48
141 75
142 76
142 136
143 77
144 78
145 237
148 280
149 23
150 23
151 24
156 127
157 139
157 344
157 350
163 316
163 344
163 350
169 229
169 230
169 231
170 227
170 228
171 30
171 226
171 227
172 223
172 224
172 225
179 21
179 29
179 111
179 115
183 111
183 115
184 178
187 285
189 151
189 335
190 336
190 389
191 211
193 260
193 261
194 250
194 261
194 262
195 262
195 263
196 263
196 264
197 264
197 265
198 265
198 266
199 266
201 199
206 81
207 37
209 13
211 157
211 158
211 162
212 81
212 156
212 157
212 225
213 155
213 156
213 304
214 154
214 155
214 343
215 153
215 154
216 152
216 153
216 182
216 188
217 13
217 151
217 152
217 235
218 49
218 385
219 48
219 385
219 386
220 129
220 245
220 343
221 304
222 188
226 182
226 221
227 181
227 220
228 41
228 180
228 219
229 179
229 218
230 178
230 217
231 177
231 216
232 176
233 175
234 174
235 117
238 210
238 252
239 211
239 326
239 327
240 212
240 327
241 213
242 213
243 331
244 332
244 344
245 333
246 334
248 344
250 321
251 320
257 260
259 10
262 10
263 10
267 281
267 377
268 378
268 379
269 378
276 128
276 332
276 333
279 382
280 11
280 19
280 382
281 382
282 332
283 204
285 72
289 142
292 288
294 126
295 126
296 99
296 125
297 216
297 222
299 310
300 41
300 99
300 309
301 309
305 270
306 68
306 69
307 67
307 68
308 41
308 64
309 270
310 142
310 270
313 215
314 214
314 215
316 236
317 160
317 236
320 185
324 185
324 206
324 207
325 196
325 286
326 264
326 265
329 288
329 289
333 370
334 212
335 126
335 212
336 126
336 212
336 298
336 299
337 277
338 276
338 338
343 372
345 368
346 368
347 183
353 67
358 61
358 362
359 10
363 245
364 174
365 244
366 61
366 282
370 206
371 267
372 266
372 312
373 174
374 175
381 251
384 35
385 128
389 19
389 20
389 113
389 128
389 328
389 329

11
11 34
11 184
11 185
11 186
11 187
11 188
11 189
11 190
11 191
11 192
11 193
11 194
11 200
12 34
12 189
13 33
13 34
14 232
17 34
18 34
19 33
19 34
20 32
20 33
21 31
21 32
22 30
22 31
23 29
23 30
24 28
24 29
25 27
25 28
26 26
26 27
27 26
30 248
32 294
32 300
33 17
34 26
38 300
38 301
46 339
46 345
52 264
52 337
52 338
52 345
53 274
54 42
55 316
57 309
73 359
78 190
78 191
78 227
78 228
78 229
79 191
79 192
80 192
80 193
81 193
81 194
82 194
82 195
82 360
88 146
92 306
93 306
93 307
94 307
94 308
95 308
95 309
101 47
104 250
106 262
121 101
130 365
131 46
131 364
135 101
136 13
138 136
138 281
139 136
140 43
140 47
140 136
141 306
144 238
146 21
147 21
147 22
147 281
147 282
148 22
149 164
156 138
158 345
158 349
162 345
162 349
165 377
166 377
172 221
178 22
178 28
183 326
185 179
188 333
188 334
189 176
189 177
190 152
190 158
190 159
192 210
193 251
199 268
207 80
210 14
211 80
213 226
214 305
215 342
216 14
216 384
217 183
217 187
217 384
219 342
220 305
221 116
221 117
221 187
222 226
222 227
223 183
223 225
223 226
224 183
224 224
224 225
225 223
225 224
226 223
227 40
232 213
232 214
234 253
235 210
235 253
236 174
236 210
236 252
239 253
240 253
240 254
241 62
241 254
247 213
248 212
248 322
249 322
256 259
264 11
265 11
268 282
272 95
272 128
272 294
273 128
274 128
275 317
276 318
277 319
277 331
278 190
278 191
278 320
279 12
279 18
281 331
283 382
290 141
292 127
293 127
298 217
298 221
298 284
299 92
299 93
299 283
299 284
299 294
299 295
300 282
300 283
301 40
301 281
301 282
302 30
302 280
302 281
303 279
303 280
304 71
304 72
304 79
304 80
304 278
304 279
305 70
305 277
305 278
306 276
306 277
307 40
309 162
310 161
311 216
312 216
315 233
315 234
324 194
324 195
325 262
325 263
326 261
328 287
337 300
338 212
339 126
340 126
340 127
341 126
341 127
342 126
342 127
343 125
343 369
344 369
355 67
365 62
366 70
367 71
370 268
372 173
385 34
387 22
388 21
388 22
388 23
388 34
388 35
388 114
388 330

12
13 169
13 170
13 171
13 172
15 34
15 233
21 351
21 352
21 353
21 354
28 25
29 25
31 17
33 295
33 299
37 294
37 295
37 299
47 91
47 340
47 344
51 339
51 340
51 344
52 273
55 43
55 311
55 312
56 310
56 311
64 42
64 148
65 42
65 43
66 43
66 44
67 44
67 45
68 45
68 46
69 46
69 47
70 47
70 48
71 48
71 49
72 49
72 50
73 50
73 51
74 51
74 52
75 52
75 53
76 53
76 54
77 54
77 186
77 187
77 188
77 189
78 231
83 196
83 197
83 198
83 199
88 52
89 52
90 52
90 331
91 330
92 329
93 314
93 328
94 313
94 314
94 315
95 312
105 251
106 260
107 288
108 287
115 266
125 363
126 363
127 363
128 363
128 364
129 364
132 365
136 17
136 136
137 14
137 16
140 16
141 16
142 17
143 18
143 239
144 19
144 135
145 20
155 137
163 377
167 376
168 51
169 375
170 233
170 374
171 234
171 235
171 374
172 374
173 374
177 23
177 27
177 374
178 374
179 374
183 321
183 324
184 320
184 329
185 330
186 331
187 188
187 332
188 178
188 179
188 189
191 156
191 157
192 257
192 258
197 209
199 154
199 155
200 155
200 156
200 269
200 270
200 271
201 156
201 157
202 157
202 158
203 158
203 159
204 159
204 160
205 160
206 160
207 160
211 15
213 59
213 60
213 61
213 62
213 66
213 67
213 68
215 15
215 306
216 233
217 333
218 332
219 306
219 331
220 227
220 330
221 184
221 247
221 248
221 257
221 329
222 118
222 184
222 328
223 118
232 210
232 254
233 211
233 212
233 254
234 211
242 255
242 328
243 256
243 327
244 214
244 256
244 326
245 214
245 215
245 325
246 214
246 215
246 216
246 324
246 337
246 339
246 340
247 216
247 217
247 323
247 340
247 341
248 217
248 218
249 218
249 219
250 219
250 220
251 220
255 258
266 12
267 12
269 283
270 128
271 183
272 184
272 185
273 184
274 301
274 315
277 185
277 189
278 13
278 17
279 322
284 129
298 94
298 95
298 286
298 292
298 293
300 296
300 297
300 298
300 299
300 303
300 305
300 306
302 39
303 73
303 74
303 78
305 30
306 39
307 219
307 225
307 274
307 275
308 219
308 226
308 274
309 218
309 227
310 217
310 228
311 160
311 229
312 230
313 231
314 232
314 235
315 159
322 189
322 190
322 191
323 188
323 189
323 190
336 370
337 302
337 370
337 371
338 127
338 303
338 304
338 370
339 370
344 326
344 327
345 326
347 335
354 317
359 316
364 63
365 69
365 171
365 272
366 172
366 173
366 271
366 272
367 172
367 270
367 271
368 172
368 269
368 270
368 365
369 172
369 269
369 366
370 172
371 171
371 172
386 26
386 27
386 28
386 29
386 33
386 116
386 126
387 24
387 25
387 26
387 27
387 28
387 29
387 30
387 32
387 33
387 115
387 116
387 117
387 118
387 119
387 120
387 121
387 122
387 123
387 124
387 125
387 126
387 127

13
13 167
21 349
30 24
31 23
32 19
32 20
32 21
32 22
33 20
47 93
51 266
54 313
55 46
56 44
56 45
57 45
61 43
62 42
62 43
63 43
65 149
75 358
76 63
76 358
77 62
83 201
83 297
87 53
90 333
93 316
93 317
93 318
93 319
93 323
93 324
93 325
93 326
106 289
114 264
114 265
123 363
127 319
132 43
133 44
133 45
134 44
134 45
135 44
135 45
136 44
136 45
137 44
138 15
139 15
145 283
146 135
153 302
154 129
154 130
154 303
155 304
156 305
157 306
158 307
159 308
160 309
161 310
162 311
163 311
170 24
172 236
172 237
172 313
173 237
173 238
173 313
173 314
174 314
174 315
175 315
175 316
175 374
176 316
176 317
177 317
177 318
178 318
178 319
179 319
179 320
180 320
180 321
180 375
181 113
181 321
181 322
181 376
182 322
182 323
182 376
187 183
187 184
187 185
187 186
189 191
189 192
189 283
190 282
191 255
191 256
194 154
195 154
196 154
197 154
202 381
202 382
203 381
205 383
206 383
207 383
209 73
209 74
209 75
209 76
209 160
210 71
210 72
210 73
210 74
210 75
210 76
211 70
211 72
211 383
212 69
212 383
213 64
213 383
214 383
215 231
217 335
217 336
217 337
217 338
218 228
219 228
222 127
222 249
222 250
222 256
222 326
223 126
224 119
225 119
231 255
232 120
233 119
245 257
246 257
246 342
247 338
250 223
251 222
251 223
251 224
251 225
268 13
269 13
271 292
274 185
274 303
274 304
274 306
274 310
274 311
274 312
274 313
275 185
275 186
276 186
276 187
277 187
279 324
279 325
279 326
279 327
289 129
290 128
296 288
296 289
297 287
297 288
297 289
297 290
298 97
298 290
299 304
300 301
302 75
302 76
302 219
303 32
303 76
303 219
305 32
306 222
306 223
307 272
308 144
312 159
322 187
323 192
327 284
328 284
339 305
339 306
340 306
340 307
340 336
341 335
341 370
343 328
344 329
345 324
345 335
352 317
357 66
358 66
361 316
364 68
367 364
371 315
386 31

14
27 245
28 246
32 24
45 271
46 94
46 95
50 267
58 44
59 44
60 44
66 150
77 357
78 60
78 61
78 184
78 356
78 357
79 182
79 183
79 355
79 356
79 357
80 354
80 358
81 353
82 352
83 351
84 54
84 350
85 53
85 54
85 149
85 292
85 349
86 148
86 348
87 347
88 346
89 345
90 335
90 336
90 337
90 338
90 342
90 343
90 344
93 321
98 296
99 295
100 294
101 293
102 292
103 291
104 290
105 290
107 258
138 45
140 283
141 284
143 304
144 303
148 295
153 131
160 347
164 312
165 312
169 312
170 312
171 25
171 312
172 25
172 26
173 25
174 239
175 240
176 241
187 181
188 252
189 253
190 193
190 254
191 253
191 281
192 154
192 280
192 281
193 279
193 280
194 208
194 278
194 279
195 207
195 277
195 278
196 276
196 277
197 275
197 276
198 274
198 275
199 273
204 382
209 78
209 383
213 19
213 20
213 21
213 22
214 23
214 24
215 24
215 25
215 228
216 229
216 230
217 229
217 310
217 311
217 312
217 340
219 185
223 255
223 324
223 325
224 125
228 255
229 254
229 255
230 121
231 121
247 256
251 227
252 228
252 229
270 14
271 14
271 15
271 290
272 14
272 15
273 14
273 15
274 15
274 308
275 305
276 285
279 329
286 130
287 130
292 139
293 138
295 138
296 138
296 139
297 139
297 140
298 140
299 141
300 142
300 219
301 143
302 144
303 145
304 33
304 34
304 35
304 146
304 220
305 146
305 220
305 221
313 154
313 155
313 158
314 157
341 308
342 309
342 334
343 310
344 311
344 334
345 312
345 313
359 65
360 65
361 66
363 67
363 316
363 362

15
17 235
18 236
26 244
35 297
45 96
49 270
49 342
50 271
79 58
79 59
80 55
80 57
80 58
80 180
80 181
81 55
81 56
81 57
82 55
82 56
83 55
84 150
86 293
90 340
107 253
108 254
123 251
124 250
124 251
125 249
125 250
126 248
126 249
127 247
127 248
128 247
137 241
141 241
142 285
142 286
143 285
144 285
145 302
146 297
147 296
148 134
149 134
150 301
152 132
152 134
153 135
158 260
159 260
159 261
161 260
162 260
167 312
175 25
184 377
185 377
190 195
191 195
191 196
196 204
196 205
196 206
213 17
216 26
217 27
217 308
218 313
219 314
219 315
220 316
220 317
221 317
221 318
222 318
222 319
223 252
223 319
223 320
224 253
224 254
224 323
225 122
225 124
225 254
225 255
225 322
226 254
227 124
227 254
228 122
228 123
229 122
249 255
249 256
250 255
253 230
253 231
271 285
272 286
272 288
272 289
274 286
275 286
276 15
288 131
289 132
290 133
291 134
292 135
293 136
294 137
304 37
306 147
307 147
311 151
311 152
312 152
312 153
328 281
329 280
329 281
330 279
330 280
331 278
331 279
332 278
343 331
343 332
343 333
346 314
346 315
346 321
346 322
362 65
364 317
365 317
376 347
376 348

16
19 237
25 243
44 98
44 99
45 98
46 269
47 269
48 268
48 269
68 151
81 179
82 178
83 151
109 255
121 252
122 252
129 246
130 245
131 244
131 245
132 243
132 244
133 242
133 243
134 242
135 241
138 242
139 242
139 243
140 243
140 244
141 244
141 245
142 245
142 246
143 246
143 247
143 287
143 288
144 247
144 248
144 288
144 289
145 248
145 249
146 249
146 250
146 291
146 292
146 299
146 301
147 250
147 251
147 293
148 251
148 252
148 301
149 252
149 253
150 133
150 253
150 254
151 133
151 254
151 255
152 255
152 256
153 256
153 257
157 259
163 259
164 258
164 259
165 258
177 244
186 378
187 378
192 197
192 198
195 203
198 380
224 321
226 123
251 254
254 232
255 233
255 234
256 234
256 235
257 235
257 236
258 237
259 238
260 239
260 240
260 245
260 246
261 245
262 242
273 287
308 148
309 149
310 150
347 319
347 320
365 361
366 318
366 360
366 361
367 359
367 360
375 349
377 346

17
20 238
21 239
22 240
23 241
24 242
43 100
43 101
43 103
68 153
69 153
74 162
75 162
75 163
76 163
76 164
77 164
77 165
78 165
78 166
79 166
79 167
82 152
88 294
88 295
110 256
118 254
119 253
119 254
120 253
145 290
147 300
154 258
155 259
166 257
167 256
168 255
168 256
169 254
169 255
170 253
170 254
171 253
193 199
194 200
194 201
195 201
195 381
196 380
196 381
197 381
253 253
253 254
254 252
254 253
255 251
255 252
256 250
256 251
257 249
257 250
258 248
258 249
259 247
259 248
261 241
347 317
348 318
368 318
368 319
368 357
368 358
369 319
369 356
369 357
370 355
370 356
371 354
371 355
372 353
372 354
373 352
373 353
374 351
374 352
375 351
377 344
378 343
378 344

18
42 102
70 154
77 156
78 155
78 156
79 154
79 155
80 154
80 168
80 169
81 153
82 175
89 296
90 296
111 257
112 257
112 258
113 258
113 259
114 258
115 257
116 256
117 255
189 379
190 380
191 380
191 381
192 380
192 381
193 380
193 381
194 380
220 39
370 320
371 321
372 322
373 323
374 324
375 325
376 326
377 327
378 328
379 329
379 341
379 342

19
71 155
76 157
81 170
81 171
82 171
82 172
82 173
83 174
91 297
92 297
379 331
379 332
379 333
379 337
379 338
379 339
380 331
380 332
380 333
380 334
380 336
380 337
380 338
380 339
380 340

20
72 156
74 158
174 252
175 252
180 252
181 251
181 252
218 33
218 34
218 35
218 36
219 37
379 335

21
73 157
176 251
177 250

22
178 251

