0
0 36
0 37
0 61
0 62
23 0
47 0
127 399
154 399
180 0
246 0
265 399
272 0
291 399
304 399
318 399
324 399
325 399
339 399
340 399
399 78
399 102
399 225
399 226
399 242
399 243
399 254
399 274
399 325
399 370

1
1 38
1 60
1 228
4 136
4 146
14 136
24 1
31 151
31 161
40 359
46 1
96 398
106 137
106 147
109 96
109 106
116 137
116 147
117 277
117 287
119 96
119 106
125 300
127 277
128 398
135 290
135 300
153 398
158 259
158 260
174 62
179 1
183 302
183 312
184 62
184 72
185 398
186 398
188 132
193 302
193 312
198 122
198 132
227 216
227 287
227 297
237 216
237 226
242 50
250 342
252 50
252 60
256 258
260 342
263 59
263 69
273 69
282 242
282 252
305 398
306 391
316 391
317 398
326 398
327 394
337 394
338 398
343 252
343 262
360 3
369 8
379 398
395 398
398 227
398 241
398 255
398 273
398 369

2
2 39
2 59
2 227
2 295
2 315
8 41
9 22
9 34
15 313
21 22
21 34
25 2
27 12
43 108
43 124
44 75
44 87
45 2
48 63
55 315
55 327
56 75
56 87
59 108
59 124
61 182
61 198
62 283
64 47
64 63
67 214
72 150
72 166
77 182
79 214
79 346
81 341
86 356
91 68
91 80
93 341
99 301
99 317
103 80
115 206
115 301
119 174
119 186
127 206
127 218
129 397
130 51
130 67
130 389
132 254
132 270
134 93
134 109
138 66
148 270
150 109
150 387
152 397
153 20
155 4
157 109
157 121
157 291
159 302
159 318
161 383
161 395
162 257
173 383
173 395
175 302
184 112
187 397
218 158
219 397
220 261
226 227
227 226
236 245
238 146
238 158
241 61
242 60
245 108
247 2
247 350
247 366
248 2
251 165
259 262
259 278
261 108
263 350
263 366
266 397
267 397
269 277
269 293
270 2
271 2
273 114
273 147
273 163
285 293
289 397
290 397
293 151
309 151
309 167
314 42
314 54
314 183
314 195
317 294
326 42
326 54
326 183
326 195
327 397
329 294
337 397
343 179
343 195
346 371
359 179
359 195
368 185
384 201
395 191
397 11
397 31
397 79
397 101
397 228
397 240
397 326
397 327
397 368

3
3 40
3 58
3 196
3 226
3 296
3 314
5 70
5 88
19 96
22 273
22 285
22 349
23 70
30 196
31 84
31 96
34 273
34 285
34 349
40 57
51 8
51 254
71 396
84 139
84 276
87 211
90 313
95 396
96 139
96 151
96 221
96 288
98 379
101 48
105 193
108 221
118 337
125 287
125 288
126 288
126 289
127 199
127 289
127 290
136 319
136 337
139 199
145 161
163 161
165 50
168 99
173 287
175 90
177 3
178 3
183 50
186 11
186 122
186 123
187 123
187 124
188 124
188 396
191 338
191 356
197 368
200 190
200 202
206 78
206 96
209 284
209 296
212 190
212 202
213 324
215 368
220 64
224 96
225 324
225 336
238 173
238 185
240 63
240 81
240 290
243 325
249 3
258 290
265 34
265 52
268 396
269 3
273 14
283 52
283 97
283 109
288 396
293 264
295 97
295 109
301 275
301 287
303 16
303 34
306 396
307 396
311 246
313 338
313 356
315 396
316 396
321 143
328 396
329 395
329 396
330 395
330 396
331 338
331 396
332 276
333 5
333 143
333 396
334 395
334 396
335 395
335 396
336 396
348 237
348 327
350 58
351 135
351 147
352 205
352 223
360 249
363 135
363 147
363 190
364 190
364 355
364 367
368 58
373 165
373 342
373 354
380 396
390 258
390 270
391 165
393 386
394 396
396 80
396 100
396 229
396 239
396 256
396 257
396 271
396 272

4
4 41
4 57
4 313
6 138
10 148
11 224
12 138
14 108
14 116
14 246
14 258
15 297
21 48
21 56
22 108
22 116
24 366
26 4
26 246
26 258
27 4
29 153
49 236
64 24
72 24
72 32
83 239
83 251
84 177
86 370
94 395
96 177
102 157
104 273
104 281
108 139
108 145
110 157
110 165
111 98
111 104
114 14
114 139
114 145
115 316
116 317
117 98
117 104
117 318
118 319
119 279
119 285
123 149
123 161
125 279
126 14
127 298
130 395
131 395
133 292
133 298
135 149
150 395
151 395
152 197
154 251
154 259
160 197
163 206
163 218
164 332
164 340
172 340
175 206
175 218
176 4
176 64
179 233
179 245
182 64
182 70
183 318
183 330
184 122
185 304
185 310
189 259
189 271
189 395
190 130
191 233
191 245
191 304
191 310
196 124
196 130
209 226
209 234
224 229
225 295
229 218
229 224
234 14
234 26
235 218
244 52
244 58
245 221
245 233
246 14
246 26
250 4
250 52
250 58
252 340
257 221
258 244
258 340
265 61
265 67
266 332
268 4
269 395
270 57
270 58
270 232
270 244
271 57
271 67
271 133
277 369
277 377
283 174
284 219
284 244
284 250
285 369
285 377
287 395
293 171
294 170
294 171
295 169
295 170
296 169
296 219
308 393
308 395
309 367
309 375
314 393
314 395
317 375
319 170
331 170
332 395
334 28
337 282
342 44
342 350
345 260
345 282
346 306
352 273
358 294
360 265
360 273
365 378
365 390
367 10
377 299
377 378
389 299
389 365
393 395
395 12
395 30
395 81
395 99
395 230
395 231
395 237
395 238
395 258
395 270
395 366
395 367

5
5 42
5 43
5 55
5 56
5 197
5 224
5 225
5 297
5 312
7 139
10 146
11 24
11 32
11 139
15 109
15 115
19 24
19 32
19 211
20 49
20 55
21 109
21 115
28 5
28 154
31 314
31 328
32 382
45 314
45 328
46 77
46 85
46 382
50 237
54 77
54 85
57 337
65 25
69 212
71 25
71 31
72 394
77 212
83 339
85 369
91 339
93 70
93 78
101 78
103 158
103 274
103 280
109 140
109 144
109 158
109 164
110 368
110 382
112 99
112 103
112 213
112 214
113 140
113 144
116 99
116 103
120 280
120 284
121 176
121 184
122 38
124 280
124 284
124 285
124 368
124 382
125 208
125 216
128 292
128 293
128 297
132 293
132 297
132 391
132 394
136 24
136 38
140 68
149 394
153 196
153 252
155 18
159 111
159 119
159 289
163 385
163 393
165 339
171 339
171 385
171 393
177 65
181 65
181 69
182 114
186 305
186 309
190 125
190 305
190 309
190 394
191 125
191 129
191 391
195 125
195 129
200 140
200 154
210 227
210 233
214 132
216 349
223 230
224 294
228 132
228 146
230 219
230 223
230 275
234 219
234 223
235 223
240 156
240 379
240 393
245 53
245 57
249 53
249 57
250 197
251 5
252 9
253 153
253 154
253 339
256 143
257 143
257 144
257 339
258 144
258 145
259 145
259 146
260 146
260 147
264 197
266 9
266 66
267 5
269 59
270 66
270 132
270 394
271 390
278 370
278 376
284 370
284 376
285 245
285 249
285 390
286 394
296 167
307 86
307 100
309 394
310 368
310 374
310 394
311 272
311 393
311 394
312 394
313 394
316 44
316 52
316 185
316 193
316 374
319 292
319 368
319 369
320 367
320 368
321 86
321 100
321 366
321 367
322 365
322 366
324 44
324 52
324 185
324 193
325 258
327 292
336 76
336 90
344 283
346 259
350 76
350 90
353 272
359 266
359 272
366 11
376 114
376 128
383 14
385 83
385 97
390 114
390 128
392 394
394 13
394 29
394 82
394 98
394 259
394 269
394 365

6
6 44
6 45
6 53
6 54
6 223
6 298
7 72
7 86
12 25
12 31
16 110
16 114
18 25
18 31
19 50
19 54
20 110
20 114
21 72
24 275
24 283
24 351
28 194
29 6
29 94
32 275
32 283
32 351
47 78
47 84
49 10
51 238
53 78
53 84
53 252
70 26
70 30
70 211
73 393
76 211
80 287
80 288
81 286
81 287
82 285
82 286
83 285
84 338
84 368
86 141
86 278
88 315
90 338
94 71
94 77
94 141
94 149
96 381
97 167
98 166
98 167
98 219
99 165
99 166
100 77
100 164
100 165
101 163
101 164
102 163
102 275
102 279
103 50
103 195
104 159
108 159
108 163
120 321
120 335
122 177
124 209
124 215
129 197
133 393
134 321
134 335
137 197
141 69
148 393
152 253
154 195
156 17
160 112
160 118
160 288
161 163
164 386
164 392
166 97
166 338
167 48
170 338
170 386
170 392
181 48
181 115
181 121
182 121
184 13
191 393
192 393
193 340
193 354
199 370
202 192
202 200
208 80
208 94
210 192
210 200
211 228
211 232
211 286
211 294
213 370
215 326
222 66
222 94
222 231
223 326
238 65
238 79
240 175
240 183
241 155
242 292
245 323
252 6
256 292
266 6
267 36
269 61
269 131
271 393
275 16
279 371
279 375
281 50
283 371
283 375
285 99
285 107
285 393
293 99
293 107
293 174
295 262
299 277
299 285
301 18
301 32
309 248
311 369
311 373
315 340
315 354
315 373
317 45
317 51
317 186
317 192
317 369
320 291
323 45
323 51
323 145
323 186
323 192
324 280
324 365
329 340
331 145
335 7
343 284
348 363
348 364
349 259
349 260
349 362
349 363
350 239
350 260
350 261
351 261
351 262
352 56
352 262
352 263
353 137
353 145
353 263
353 264
354 207
354 221
354 264
354 265
354 271
358 247
358 267
358 271
361 137
361 145
362 357
362 365
375 167
375 344
375 352
389 167
391 388
392 260
392 261
392 262
392 266
392 267
392 268
393 14
393 28
393 260
393 261
393 262
393 263
393 265
393 266
393 267
393 268
393 364

7
7 46
7 47
7 52
7 222
7 299
7 310
7 311
9 143
9 144
9 222
11 50
11 51
12 51
12 310
13 26
13 30
13 299
16 248
16 256
17 26
17 30
24 248
24 256
25 276
25 282
25 352
28 93
30 7
30 9
31 276
31 282
31 352
46 111
46 121
48 79
48 83
52 79
52 83
56 111
56 121
61 50
61 60
64 29
64 185
65 29
65 286
69 337
70 336
71 210
71 335
72 334
73 333
74 185
74 332
74 377
74 392
75 153
75 163
75 331
75 377
75 378
76 378
76 379
77 379
77 380
78 288
78 380
81 241
81 249
84 284
86 175
87 142
87 279
89 337
93 142
94 175
95 72
95 76
95 382
96 168
99 76
99 218
102 304
102 314
103 162
104 162
112 304
112 314
115 213
116 16
123 178
123 210
123 214
124 16
125 151
125 159
127 54
127 64
130 196
132 163
133 151
133 164
134 165
134 392
135 166
135 257
135 267
135 392
136 167
136 196
136 392
137 96
137 106
142 70
145 267
147 106
147 390
147 392
158 7
161 113
161 117
161 287
162 305
162 315
165 96
165 208
165 216
165 260
165 387
165 391
169 387
169 391
172 305
173 208
173 216
180 116
180 120
181 235
181 243
181 320
181 328
187 261
187 269
189 235
189 243
193 392
194 392
203 193
203 199
209 193
209 199
212 287
212 293
215 155
216 327
221 239
222 240
222 327
233 248
236 16
236 24
241 176
241 182
242 154
244 16
244 24
247 231
248 111
250 153
250 353
250 363
253 7
254 7
254 8
255 7
255 8
255 223
256 7
256 8
256 140
256 275
257 7
257 8
258 7
260 7
260 242
260 353
260 363
261 7
261 8
262 7
262 8
263 7
263 8
264 7
264 8
264 330
265 7
268 62
268 234
268 242
270 117
270 150
270 160
272 280
272 290
272 392
273 391
273 392
274 391
274 392
275 391
275 392
276 391
276 392
277 392
279 392
280 391
280 392
281 391
281 392
282 391
282 392
283 391
283 392
284 392
285 176
286 100
286 106
286 217
292 100
292 106
294 217
296 154
298 278
298 284
306 154
315 370
316 370
318 46
318 50
318 187
318 191
321 168
321 290
322 46
322 50
322 187
322 191
324 146
325 364
326 364
330 146
337 287
342 288
342 289
343 289
343 290
344 290
344 291
345 291
345 292
346 182
346 192
346 292
346 293
346 364
347 293
347 294
348 254
348 255
348 294
348 295
348 304
349 253
350 252
351 240
351 251
352 249
352 250
354 138
354 144
355 266
355 267
356 182
356 296
357 246
360 138
360 144
361 358
361 364
366 55
367 380
367 388
375 380
376 345
376 351
379 301
381 198
387 301
390 389
390 392
391 333
391 334
391 335
391 336
391 361
391 362
391 363
391 392
392 15
392 27
392 83
392 84
392 96
392 97
392 188
392 264
392 331
392 332
392 333
392 334
392 335
392 336
392 337
392 360
392 361
392 362
392 363

8
8 48
8 49
8 50
8 51
8 217
8 218
8 219
8 220
8 221
8 309
9 49
9 50
9 141
9 218
11 309
12 300
13 52
14 52
15 52
17 249
17 255
23 249
23 255
25 157
26 156
26 277
26 281
26 353
27 92
30 277
30 281
30 353
31 8
32 8
33 8
33 316
33 326
34 8
34 380
35 8
44 380
47 112
47 120
55 112
55 120
60 51
60 59
65 186
66 28
66 287
69 339
73 186
76 154
76 162
80 242
80 248
86 284
87 174
88 143
88 280
92 143
93 174
93 391
94 168
94 383
98 71
98 72
99 70
99 71
100 69
100 70
101 68
101 69
102 67
102 68
103 66
103 67
103 305
103 313
104 65
104 66
105 64
105 65
111 142
111 305
111 313
112 370
112 380
114 101
117 17
122 282
122 370
122 380
124 36
126 55
126 63
126 152
126 158
130 295
131 161
131 195
132 152
134 26
134 36
135 195
136 169
136 258
136 266
137 391
138 97
138 105
138 391
139 391
140 391
141 391
142 390
142 391
143 391
144 266
144 391
145 391
146 105
146 391
158 16
159 8
159 193
163 306
163 314
166 209
166 215
166 261
169 115
169 285
170 116
171 117
172 74
172 118
172 209
172 215
173 73
174 72
175 71
176 70
177 69
178 68
179 67
180 327
182 236
182 242
186 262
186 268
188 236
188 242
188 307
193 127
195 391
196 391
202 142
202 152
204 194
204 198
208 194
208 198
213 288
213 292
214 154
214 347
220 236
220 237
221 289
221 291
221 328
222 292
222 387
224 67
226 134
226 144
232 221
232 249
232 273
237 17
237 23
238 381
238 391
242 177
243 17
243 23
245 146
246 145
247 55
247 144
247 224
248 143
248 224
248 230
249 112
251 354
251 362
252 195
254 224
255 274
255 337
256 335
256 336
259 8
259 354
259 362
261 241
262 195
267 235
267 241
268 64
269 118
269 151
269 159
273 281
273 289
278 391
286 177
287 101
287 105
287 216
287 247
288 248
289 248
291 101
291 105
292 176
292 177
293 216
297 155
297 163
297 164
297 279
297 283
305 155
309 88
309 98
319 88
319 98
322 167
323 282
325 147
329 147
338 78
338 88
338 286
339 286
347 183
347 191
348 78
348 88
348 257
349 296
349 297
350 350
351 351
352 241
352 352
352 362
353 353
354 354
355 139
355 143
355 183
355 297
355 355
356 356
359 139
359 143
360 359
360 363
364 13
368 381
368 387
377 346
377 350
378 116
378 126
380 197
383 391
384 390
384 391
385 390
385 391
386 302
386 391
387 85
387 95
388 116
388 126
388 391
389 390
389 391
391 85
391 95
391 187
391 329
391 330
391 338
391 339
391 358
391 359

9
9 74
9 84
9 215
9 216
9 300
9 301
9 308
11 153
11 301
17 52
18 112
18 250
18 254
19 74
22 250
22 254
24 158
34 317
34 325
35 379
36 9
37 9
42 52
43 379
45 20
48 113
48 119
53 240
54 113
54 119
55 250
57 321
58 321
59 52
59 58
66 187
67 288
68 28
68 340
71 300
71 301
72 187
75 390
76 390
77 155
79 243
79 247
86 317
87 283
88 173
88 283
92 173
98 278
99 278
100 277
101 197
104 306
104 312
105 52
106 161
110 306
110 312
113 371
113 379
117 212
118 18
118 212
119 212
121 371
121 379
122 323
122 333
125 35
125 56
125 62
127 153
127 157
131 153
131 159
132 323
132 333
133 27
133 35
137 259
137 265
139 104
143 265
145 104
149 256
150 255
156 193
159 165
164 307
164 313
165 115
166 115
167 115
167 210
167 214
167 262
167 275
168 274
168 275
168 336
169 46
169 273
169 274
169 334
169 335
170 307
171 76
171 210
171 214
171 307
174 118
175 118
176 118
179 326
182 15
183 237
183 241
185 263
185 267
187 237
187 241
195 342
195 352
197 390
198 390
201 372
203 143
210 82
210 92
211 372
213 230
215 231
216 231
219 234
219 235
220 92
220 233
222 243
225 135
225 143
233 272
236 67
236 77
237 382
237 390
238 18
238 22
242 18
242 22
244 148
244 149
244 294
247 152
247 321
248 152
249 225
249 229
250 113
252 355
252 361
253 194
253 225
254 265
254 273
254 294
257 167
257 168
257 169
257 334
258 166
258 167
258 332
258 333
258 355
258 361
259 165
259 166
259 332
260 164
260 165
261 163
261 164
261 194
262 162
262 163
262 240
263 162
266 236
266 240
267 129
268 119
268 152
268 158
274 282
274 288
277 18
279 48
281 373
285 284
286 284
287 178
287 283
288 215
288 282
289 205
289 206
289 281
290 249
291 178
291 250
292 215
292 250
292 251
293 251
293 252
297 260
298 156
298 162
299 20
299 30
304 156
307 250
310 89
310 97
313 371
317 342
318 89
318 97
323 166
323 284
323 285
326 288
332 362
333 362
333 363
334 363
334 364
335 364
336 365
337 9
337 365
338 365
339 79
339 87
341 286
342 365
343 365
344 365
347 79
347 87
348 184
348 190
350 298
350 348
353 246
353 247
354 54
354 184
354 298
356 209
356 242
356 269
357 241
357 242
358 240
358 241
359 239
359 240
360 238
360 239
361 237
361 238
362 236
362 237
363 235
363 236
364 234
364 235
367 206
367 207
368 205
369 204
369 382
369 386
370 203
371 202
372 201
373 25
373 200
376 27
377 169
377 385
377 386
378 386
378 387
379 117
379 125
379 387
379 388
380 388
380 389
381 389
381 390
382 390
385 303
386 323
386 324
387 117
387 125
387 169
387 325
387 390
388 86
388 94
388 326
389 327
390 16
390 17
390 25
390 26
390 86
390 94
390 186
390 328
390 340
390 341
390 356
390 357

10
10 75
10 83
10 213
10 214
10 302
10 303
10 304
10 305
10 306
10 307
11 155
11 303
15 28
18 75
21 160
21 161
22 160
23 159
28 357
28 358
35 318
35 324
36 378
38 10
39 10
43 51
45 16
45 17
45 18
46 373
47 372
47 373
48 371
48 372
49 114
49 118
49 370
49 371
50 81
50 369
50 370
51 368
51 369
52 367
52 368
53 114
53 118
53 367
55 241
56 249
58 53
58 57
67 188
67 341
68 289
70 299
72 302
73 208
74 207
74 289
75 289
77 389
78 384
86 334
87 335
92 282
92 389
93 282
94 281
94 282
95 280
95 281
96 279
96 280
97 74
97 279
100 198
105 307
105 311
106 53
106 61
106 62
106 215
109 307
109 311
114 372
114 378
120 372
120 378
121 212
123 324
123 332
124 57
124 61
125 180
126 34
126 181
130 157
130 158
131 324
131 332
132 34
132 188
132 189
133 189
133 190
133 191
138 264
140 103
140 173
141 173
142 172
142 173
143 172
144 72
144 103
145 73
148 257
156 191
158 166
158 191
159 14
160 10
160 14
163 115
163 285
164 284
165 308
167 277
167 278
167 284
167 389
168 263
169 308
170 45
170 77
170 333
171 332
172 331
173 330
174 329
175 328
176 326
176 327
177 264
178 118
196 343
196 351
199 389
200 389
202 373
204 144
210 373
211 83
211 91
217 232
217 290
218 233
218 290
219 91
219 290
224 136
224 142
226 68
234 271
235 68
235 76
236 383
236 389
244 152
245 150
245 151
245 295
246 151
248 320
249 140
251 114
253 266
253 272
253 295
253 356
253 360
254 193
257 356
257 360
260 193
263 160
267 120
267 127
267 153
271 50
275 283
275 287
278 19
278 47
289 186
290 207
291 281
292 281
293 281
295 252
298 21
298 29
299 157
299 161
303 157
305 161
306 161
311 90
311 96
317 90
317 96
318 343
320 48
320 189
323 288
324 286
324 287
325 287
327 151
327 152
327 153
329 165
330 361
331 361
338 10
340 80
340 86
340 365
344 345
346 80
346 86
349 185
349 189
349 346
349 347
353 185
354 245
354 330
354 331
354 361
355 53
355 189
355 361
356 189
357 210
364 53
366 208
366 209
366 234
374 26
374 197
374 198
375 26
375 385
378 170
380 118
380 124
381 348
382 348
385 321
385 322
386 118
386 124
386 170
388 90
389 18
389 24
389 87
389 88
389 89
389 90
389 91
389 92
389 93
389 232
389 236
389 342
389 343
389 354
389 355

11
11 76
11 82
11 211
11 212
12 156
12 157
17 76
24 89
25 90
28 279
28 355
29 359
30 360
30 361
36 319
36 323
37 377
40 11
41 11
44 11
44 50
56 242
57 248
61 322
62 339
72 290
73 245
73 290
74 245
75 205
75 206
75 245
78 388
81 388
82 388
83 387
83 388
84 388
85 332
85 333
85 388
86 387
86 388
87 388
89 146
89 147
90 145
90 282
91 386
91 388
92 385
99 199
104 214
105 214
107 54
107 60
115 373
115 377
119 373
119 377
124 325
124 331
127 33
129 185
130 186
130 325
130 331
131 33
131 187
133 193
139 260
144 171
145 259
145 260
146 74
146 258
146 259
147 258
155 180
155 181
156 181
156 182
157 167
157 183
157 184
157 185
157 189
157 190
161 11
161 13
165 282
165 283
166 279
166 283
169 78
171 44
177 322
179 264
179 265
180 265
181 265
197 344
197 350
201 388
202 388
203 374
205 145
205 151
206 196
209 374
212 84
212 90
215 290
218 90
218 331
218 388
219 330
223 137
223 245
223 246
229 250
234 69
234 75
235 270
235 384
235 388
244 179
245 180
246 296
249 138
252 296
253 228
254 229
255 172
255 173
255 192
255 230
256 171
256 231
257 232
258 233
259 192
259 234
260 235
260 329
261 236
262 237
266 126
277 46
279 20
289 103
289 182
289 183
289 184
290 209
290 210
290 211
295 281
297 22
297 28
298 258
303 160
304 160
312 91
312 95
316 91
316 95
319 344
325 274
327 149
328 157
328 164
339 11
341 81
341 85
345 81
345 85
345 344
346 344
353 188
353 334
353 335
354 188
354 243
354 333
355 329
356 52
356 328
356 360
357 141
357 327
357 360
358 211
358 326
358 361
359 325
360 324
361 323
367 233
368 233
373 384
374 384
375 195
375 196
378 26
379 25
379 171
379 348
380 25
381 119
381 123
385 119
385 123
385 171
388 19
388 23
388 344
388 345
388 352
388 353

12
12 77
12 81
12 202
12 203
12 205
12 206
12 207
12 208
12 209
12 210
13 206
13 207
13 208
13 209
16 77
18 161
20 252
23 88
31 362
32 363
32 364
42 12
43 12
43 13
44 14
44 374
45 44
46 25
46 39
55 366
56 366
57 243
58 247
62 321
63 320
63 340
63 341
64 319
65 318
66 317
67 317
69 245
70 293
70 294
70 295
70 296
72 305
72 306
72 307
72 308
76 204
77 245
79 386
79 387
80 156
80 160
80 387
81 155
82 154
82 329
83 153
83 329
83 330
84 152
84 331
85 151
85 199
86 150
86 199
87 149
88 148
88 387
89 387
90 171
90 387
98 200
108 55
108 59
120 20
120 59
121 21
125 326
125 330
128 182
128 183
129 155
129 181
129 182
129 326
129 330
130 180
130 181
131 179
131 180
132 178
132 179
133 177
133 178
134 176
134 177
135 175
135 176
136 174
136 175
137 173
137 174
141 261
142 261
142 262
143 260
143 261
147 75
154 179
156 168
157 187
162 12
163 12
166 281
167 312
168 79
168 313
169 212
169 314
170 269
170 270
170 315
171 316
172 43
172 317
173 318
174 265
174 319
175 265
175 320
176 321
177 324
179 43
183 265
185 239
198 345
198 349
203 387
204 375
204 387
206 150
208 375
213 85
213 89
216 387
217 89
217 332
217 333
217 387
224 247
226 386
227 70
228 70
233 70
233 74
240 20
244 268
245 269
246 181
246 269
246 270
247 270
247 297
250 136
250 137
251 227
251 267
251 268
251 297
253 175
253 176
254 174
254 175
259 328
261 154
261 155
262 155
264 238
272 47
272 48
276 45
279 285
280 21
280 285
281 285
282 285
288 188
288 202
289 180
290 213
296 23
296 27
297 253
298 253
299 257
320 345
323 264
323 354
323 355
324 272
324 273
324 356
325 357
326 358
327 158
327 159
327 163
327 345
327 359
328 360
340 12
347 343
348 342
348 344
349 340
349 341
350 338
350 339
350 340
351 337
351 338
351 339
352 300
352 336
352 337
353 302
353 303
354 303
354 304
355 304
355 305
356 305
356 306
357 51
357 306
357 307
358 307
358 308
359 212
359 308
359 309
360 309
360 310
361 310
361 311
362 311
362 312
362 320
362 321
363 51
364 212
365 211
369 232
371 384
380 172
381 24
382 23
382 24
382 306
383 23
383 305
384 172
387 20
387 22
387 235
387 346
387 347
387 350
387 351

13
13 159
13 200
13 201
13 204
14 160
14 161
22 87
33 365
34 366
35 367
36 368
37 369
38 370
39 371
39 372
40 321
41 321
42 321
42 375
43 321
46 27
46 28
46 34
46 35
46 36
46 37
46 45
46 46
51 116
54 54
55 54
56 55
57 365
58 244
58 365
64 342
67 245
69 190
70 191
70 291
80 158
81 161
82 162
82 327
83 163
84 164
85 165
86 166
87 167
87 200
88 168
88 200
89 169
97 208
97 209
98 209
98 210
99 210
99 211
100 211
100 212
101 212
102 213
107 309
117 57
117 58
118 58
119 58
122 22
122 59
140 262
142 101
143 99
143 100
147 170
148 76
149 77
154 177
164 13
165 13
167 310
170 265
171 266
171 267
171 268
172 266
172 267
173 266
177 27
205 386
206 386
207 149
209 346
210 340
211 339
212 338
213 337
214 336
214 386
215 335
215 386
216 334
224 249
225 249
225 250
228 386
229 386
230 386
231 386
232 386
233 385
233 386
234 386
240 268
241 268
242 268
248 269
249 269
249 306
250 269
250 306
250 307
250 308
251 135
251 270
251 307
251 308
251 309
252 177
252 309
253 116
254 117
255 358
258 325
258 326
259 326
263 156
264 156
264 157
265 122
265 155
273 45
273 46
277 285
288 190
288 191
288 192
288 193
288 197
288 198
288 199
288 200
299 254
300 254
300 256
301 159
316 265
325 346
326 346
351 187
358 14
362 50
363 213
363 313
363 314
363 318
363 319
371 316
372 315
373 315
381 307
382 318
383 319
384 22
385 21
386 21
386 234
386 348
386 349

14
14 78
14 79
14 80
14 198
14 199
15 79
15 80
15 162
15 163
15 166
15 167
15 168
15 169
15 173
15 174
15 175
15 197
15 198
16 81
16 162
16 196
16 197
17 82
17 195
17 196
18 83
18 194
18 195
19 84
19 193
19 194
20 85
20 192
20 193
21 86
21 183
21 184
21 185
21 189
21 190
21 191
21 192
38 321
39 375
40 373
40 374
41 374
46 32
47 29
47 30
47 31
48 30
52 53
53 53
62 245
63 245
64 245
64 344
65 245
65 345
65 346
71 192
71 193
73 310
81 325
81 326
89 201
90 200
90 201
91 201
96 206
96 207
112 57
113 57
114 57
115 57
117 375
123 23
123 24
124 24
124 25
128 29
128 30
129 31
144 98
145 97
146 96
147 95
148 94
149 93
150 78
150 92
151 79
151 91
152 79
152 90
153 89
154 87
154 88
166 14
167 14
176 32
177 24
177 25
177 31
178 41
206 379
207 147
207 385
208 148
208 343
209 342
212 385
213 385
220 140
221 139
226 251
226 252
226 253
227 253
227 255
228 256
229 257
230 258
231 259
232 260
233 261
234 262
235 263
236 264
237 265
237 268
238 266
238 267
239 267
249 301
249 302
249 303
249 304
251 133
252 132
252 133
252 311
252 312
252 313
252 314
255 118
256 188
256 189
257 190
257 323
257 324
274 39
274 40
274 41
288 195
289 24
290 25
291 25
292 25
304 255
305 255
314 93
314 264
315 264
318 265
319 266
320 266
322 266
322 268
322 269
322 349
322 350
322 351
322 352
323 270
323 348
324 347
325 162
326 161
341 14
342 14
343 83
361 49
361 216
362 215
366 316
367 316
368 316
369 316
379 309
379 310
380 233
380 308
380 309
381 232
381 317
382 176
383 121
383 175
383 232
384 233
385 182
385 233

15
15 171
16 176
17 177
17 178
18 178
18 179
18 180
19 180
19 181
20 182
21 187
47 48
48 49
49 50
50 51
51 52
60 245
60 364
61 363
62 363
66 347
66 348
66 349
67 348
67 349
67 350
67 351
68 352
72 194
72 195
73 195
73 196
74 196
74 197
75 197
75 198
76 198
76 199
77 199
77 200
80 324
92 202
93 202
95 202
95 204
95 205
96 202
110 57
125 26
126 27
127 28
127 328
149 171
150 171
153 80
153 171
153 174
153 175
154 170
156 87
164 88
165 82
166 81
168 15
169 15
174 41
175 40
176 22
176 23
176 34
177 33
177 34
177 35
177 40
200 347
201 346
202 345
202 346
203 346
206 344
206 377
207 344
207 345
207 380
207 381
208 384
210 147
210 148
210 384
211 147
211 384
215 87
216 86
217 85
218 84
218 141
219 83
219 141
220 82
221 81
222 80
223 79
224 78
225 77
226 76
227 75
228 74
229 73
231 72
249 299
252 316
253 131
253 318
253 319
254 319
254 320
255 186
255 187
255 320
255 321
256 119
256 322
274 43
275 38
276 37
277 36
278 35
279 34
280 33
281 32
282 23
282 31
283 24
283 30
294 25
302 255
306 256
307 257
308 258
309 259
310 260
311 261
312 262
313 263
321 267
322 347
343 15
361 214
362 217
362 218
364 316
371 230
373 229
374 229
374 230
375 230
375 231
375 314
376 191
376 231
377 190
377 232
378 190
378 232
378 311
379 232
380 316
382 174
382 233
383 177
383 178
383 179
384 178
384 179
384 180
384 181
384 183
384 184

16
63 362
79 321
79 322
80 322
94 203
151 172
152 172
152 173
154 81
164 83
170 16
171 16
175 16
176 36
176 37
176 38
176 39
177 37
204 345
205 345
208 382
209 383
212 146
213 145
213 146
214 144
214 145
215 143
215 144
216 142
216 143
217 142
251 181
251 182
252 182
252 183
253 183
253 184
254 185
284 25
284 27
284 28
286 25
287 25
344 16
359 48
363 219
364 220
365 221
366 222
367 223
368 224
369 225
370 226
371 227
372 228
377 313
379 189
379 315
380 188
381 187
382 186
383 185

17
73 365
73 366
74 366
78 319
78 320
155 82
156 83
157 84
159 86
160 86
163 84
172 17
173 17
173 18
174 17
174 18
174 19
175 20
255 129
255 130
285 26
345 17
358 45
358 46
359 46
378 314

18
72 363
72 364
158 85
161 85
162 85
162 86
256 128
257 122
346 18
354 36
355 35
355 37
357 43
357 44

19
66 361
70 361
71 362
74 316
75 317
76 318
257 126
258 123
258 124
258 125
347 19
348 20
355 39
356 41
356 42

20
67 360
68 358
68 359
68 360
69 358
69 359
69 360

21
349 22
350 23

22

23
352 24

24
353 25

25
356 27
357 26

26
355 26

