0
0 272
0 273
0 287
0 309
0 327
106 399
120 399
236 399
293 399
331 0
399 41
399 81
399 82
399 108
399 109
399 121
399 139
399 207
399 235

1
1 231
1 271
1 374
8 36
8 46
18 36
18 46
25 322
35 322
53 306
53 316
63 306
63 316
82 7
92 7
107 398
108 391
113 131
113 141
118 391
119 398
123 131
131 265
131 275
137 164
141 171
141 181
141 265
141 275
151 154
151 164
151 171
151 181
166 296
170 216
170 226
176 296
180 216
180 226
241 1
241 168
251 158
251 168
252 241
252 251
255 1
262 241
262 251
268 125
268 135
268 328
268 338
271 198
278 135
281 198
284 263
284 273
292 398
298 150
308 140
308 150
312 138
315 382
322 128
322 138
325 382
326 200
343 154
344 180
353 154
353 164
362 65
365 298
365 308
371 274
372 65
376 1
381 274
398 2
398 83
398 107
398 208
398 234
398 350
398 372

2
2 160
2 232
2 270
2 288
2 328
2 329
2 373
18 187
32 255
36 202
38 46
42 281
43 356
48 255
48 271
50 46
50 58
52 147
53 101
54 281
54 293
78 27
83 260
83 276
85 168
85 184
88 231
88 243
98 110
98 126
102 3
107 281
114 126
118 3
118 19
119 147
122 143
124 197
125 44
125 60
130 387
132 246
132 258
135 365
141 228
142 387
144 258
146 354
148 106
151 381
157 228
162 142
163 57
164 57
166 346
174 185
182 362
183 308
184 369
184 381
185 344
186 46
186 185
186 197
192 217
192 233
194 82
194 98
196 369
196 381
199 183
199 195
200 336
200 348
210 98
215 102
215 114
216 71
225 214
225 226
227 102
227 114
232 71
232 87
237 397
238 397
240 283
242 13
249 46
249 62
254 13
260 206
265 46
265 62
267 355
276 73
276 85
283 355
283 371
288 85
291 397
292 212
325 64
325 80
329 319
329 335
332 2
332 233
333 51
335 305
341 64
341 80
345 51
345 335
346 195
348 254
348 294
349 226
351 321
358 183
358 213
360 282
363 322
365 226
367 262
370 213
385 5
391 124
391 136
397 3
397 84
397 106
397 122
397 123
397 137
397 138
397 209
397 233

3
3 233
3 269
3 308
3 330
3 372
4 90
4 108
11 332
15 235
15 253
20 179
22 108
23 153
31 122
35 165
38 61
39 60
39 61
40 60
48 373
49 122
49 211
49 229
55 7
55 25
61 190
66 355
70 74
73 7
80 16
80 17
80 214
80 232
81 15
81 16
82 15
93 380
93 392
95 25
98 69
98 251
105 321
105 333
107 25
108 396
109 396
111 169
116 69
116 233
117 396
118 396
121 141
123 245
123 263
126 297
126 315
127 17
127 29
139 17
139 132
156 302
158 108
175 152
175 164
176 126
192 148
192 160
198 36
198 54
204 148
204 160
209 206
216 36
216 54
216 294
216 306
225 353
225 365
227 188
227 206
228 156
228 250
239 396
241 388
242 3
248 333
248 345
250 288
252 73
252 85
252 371
254 3
258 166
260 345
268 288
271 14
271 32
274 308
274 320
276 166
276 184
276 222
277 223
278 224
288 386
289 14
289 32
296 122
296 134
300 247
305 358
305 370
308 122
309 266
321 266
333 3
355 55
367 55
375 3
380 370
383 43
383 55
386 212
386 230
395 55
396 4
396 85
396 105
396 124
396 136
396 351
396 371

4
4 161
4 234
4 268
4 289
4 307
4 331
4 371
10 38
10 44
10 71
16 38
16 44
20 285
21 268
21 284
21 285
22 283
22 284
23 283
27 320
28 65
31 181
33 280
33 320
40 58
41 304
52 88
55 308
55 314
60 200
61 308
61 314
68 200
74 105
84 9
91 41
95 191
95 203
103 362
103 374
110 393
110 395
113 90
114 90
114 91
115 91
115 92
115 133
115 139
115 374
116 92
116 393
116 395
121 133
121 139
126 125
129 178
133 267
133 273
135 162
139 273
143 173
143 179
147 151
149 173
149 179
153 156
153 162
153 327
156 61
156 69
159 46
159 47
160 47
160 373
162 253
164 69
168 97
168 298
169 198
169 206
171 53
172 218
172 224
174 298
176 97
177 206
178 218
178 224
196 9
196 21
203 368
208 9
208 21
215 277
220 336
231 316
240 395
243 4
243 166
243 215
243 227
243 266
245 117
246 148
249 160
249 166
251 110
253 4
254 243
254 249
255 190
255 227
257 129
259 110
260 243
260 249
266 330
266 336
270 127
270 133
276 133
277 116
279 200
282 271
285 116
285 124
289 395
290 395
300 148
302 74
302 82
306 148
309 20
309 32
317 380
320 130
320 136
321 20
321 32
323 380
324 202
324 214
324 215
325 215
325 216
326 216
326 217
331 164
331 172
331 273
331 285
334 4
339 172
341 164
342 163
343 162
343 273
345 156
345 210
345 218
346 182
351 156
351 162
355 74
355 86
358 344
363 300
363 306
364 67
366 153
366 161
367 86
370 67
373 272
374 153
374 161
378 305
390 305
393 255
393 267
393 332
395 5
395 86
395 104
395 125
395 135
395 210
395 211
395 231
395 232

5
5 266
5 267
5 306
5 332
7 266
8 214
11 39
11 43
13 369
15 39
15 43
22 214
28 319
32 319
34 200
40 48
40 85
44 283
48 48
48 56
52 283
52 291
53 89
55 99
56 309
56 313
60 309
60 313
61 156
61 201
67 201
67 391
76 25
77 49
77 63
84 14
85 10
85 14
90 233
90 241
111 394
112 394
113 393
113 394
114 394
115 394
116 134
116 138
120 134
120 138
122 195
127 124
128 96
132 385
134 161
134 268
134 272
137 29
137 30
138 30
138 31
138 267
138 268
138 272
139 31
139 32
139 50
140 32
140 33
141 33
144 174
144 178
148 174
148 178
152 326
153 36
154 157
154 161
157 62
157 68
161 14
161 28
162 362
162 363
163 61
163 68
163 361
163 362
164 53
164 360
164 361
165 359
165 360
166 359
169 98
169 299
170 52
170 205
173 219
173 223
173 299
175 14
175 98
176 187
176 205
177 219
177 223
184 187
184 195
186 371
186 379
194 371
194 379
201 185
201 193
202 338
204 367
205 249
212 85
212 86
213 84
213 85
214 83
214 84
217 104
217 112
223 224
225 104
225 112
232 315
239 156
239 322
240 157
241 158
241 394
242 159
243 160
244 5
244 11
244 161
244 165
244 267
248 161
248 165
252 5
252 11
252 111
253 322
255 244
255 248
256 189
258 111
259 244
259 248
263 260
265 331
271 128
271 132
275 132
277 260
278 75
278 83
278 117
278 201
279 227
279 241
284 117
284 123
288 394
293 181
293 195
294 214
301 75
301 81
301 147
302 140
305 147
307 181
315 351
318 379
319 131
319 135
322 379
328 217
329 223
329 224
329 351
329 365
332 165
332 171
335 5
335 49
336 14
338 165
338 171
339 165
344 211
344 217
345 161
346 157
346 161
347 183
348 193
350 157
350 161
350 292
350 366
350 380
351 308
352 308
353 307
354 306
355 305
356 185
357 296
358 284
358 297
359 298
360 211
360 361
361 360
361 361
362 305
362 360
364 380
367 154
367 160
369 68
373 154
373 160
374 5
374 271
377 191
377 205
392 88
392 102
393 126
393 127
393 128
393 132
393 133
393 134
394 87
394 88
394 102
394 103
394 126
394 127
394 128
394 129
394 131
394 132
394 133
394 134
394 212
394 230
394 352
394 370

6
6 92
6 106
6 162
6 235
6 236
6 257
6 258
6 260
6 261
6 262
6 263
6 264
6 265
6 290
6 305
6 333
6 369
6 370
7 261
7 262
7 263
7 264
9 334
13 237
18 177
20 106
23 280
33 124
38 65
41 49
41 55
41 56
45 284
46 358
47 49
47 55
47 124
51 213
51 227
51 284
51 290
54 90
57 9
57 23
59 188
62 202
64 357
66 202
71 9
72 76
75 24
78 216
78 230
91 234
91 240
91 382
91 390
97 23
104 6
107 323
113 87
113 171
114 235
116 6
120 167
121 166
121 261
122 165
123 163
123 164
128 123
128 299
128 313
129 19
129 27
133 384
137 19
141 134
145 122
146 123
147 124
148 125
149 126
151 325
154 304
158 63
158 67
160 110
160 363
162 62
162 63
162 67
165 52
170 99
171 204
173 154
173 162
174 99
174 124
175 204
177 188
183 188
183 194
187 372
187 378
193 372
193 378
194 150
194 158
200 38
200 52
202 150
202 158
202 186
202 192
203 339
205 366
210 86
210 132
210 140
211 204
214 38
214 52
216 83
218 105
218 111
218 296
218 304
222 223
223 363
224 105
224 111
225 190
225 204
230 154
238 154
242 393
243 390
245 10
245 268
250 75
250 83
250 343
251 10
252 286
254 373
257 112
257 188
258 343
260 168
266 286
266 393
267 393
272 310
272 318
273 16
273 30
274 168
274 182
279 76
279 82
279 118
283 118
283 122
286 388
287 16
287 30
287 393
295 215
298 124
300 76
300 80
306 124
307 360
307 368
310 130
311 131
311 264
312 132
319 264
321 214
329 218
330 218
330 222
333 166
333 170
336 48
337 166
337 170
343 212
343 216
349 192
351 291
356 294
357 53
357 285
357 304
358 304
359 300
361 210
365 53
368 155
368 159
372 155
372 159
373 6
382 368
385 53
388 214
388 228
392 90
392 91
392 92
392 93
392 97
392 98
392 99
392 100
393 6
393 7
393 38
393 53
393 89
393 90
393 91
393 92
393 93
393 94
393 96
393 97
393 98
393 99
393 100
393 101
393 130
393 213
393 229
393 353
393 369

7
7 163
7 237
7 255
7 256
7 259
7 291
7 334
7 335
7 347
7 348
7 349
7 350
7 351
7 352
7 368
8 348
12 73
23 270
30 315
31 278
33 183
35 258
39 302
42 50
42 54
45 258
45 268
46 50
46 54
46 285
50 285
50 289
72 103
73 77
74 23
82 171
82 181
86 263
86 273
89 12
90 12
90 383
90 389
91 13
92 14
92 235
93 15
94 16
95 17
97 193
97 201
98 22
101 113
101 123
104 278
105 7
105 372
108 324
111 123
113 372
114 172
115 7
115 16
116 96
119 169
122 47
122 57
130 20
130 26
134 383
136 20
136 26
136 27
138 368
140 332
141 36
141 331
142 330
143 329
143 351
144 231
144 328
145 109
145 149
145 327
146 326
147 325
153 305
154 231
158 159
158 371
159 139
159 159
160 251
163 48
164 48
171 303
171 304
172 155
172 161
172 304
172 305
178 189
179 359
180 311
182 189
183 43
188 373
188 377
192 373
192 377
195 151
195 157
195 220
195 230
197 85
197 95
198 11
198 19
201 151
201 157
203 187
204 340
206 11
206 19
207 95
217 275
218 214
218 338
219 74
219 106
219 110
219 303
221 222
222 362
223 106
223 110
224 279
225 280
226 281
227 282
228 283
231 153
237 286
243 392
244 392
245 7
245 217
245 225
246 7
246 9
249 76
249 82
250 7
250 9
251 7
251 335
251 336
251 342
252 49
252 59
255 127
255 374
257 342
261 374
262 49
262 59
262 374
263 209
263 373
264 372
264 392
265 371
265 392
266 370
267 369
268 368
268 392
269 392
270 358
271 311
271 317
273 219
274 128
274 129
275 127
275 128
276 126
276 127
277 125
277 126
278 124
278 125
279 123
279 124
280 77
280 81
280 122
280 123
280 358
280 368
286 392
288 78
299 125
303 142
303 143
305 125
308 130
308 367
311 22
311 30
312 263
314 133
315 133
319 22
319 30
319 373
319 374
320 374
320 375
321 203
328 67
328 77
332 332
333 275
333 283
336 7
337 7
337 47
338 67
338 77
338 308
341 275
342 332
345 282
346 283
347 284
348 285
349 286
350 191
350 286
351 251
352 229
352 290
356 286
356 292
357 76
357 84
358 52
360 301
362 209
362 229
364 52
365 84
366 325
372 7
380 307
386 52
388 8
388 307
390 41
391 40
391 41
391 257
391 265
392 8
392 35
392 36
392 37
392 39
392 40
392 52
392 95
392 214
392 228
392 354
392 368

8
8 105
8 164
8 183
8 184
8 185
8 238
8 253
8 254
8 292
8 303
8 304
8 336
8 337
8 338
8 339
8 340
8 341
8 342
8 343
8 344
8 345
8 346
8 353
8 354
8 367
9 185
9 341
10 212
11 367
13 41
13 74
20 212
24 271
24 277
24 278
27 311
27 312
28 312
28 313
29 314
30 277
30 317
34 184
36 259
37 67
37 68
38 83
38 301
44 259
44 267
48 359
56 96
58 311
59 158
64 206
69 389
71 102
74 78
79 51
81 172
81 180
87 12
87 264
87 272
89 384
89 388
98 194
98 200
99 21
102 114
102 122
103 277
106 371
109 325
110 122
110 360
111 359
111 360
112 85
112 358
112 359
112 371
113 357
113 358
114 8
114 15
114 357
115 173
118 136
119 171
121 48
121 56
123 150
123 151
126 98
131 21
131 25
131 159
132 159
135 21
135 25
136 270
139 369
141 48
142 350
144 110
144 148
145 232
146 176
149 320
149 321
151 38
152 306
153 232
156 159
157 364
157 370
158 138
158 364
159 250
163 16
163 26
165 49
169 358
170 358
171 156
171 160
171 301
173 200
173 306
175 221
175 341
175 342
176 342
178 358
182 42
196 152
196 156
196 221
196 229
198 86
198 94
199 12
199 18
200 152
200 156
205 12
205 18
206 94
207 247
212 133
212 139
217 339
218 274
220 75
220 302
221 361
223 277
232 152
236 287
245 391
246 163
246 218
246 224
246 391
247 8
247 391
248 8
248 9
248 77
248 81
248 391
249 8
249 391
252 337
252 341
253 50
253 58
254 126
256 375
257 246
260 375
261 50
261 58
262 334
262 391
263 333
263 391
265 262
270 312
270 316
270 367
270 391
271 359
271 367
271 391
272 218
272 390
272 391
273 130
273 391
275 204
276 203
279 359
279 367
281 229
281 239
285 391
294 78
295 78
295 183
295 193
296 78
300 126
303 145
305 183
309 366
312 23
312 29
313 262
317 133
318 23
318 29
319 213
320 377
327 353
328 236
328 237
329 68
329 76
333 331
334 276
334 282
337 68
337 76
338 8
339 309
340 276
341 331
343 281
347 309
348 159
348 309
349 185
350 186
351 287
352 250
352 287
352 368
352 378
353 230
355 290
355 291
356 190
357 190
357 191
358 77
358 83
358 191
358 192
359 51
359 192
359 193
360 193
360 194
360 303
361 194
361 195
361 230
362 356
362 378
363 51
364 83
364 249
365 250
366 71
366 251
367 70
367 252
367 326
368 253
369 254
370 255
371 8
371 255
375 193
375 203
376 269
377 268
381 308
387 51
387 308
390 43
390 258
390 264
391 9
391 33
391 34
391 51
391 215
391 227
391 367

9
9 104
9 165
9 181
9 182
9 187
9 239
9 250
9 251
9 252
9 302
9 355
9 356
9 357
9 358
9 359
9 360
9 361
9 363
9 364
9 365
9 366
10 251
10 357
10 358
10 359
10 360
10 364
10 365
10 366
11 211
11 239
14 75
18 104
19 211
25 272
25 276
35 126
35 185
36 69
37 82
37 260
37 296
37 300
38 296
39 295
40 294
41 293
42 292
43 260
43 266
43 291
44 290
45 126
45 289
46 288
49 360
50 368
53 215
53 225
56 92
57 93
57 186
58 159
59 11
59 21
62 359
62 371
63 207
63 372
64 204
64 373
65 374
66 375
67 376
68 377
69 91
69 378
70 90
70 101
70 379
70 380
70 388
71 89
72 88
73 87
76 218
76 228
80 52
80 173
80 179
88 265
94 80
95 79
95 80
99 195
99 199
102 276
103 115
103 121
107 370
109 121
110 362
111 370
112 83
112 237
113 9
113 14
117 98
117 99
118 172
119 259
120 49
120 55
124 152
124 159
124 160
125 99
130 121
130 158
130 301
130 311
131 120
134 252
135 252
136 252
136 253
140 370
141 349
142 38
142 39
142 47
146 233
147 318
148 319
149 323
150 39
152 233
153 46
156 365
156 369
157 137
158 249
160 65
163 158
164 17
164 25
167 48
167 49
168 48
171 357
172 101
172 122
173 202
174 199
174 308
175 198
176 197
177 196
178 195
179 194
180 193
181 41
197 222
197 228
199 87
199 93
200 13
200 17
202 40
202 50
204 13
204 17
205 93
206 87
207 87
207 363
207 364
208 246
212 40
212 50
213 134
213 138
216 340
219 82
219 216
219 217
219 273
220 82
221 76
222 262
223 192
223 275
229 286
229 287
235 288
240 79
240 134
241 133
242 132
243 131
244 130
245 129
246 128
247 127
247 219
247 223
247 270
248 126
248 271
249 125
250 390
251 390
253 125
254 51
254 57
254 115
254 284
255 114
255 220
256 219
256 220
256 384
257 218
257 219
257 383
257 384
258 217
258 218
258 383
259 186
259 216
259 217
259 336
260 51
260 57
260 185
260 215
260 216
260 335
260 336
260 390
261 335
261 390
262 170
262 314
264 284
266 263
271 217
272 170
272 180
272 360
272 366
274 205
274 390
275 18
275 28
275 390
276 390
277 270
277 390
278 360
278 366
278 390
279 389
279 390
280 390
281 120
281 390
282 230
282 238
282 390
283 390
284 79
284 390
285 18
285 28
285 79
286 79
296 184
296 192
298 78
304 184
313 24
313 28
317 24
317 28
317 213
326 354
327 238
330 69
330 75
332 220
333 219
334 219
334 330
335 168
335 277
335 281
336 69
336 75
339 9
339 215
339 277
340 215
340 310
340 330
341 214
341 281
346 310
351 187
353 249
353 369
353 377
354 188
354 189
354 231
355 189
359 82
360 231
360 366
361 377
363 82
363 195
364 73
364 74
365 72
365 73
368 327
370 157
374 194
374 202
378 267
382 309
384 366
386 309
389 10
389 13
389 221
389 259
389 263
390 10
390 11
390 12
390 13
390 14
390 15
390 16
390 31
390 32
390 216
390 217
390 218
390 219
390 220
390 221
390 222
390 223
390 224
390 225
390 226

10
10 103
10 179
10 180
10 188
10 189
10 240
10 241
10 242
10 243
10 244
10 245
10 246
10 247
10 248
10 249
10 293
10 301
10 362
11 244
12 210
17 103
18 167
18 210
19 166
19 167
20 165
20 166
21 164
21 165
22 163
22 164
23 162
23 163
24 161
24 162
25 160
25 161
26 159
26 160
27 159
36 81
36 127
42 261
42 265
44 52
44 127
48 287
54 216
54 224
57 160
58 94
60 12
60 20
61 360
61 368
61 369
68 12
68 93
69 12
69 176
71 20
71 381
71 387
72 21
74 85
75 83
75 84
75 219
75 227
79 174
79 178
81 53
84 386
85 386
89 266
93 81
94 237
95 238
101 275
104 116
104 120
108 120
111 82
111 238
112 13
114 354
117 194
118 100
118 258
119 50
119 54
124 100
125 153
125 157
125 158
131 302
131 310
132 119
136 381
137 335
137 380
138 252
138 334
139 251
140 251
140 348
141 371
143 40
143 46
147 234
149 40
156 136
165 18
165 158
166 158
167 158
169 47
170 46
171 45
171 121
172 44
172 356
173 43
174 42
175 41
176 40
177 356
180 40
180 191
190 375
198 223
200 88
200 92
203 41
203 49
204 88
204 92
205 88
205 189
206 190
206 342
208 362
209 245
211 41
211 49
218 218
221 81
221 108
221 265
222 77
222 81
222 136
222 193
222 258
222 259
222 260
222 273
222 274
223 137
224 138
225 138
230 288
234 289
238 137
239 136
242 79
243 79
244 79
249 272
252 389
253 116
253 117
253 389
255 52
255 56
255 283
256 339
257 338
258 337
258 379
258 380
258 381
258 389
259 52
259 56
259 389
261 184
263 171
263 283
264 314
265 314
266 314
270 209
270 210
270 216
271 171
271 179
271 208
271 209
272 207
272 208
273 206
273 361
273 365
276 19
276 27
277 361
277 365
282 79
283 231
283 237
284 19
284 27
297 185
297 191
297 222
298 221
299 220
302 131
302 132
303 185
316 212
318 260
319 205
325 355
326 239
331 70
331 74
335 70
335 74
335 218
335 329
336 217
336 218
337 216
337 217
338 216
339 45
339 280
339 329
340 10
340 44
340 280
341 311
345 311
352 188
352 189
354 248
354 288
354 370
354 376
355 232
359 232
360 248
360 376
361 248
362 76
362 77
363 75
363 353
363 354
364 207
365 206
369 10
369 328
370 10
373 195
373 256
374 257
379 266
381 25
381 26
382 24
382 25
385 365
388 49
389 17
389 18
389 29
389 30
389 45
389 46
389 47
389 48
389 49
389 50
389 365
389 366

11
11 102
11 166
11 167
11 177
11 178
11 190
11 191
11 294
11 300
13 209
14 90
15 89
15 90
16 88
16 89
16 102
17 87
17 88
17 209
18 86
18 87
19 86
23 200
24 199
25 198
26 197
27 196
28 195
35 80
37 128
39 141
39 142
43 128
50 362
55 223
59 95
60 95
60 96
60 361
60 367
61 13
61 19
61 96
61 97
62 97
62 98
63 97
63 98
64 99
68 95
72 382
72 386
74 220
74 226
76 80
76 82
77 81
82 54
83 385
85 63
87 386
96 239
97 239
98 79
100 268
100 269
101 267
101 268
102 266
102 267
103 197
103 265
103 266
104 197
104 264
104 265
105 263
105 264
106 262
106 263
107 261
107 262
108 116
108 260
108 261
109 115
109 259
109 260
109 364
109 365
109 366
110 81
110 114
110 239
110 258
110 259
111 11
111 113
111 257
111 258
111 327
112 11
112 112
112 328
113 111
114 110
115 109
116 108
116 193
117 107
117 175
118 106
118 175
118 176
119 101
119 105
132 303
132 309
133 23
136 336
138 379
141 250
142 139
142 249
142 250
143 248
143 249
144 41
144 45
144 247
144 248
145 246
145 247
146 245
146 246
147 244
147 245
148 41
149 309
150 45
150 308
151 45
151 235
166 19
169 158
170 120
173 104
174 311
177 346
198 154
204 42
204 48
207 191
208 191
208 343
210 42
210 48
210 227
211 226
211 227
212 225
212 226
212 350
213 224
213 225
213 350
213 351
214 136
214 223
214 224
215 222
215 223
216 221
216 222
217 220
217 221
218 136
218 220
218 358
219 136
219 359
220 136
221 194
221 254
221 255
221 267
221 268
221 269
222 256
222 300
223 299
226 139
227 139
227 140
228 140
234 150
235 149
246 79
250 273
251 119
251 120
251 121
251 221
252 118
252 221
253 221
253 314
254 339
254 388
255 387
255 388
256 282
256 387
256 388
257 388
258 377
262 183
262 282
263 215
264 172
268 314
269 211
269 212
270 172
270 178
275 265
277 20
277 26
283 20
283 26
284 232
284 236
298 186
299 218
300 217
300 218
302 128
302 186
302 193
302 194
303 129
303 130
303 194
303 195
304 129
304 195
304 196
305 196
305 197
306 197
306 198
307 198
307 199
308 199
308 200
309 200
309 201
310 201
311 364
315 260
316 259
317 205
324 356
341 11
341 43
355 371
358 247
359 247
359 368
359 369
359 375
360 47
360 48
361 49
361 78
364 352
365 196
366 196
366 205
368 11
372 196
375 258
378 26
379 26
383 261
384 261
384 313
384 314
384 315
385 261
386 364
388 19
388 20
388 27
388 28
388 364

12
12 168
12 171
12 172
12 173
12 174
12 175
12 176
12 192
12 193
12 295
12 299
13 172
13 173
13 174
13 175
14 92
15 101
15 168
16 77
16 168
17 78
27 274
28 273
29 158
29 272
29 273
30 157
30 194
30 271
30 272
31 157
31 193
31 270
31 271
32 193
32 269
32 270
33 268
33 269
33 299
34 71
34 267
34 268
34 299
35 266
35 267
35 298
36 265
36 266
37 264
37 265
38 129
38 143
38 263
38 264
39 187
40 140
40 186
41 185
41 186
42 129
42 185
52 362
52 366
56 222
59 362
59 366
62 14
62 18
65 98
66 97
66 98
67 96
67 97
67 98
68 99
70 18
72 176
73 176
73 225
74 176
75 176
80 81
81 384
89 81
90 81
91 271
98 240
99 241
99 270
100 241
101 17
101 18
101 197
102 17
105 196
106 195
107 194
107 195
108 193
108 194
109 12
109 80
109 192
109 193
109 240
109 368
110 12
110 192
112 256
113 329
115 52
115 351
115 352
119 177
119 178
129 155
130 154
131 153
132 152
133 151
133 304
133 308
134 150
135 149
136 114
136 148
137 114
137 115
137 147
138 114
138 146
139 145
139 378
142 114
143 114
144 115
145 373
147 314
148 44
149 44
152 134
152 368
153 133
153 368
154 132
154 367
155 131
155 132
155 246
156 130
156 131
156 247
157 129
157 130
158 128
158 129
159 127
159 128
160 126
160 127
161 125
161 126
162 124
162 125
163 123
163 124
164 122
164 123
165 121
165 122
173 20
173 106
174 323
174 337
175 312
175 313
175 314
175 318
175 319
175 320
175 321
176 347
176 348
176 354
178 34
178 35
178 36
202 15
205 43
205 47
209 43
209 47
209 192
209 360
210 193
210 360
211 193
211 194
212 194
212 195
212 348
213 195
213 245
213 246
213 343
214 246
214 247
214 342
215 247
215 248
216 136
216 248
216 249
217 249
217 250
217 357
218 250
218 251
219 251
219 252
220 195
220 252
220 253
221 271
224 298
226 79
227 79
228 79
229 79
229 141
229 301
230 142
230 302
231 303
232 304
233 305
234 306
235 307
236 308
237 309
238 310
249 221
251 123
251 274
252 275
253 276
254 277
255 277
257 281
263 182
264 181
264 214
265 173
265 179
265 180
265 214
266 214
269 173
269 177
274 266
275 268
278 21
278 25
282 21
282 25
301 191
301 192
301 216
302 215
303 214
304 213
305 212
306 211
307 210
310 203
315 26
315 210
316 206
317 256
317 257
317 258
318 254
318 255
318 256
318 257
337 279
337 323
337 324
337 325
342 12
342 42
343 12
343 315
343 316
343 317
356 241
356 242
356 243
356 244
356 375
357 236
357 237
357 238
357 239
358 44
358 45
358 370
358 371
359 45
359 46
361 80
364 350
365 349
365 350
367 197
367 204
368 197
376 259
377 25
384 311
386 361
387 21
387 22
387 25
387 26
387 261
387 356
387 357
387 358
387 359
387 360
387 361
387 362
387 363

13
13 93
13 94
13 95
13 96
13 97
13 98
13 100
13 101
13 169
13 170
13 194
13 195
13 296
13 297
13 298
14 94
14 95
14 96
14 97
14 169
18 79
19 83
22 80
23 80
24 79
25 78
26 77
30 301
31 300
31 301
32 156
32 300
33 73
33 192
34 191
35 190
36 189
37 188
38 145
38 146
40 138
40 263
43 184
44 183
45 182
53 363
53 365
54 165
54 166
54 167
68 17
69 17
76 384
77 176
77 384
78 384
79 384
81 80
82 80
84 60
84 61
87 80
88 80
91 268
92 269
95 49
96 49
97 48
98 272
99 49
99 273
100 49
100 78
103 16
104 16
106 118
107 13
107 71
108 13
111 191
113 52
114 330
116 349
116 350
117 52
120 179
120 180
127 155
135 338
137 345
138 346
140 114
140 377
141 144
141 375
141 376
142 143
142 374
142 375
143 142
143 143
143 373
143 374
146 372
147 372
149 236
149 370
150 238
150 239
150 244
150 369
150 370
151 369
154 134
154 245
162 116
172 107
172 108
173 28
173 29
174 29
174 30
174 325
174 326
174 327
174 328
174 332
174 333
174 334
174 335
174 354
175 30
175 31
175 316
175 349
175 350
175 351
175 352
175 353
176 32
176 350
177 33
178 38
200 225
201 226
202 90
208 228
210 344
211 236
211 237
211 358
211 359
212 237
212 238
212 239
212 240
212 244
212 344
214 196
215 196
216 356
224 79
225 297
229 299
231 292
232 291
237 140
237 147
239 312
240 313
240 314
241 314
241 315
242 315
243 315
244 315
248 315
249 315
250 315
250 316
251 315
257 54
266 177
266 178
268 214
273 267
275 363
288 234
289 234
300 190
309 209
309 210
310 209
311 204
311 205
315 207
323 242
324 241
333 72
337 327
338 322
339 321
340 320
341 319
342 318
343 41
343 313
344 13
344 39
344 40
345 13
345 38
345 39
354 39
354 40
355 41
356 42
356 246
357 43
357 234
366 13
366 348
367 13
368 203
369 201
369 202
370 200
370 201
371 330
372 331
374 24
375 24
375 25
377 260
377 345
377 346
378 261
378 347
379 261
379 262
379 348
380 262
380 349
381 350
382 351
383 352
384 320
384 353
385 354
386 23
386 24
386 355

14
14 99
14 196
14 197
15 207
15 296
15 297
16 297
19 80
28 77
28 303
29 302
32 74
32 77
33 78
33 155
34 154
35 153
36 152
37 151
38 150
39 147
39 148
39 149
40 133
40 134
40 135
40 136
40 148
40 149
41 149
41 150
42 150
42 151
43 151
43 152
44 152
44 153
45 153
45 154
46 154
46 155
47 155
47 156
47 181
48 156
48 157
48 181
49 157
49 158
50 158
50 159
51 159
51 160
52 160
52 161
53 161
53 162
54 163
54 364
55 168
55 364
56 169
66 16
67 16
74 384
83 79
84 56
84 78
85 57
85 58
85 59
86 57
86 58
87 56
87 57
88 55
88 56
89 54
89 55
90 53
90 54
91 52
91 53
92 51
92 52
93 50
93 51
93 270
94 50
94 270
94 271
95 270
95 271
96 270
96 271
97 271
101 50
102 51
102 78
102 242
103 51
103 52
103 242
104 52
104 53
105 15
105 53
106 14
107 73
111 53
112 53
113 190
113 191
114 190
115 331
116 332
117 332
117 333
118 183
118 184
118 333
118 334
119 181
119 182
119 183
119 184
119 185
119 334
119 335
120 182
120 335
120 336
121 103
121 336
122 104
123 104
123 105
124 105
124 106
125 106
125 107
126 107
126 108
127 108
127 109
128 109
128 110
129 110
129 111
130 111
130 112
131 112
131 113
132 113
132 114
133 114
133 115
134 115
136 305
136 344
137 306
138 306
139 306
140 306
141 307
142 307
142 308
143 308
144 141
145 140
146 43
146 139
146 311
146 312
147 138
148 137
148 371
149 136
150 135
151 240
151 241
152 241
153 244
168 21
169 22
172 22
174 330
202 227
203 227
206 231
207 232
208 233
209 234
210 235
211 345
211 346
212 242
212 356
212 357
213 355
213 356
214 354
214 355
215 355
216 197
217 198
218 199
218 200
218 201
218 202
230 293
230 294
233 142
236 141
236 146
246 315
272 268
286 234
290 233
291 232
291 233
292 232
300 188
312 206
313 207
314 208
321 359
322 243
322 358
346 14
346 36
346 37
347 14
357 373
365 14
367 347
370 198
372 23
373 23
376 344
384 322

15
15 198
15 199
15 203
17 298
20 81
22 300
23 300
23 301
24 301
24 302
25 302
25 303
26 303
26 304
29 76
30 75
30 76
31 75
31 76
40 131
49 180
50 180
57 364
58 220
59 219
64 16
70 222
71 223
85 79
103 77
104 77
104 243
105 243
106 54
106 74
106 75
106 77
107 78
110 54
115 189
116 188
116 253
117 187
117 253
117 347
118 186
118 345
118 346
135 306
135 343
144 309
145 310
152 243
169 116
170 23
170 24
170 111
170 112
171 23
171 24
171 25
171 110
172 26
204 228
205 228
205 229
207 45
218 197
228 296
228 297
229 295
229 296
234 143
235 142
235 143
235 144
236 144
267 175
269 269
270 268
270 269
280 23
293 231
294 230
303 236
304 236
304 237
305 237
306 238
307 239
312 208
320 360
347 35
348 15
349 15
353 37
368 346
369 20
369 21
369 345
370 21
370 344
370 345
371 22
371 343
371 344
372 342
372 343
373 341
373 342
374 340
374 341
375 339
375 340
375 341
375 342
376 342
383 323
383 324

16
16 200
16 201
16 202
17 201
19 298
20 298
20 299
21 299
56 172
60 218
68 221
69 221
105 76
108 54
108 55
119 344
127 338
128 338
129 338
129 339
130 339
130 340
131 340
132 341
133 342
134 341
134 342
166 116
166 117
167 115
167 116
168 114
168 115
169 113
169 114
259 278
260 277
261 276
261 277
262 275
262 276
263 274
263 275
264 273
264 274
265 272
265 273
266 271
266 272
267 270
267 271
268 270
296 229
297 230
298 231
299 232
300 233
301 234
302 235
309 239
309 240
310 240
317 361
318 249
319 361
347 33
348 32
348 33
350 16
351 16

17
52 179
53 178
54 178
65 219
66 219
66 220
67 220
107 244
108 245
109 246
110 247
111 249
112 250
113 251
114 252
120 343
318 362
318 363
352 17
353 17
376 334
376 335
381 327
381 328
382 326

18
55 177
56 176
56 177
57 174
57 175
57 176
58 175
62 217
63 217
64 218
121 342
122 340
122 341
123 340
123 341
124 340
125 339
312 241
313 242
314 242
314 243
315 243
318 244
318 246
354 18
355 18
377 332
377 333
378 331
378 332
379 330
379 331
380 329
380 330

19
316 244
317 245
356 19
357 19
364 19

20
352 30
352 31
362 20
363 20

21
353 28
353 29
354 27
354 28
360 21
361 21

22
355 26
356 24
356 25
357 23
357 24
358 22
358 23
359 22

