0
0 0
0 18
0 168
0 169
0 191
0 192
0 198
0 226
0 386
0 399
26 399
27 399
66 0
90 0
103 399
125 399
172 0
173 0
201 0
202 0
215 399
237 399
240 0
252 399
268 399
303 0
304 0
399 112
399 113
399 129
399 130
399 151
399 167
399 181
399 207
399 252
399 253
399 307
399 381

1
1 1
1 17
1 170
1 190
1 398
4 262
4 272
25 398
32 1
53 279
58 82
68 82
71 23
81 23
84 290
88 20
88 30
88 356
95 38
95 48
98 20
98 30
98 356
99 74
104 398
105 38
105 48
124 398
131 265
131 275
137 1
138 1
139 232
141 275
149 222
149 232
154 1
155 1
164 33
171 176
171 186
174 1
174 33
181 176
181 186
200 1
201 135
201 145
205 2
207 28
211 145
212 72
229 96
229 106
239 1
239 96
239 106
256 312
256 322
266 322
286 108
292 12
292 22
296 98
296 108
297 129
302 12
302 22
305 1
307 129
323 266
323 276
337 1
339 192
339 202
349 192
349 337
359 337
368 1
372 366
373 50
390 1
398 114
398 128
398 182
398 206
398 215
398 254
398 306
398 339
398 380

2
2 2
2 16
2 171
2 189
2 199
2 200
2 224
2 225
2 387
2 388
2 397
5 165
14 328
17 354
21 165
24 43
24 397
30 328
30 344
31 2
33 354
33 370
39 142
39 154
51 142
51 154
54 186
54 202
60 115
72 103
72 115
86 10
87 35
87 47
88 2
89 2
128 214
128 328
139 2
140 214
140 328
143 163
143 175
143 369
147 111
153 2
155 163
155 175
155 304
155 316
158 380
158 396
159 353
159 369
174 241
174 253
174 396
175 2
176 99
179 262
179 278
181 397
186 241
186 253
189 18
192 83
192 99
193 385
193 397
199 2
201 18
205 329
205 345
209 122
212 354
216 397
217 397
218 35
218 51
221 122
221 134
224 263
228 354
235 397
236 397
240 247
240 263
240 382
243 219
249 278
249 294
253 397
254 397
259 219
264 302
265 294
269 108
276 302
276 314
281 108
285 176
287 67
289 221
289 237
291 203
303 67
303 83
305 221
306 2
311 242
311 254
316 30
320 50
320 66
332 30
335 250
336 50
347 250
350 69
350 85
350 234
358 190
362 234
370 190
370 202
370 356
371 326
376 62
376 74
379 98
379 114
385 218
397 115
397 127
397 152
397 153
397 165
397 166
397 183
397 205
397 216
397 255
397 379

3
3 3
3 15
3 26
3 38
3 172
3 188
3 201
3 223
3 389
3 396
11 203
11 221
23 396
29 388
30 3
36 273
38 72
42 237
45 4
56 72
60 237
67 180
69 322
72 213
72 231
85 198
87 3
90 213
90 231
91 82
91 100
96 381
105 396
106 62
106 396
113 232
115 33
115 45
115 132
115 150
119 386
120 385
121 347
121 365
122 396
123 396
124 62
125 232
126 154
126 297
127 33
127 45
130 130
135 191
135 203
136 21
139 347
140 3
147 191
147 203
148 130
148 148
152 3
161 123
161 135
164 12
164 24
176 3
178 9
191 121
191 133
198 3
198 373
216 221
218 396
234 396
235 140
235 158
237 3
238 3
242 226
242 238
246 369
251 82
251 94
255 396
261 354
279 354
279 372
289 260
292 359
292 371
293 330
295 165
307 3
309 9
311 293
311 330
312 285
328 85
328 97
329 293
331 162
336 3
340 97
340 361
340 373
349 180
351 95
351 113
352 373
354 258
354 276
369 3
369 390
381 390
382 271
383 240
389 3
395 240
396 116
396 126
396 154
396 164
396 217
396 256
396 305
396 340

4
4 4
4 173
4 174
4 186
4 187
4 202
4 222
4 390
4 395
5 341
5 349
6 174
6 186
6 264
8 286
10 274
11 142
11 274
16 278
16 286
22 395
23 142
29 4
43 41
52 320
52 332
56 216
56 224
60 84
64 332
65 294
65 306
66 84
71 54
76 263
76 275
78 365
78 377
79 25
82 292
83 137
83 149
86 4
90 22
90 28
90 358
92 174
92 186
96 22
96 28
96 358
97 40
97 46
101 241
101 253
103 40
103 46
107 395
108 390
110 270
110 300
110 308
113 241
120 374
121 395
122 258
122 270
126 370
126 371
127 370
128 382
133 267
133 273
141 4
146 292
147 224
147 230
151 4
165 109
166 35
166 61
166 110
167 111
172 35
172 72
173 178
173 184
177 4
177 111
178 82
179 178
179 184
180 72
189 35
191 194
191 206
192 395
195 65
201 237
201 245
202 55
203 54
203 55
203 65
203 137
203 143
203 194
203 206
204 53
204 54
205 53
209 92
209 143
209 237
217 92
218 63
218 379
219 395
220 391
222 189
222 201
231 98
231 104
232 391
233 395
236 4
237 98
237 104
238 319
245 30
245 38
246 133
246 319
253 30
253 38
254 133
256 382
256 395
258 314
258 320
262 276
263 275
263 276
264 264
264 274
264 275
264 320
265 274
265 377
268 27
268 39
272 264
272 272
274 213
274 221
280 27
282 49
282 213
282 221
290 41
290 49
294 14
294 20
294 100
294 106
297 153
299 131
300 14
300 20
305 131
308 4
308 357
308 369
309 153
309 203
319 206
319 218
325 268
325 274
331 206
331 218
335 4
336 321
341 194
341 200
342 29
342 41
347 194
348 309
348 321
351 339
353 160
357 339
359 356
361 71
363 373
363 381
376 33
388 33
389 326
393 155
393 163
394 121
394 261
395 117
395 118
395 119
395 120
395 121
395 122
395 123
395 124
395 125
395 155
395 163
395 184
395 185
395 203
395 204
395 218
395 257
395 258
395 259
395 260
395 261
395 262
395 263
395 264
395 265
395 266
395 377
395 378

5
5 5
5 13
5 14
5 27
5 37
5 175
5 176
5 177
5 178
5 179
5 181
5 182
5 183
5 184
5 185
5 203
5 221
5 391
5 394
6 176
6 177
6 178
6 182
6 183
6 184
6 342
6 348
9 285
10 272
13 246
15 285
20 90
20 104
20 394
21 394
22 41
27 246
34 90
34 104
37 33
41 144
41 152
49 144
49 152
57 217
57 223
61 85
62 113
65 85
69 5
70 53
70 105
70 113
78 26
81 293
85 5
85 37
85 45
89 324
91 23
91 27
92 124
93 304
95 23
95 27
95 359
98 41
98 45
102 41
102 45
108 394
109 196
109 210
111 301
111 307
118 216
120 110
120 394
121 375
121 381
121 382
123 196
127 381
130 326
134 268
134 272
138 216
138 326
142 83
142 97
142 254
145 165
145 173
145 293
146 225
146 229
149 5
149 109
150 5
153 165
153 173
153 306
153 314
156 83
163 108
164 253
164 267
167 36
169 112
170 112
173 71
174 179
174 183
176 112
176 243
176 251
178 5
178 179
178 183
178 345
178 359
179 5
179 71
179 83
179 318
179 332
184 243
184 251
191 16
191 387
191 394
192 345
193 318
193 332
194 358
194 359
195 359
195 360
196 64
196 360
196 361
197 361
197 362
198 362
198 363
199 16
202 57
202 64
202 238
202 244
203 9
203 10
204 8
204 9
204 138
204 142
205 8
208 142
208 238
210 91
211 124
213 274
216 91
219 64
219 124
219 132
220 394
232 99
232 103
232 394
234 10
235 5
236 67
236 81
236 99
236 103
238 380
239 320
245 320
246 31
246 37
252 31
252 37
253 134
255 335
255 349
257 394
259 315
259 319
260 158
262 278
263 319
265 265
265 272
266 304
267 394
271 106
271 265
271 271
274 304
274 312
275 214
275 220
281 214
281 220
283 48
287 293
287 307
289 42
289 48
293 105
295 15
295 19
299 15
299 19
300 132
304 132
309 5
309 244
310 5
326 269
326 273
334 5
337 252
342 195
342 199
345 252
346 195
352 48
352 161
352 232
356 340
360 192
360 232
362 70
362 132
362 146
364 374
366 34
368 192
370 5
372 354
373 287
373 301
374 72
376 132
376 146
388 5
388 187
388 201
393 159
394 156
394 157
394 158
394 159
394 160
394 161
394 162
394 186
394 202
394 267
394 268
394 304
394 376

6
6 6
6 12
6 28
6 36
6 180
6 204
6 220
6 392
6 393
7 343
7 347
7 393
8 393
9 205
9 219
9 393
10 284
10 393
11 393
12 393
13 393
14 284
27 6
27 386
28 6
31 256
31 257
32 257
32 258
33 258
33 259
34 259
38 271
40 21
40 22
40 70
41 20
41 21
42 19
42 20
42 145
42 151
43 18
43 19
44 239
47 6
48 145
48 151
54 70
58 218
58 222
58 239
63 112
65 8
66 7
66 8
67 6
67 7
67 221
68 6
69 52
69 112
70 6
71 6
72 6
74 229
83 196
84 6
84 44
88 215
88 229
93 84
94 379
108 64
109 393
112 302
112 306
113 134
113 148
115 230
117 35
117 43
118 390
119 393
121 305
122 64
122 380
123 349
125 35
125 43
126 380
128 152
131 325
132 132
137 193
137 201
137 217
137 325
137 349
138 19
144 294
145 193
145 201
146 132
146 146
146 166
146 172
148 6
150 108
152 166
152 172
152 307
152 313
160 393
161 108
162 14
162 22
163 125
163 133
171 113
174 70
175 113
177 244
177 250
178 70
180 6
180 7
181 6
183 244
183 250
189 123
189 131
190 388
190 393
192 358
197 63
198 15
200 363
200 371
201 58
201 59
201 63
203 239
203 243
207 137
207 138
208 136
208 137
209 135
209 136
210 134
210 135
211 90
211 133
211 134
212 125
212 132
212 133
214 6
215 6
215 7
215 90
216 6
217 6
218 6
218 125
218 131
218 223
220 65
221 393
222 392
222 393
223 393
225 393
227 393
228 392
228 393
229 392
229 393
230 392
230 393
231 393
234 6
237 142
237 156
237 379
240 228
240 321
242 355
243 354
243 355
244 321
244 353
244 354
245 353
247 32
247 36
251 32
251 36
252 135
253 84
253 92
263 356
266 266
266 270
266 271
267 305
270 266
270 270
272 105
273 305
273 311
276 215
276 219
277 356
277 370
280 215
280 219
284 47
288 43
288 47
291 262
294 369
295 328
297 167
300 239
301 239
301 240
302 240
302 241
303 241
303 242
308 245
309 328
310 283
311 6
311 7
312 6
327 295
330 95
331 308
332 309
333 164
333 310
334 311
338 95
338 253
342 371
345 199
345 200
346 200
346 201
347 178
347 201
347 202
348 202
348 203
349 203
349 204
350 204
350 371
351 162
352 260
352 274
353 97
353 111
353 231
359 231
361 193
365 375
367 193
371 6
371 388
373 71
373 353
379 388
384 273
385 238
387 6
393 187
393 201
393 219
393 220
393 238
393 269
393 270
393 303
393 356
393 357
393 358
393 375

7
7 7
7 11
7 29
7 35
7 205
7 206
7 218
7 219
8 162
9 269
9 270
11 278
13 144
14 392
15 392
17 331
18 162
20 357
21 144
24 373
26 7
27 331
27 341
30 357
43 146
43 150
45 18
47 146
47 150
54 322
54 330
57 189
57 199
62 330
63 89
64 111
64 323
67 296
67 304
68 111
73 7
74 7
74 265
74 273
75 7
76 7
77 7
78 7
78 8
79 7
80 7
80 367
80 375
81 7
82 7
83 7
83 43
85 139
85 147
90 176
93 378
103 243
103 251
110 392
111 243
111 392
112 268
112 392
113 392
114 391
114 392
115 392
116 229
116 392
117 392
118 36
118 42
118 392
120 260
120 268
124 36
124 42
125 374
125 375
129 151
132 324
136 324
138 194
138 200
139 18
144 194
144 200
147 167
147 171
151 107
151 167
151 171
151 312
156 356
156 366
160 107
161 15
161 21
161 383
161 392
164 132
178 245
178 249
179 96
182 7
182 245
182 249
182 265
182 275
183 7
184 7
185 7
186 7
188 124
188 130
189 86
189 96
189 389
193 196
193 204
201 196
201 204
201 364
201 370
207 7
208 7
208 332
208 342
209 7
210 7
210 8
210 258
211 7
211 257
211 258
212 7
212 256
212 257
213 7
213 126
213 130
213 131
213 255
213 256
214 254
214 255
215 38
215 48
215 253
215 254
217 126
217 130
219 7
219 224
220 7
220 8
220 377
221 7
224 191
224 199
224 392
226 392
227 260
233 7
236 378
237 260
239 229
242 357
246 216
252 281
252 291
254 85
254 91
256 216
258 384
258 392
262 291
266 392
268 306
270 29
270 37
272 306
272 310
273 104
278 29
290 70
292 224
292 234
294 200
295 368
298 168
299 151
300 70
300 80
300 237
301 257
302 136
302 137
302 224
302 256
302 257
303 255
303 256
304 254
304 255
306 359
306 367
307 151
307 201
313 7
314 7
319 27
321 208
321 216
323 53
323 63
329 27
329 208
329 216
329 307
330 271
331 94
331 270
331 271
332 7
332 65
332 270
333 7
333 53
333 65
333 66
334 66
334 67
335 67
335 68
336 68
336 69
336 312
337 69
337 70
337 94
338 70
338 319
339 254
343 370
344 31
344 39
346 311
346 319
347 72
347 82
349 370
350 206
354 230
357 354
358 230
362 194
364 69
366 194
368 57
368 58
372 7
372 70
372 387
374 329
374 352
376 101
376 111
378 31
378 387
382 371
383 370
386 7
386 31
386 237
387 328
388 221
392 188
392 200
392 221
392 237
392 271
392 272
392 302
392 354
392 355
392 359
392 360
392 374

8
8 8
8 10
8 207
8 208
8 209
8 210
8 211
8 212
8 213
8 214
8 215
8 216
8 217
9 161
9 212
9 267
10 265
10 266
11 8
11 264
11 265
12 8
12 263
12 264
12 279
12 280
13 262
13 263
14 145
14 261
14 262
15 248
15 260
15 261
16 260
16 391
17 161
17 391
18 332
20 145
22 92
22 102
25 8
25 248
26 332
29 358
32 92
32 102
35 31
37 22
48 8
55 323
55 329
58 190
58 198
60 92
60 93
60 94
60 98
60 99
60 100
61 91
61 92
61 100
61 101
61 329
62 90
62 101
62 102
62 220
62 323
63 9
63 87
63 102
63 103
63 220
64 103
64 104
64 220
65 104
65 105
68 297
73 266
73 272
75 29
75 321
76 28
78 296
79 295
81 368
81 374
86 140
86 146
87 322
89 177
91 306
92 362
92 377
93 25
93 361
100 43
104 244
104 250
110 244
111 198
111 208
113 267
116 304
117 228
117 304
118 108
118 220
118 304
119 37
119 41
119 261
119 267
121 198
123 37
123 41
124 376
130 150
136 270
137 269
138 269
139 195
139 199
140 17
142 226
143 195
143 199
143 226
144 85
144 227
144 256
154 85
155 357
155 365
159 106
160 16
160 20
162 255
162 265
162 384
162 391
165 131
169 38
170 39
173 117
176 65
176 66
176 181
178 387
179 388
180 86
180 95
180 357
180 388
181 320
183 266
183 274
184 391
185 390
185 391
186 391
187 8
187 125
187 129
188 8
188 87
188 95
188 391
189 391
190 357
191 320
194 197
194 203
200 197
200 203
202 365
202 369
206 140
207 241
208 242
209 243
209 333
209 341
210 244
210 260
211 245
211 272
212 246
213 86
213 247
214 39
214 47
214 248
215 248
216 251
216 252
220 225
221 376
222 8
223 8
224 8
225 8
225 192
225 198
226 8
227 8
227 9
228 8
229 8
230 8
231 8
232 8
234 69
234 79
234 101
236 259
238 230
247 215
253 282
253 290
253 337
253 347
255 86
255 90
255 215
259 385
259 391
261 281
261 282
261 290
261 317
262 316
263 315
264 314
264 382
265 313
265 391
266 312
266 372
267 88
267 89
267 311
268 89
268 310
271 30
271 36
277 30
289 295
290 102
291 71
291 103
293 225
293 233
295 199
296 290
296 361
296 367
297 17
297 289
297 290
298 288
298 289
299 71
299 79
299 287
299 288
300 150
300 287
301 225
302 134
304 244
304 245
305 360
305 366
306 150
306 200
308 172
309 172
309 173
310 173
315 8
316 8
320 26
322 209
322 215
324 54
324 62
327 173
327 307
328 26
328 209
328 215
328 271
331 8
332 54
332 63
332 93
333 269
336 93
338 72
338 312
339 318
344 197
344 369
345 32
345 38
345 312
345 318
346 73
346 81
348 369
354 342
364 36
364 134
364 144
367 53
367 54
368 55
373 8
374 134
374 144
375 102
375 110
375 299
375 330
377 386
379 30
379 372
380 372
385 8
385 30
386 329
387 236
389 222
390 189
390 190
390 191
390 192
390 196
390 197
390 198
390 199
390 363
391 189
391 190
391 191
391 192
391 193
391 195
391 196
391 197
391 198
391 199
391 222
391 236
391 273
391 274
391 352
391 353
391 361
391 362
391 363
391 364
391 373

9
9 9
9 30
9 31
9 34
9 345
10 9
10 160
10 344
11 344
12 282
13 9
14 9
15 9
15 10
16 9
16 10
16 160
16 249
16 258
17 9
18 390
19 146
19 333
19 389
19 390
20 388
20 389
21 387
21 388
22 358
22 359
22 386
22 387
23 93
23 101
23 376
24 9
24 249
24 370
25 333
25 339
25 340
27 256
28 359
31 93
31 101
34 30
40 269
42 68
46 241
47 17
49 9
52 68
56 25
56 241
56 324
56 328
57 26
58 27
59 191
59 197
60 96
60 220
60 272
60 324
60 328
61 9
61 271
61 272
61 324
62 271
66 106
66 107
69 298
72 267
72 271
74 30
77 321
81 194
82 369
86 217
86 227
87 141
87 145
88 178
90 307
90 364
90 365
91 363
91 364
95 86
100 127
101 127
101 128
102 128
102 129
103 129
103 130
104 130
105 245
109 245
109 253
110 66
110 254
111 136
111 146
111 255
112 199
112 256
113 257
114 258
114 266
114 304
117 107
118 266
120 66
120 199
124 378
125 225
125 351
126 224
127 223
128 222
129 221
130 220
131 220
132 220
134 134
134 318
134 319
134 320
136 220
137 221
138 222
139 223
139 268
140 224
140 267
141 225
141 266
141 297
142 9
142 265
142 296
144 134
144 144
145 86
145 257
153 86
154 358
154 364
161 256
161 264
163 385
163 390
171 40
171 41
173 115
174 63
174 387
175 64
176 68
181 94
181 356
181 389
182 321
182 390
183 390
184 267
184 273
187 94
187 390
189 9
189 356
190 9
190 321
191 53
192 54
193 55
194 56
195 57
195 198
195 202
196 58
197 59
198 60
199 61
199 198
199 202
205 241
210 271
210 334
210 340
213 40
213 46
213 88
214 84
214 85
215 83
215 84
216 82
216 83
217 81
217 82
218 80
218 81
219 79
219 80
222 67
223 68
226 193
226 197
233 70
233 78
235 258
239 144
241 324
241 325
241 359
241 360
242 323
248 214
249 34
250 137
250 138
252 338
252 346
254 214
254 283
254 289
260 283
260 289
260 386
260 390
263 88
264 384
264 390
265 358
266 370
268 268
269 90
270 90
270 91
272 31
272 35
275 358
275 368
276 31
276 35
277 36
278 37
278 217
279 38
280 39
281 40
282 41
283 42
283 88
283 89
284 43
284 87
285 44
285 86
285 97
285 98
286 45
286 85
286 98
286 99
287 84
287 99
287 100
288 83
288 100
288 101
289 82
289 101
290 81
290 296
291 80
292 72
292 78
292 79
293 264
294 226
294 232
296 198
297 326
298 72
298 78
300 226
300 285
301 149
301 260
304 361
304 365
305 149
305 199
305 246
305 250
305 251
305 252
307 171
307 326
308 281
317 9
318 9
321 25
323 210
323 214
325 55
325 61
325 297
327 25
327 210
327 214
330 9
331 55
331 61
331 62
339 73
339 74
339 313
340 313
340 317
344 313
344 317
345 74
345 176
346 33
347 361
348 165
348 360
349 164
349 359
350 272
350 358
351 208
351 209
351 357
352 344
352 356
354 344
355 99
355 109
356 224
356 225
356 226
358 205
358 206
359 204
359 205
360 203
360 204
361 202
361 203
362 48
362 201
362 202
363 37
363 49
363 200
363 201
364 50
364 198
364 199
364 200
365 51
365 135
365 143
366 52
367 377
368 378
373 135
373 143
374 103
374 109
376 298
376 331
380 29
384 29
385 330
386 275
389 226
389 228
390 194
390 223
390 224
390 225
390 226
390 227
390 228
390 229
390 275
390 300
390 301
390 350
390 351
390 365
390 366
390 371
390 372

10
10 32
11 159
12 343
13 342
13 343
14 341
14 342
15 159
15 340
15 341
16 339
16 340
17 250
17 256
17 257
17 338
17 339
18 10
18 338
19 10
20 334
23 10
23 250
23 360
23 378
23 379
23 380
23 384
23 385
24 94
24 100
24 334
24 338
27 360
30 94
30 100
33 29
34 23
35 23
41 268
43 67
45 148
47 242
50 10
51 67
55 242
57 271
58 271
58 272
59 10
60 10
60 192
60 196
63 270
64 269
66 109
78 320
79 320
80 40
80 193
81 41
85 218
85 226
88 367
89 308
89 366
108 250
108 251
110 145
111 67
113 200
115 260
115 261
116 106
119 67
119 200
119 222
119 223
122 226
123 226
126 352
127 363
134 220
134 322
135 135
140 298
141 358
142 359
143 135
143 143
143 360
144 264
145 264
146 87
146 258
148 309
149 169
149 310
152 87
153 17
153 105
153 359
153 363
154 17
154 18
154 104
155 18
156 18
160 257
160 263
164 386
172 42
172 43
180 126
180 247
181 126
181 127
182 87
182 88
182 93
182 127
182 355
183 127
183 322
185 268
185 272
186 88
186 93
188 355
189 322
191 10
192 10
192 11
193 10
193 11
194 10
195 269
195 270
196 10
196 268
196 269
197 10
197 11
197 268
206 367
207 367
208 367
209 262
209 263
209 270
209 366
210 365
210 366
211 335
211 339
211 364
211 365
212 41
212 45
215 128
217 249
218 248
224 69
232 71
232 77
233 375
234 195
234 257
234 376
235 194
239 327
240 145
240 326
240 327
240 361
249 139
249 213
251 339
251 345
253 213
255 284
255 288
259 88
259 284
259 288
260 88
261 88
263 385
263 386
266 359
270 308
272 91
274 359
274 367
275 102
276 101
282 90
293 73
293 77
294 265
295 227
295 231
296 293
297 73
297 77
297 197
298 325
298 362
299 227
299 233
299 234
303 141
304 171
305 171
305 248
306 325
307 280
312 174
319 10
320 10
322 24
324 174
324 298
324 306
325 306
326 24
326 56
326 60
329 10
330 56
330 60
334 89
336 269
340 75
341 256
342 257
344 75
344 175
346 363
346 364
346 365
347 166
349 271
352 210
352 354
356 100
356 108
356 228
362 38
362 46
364 196
366 67
366 136
366 142
367 63
367 67
369 67
370 68
372 136
372 142
373 104
373 108
374 10
375 10
375 374
376 350
376 374
377 297
377 332
377 349
377 373
383 10
384 10
387 276
388 234
389 230
389 231
389 232
389 233
389 234
389 235
389 276
389 299
389 348
389 349
389 367
389 368
389 370

11
11 33
12 33
12 34
13 33
13 34
14 34
14 35
15 34
15 35
16 35
18 251
18 255
19 337
20 11
20 337
21 11
21 12
22 11
22 13
22 251
23 14
23 382
24 15
24 255
25 16
25 95
25 99
25 255
26 17
27 18
28 19
29 95
29 99
32 28
42 267
44 66
48 243
50 66
51 11
52 266
52 267
53 267
53 268
54 243
54 268
54 269
55 22
55 269
55 270
56 270
57 11
58 11
66 269
67 269
68 269
79 39
79 192
80 319
84 219
84 225
84 373
88 309
88 369
89 374
90 375
91 143
92 143
93 143
95 142
100 124
107 249
109 144
112 68
114 201
116 262
117 210
118 68
118 201
119 226
120 224
120 225
121 39
121 225
127 353
132 148
133 147
136 136
139 299
139 357
141 197
142 15
142 136
143 11
143 14
146 263
146 308
147 88
147 259
147 263
147 308
148 13
149 13
150 14
151 15
151 88
152 16
156 103
157 104
158 18
159 258
159 262
164 388
165 388
167 129
167 388
168 128
168 387
168 388
169 387
169 388
170 387
170 388
171 387
171 388
172 388
173 44
178 124
179 125
183 89
183 354
184 323
185 89
185 127
187 354
188 323
195 11
204 367
208 264
208 265
208 269
220 77
221 75
221 76
222 227
223 228
230 195
231 72
231 76
231 195
232 195
235 233
236 232
239 363
239 364
240 363
248 140
250 344
257 88
261 388
262 387
262 388
263 388
267 360
267 367
267 368
273 360
273 366
277 100
281 91
295 266
298 231
298 232
298 365
299 324
299 363
299 364
300 262
300 363
300 364
301 283
301 364
303 143
303 144
303 145
303 172
305 324
306 279
314 174
315 174
316 174
320 174
321 11
321 174
322 11
322 174
323 299
323 305
327 11
328 11
331 172
334 91
335 87
335 88
336 86
336 87
337 85
337 86
338 84
338 85
339 83
339 84
340 82
340 83
341 81
341 82
343 174
343 258
346 167
346 367
348 270
353 211
353 346
353 347
353 348
353 352
353 353
357 101
357 107
357 208
357 209
361 39
361 44
361 45
367 137
367 141
368 64
368 65
368 66
371 137
371 141
373 376
374 375
374 383
375 384
376 11
378 296
378 348
380 20
380 21
381 21
381 22
382 11
382 23
382 24
382 25
388 277
388 278
388 279
388 280
388 298
388 346
388 347
388 369

12
13 155
15 149
16 149
16 150
17 148
18 34
18 35
19 34
22 254
23 254
25 364
25 365
25 366
25 367
29 21
29 22
43 266
45 65
49 65
49 244
50 266
53 244
55 20
58 326
59 31
64 194
70 269
71 300
72 301
74 221
77 38
78 38
83 220
83 224
84 371
85 181
86 180
86 318
88 373
89 143
97 141
107 247
108 143
113 69
116 264
117 69
117 208
128 305
128 354
128 360
128 361
134 146
135 315
137 137
137 357
141 137
144 12
144 13
145 12
145 13
145 307
146 12
146 13
146 361
147 12
147 361
148 361
149 361
155 101
155 102
166 387
169 127
173 46
173 58
173 59
174 46
174 47
182 49
183 49
184 49
185 48
189 270
190 270
191 270
192 270
197 200
199 267
200 38
215 337
217 337
218 337
221 336
222 74
224 229
228 195
234 234
238 365
249 205
250 205
250 206
251 206
251 207
251 208
251 209
268 361
268 365
268 366
272 361
272 365
274 33
274 92
275 92
278 99
293 180
293 181
293 182
300 173
300 323
301 172
301 173
302 196
302 363
303 147
303 197
304 323
318 174
322 300
322 304
323 12
324 12
324 17
324 18
324 19
324 20
325 212
326 12
333 172
338 268
342 79
342 80
342 173
342 315
343 169
344 169
344 259
344 260
345 168
347 269
348 35
349 36
353 350
355 220
356 210
356 211
358 102
358 106
360 43
371 379
372 378
373 381
373 382
377 12
379 19
379 347
381 12
382 27
382 333
383 332
387 281
387 282
387 297
387 344
387 345

13
13 157
14 152
14 153
14 154
15 151
15 152
20 33
21 32
21 33
22 31
22 32
22 336
23 30
23 31
24 29
24 30
25 28
25 29
25 362
26 27
26 28
27 26
27 27
28 26
46 57
48 265
49 265
52 13
53 13
55 13
56 13
59 33
62 194
65 193
66 193
73 302
84 182
86 372
87 371
87 372
99 119
99 120
99 121
99 122
99 141
116 205
116 206
116 207
129 358
129 359
135 145
135 313
149 92
149 93
149 94
149 95
150 95
150 96
151 96
151 97
151 261
151 361
152 97
152 98
152 260
152 261
153 98
153 99
153 260
153 261
154 100
154 260
154 261
155 260
170 126
171 125
171 126
172 125
174 57
175 48
175 49
181 50
184 91
185 347
185 348
185 349
185 350
186 327
186 328
186 329
186 330
187 47
187 48
187 270
188 47
194 43
195 42
195 43
196 41
196 42
197 40
197 41
198 40
199 39
201 267
202 267
203 267
204 267
208 42
210 43
213 337
216 338
223 336
224 74
224 336
224 337
225 230
225 336
225 337
226 243
226 336
227 74
227 242
228 241
229 240
230 239
230 336
231 254
231 336
232 255
232 336
233 235
233 336
234 335
237 366
246 143
246 144
247 142
248 176
248 177
248 178
248 179
248 202
248 203
249 179
249 203
251 211
253 163
257 286
276 93
277 93
279 95
279 96
279 97
279 98
280 96
280 97
293 184
294 179
294 185
294 186
295 75
295 178
296 177
297 176
297 229
298 175
299 174
301 195
324 22
325 13
328 58
340 268
342 77
342 170
350 37
351 37
355 215
355 216
355 217
355 218
356 41
357 41
366 105
367 104
367 105
368 105
369 105
371 106
372 380
378 13
379 17
379 334
380 13
380 334
380 335
380 336
380 346
381 334
381 335
381 345
386 283
386 284
386 295
386 296
386 342
386 343

14
20 253
27 97
29 25
30 24
30 26
45 262
46 263
47 56
47 58
47 59
47 60
47 61
47 264
49 253
49 254
50 252
50 253
51 248
51 249
51 250
51 251
53 16
53 17
54 14
54 15
54 16
54 17
54 18
67 192
68 191
69 190
70 190
71 189
72 189
73 189
74 189
74 303
76 222
77 222
78 222
79 222
82 317
83 183
83 316
85 316
99 117
100 115
100 116
115 73
116 203
130 306
131 306
132 356
133 356
134 356
135 356
136 144
137 143
139 141
149 90
149 261
157 260
173 124
174 55
174 123
175 54
175 55
178 51
179 50
179 51
185 352
186 325
192 44
193 44
202 39
203 40
204 40
206 42
206 267
225 73
226 73
226 231
227 232
228 336
229 74
230 253
231 371
232 370
232 371
233 369
233 370
234 368
234 369
235 368
236 367
244 146
244 147
244 151
244 152
244 153
245 145
245 146
247 200
247 201
248 174
249 173
249 174
249 181
249 182
249 183
249 184
252 161
252 162
252 165
252 166
253 165
278 94
279 93
295 187
295 188
295 297
295 298
300 194
302 316
302 317
302 318
302 319
303 315
303 316
316 302
317 302
318 302
335 171
336 171
337 171
338 171
341 267
342 267
345 262
345 263
345 264
352 38
353 39
354 39
354 40
355 40
355 213
359 41
362 104
363 104
364 104
365 104
369 139
379 14
379 15
380 294
381 293
381 337
381 338
382 344
383 342
383 343
385 285
385 286
385 294

15
43 260
44 259
44 260
44 261
45 258
45 264
46 257
47 54
47 63
47 256
48 53
48 54
48 255
51 246
60 35
76 189
76 303
77 188
78 187
78 188
79 186
79 187
80 185
80 186
81 185
81 222
82 184
84 313
84 314
84 315
101 113
101 114
101 140
102 140
105 137
105 140
106 141
114 74
114 75
115 71
115 101
130 356
132 307
133 307
138 142
139 139
176 51
176 52
176 53
177 52
190 46
191 45
205 41
217 363
217 364
218 364
218 365
228 233
228 369
229 234
229 252
229 369
230 235
230 370
231 236
244 149
245 154
245 198
246 155
246 199
247 156
248 157
248 186
248 187
249 158
249 186
250 159
250 169
250 170
250 171
250 172
251 160
251 167
251 168
251 169
251 170
270 363
296 189
297 190
298 191
298 192
299 193
299 267
300 267
301 278
302 278
302 321
304 314
308 309
308 310
309 308
309 309
310 307
310 308
311 306
311 307
312 305
312 306
313 304
313 305
314 304
315 303
320 302
340 171
343 266
344 265
344 266
345 267
360 104
382 292
382 339
383 340
384 287
384 288
384 292
384 293
384 341

16
49 51
49 52
65 42
68 41
69 41
70 40
71 39
72 38
73 37
77 304
78 305
79 306
80 307
81 308
82 309
83 310
84 311
102 112
103 110
103 111
103 139
104 109
104 110
104 138
104 139
105 108
105 109
106 107
106 108
107 106
107 107
108 105
108 106
109 105
111 78
111 79
112 77
112 78
113 76
220 365
220 366
221 366
225 247
225 248
226 248
226 249
227 249
227 250
228 250
228 251
238 334
245 196
245 341
245 342
246 342
247 188
247 189
296 300
297 301
297 302
299 269
300 269
300 270
300 271
300 272
300 273
300 274
301 271
301 272
301 273
301 274
301 275
301 276
302 276
383 289
383 290
383 291

17
50 50
51 48
51 49
52 47
52 48
53 46
53 47
54 45
54 46
55 44
55 45
56 43
56 44
61 38
62 39
62 40
63 40
63 41
64 41
66 41
67 42
108 82
109 81
110 80
222 367
223 366
226 368
239 335
240 336
241 337
242 338
243 194
243 339
244 195
244 340
245 191
245 192
246 190
246 191
298 303
298 304
305 311

18
57 42
58 41
59 40
60 39
108 84
136 308
137 307
138 306
224 367
244 193
299 305
300 306
301 307
302 308
303 309
304 310

19

20

21
107 87
107 88
110 99

22
108 89
108 93
108 94
108 96
109 92
109 93
109 97
109 98

23
108 91
109 95

