0
0 204
0 268
0 269
0 287
0 288
0 303
0 327
0 365
0 391
16 0
42 0
53 399
96 399
97 399
110 399
134 399
361 399
362 399
389 399
399 285
399 286
399 310
399 311

1
1 242
1 243
1 270
1 286
1 304
1 326
1 366
1 390
7 47
10 155
10 165
20 155
20 165
43 264
43 274
54 398
65 274
66 274
95 398
103 109
110 19
110 29
111 1
113 99
113 109
115 54
125 54
135 1
139 226
141 382
141 392
143 142
143 162
144 77
144 87
149 226
153 142
153 162
154 77
154 87
160 145
170 145
170 331
197 229
200 45
201 134
207 229
207 239
210 398
211 177
211 187
211 357
211 358
237 398
238 398
249 12
249 22
263 86
263 96
272 230
273 86
273 96
274 303
274 313
282 230
282 240
284 313
301 354
320 379
320 389
330 389
335 398
336 398
337 199
337 393
347 393
348 398
349 398
353 292
353 302
357 276
363 292
363 302
363 398
388 398
398 70
398 71
398 93
398 94
398 287
398 309
398 322
398 344

2
2 175
2 191
2 205
2 206
2 241
2 271
2 285
2 305
2 325
6 272
11 288
12 307
17 2
23 288
33 315
41 2
45 315
55 397
60 140
60 156
68 22
68 71
79 254
79 270
80 22
80 34
84 71
84 104
93 44
93 60
94 397
95 264
95 280
95 289
105 92
111 264
111 280
111 397
112 2
112 397
113 68
113 84
114 389
120 320
120 336
132 397
133 71
133 83
133 322
133 338
133 397
134 2
142 289
142 305
157 41
157 57
158 289
161 203
161 219
162 277
173 41
173 57
177 219
180 280
192 281
205 26
207 209
208 281
211 397
213 385
224 11
224 187
224 203
236 397
240 187
246 358
253 181
255 373
255 389
288 184
297 140
301 249
308 309
314 195
317 249
319 161
325 117
337 397
347 75
347 91
347 397
349 380
354 57
354 69
364 397
366 69
387 397
390 74
390 90
394 238
397 72
397 92
397 288
397 308

3
3 207
3 240
3 272
3 284
3 367
3 368
3 388
3 389
15 324
18 3
28 322
28 334
31 140
31 158
32 359
32 377
40 3
40 334
49 140
49 158
50 377
54 254
54 266
58 386
67 370
80 195
80 213
85 370
91 390
93 396
98 195
98 213
113 3
113 396
116 340
117 177
117 379
122 236
122 254
127 215
129 177
131 396
133 3
140 236
145 197
147 10
147 22
150 315
160 107
164 244
170 295
176 368
176 380
177 303
178 302
178 303
186 29
186 41
188 380
203 189
204 189
208 299
208 317
212 111
212 396
214 345
214 357
224 99
224 111
226 299
226 317
235 396
246 233
260 239
267 10
267 22
272 268
274 394
279 10
279 22
290 365
291 155
291 173
292 44
292 394
295 271
308 213
312 135
313 271
313 289
319 220
325 173
329 8
329 20
337 185
338 396
344 257
346 117
346 211
346 396
363 81
363 99
365 396
367 51
373 159
373 171
374 284
375 7
375 25
379 51
379 63
380 342
381 99
386 396
393 7
393 25
396 73
396 91
396 289
396 307
396 323
396 343

4
4 176
4 190
4 208
4 237
4 238
4 239
4 273
4 274
4 282
4 283
4 306
4 307
4 324
4 369
4 387
5 238
5 239
9 49
9 60
12 157
12 163
14 177
14 189
16 40
17 60
18 157
18 163
19 4
26 95
26 107
27 214
30 288
30 300
35 222
38 95
38 107
39 4
41 266
41 272
51 343
56 395
57 278
57 395
63 343
65 278
67 135
74 81
74 93
78 122
86 81
86 122
92 395
111 101
111 107
112 21
112 27
114 4
114 395
116 199
117 56
123 56
130 280
132 4
139 390
141 224
142 280
145 144
145 160
146 79
146 85
147 224
149 360
151 144
151 160
151 256
151 264
152 79
152 85
162 143
168 143
168 333
176 132
178 292
179 292
179 293
180 293
180 294
181 294
181 295
182 295
182 296
189 241
190 296
190 304
199 132
199 231
204 102
205 231
209 179
209 185
213 395
225 234
228 76
228 84
234 395
235 46
236 76
236 84
236 316
238 327
243 37
243 137
243 149
243 253
243 265
247 14
248 304
248 316
250 327
255 137
255 149
265 88
265 94
266 217
271 88
271 94
274 232
276 305
276 311
277 177
279 77
279 85
280 232
280 238
282 311
286 220
286 306
287 23
287 77
287 85
303 8
306 331
306 339
314 331
314 339
317 82
317 90
322 381
322 387
324 75
328 387
329 100
333 37
334 142
334 349
339 395
340 395
341 395
342 394
342 395
343 52
343 395
344 395
345 37
345 395
346 349
350 267
355 294
355 300
359 30
359 38
359 274
361 294
361 300
366 395
367 30
367 38
371 321
371 333
385 395
386 85
386 296
386 304
391 286
392 287
393 288
395 74
395 90
395 306

5
5 177
5 189
5 209
5 235
5 236
5 275
5 276
5 281
5 308
5 323
5 370
5 386
9 210
10 59
10 371
10 385
13 158
13 162
17 158
17 162
20 5
21 286
28 215
32 189
32 203
34 64
34 78
34 214
34 215
34 221
35 239
35 317
38 5
40 267
40 271
43 317
46 189
46 203
48 78
52 304
58 279
58 394
64 279
66 304
70 24
75 134
76 133
77 132
78 24
78 32
78 131
79 123
79 129
79 130
85 123
86 102
87 351
90 394
91 394
93 141
93 155
98 332
103 94
110 102
110 106
112 290
113 26
115 394
117 198
118 57
122 57
128 346
131 81
138 389
142 223
146 145
146 159
146 223
147 80
147 84
150 145
150 159
151 80
151 84
152 263
160 327
160 328
161 329
162 330
163 142
163 331
164 275
167 142
171 78
171 292
172 315
178 282
178 290
180 174
182 341
182 355
183 297
189 297
189 303
192 358
194 174
198 131
200 114
200 232
204 232
205 101
206 358
206 372
208 180
208 184
229 77
229 83
233 394
234 45
235 77
235 83
246 15
266 89
266 93
270 89
270 93
275 233
277 306
277 310
279 233
279 237
280 78
280 84
284 307
286 78
286 84
288 24
291 55
291 69
299 142
303 357
303 371
305 69
307 332
307 338
313 332
313 338
316 175
317 163
317 176
317 357
317 371
318 89
318 177
321 60
323 382
323 386
326 49
326 50
327 48
327 49
327 382
327 386
328 382
329 381
330 380
331 379
332 378
333 377
337 95
342 164
351 266
356 59
356 67
356 178
356 295
356 299
360 31
360 37
360 295
360 299
366 31
366 37
367 231
367 394
369 386
380 119
380 133
381 231
383 386
387 297
387 303
390 284
394 75
394 89
394 119
394 133
394 290
394 291
394 292
394 304
394 305
394 324
394 342

6
6 178
6 188
6 210
6 233
6 234
6 277
6 278
6 279
6 280
6 309
6 322
6 371
6 385
7 278
7 279
8 279
8 280
9 280
9 281
11 58
13 322
20 285
29 216
30 332
33 142
33 156
33 216
33 220
34 361
34 375
38 332
42 318
47 142
47 156
48 375
56 256
56 264
59 280
59 393
60 388
63 280
69 368
71 25
77 25
77 31
80 124
82 197
82 211
84 124
87 101
88 393
89 392
89 393
96 197
96 211
102 95
104 284
115 6
116 6
116 393
118 197
119 179
119 377
120 64
124 238
124 252
127 179
128 393
129 213
130 80
138 238
143 199
145 12
145 20
148 152
152 258
153 258
153 262
162 109
166 246
171 290
177 206
177 289
178 205
178 370
178 378
179 204
180 203
181 202
182 302
184 298
188 31
188 39
188 298
188 302
201 182
203 193
206 100
210 301
210 315
214 109
214 393
215 393
216 347
216 355
222 101
222 109
224 301
230 78
230 82
231 393
232 393
233 44
234 78
234 82
244 231
262 241
269 12
269 20
270 266
277 12
277 20
281 79
281 83
282 307
285 79
285 83
288 367
289 25
290 392
293 171
297 273
300 143
306 215
308 333
308 337
311 273
312 333
312 337
315 173
316 164
318 179
319 88
327 10
327 18
344 115
344 213
352 265
357 60
357 66
361 32
361 36
365 32
365 36
365 83
365 97
368 393
369 393
371 161
371 169
376 282
377 9
377 23
377 53
377 61
379 97
382 340
383 393
384 393
388 302
390 282
391 9
391 23
392 77
392 78
392 79
392 80
393 76
393 77
393 78
393 79
393 80
393 81
393 87
393 88
393 293
393 294
393 302
393 303
393 325
393 341

7
7 211
7 212
7 213
7 214
7 215
7 216
7 218
7 231
7 232
7 310
7 321
7 372
7 384
8 212
8 213
8 214
8 215
11 281
12 179
12 187
12 321
18 42
19 284
21 7
22 7
28 97
28 105
31 331
32 290
32 298
36 7
36 97
36 105
37 7
37 331
41 319
53 345
57 257
57 263
60 392
61 345
63 153
71 68
72 26
76 26
76 30
76 91
76 257
76 267
77 392
78 392
79 392
80 392
81 392
82 391
82 392
83 129
83 130
83 392
84 83
84 392
85 392
86 392
87 392
90 47
90 57
98 267
108 267
116 81
117 7
117 323
117 392
118 392
119 392
120 61
120 62
120 180
120 392
121 392
126 180
126 392
127 392
129 73
129 79
129 392
130 391
130 392
131 379
131 380
131 390
131 391
132 278
132 380
132 381
132 389
132 390
133 381
133 382
133 388
133 389
134 382
134 383
134 387
134 388
135 383
135 384
135 386
136 325
136 335
136 384
136 385
140 278
144 13
144 19
145 292
145 302
146 335
147 335
147 336
148 149
148 150
148 154
148 155
148 336
148 337
149 337
149 338
150 338
150 339
151 339
151 340
151 358
152 340
152 341
153 341
153 342
155 292
159 324
159 325
160 44
160 54
164 206
164 216
165 137
165 138
166 136
166 137
167 247
169 277
170 44
170 54
170 277
170 278
171 278
171 279
172 279
172 280
172 288
172 289
173 280
174 216
176 288
179 371
179 377
183 301
184 301
189 32
189 38
195 278
202 236
203 182
204 206
205 47
205 48
205 278
206 46
206 47
207 45
207 46
208 44
208 45
209 43
209 44
210 42
210 43
215 108
216 388
216 392
217 348
217 354
221 102
221 108
227 14
227 190
227 200
227 232
230 392
241 35
243 355
245 139
245 147
245 255
245 263
246 306
248 329
253 139
253 147
256 184
258 386
263 242
268 215
270 13
270 19
276 13
276 19
281 308
285 187
287 368
290 305
301 144
304 246
305 10
305 216
305 306
314 246
315 165
315 171
326 11
326 17
331 102
332 140
332 202
332 206
336 351
336 377
343 39
343 114
344 78
344 88
344 351
346 377
358 61
358 65
370 162
370 168
370 392
373 323
373 331
376 54
376 60
382 392
391 241
392 82
392 83
392 85
392 86
392 120
392 132
392 295
392 296
392 301
392 326
392 340

8
8 179
8 180
8 186
8 187
8 217
8 219
8 220
8 229
8 230
8 311
8 373
8 374
8 375
8 376
8 377
8 378
8 379
8 380
8 381
8 382
8 383
9 378
11 180
11 186
11 320
15 160
19 43
23 8
29 98
29 104
32 330
33 241
33 291
33 297
34 191
35 8
35 98
35 104
36 66
36 76
36 268
37 268
38 269
44 191
44 201
46 76
46 361
47 294
47 360
48 359
49 358
50 357
51 356
52 355
53 354
54 346
54 352
54 353
58 258
58 262
60 346
61 284
61 285
61 391
64 152
64 302
67 37
68 36
69 35
70 34
71 33
72 32
72 67
73 30
73 31
73 391
74 390
74 391
75 258
75 266
75 391
76 391
77 90
82 128
83 84
85 353
89 48
91 143
91 153
99 268
100 330
106 103
107 103
107 268
108 104
115 24
116 23
116 324
117 80
117 346
118 8
120 59
120 192
121 181
122 391
123 390
123 391
124 390
124 391
125 181
125 391
126 348
133 277
136 264
136 387
137 326
137 334
139 277
143 14
143 219
143 220
144 221
145 334
146 293
146 301
148 147
148 157
149 82
152 357
154 293
155 342
158 323
161 45
161 53
165 140
165 207
165 215
167 135
168 134
169 45
169 53
169 275
170 313
173 80
173 207
173 215
173 282
174 207
180 343
180 353
180 372
180 376
182 176
184 201
190 33
190 37
194 360
196 277
197 241
198 116
198 240
199 239
200 238
201 237
202 234
203 205
204 90
204 91
204 183
204 277
204 360
204 370
205 91
205 92
205 183
206 92
206 93
206 182
207 93
207 94
208 94
208 95
217 389
217 391
218 349
218 353
220 103
220 107
227 391
228 15
228 191
228 231
228 391
229 391
242 354
243 18
244 17
245 307
246 140
246 146
246 256
246 262
252 140
252 146
257 185
259 376
259 385
264 243
268 91
268 243
269 214
269 243
270 242
271 14
271 18
271 241
272 240
273 239
274 238
275 14
275 18
275 237
276 236
277 235
279 308
284 188
286 369
292 305
293 67
304 217
304 305
305 245
305 359
305 369
306 11
308 145
309 144
309 145
310 143
310 144
311 142
311 143
312 142
314 169
314 170
315 359
315 369
319 58
325 12
325 16
325 384
327 196
327 197
328 198
329 199
330 200
331 48
331 139
331 201
332 204
333 207
334 208
334 209
335 40
337 352
337 376
341 49
342 40
342 113
343 79
343 87
343 352
344 166
345 376
358 297
369 163
369 167
371 388
371 391
374 324
374 330
375 55
375 59
381 86
381 388
381 391
382 121
382 131
390 242
390 298
391 84
391 121
391 131
391 297
391 298
391 299
391 327
391 339

9
9 181
9 182
9 184
9 185
9 221
9 222
9 227
9 228
9 312
9 313
9 314
9 315
9 316
9 317
9 319
9 320
10 181
10 185
10 314
10 315
10 316
13 56
13 282
14 55
14 282
17 278
17 279
18 277
18 278
19 276
19 277
20 275
20 276
21 274
21 275
22 227
22 228
22 273
22 274
23 226
24 9
24 225
25 224
26 223
27 222
28 221
29 220
30 99
30 103
30 219
31 218
34 9
34 99
34 103
34 292
34 296
35 144
35 154
35 192
35 200
35 201
35 267
36 363
36 373
37 67
37 75
43 192
43 200
45 75
45 144
45 154
45 294
46 363
46 373
48 295
49 295
49 296
55 347
55 351
60 286
61 282
62 390
63 301
63 390
64 390
65 151
65 390
66 39
66 390
67 389
67 390
68 390
69 390
70 390
71 366
71 390
72 390
73 66
74 259
74 265
78 89
82 126
83 365
84 199
84 209
84 354
88 49
90 144
90 152
92 98
93 98
94 98
94 199
94 209
95 98
96 98
97 98
100 269
101 98
101 329
102 99
103 100
104 101
105 102
106 269
115 332
115 333
117 22
117 348
118 21
118 22
118 79
119 9
119 21
120 195
121 191
121 193
121 194
122 190
122 194
122 195
123 189
123 195
123 196
124 196
124 197
125 197
125 198
125 349
126 198
126 199
126 240
127 199
127 200
128 200
128 201
129 201
129 202
130 377
131 211
134 276
136 240
136 260
136 261
136 262
137 260
138 276
138 327
138 333
139 215
140 215
140 216
141 201
141 216
141 217
142 18
142 218
144 333
147 294
147 300
153 356
155 260
156 343
157 259
162 46
162 52
164 111
166 208
166 214
168 46
168 52
168 273
168 274
169 132
169 312
172 208
172 214
174 81
174 283
174 284
179 344
179 352
183 177
186 300
195 361
196 84
196 128
197 117
197 243
197 276
198 35
202 196
202 197
202 204
203 89
203 276
203 361
203 369
209 96
212 303
212 313
218 390
219 390
220 390
221 389
221 390
222 390
223 390
224 390
225 390
226 351
226 390
229 16
229 192
229 230
232 80
236 309
241 353
242 19
242 229
244 308
247 141
247 145
247 257
247 261
251 141
251 145
260 377
260 384
268 264
270 213
283 81
288 390
291 27
292 28
293 304
294 66
294 304
295 169
299 275
301 152
302 151
302 152
303 149
303 150
303 221
303 222
303 304
304 222
304 223
305 223
305 224
306 146
306 224
306 225
306 244
306 360
306 368
307 12
307 146
307 225
307 226
308 226
308 227
309 227
309 228
309 275
310 228
310 229
310 335
311 229
314 360
314 368
317 14
318 57
319 182
319 183
319 192
321 50
321 86
322 85
326 194
326 195
330 127
330 128
330 138
331 121
331 125
331 126
331 127
336 100
338 353
338 375
341 41
342 80
342 215
342 353
344 375
345 167
362 63
363 34
363 63
367 85
367 95
372 389
372 390
373 389
373 390
374 389
374 390
375 325
375 390
377 95
377 390
378 280
378 389
378 390
379 11
379 21
379 86
379 389
379 390
380 389
380 390
383 122
383 130
388 280
389 11
389 21
389 243
390 122
390 130
390 300

10
10 183
10 223
10 224
10 318
15 54
15 281
16 280
16 281
17 282
23 272
25 10
33 10
36 145
36 153
36 193
36 199
37 364
37 372
38 68
38 74
38 322
39 321
42 193
42 199
42 294
44 68
44 74
44 145
44 153
45 67
45 364
45 372
46 66
47 65
48 64
49 63
50 62
51 61
52 60
53 59
54 58
55 57
60 350
61 350
61 351
62 260
62 300
62 351
62 352
63 352
63 353
64 353
64 354
65 354
65 355
66 355
66 356
67 356
67 357
68 357
68 358
69 358
72 365
73 260
73 264
74 28
74 65
78 67
78 68
79 83
79 84
83 355
85 200
85 208
87 50
89 97
89 145
89 151
90 97
90 98
93 200
93 208
99 98
101 270
102 328
105 270
114 330
114 331
118 349
118 350
119 78
120 10
120 20
123 185
123 186
123 187
124 350
127 241
130 375
131 202
132 210
135 241
135 257
135 258
136 258
136 268
139 213
139 328
139 332
140 202
148 295
148 299
163 47
163 51
165 112
167 47
167 51
167 209
167 213
168 271
168 311
169 130
171 209
171 213
174 286
175 82
178 345
178 351
179 95
180 96
184 178
184 374
185 374
186 373
186 374
187 201
187 372
187 373
188 371
188 372
189 370
189 371
190 369
190 370
191 368
191 369
192 367
192 368
194 35
195 35
196 35
196 118
196 126
196 244
196 245
196 362
198 275
201 198
201 199
201 203
202 77
202 275
202 362
202 368
203 76
203 77
203 78
203 87
204 75
209 98
210 98
210 99
211 99
211 100
212 100
212 101
213 101
213 102
213 304
213 312
214 102
214 103
215 103
215 104
216 104
216 105
222 351
223 351
224 351
230 193
230 350
240 352
241 228
243 314
243 329
261 378
261 383
266 247
267 263
287 389
293 29
295 65
296 168
300 276
300 293
301 292
301 293
302 291
302 292
302 303
303 146
303 291
304 147
304 148
305 147
307 243
307 361
307 367
308 276
311 166
312 166
313 167
313 361
313 367
314 141
315 14
315 141
316 141
317 56
319 14
320 14
320 184
320 185
321 14
323 84
328 130
329 129
331 123
332 119
332 120
333 47
333 118
333 119
334 47
334 117
334 118
334 179
335 116
335 117
335 179
335 211
336 42
336 115
336 116
336 178
337 115
337 177
338 176
338 238
339 175
339 238
339 239
339 374
340 47
340 174
340 239
340 240
340 361
341 81
341 173
341 216
341 240
341 241
341 364
342 173
342 241
342 242
343 242
343 243
343 374
344 243
344 244
345 244
345 245
346 245
358 169
358 170
359 168
359 169
360 63
360 167
360 168
361 166
361 167
362 166
363 165
364 62
364 165
365 61
365 165
366 60
367 59
368 58
368 86
368 94
369 57
370 57
371 57
376 94
376 389
379 279
380 12
380 20
384 123
384 129
387 279
388 12
388 20
389 123
389 129
389 328
389 329
389 337
389 338

11
11 225
11 226
12 226
12 227
13 227
13 228
14 228
14 229
15 229
15 230
16 230
23 270
26 11
26 256
27 255
32 11
32 266
34 328
35 326
35 327
36 327
37 146
37 152
37 194
37 198
37 323
38 294
38 365
38 371
39 69
39 73
39 294
40 294
41 194
41 198
43 69
43 73
43 146
43 152
44 365
44 371
56 56
59 349
60 260
61 299
63 261
64 261
66 149
73 364
77 66
80 85
81 89
82 90
82 356
83 91
84 92
85 93
86 94
86 201
86 207
87 95
88 96
88 146
88 150
92 201
92 207
103 327
119 351
121 11
122 11
122 19
123 183
123 351
125 77
126 77
128 242
129 373
129 374
132 203
133 203
133 209
134 242
134 255
134 256
136 270
136 271
136 272
138 17
139 17
139 203
140 17
141 16
144 329
145 329
146 328
147 327
148 326
149 325
150 324
151 323
152 322
153 321
154 320
166 113
167 306
168 305
169 304
170 128
170 129
176 83
177 346
177 350
182 374
185 84
185 179
192 35
194 367
195 125
198 83
201 363
201 367
202 79
202 80
202 85
202 86
214 305
214 311
218 105
220 351
238 310
239 310
239 343
240 20
240 227
240 310
240 342
241 341
242 312
242 313
242 340
243 339
244 330
244 331
244 335
244 336
244 337
251 259
252 259
264 249
264 250
265 248
265 249
266 245
266 262
273 16
283 372
284 371
286 388
290 214
294 30
294 214
296 64
296 303
297 167
297 302
300 218
301 155
301 218
301 277
302 219
303 289
305 23
305 24
306 22
306 23
307 21
307 22
307 277
308 20
308 21
308 362
308 366
309 19
309 20
309 165
310 165
312 362
312 366
316 55
318 51
318 141
319 51
319 140
320 140
321 191
323 14
324 83
324 191
325 82
325 83
325 192
326 81
326 82
327 81
328 81
328 132
331 82
332 81
333 180
335 46
335 103
335 213
336 237
337 43
337 237
339 46
340 357
340 358
340 359
356 170
367 165
369 87
369 93
373 57
375 93
376 87
377 87
380 278
381 13
381 19
385 124
385 128
386 278
387 13
387 19
388 330
388 336

12
16 52
17 50
17 51
17 231
18 49
18 50
18 231
18 232
19 48
19 49
19 231
19 232
19 233
20 47
20 48
20 230
20 233
20 234
21 47
21 234
21 235
22 46
22 235
22 236
23 45
23 236
23 237
24 45
24 237
24 238
24 268
24 269
25 238
25 239
25 258
26 239
26 240
27 12
27 240
27 241
28 12
28 253
30 12
30 266
31 12
32 101
36 294
36 324
36 325
38 147
38 151
39 366
39 370
42 151
43 366
43 370
45 40
46 41
47 42
48 43
57 55
57 349
59 290
66 262
67 262
68 143
68 262
69 262
71 359
74 363
77 146
78 146
78 147
79 147
79 148
80 87
81 363
87 202
87 206
91 202
91 206
103 274
103 275
103 276
103 277
104 291
121 71
121 72
123 12
124 19
124 76
124 375
129 243
132 252
132 253
133 243
133 254
134 204
134 208
135 16
136 17
136 274
138 204
138 210
138 211
143 330
152 297
155 354
156 319
156 320
156 353
157 318
157 319
158 317
158 318
159 316
159 317
160 315
160 316
161 314
161 315
162 313
162 314
163 312
163 313
164 311
164 312
178 92
181 99
187 188
188 189
188 199
194 124
194 248
195 247
195 366
196 366
200 82
200 269
200 270
200 271
201 81
205 54
205 72
215 306
215 310
224 309
231 228
232 227
233 350
234 350
238 345
238 346
239 226
241 311
242 310
244 333
249 143
249 259
254 259
263 379
265 261
282 206
282 207
282 373
283 207
283 208
284 208
284 209
285 209
285 210
285 387
286 210
286 211
287 211
287 212
288 212
288 213
289 213
292 214
295 31
295 215
296 32
296 215
296 216
297 216
298 166
298 216
298 217
298 301
299 217
299 297
300 296
300 297
300 298
302 278
306 278
309 14
310 15
310 17
310 18
311 233
312 15
313 15
317 52
321 139
322 138
322 139
322 189
322 190
323 138
323 190
327 133
327 134
328 136
330 81
330 181
331 180
331 181
333 82
334 82
334 83
334 236
335 83
335 236
336 104
337 45
337 46
337 105
337 112
338 44
338 45
339 43
340 355
341 367
341 368
341 369
341 370
344 172
345 172
348 246
349 246
360 246
361 245
362 244
363 243
364 242
365 241
366 240
367 239
370 88
370 92
374 88
374 92
375 88
377 327
378 328
382 14
382 18
385 277
386 14
386 18
387 124
387 125
387 127
387 128
387 331
387 335

13
25 44
25 260
25 261
25 262
25 267
26 43
26 44
27 43
28 242
28 243
28 244
28 248
28 249
28 250
28 251
28 265
29 13
29 14
29 265
30 16
31 17
32 19
32 20
32 21
32 22
32 26
32 27
32 28
32 29
33 29
33 30
42 148
43 40
50 44
51 44
54 297
58 54
59 292
68 148
69 144
69 147
71 262
73 359
76 145
80 362
81 148
82 148
84 53
85 52
99 309
99 310
99 311
99 312
100 307
100 308
101 306
101 307
102 305
102 306
103 272
103 304
103 305
104 295
104 303
104 304
105 292
105 293
105 294
105 295
105 299
105 300
105 301
105 302
111 327
112 328
121 76
121 355
121 356
121 357
121 358
122 73
122 74
122 75
122 358
122 359
123 74
123 75
124 13
125 13
125 18
125 362
125 363
125 373
125 374
126 363
137 208
137 209
141 330
150 297
153 298
154 299
155 300
156 301
157 302
157 352
158 303
159 304
160 305
161 306
162 307
163 308
164 309
165 49
165 310
169 211
172 348
173 348
178 89
178 90
181 101
181 102
182 85
182 256
183 85
183 256
184 256
185 255
185 256
187 186
189 191
189 192
189 198
192 181
193 123
193 249
195 263
195 264
196 264
196 265
197 200
197 265
197 266
197 365
198 200
198 267
199 201
199 268
200 273
201 83
205 56
205 70
232 195
233 196
233 226
235 349
236 348
236 349
237 20
237 217
237 347
237 348
237 349
238 215
238 216
238 217
238 218
238 350
239 214
239 215
240 212
240 213
256 259
263 252
263 381
265 380
266 380
281 374
299 299
299 300
300 157
300 301
303 27
303 28
304 26
304 287
307 164
309 241
310 240
311 16
324 137
325 136
326 135
328 182
329 182
336 84
336 106
337 84
337 85
337 107
337 108
337 109
337 110
338 84
338 85
338 86
338 111
339 83
341 372
346 171
347 171
350 247
351 171
351 247
352 171
353 171
354 171
357 247
358 247
367 264
369 238
370 238
379 329
380 329
386 126
386 332
386 334

14
25 265
26 263
26 264
26 265
27 264
28 42
28 246
29 41
30 40
31 40
32 24
34 31
35 32
36 33
39 196
41 71
52 45
53 45
55 296
56 296
58 293
58 294
58 296
59 297
70 146
72 146
73 145
73 146
74 144
74 145
79 359
79 361
80 358
83 54
83 147
84 146
84 147
85 147
86 148
99 314
100 315
100 316
105 297
110 326
121 353
123 360
124 361
126 14
126 365
126 366
126 367
126 368
126 372
127 14
127 17
127 18
128 17
131 247
131 248
131 249
131 250
132 16
158 351
165 308
169 346
170 346
170 347
171 125
171 347
175 348
178 85
179 86
179 87
179 88
180 86
180 87
180 103
180 104
180 256
181 86
187 181
188 182
188 184
188 185
190 182
190 193
190 197
191 182
192 121
192 250
193 121
194 262
195 199
196 199
199 365
204 57
204 69
205 58
205 68
213 32
219 308
220 308
221 308
222 308
234 197
234 225
235 21
236 21
237 219
237 220
237 221
241 210
241 211
242 209
242 210
243 209
258 259
263 254
267 379
268 379
269 378
270 377
283 385
284 385
298 62
299 61
300 159
301 30
301 31
301 37
301 38
301 39
301 40
302 29
302 30
302 40
302 41
304 282
304 283
304 284
304 285
305 164
310 364
311 239
313 52
314 52
314 53
315 236
316 235
316 236
317 234
317 235
318 233
318 234
319 232
319 233
320 231
320 232
321 230
321 231
323 187
324 186
325 185
326 184
327 183
331 234
332 235
349 171
353 250
353 251
353 252
355 248
356 248
365 264
371 239
372 239
381 330
382 252
382 331
383 252
383 331
383 332
384 251
384 332
384 333
385 333

15
32 39
33 39
40 39
40 149
41 39
41 368
57 295
71 145
75 360
76 360
76 361
77 360
78 360
82 55
89 204
101 317
101 318
108 325
109 325
126 370
128 15
129 15
129 16
130 15
130 16
131 15
131 245
136 206
159 350
160 349
167 344
168 345
171 123
176 256
189 183
190 119
190 195
191 119
191 120
191 195
191 196
191 251
192 196
192 197
193 197
193 259
193 260
194 198
194 260
204 59
204 60
204 61
204 65
204 66
204 67
211 34
212 33
214 33
215 34
217 308
234 22
235 198
235 224
236 222
236 223
237 224
248 202
249 201
249 202
250 200
250 201
251 199
251 200
252 198
252 199
253 198
259 258
260 258
262 255
262 256
262 258
263 259
271 378
272 378
278 206
280 376
282 384
300 32
300 33
300 60
300 164
301 35
301 160
301 161
301 163
303 42
303 163
304 43
304 163
304 280
305 44
306 45
307 46
308 47
312 236
312 237
312 238
313 237
313 238
314 237
336 217
336 218
353 248
354 249
354 253
355 254
355 255
356 255
356 256
357 256
357 257
358 257
358 258
359 258
359 259
360 259
360 260
360 263
361 260
361 261
364 263
372 90
382 274
383 249
383 250
383 275
384 16

16
34 38
38 38
39 38
55 46
56 47
62 47
63 47
78 58
79 57
79 58
80 56
80 57
81 56
102 319
103 320
103 321
104 321
104 322
105 322
105 323
106 323
107 324
161 348
162 347
163 345
163 346
174 256
179 106
187 117
188 117
188 118
189 118
192 257
192 258
204 63
216 33
217 34
218 34
219 35
231 23
232 22
232 23
236 199
237 199
237 200
238 200
238 201
239 201
239 202
240 202
240 203
241 203
241 204
242 204
242 205
243 205
243 206
244 205
244 206
245 204
245 205
246 204
247 203
254 197
255 197
261 257
273 379
280 378
281 383
301 59
302 162
362 262
362 263
374 240
375 241
376 241
381 272
381 273
382 248

17
36 37
36 38
37 37
58 47
58 48
59 48
59 49
60 48
60 49
61 48
65 48
66 48
66 49
67 49
67 50
68 50
68 51
69 51
69 52
70 52
70 53
71 53
71 54
72 54
72 55
73 55
73 56
74 56
74 57
75 57
75 58
76 58
76 59
77 59
164 344
172 120
172 121
172 257
173 257
182 113
183 113
184 114
185 115
186 116
190 254
190 255
191 256
220 34
221 34
230 24
230 25
231 33
231 34
256 196
257 195
257 196
258 194
258 195
259 194
259 195
275 189
275 205
275 379
275 380
276 205
276 380
276 381
280 382
302 58
325 230
334 221
334 222
335 220
377 242
378 242
380 271
381 245
381 246
382 246
382 256

18
173 119
222 33
261 194
274 190
274 204
278 380
278 381
279 380
279 381
303 57
304 56
305 55
306 54
307 53
308 52
309 51
327 230
333 223
333 224
379 243
380 244
381 257
381 258

19
168 259
169 259
170 258
174 118
224 32
224 33
225 32
229 27
229 28
271 202
271 203
272 203
272 204
328 229
329 228
329 229
330 227
330 228
330 229
331 226
331 227
332 225
380 259
380 260
380 268

20
174 116
175 115
175 116
226 31
227 30
227 31
228 29
228 30
228 31
229 31
270 200
270 201
273 192
379 261
379 262
379 266
379 267

21
176 114
177 113
178 112
265 194
271 192
271 193
377 264
378 263
378 264
378 265

22
270 194

23
267 195
268 195
268 196
269 195
269 196
269 197

