0
0 28
0 46
0 52
0 53
0 81
0 82
0 210
0 211
0 227
0 228
157 399
205 399
227 0
234 399
255 0
258 399
274 0
298 0
303 0
310 399
311 399
325 399
326 399
327 0
399 51
399 71
399 313
399 333

1
1 29
1 45
1 54
1 80
1 212
1 226
1 355
1 356
1 378
1 379
9 202
9 212
16 355
16 365
19 202
19 212
30 398
54 398
71 231
72 231
75 302
78 1
85 302
85 312
104 1
121 398
144 145
144 155
145 398
146 357
146 367
154 145
156 357
156 367
162 57
172 57
198 107
198 117
204 398
205 192
205 202
205 299
205 309
215 299
215 309
228 1
241 264
251 264
253 7
260 368
260 378
270 378
274 160
274 170
284 160
284 170
291 117
291 127
312 398
313 394
323 394
324 398
332 138
332 148
346 49
352 232
385 145
385 155
393 174
395 145
395 155
398 314
398 332

2
2 55
2 79
2 213
2 225
2 357
2 377
9 31
9 43
9 375
15 110
15 122
27 211
27 223
31 397
33 357
33 369
39 211
39 223
45 356
45 357
45 369
46 168
46 355
46 356
47 342
47 354
47 355
53 397
59 342
59 354
62 168
65 314
79 2
91 98
91 110
91 229
91 241
97 90
99 187
101 389
103 2
103 229
103 241
103 348
109 102
113 377
113 389
114 140
115 348
115 360
117 18
117 30
126 140
126 152
129 18
129 30
138 220
139 117
146 80
158 397
159 397
161 389
162 80
162 96
169 114
169 126
171 2
171 302
177 361
177 377
180 28
180 44
181 114
181 126
183 2
186 335
193 361
193 377
194 266
195 335
195 351
197 167
203 397
206 266
208 132
211 335
211 351
220 56
220 72
220 157
221 319
221 331
230 9
235 397
236 56
236 82
238 207
238 219
250 219
252 66
252 82
253 2
254 2
257 397
262 148
271 210
275 2
276 339
278 148
288 339
293 90
295 297
296 69
297 2
302 218
302 234
304 2
309 333
312 69
313 397
318 57
321 293
321 309
323 95
323 397
325 107
325 123
326 2
327 257
339 245
352 277
353 94
364 277
372 362
372 374
376 323
376 339
384 374
397 52
397 53
397 69
397 70
397 224
397 236

3
3 30
3 31
3 43
3 44
3 56
3 78
3 214
3 224
3 358
3 376
9 58
9 327
9 345
18 287
18 299
20 126
27 345
30 287
32 396
35 85
37 250
37 262
42 286
52 396
60 286
64 110
65 252
70 353
74 73
80 3
85 373
87 271
92 46
92 55
92 73
99 271
100 15
102 3
109 126
112 167
112 215
112 227
112 329
117 174
117 192
122 396
124 215
124 382
127 86
127 126
134 36
134 54
135 174
135 192
142 382
144 396
145 104
152 54
152 163
160 396
164 151
164 163
172 3
179 171
182 3
182 227
182 245
190 281
190 293
200 227
200 245
202 293
213 175
213 193
221 275
221 293
229 3
230 3
231 175
231 193
236 396
239 293
241 133
241 184
245 165
247 282
252 3
256 179
256 396
257 153
257 165
260 329
263 251
263 263
274 179
275 251
275 263
276 3
278 311
278 329
287 30
289 309
289 327
296 3
297 137
297 149
305 3
305 30
312 241
314 396
315 163
315 175
315 395
315 396
316 395
316 396
317 396
319 396
320 395
320 396
321 395
321 396
322 396
325 3
327 163
327 175
330 223
331 60
332 60
332 61
333 61
341 23
355 112
356 111
356 112
366 108
373 254
380 224
384 30
384 42
390 317
391 55
391 67
391 254
396 30
396 42
396 54
396 68
396 225
396 315
396 316

4
4 32
4 42
4 57
4 77
4 215
4 216
4 217
4 218
4 219
4 220
4 221
4 222
4 223
4 359
4 375
5 219
11 210
14 357
15 77
17 210
24 324
25 323
25 324
26 322
26 323
27 322
33 58
33 66
33 395
34 176
34 184
41 58
41 66
51 395
61 85
63 235
63 243
68 185
71 235
71 243
74 53
77 304
79 153
79 165
80 197
81 4
83 304
84 215
84 227
85 251
97 251
101 4
103 80
103 108
104 108
104 109
105 109
105 110
106 110
106 111
111 80
123 395
143 395
145 247
146 147
146 153
148 359
148 365
154 359
154 365
158 340
161 395
164 55
164 228
164 240
166 340
170 55
173 4
173 10
181 4
181 10
182 205
186 308
190 205
200 109
200 115
201 395
202 395
203 194
203 200
207 301
207 307
213 301
213 307
222 368
222 380
231 4
234 368
237 395
244 4
245 4
245 5
246 4
246 5
247 4
249 4
249 266
250 4
250 5
251 4
251 5
252 292
252 304
255 395
262 370
262 376
264 292
264 349
268 125
268 376
269 91
269 103
276 162
276 168
277 4
280 125
281 91
281 103
282 162
282 168
291 367
291 379
293 125
295 4
303 367
303 379
306 4
318 395
324 4
325 81
326 80
327 79
330 140
330 146
344 47
348 305
348 317
349 116
349 124
354 230
357 124
360 305
360 317
365 96
374 53
374 61
374 124
374 136
377 102
382 53
386 136
387 147
387 153
390 115
391 176
393 147
393 153
395 55
395 67
395 226
395 317
395 360

5
5 33
5 41
5 58
5 59
5 75
5 76
5 374
7 33
7 41
8 179
8 193
12 209
13 358
14 76
16 209
17 6
17 20
17 112
22 193
29 213
29 221
31 6
31 20
33 177
33 183
34 59
34 65
35 359
35 367
35 386
37 213
37 221
39 304
39 318
40 59
40 65
43 359
43 367
49 344
49 352
49 386
57 344
57 352
61 205
61 219
64 236
64 242
70 236
70 242
75 54
78 305
82 305
93 108
93 231
93 239
101 231
101 239
103 387
104 81
110 81
111 379
111 387
113 350
113 358
116 142
116 303
119 20
119 28
119 247
124 142
124 150
124 394
127 20
127 28
130 303
136 222
142 394
147 148
149 360
149 364
153 360
153 364
159 339
162 394
165 54
169 54
171 116
171 124
174 9
178 394
179 116
179 124
179 394
180 9
183 204
184 333
195 169
196 268
199 388
200 394
201 114
202 195
202 199
204 268
208 100
208 302
208 306
212 302
212 306
222 100
222 155
223 321
223 329
232 5
232 7
234 380
235 381
236 382
237 383
238 384
238 394
239 385
240 217
241 5
242 5
242 6
243 5
244 317
244 331
248 5
248 217
248 267
253 385
254 394
263 375
265 350
267 375
277 163
277 167
278 5
278 341
279 14
281 163
281 167
282 364
286 341
294 5
294 124
297 299
307 5
307 331
315 337
315 351
323 5
323 82
329 141
329 145
329 255
329 337
329 351
331 57
334 200
334 214
343 46
345 66
345 80
345 265
350 117
350 123
354 275
355 23
355 37
355 96
355 229
356 123
359 251
362 275
369 23
369 37
370 198
371 197
372 196
373 177
373 195
374 194
374 364
374 372
375 54
375 60
381 54
382 372
387 191
388 148
388 152
389 103
390 177
392 148
392 152
394 31
394 41
394 56
394 66
394 318

6
6 34
6 35
6 36
6 37
6 38
6 39
6 40
6 60
6 61
6 360
6 368
6 369
6 370
6 371
6 372
6 373
7 37
7 60
7 369
7 370
7 371
7 372
11 329
11 343
13 75
20 289
24 327
25 343
28 289
30 214
30 220
32 178
32 182
34 393
35 60
35 64
35 393
36 214
36 220
36 360
36 366
37 87
39 60
39 64
39 252
42 360
42 366
44 284
49 393
50 345
50 351
50 393
56 345
56 351
58 284
63 254
65 237
65 241
69 237
69 241
72 351
76 55
76 71
82 6
83 6
87 371
89 269
90 71
94 107
94 232
94 238
97 269
98 13
99 6
100 6
100 107
100 232
100 238
101 107
104 386
105 82
109 82
109 111
110 165
110 380
110 386
111 124
112 351
112 357
114 217
114 327
117 143
119 176
119 190
120 21
120 27
123 143
123 149
125 124
125 393
126 21
126 27
126 384
129 88
133 176
133 190
136 38
136 52
140 384
141 393
150 52
154 161
160 338
162 153
162 161
163 393
172 117
172 123
174 6
175 6
175 8
175 393
176 393
177 393
178 117
178 123
179 6
179 8
180 6
180 393
181 173
181 393
183 332
184 203
184 229
184 243
192 291
194 170
197 269
198 229
198 243
199 393
200 291
203 269
215 177
215 191
223 154
223 277
223 291
224 322
224 328
229 177
233 6
234 6
235 6
236 6
236 7
237 6
237 291
238 6
239 6
239 135
240 6
241 216
247 216
255 155
255 163
262 327
265 253
265 261
266 351
272 181
273 253
273 261
276 313
276 327
279 342
285 342
289 28
291 325
298 300
299 147
303 28
306 330
317 165
317 173
325 165
325 173
328 225
330 254
339 25
351 118
351 122
355 116
355 122
355 274
356 97
357 108
361 274
364 106
370 200
375 252
375 371
376 55
376 59
380 55
381 120
381 371
382 59
382 119
382 120
383 119
386 32
386 40
389 252
393 32
393 40
393 57
393 58
393 61
393 62
393 63
393 64
393 65
393 227
393 228
393 319
393 359

7
7 62
7 63
7 64
7 65
7 74
7 366
7 367
14 204
14 205
21 290
27 290
27 318
31 215
31 219
35 215
35 219
36 392
37 361
37 365
40 253
41 361
41 365
48 392
49 165
51 346
51 350
55 346
55 350
59 87
59 165
68 317
70 187
76 313
76 314
77 312
77 313
78 311
78 312
79 310
79 311
80 309
80 310
81 155
82 225
83 50
84 7
84 49
85 48
87 31
87 253
89 19
89 20
90 268
95 106
95 233
95 237
95 253
96 184
96 268
98 7
99 233
99 237
99 373
100 373
100 374
101 374
101 375
102 375
102 376
103 376
103 377
104 377
104 378
105 378
105 379
105 385
109 381
109 385
111 352
111 356
115 218
121 22
121 26
122 144
122 148
125 22
125 26
136 114
143 245
155 160
159 83
159 93
161 154
161 160
162 230
162 238
164 392
165 392
166 392
167 50
167 392
168 392
169 391
169 392
170 392
171 392
172 392
173 118
173 122
173 392
174 392
176 7
177 7
177 8
177 31
177 41
177 118
177 122
178 7
180 364
180 374
182 331
182 392
183 392
184 310
184 392
190 364
193 171
193 290
198 270
198 338
198 348
198 392
199 290
202 270
208 338
208 348
211 129
223 59
223 69
224 153
224 370
224 378
225 323
225 327
232 370
232 378
233 59
239 79
239 392
240 392
242 215
246 215
249 69
249 79
252 392
253 392
254 156
254 162
254 294
254 302
261 306
262 294
262 307
263 308
264 309
265 145
265 371
266 254
266 260
266 370
267 369
268 207
268 368
269 367
270 127
270 366
271 93
271 101
272 254
272 260
275 145
278 127
279 7
279 93
279 101
280 7
284 343
293 369
293 377
299 72
299 301
300 146
301 369
301 377
305 221
305 231
305 329
309 72
318 166
318 172
318 296
318 306
320 82
320 92
321 7
321 54
322 7
322 110
322 120
324 166
324 172
325 143
326 241
326 242
327 242
327 243
328 243
328 244
329 244
329 245
330 245
330 246
331 78
331 246
331 247
331 253
333 66
350 307
350 315
354 117
354 118
356 273
357 98
357 106
358 307
358 315
360 273
363 98
363 105
369 201
375 191
376 134
376 370
379 104
379 326
380 58
380 370
381 58
384 134
387 33
387 39
392 33
392 39
392 59
392 60
392 229
392 320
392 321
392 358

8
8 66
8 67
8 73
8 361
8 364
8 365
10 181
10 361
11 360
14 207
19 8
19 18
20 113
20 191
22 291
23 329
26 291
28 180
29 8
29 18
37 306
37 316
37 388
37 391
41 254
47 388
47 391
50 164
58 88
58 164
63 207
63 217
69 318
70 201
70 202
71 188
71 200
71 201
72 199
72 200
73 199
80 307
81 224
82 156
85 8
85 46
88 21
88 22
88 23
88 27
88 28
88 29
88 254
91 267
94 254
95 183
95 267
97 8
99 371
104 90
104 91
105 89
105 90
106 88
106 89
106 380
106 381
107 86
107 87
107 88
111 112
116 219
118 305
121 245
126 391
127 391
128 305
135 113
139 391
140 391
149 150
150 151
151 362
156 159
158 84
158 92
160 155
160 159
161 231
161 237
167 52
176 32
176 40
181 365
181 373
183 311
185 391
186 391
187 391
189 365
191 391
193 391
194 289
194 390
194 391
195 390
195 391
196 390
196 391
197 280
197 281
197 390
197 391
198 196
198 279
198 280
198 289
199 196
199 278
199 279
199 339
199 347
200 197
200 278
207 339
207 347
210 102
210 304
212 128
220 102
224 60
224 68
225 371
225 377
231 371
231 377
232 60
240 78
241 387
241 391
242 319
242 329
243 188
245 270
246 269
248 70
248 78
251 387
251 391
253 157
253 161
255 295
255 301
260 304
261 295
265 311
265 373
266 144
267 206
267 255
267 259
271 128
271 255
271 259
271 364
272 94
272 100
274 144
277 128
278 94
278 100
279 165
280 362
281 8
294 370
294 376
296 122
297 121
300 73
300 370
300 376
301 145
306 222
306 230
308 73
317 297
317 305
317 339
317 349
319 83
319 91
319 167
319 171
320 8
321 111
321 119
322 53
323 167
323 171
327 143
327 339
327 349
330 53
330 54
332 248
332 249
333 78
336 202
336 212
339 252
340 43
340 253
341 44
341 254
342 255
343 68
343 78
347 263
351 308
351 314
357 25
357 35
357 227
357 253
357 308
357 314
358 104
358 105
358 226
362 99
362 104
367 25
367 35
368 202
375 179
375 189
377 133
380 105
380 327
383 133
385 189
387 105
387 180
388 34
388 38
388 179
390 150
391 230
391 322
391 323
391 357

9
9 68
9 69
9 70
9 71
9 72
9 362
9 363
10 69
10 70
10 71
10 72
11 73
11 182
13 331
13 341
19 190
20 9
20 17
23 331
23 341
24 183
24 184
25 182
25 183
26 181
26 182
27 181
28 9
28 17
28 315
28 316
30 180
36 307
36 315
37 62
38 389
38 390
39 89
39 389
39 390
40 389
40 390
41 390
43 390
44 389
44 390
45 389
45 390
46 282
46 389
46 390
51 163
56 282
57 89
57 163
61 256
64 216
67 239
70 319
72 189
73 197
74 349
78 69
80 223
83 157
86 9
86 34
88 25
88 69
89 255
89 369
93 255
94 182
96 9
103 92
103 93
103 94
107 84
108 163
110 154
111 153
112 152
113 112
113 122
113 151
114 150
115 149
116 148
116 325
117 147
118 146
119 306
121 178
121 188
122 244
127 306
128 386
128 390
131 90
131 178
131 188
134 112
138 40
138 50
138 386
138 390
150 235
151 152
152 152
152 153
153 153
153 154
154 154
154 155
155 155
155 156
156 156
157 85
157 91
160 232
160 236
162 336
163 335
175 33
182 312
182 366
182 372
183 175
186 201
186 231
186 241
187 200
188 366
188 373
188 374
188 390
189 389
189 390
190 390
192 390
196 194
196 231
196 241
197 195
200 274
200 275
200 276
200 340
200 346
206 340
206 346
211 103
213 127
217 179
217 189
219 103
225 61
225 67
225 279
225 289
226 372
226 376
227 179
229 188
230 372
230 376
235 289
237 137
241 320
241 328
242 388
242 390
244 189
244 211
244 271
245 189
247 71
247 77
250 388
250 390
256 296
256 300
260 296
260 302
264 325
265 313
266 205
267 143
268 353
270 183
271 362
273 95
273 99
273 143
274 325
276 129
277 95
277 99
279 361
282 9
291 26
295 371
295 375
298 120
299 371
299 375
301 26
301 74
307 223
308 129
309 130
316 298
316 304
318 84
318 90
318 340
318 348
319 9
320 112
320 118
323 52
325 239
326 227
326 340
326 348
334 68
334 69
334 77
335 251
336 251
337 27
337 203
337 211
337 251
342 69
342 77
352 309
352 313
353 120
356 254
356 309
356 313
358 26
358 34
359 225
361 100
366 26
366 34
376 180
376 188
377 250
378 57
378 132
378 366
381 106
381 124
381 328
382 132
384 188
385 339
385 340
386 106
386 340
386 341
387 250
387 341
387 342
390 34
390 35
390 37
390 38
390 231
390 324
390 325
390 356

10
12 183
14 332
14 340
21 10
21 16
22 114
22 120
22 184
22 332
22 340
24 295
24 296
24 297
25 298
26 299
27 10
27 16
27 300
28 301
29 302
29 314
30 303
30 304
33 217
35 314
39 363
40 90
42 389
47 281
52 162
53 348
55 281
56 162
60 257
71 320
75 317
75 318
75 348
76 190
77 190
78 189
79 68
79 188
80 187
81 186
82 185
83 184
84 183
85 182
86 36
86 37
86 38
86 42
86 43
86 44
86 181
87 10
87 68
87 181
90 368
93 181
95 10
97 104
97 235
98 103
98 368
98 369
102 96
102 97
103 96
107 162
107 355
107 383
108 154
108 355
109 354
114 113
114 121
117 324
120 146
120 307
122 179
122 187
123 24
123 243
129 387
129 389
130 179
130 187
132 91
137 387
137 389
139 41
139 49
152 234
156 86
156 90
174 34
175 120
179 328
180 329
183 367
183 371
187 232
187 240
187 367
187 371
187 372
188 199
191 173
195 232
195 240
196 283
196 284
196 285
200 272
201 341
201 345
205 341
205 345
214 126
218 104
218 126
218 127
218 180
218 188
219 128
220 129
221 130
222 131
223 132
224 133
225 134
226 62
226 66
226 135
226 151
226 180
226 280
226 288
227 136
227 150
227 325
228 137
228 138
234 288
236 138
240 321
240 327
241 274
242 273
242 274
243 272
243 389
244 213
244 389
245 209
245 210
245 389
246 72
246 76
246 208
246 209
246 388
246 389
247 207
247 208
247 389
248 206
248 207
248 389
249 159
249 205
249 206
249 389
250 205
259 300
259 301
265 204
265 324
268 142
269 184
270 354
272 142
272 360
272 361
278 360
281 346
282 345
283 10
292 25
300 25
301 303
302 75
302 326
303 327
308 224
309 132
311 10
312 10
313 10
314 10
315 299
315 303
317 14
317 89
318 10
318 14
318 15
319 15
319 16
319 113
319 117
319 341
319 347
320 16
320 17
321 17
321 18
321 143
322 18
322 19
323 19
323 20
324 20
324 51
325 228
325 237
325 341
325 347
333 251
335 70
335 76
338 204
338 210
341 70
341 76
345 256
355 255
357 269
357 270
358 271
359 27
359 33
359 100
365 27
365 33
377 181
377 187
378 249
378 368
379 365
380 364
381 363
382 329
382 362
383 114
383 187
383 361
384 360
385 107
385 181
385 359
386 249
389 36
389 232
389 233
389 326
389 327

11
13 184
15 333
15 339
21 333
21 339
22 11
22 15
24 293
26 11
26 15
30 313
34 313
41 91
43 256
44 257
48 280
54 280
56 133
57 130
57 131
57 132
57 133
57 134
58 131
59 258
69 205
74 193
74 194
74 195
74 319
74 320
76 347
80 67
86 40
86 67
88 11
88 180
89 11
89 180
90 15
91 259
91 260
91 261
91 367
92 172
92 173
92 261
92 262
92 263
93 11
93 265
94 11
97 367
99 101
99 102
100 361
101 98
101 99
101 360
101 361
102 359
102 360
103 358
103 359
104 357
104 358
105 356
105 357
106 155
106 161
106 356
107 155
115 114
115 120
118 221
118 323
119 222
121 308
123 180
123 186
124 242
129 180
129 186
130 388
131 388
132 388
133 92
133 387
133 388
134 388
135 388
136 388
140 42
140 48
147 236
154 234
155 234
156 234
157 38
158 157
178 327
185 176
188 233
188 239
189 197
189 198
190 196
190 197
191 175
194 233
194 239
196 287
219 181
219 187
225 181
226 187
227 187
227 281
227 287
228 149
229 139
235 139
239 322
239 326
240 151
240 276
240 277
241 151
241 152
241 276
242 152
242 153
243 153
243 154
244 154
244 155
245 155
245 156
246 156
246 157
247 157
247 158
247 190
248 158
248 191
251 159
266 315
266 316
266 323
268 185
269 257
271 355
277 359
280 347
280 348
284 11
293 24
299 24
301 325
303 143
304 142
309 11
310 11
315 11
316 11
316 12
317 11
317 12
318 143
319 143
320 342
320 346
321 169
324 22
324 229
324 235
324 236
324 342
324 346
336 71
336 75
339 205
339 209
340 71
340 75
347 256
354 256
355 266
355 267
356 267
356 268
360 28
360 32
360 102
364 28
364 32
365 205
366 204
378 182
378 186
379 248
380 126
380 127
380 128
382 186
383 110
383 111
383 112
383 182
384 111
384 112
384 113
384 182
385 237
385 248
386 236
386 237
386 356
386 357
387 235
387 236
387 345
388 234
388 235
388 328
388 329
388 344
388 345
388 346

12
14 190
14 191
16 334
16 338
19 185
20 185
20 334
20 338
24 119
31 306
31 307
42 92
45 258
49 279
52 124
53 124
53 125
53 138
53 279
54 92
54 125
54 126
54 137
54 157
54 158
55 91
55 126
55 127
55 128
55 136
56 127
56 128
56 129
56 135
58 259
67 215
69 207
74 191
77 220
77 346
78 221
81 66
81 348
81 349
82 349
82 350
83 350
83 351
84 351
84 352
85 66
85 159
85 352
85 353
86 160
86 353
86 354
87 354
87 355
88 355
88 356
89 356
89 357
90 12
90 13
90 357
90 358
91 12
91 13
91 174
91 175
91 176
91 177
91 257
91 358
91 359
92 12
92 359
92 360
92 366
93 171
96 366
98 362
99 362
100 100
105 156
105 160
116 115
116 119
119 322
120 223
124 181
124 185
128 181
128 185
134 93
141 43
141 47
143 94
144 93
144 94
145 92
145 93
145 236
146 91
146 92
147 90
147 91
148 89
148 90
149 88
149 89
150 88
151 88
152 88
154 40
155 39
155 40
156 39
158 234
159 38
160 39
161 39
177 326
179 315
180 314
188 189
189 190
189 234
189 238
190 176
190 191
190 192
191 192
191 193
191 194
191 195
192 193
192 194
193 234
193 238
216 120
216 121
216 122
217 106
220 182
220 186
224 182
224 186
225 186
228 282
228 286
228 374
229 148
230 64
230 140
230 324
231 64
232 65
233 66
234 67
234 140
235 68
236 69
237 70
238 71
239 72
239 150
239 278
240 73
241 74
242 74
249 192
250 202
258 298
267 186
267 317
267 318
267 322
270 138
272 132
273 132
273 133
274 131
275 97
276 352
276 353
277 351
277 352
278 350
278 351
279 349
285 12
286 12
294 23
297 373
298 23
300 324
301 19
301 100
301 101
302 18
303 17
304 16
305 15
305 141
306 14
307 13
308 12
317 142
323 230
323 234
325 23
325 24
348 257
349 257
353 263
353 264
354 265
354 311
364 206
380 130
380 247
382 183
383 108
384 109
384 247
384 333
384 334
384 335
384 336
386 331
386 352
387 330
387 331
387 347
387 348
387 349
387 350
387 351
387 352
387 353
387 354
387 355

13
15 188
15 189
17 186
18 186
23 13
24 13
24 14
24 116
25 13
25 116
25 118
32 308
32 309
46 259
51 121
51 122
52 122
53 93
53 140
53 141
53 142
54 139
54 141
54 155
54 160
68 208
68 209
68 210
73 322
74 323
74 324
74 325
75 324
76 219
80 346
80 347
82 57
83 57
87 161
91 179
93 361
93 362
96 363
97 363
121 224
143 237
144 237
150 44
151 43
152 42
153 41
154 88
162 40
171 37
172 36
175 325
176 325
178 316
185 369
187 177
188 187
189 177
203 343
213 116
213 117
214 118
215 119
216 124
228 64
232 324
233 324
234 324
235 324
236 149
237 149
237 150
238 279
244 74
250 193
251 200
251 201
262 201
263 202
270 140
271 135
271 136
271 137
272 134
272 135
273 357
274 319
275 354
275 355
287 13
288 13
293 319
299 322
299 323
301 98
302 97
302 98
302 102
302 103
303 103
303 104
304 77
304 104
304 105
305 78
306 140
310 226
311 227
311 302
312 302
313 301
314 141
315 87
315 141
315 142
317 115
326 25
326 49
327 48
333 28
343 207
350 258
351 259
352 260
352 261
352 262
363 207
364 219
364 220
365 220
365 221
366 221
366 222
367 222
367 223
368 223
368 224
369 224
369 225
370 225
370 226
371 226
371 227
372 227
372 228
373 228
373 229
374 229
374 230
375 230
375 231
376 231
376 232
377 232
377 233
384 331
385 332

14
15 186
16 187
26 117
27 117
31 117
32 117
32 311
47 260
48 261
49 261
49 262
50 119
50 120
51 272
51 273
51 274
51 275
52 94
52 271
52 272
53 144
54 143
54 144
54 145
54 146
54 150
54 151
54 152
54 153
75 218
75 326
75 327
76 328
76 329
76 330
76 331
76 335
76 336
77 335
78 342
79 341
79 342
83 59
83 60
83 61
83 62
88 162
120 117
121 117
122 225
123 226
123 310
123 311
124 227
125 228
126 229
126 240
127 230
127 239
128 231
129 231
130 107
131 106
132 105
133 104
134 103
135 101
135 102
136 99
136 100
137 323
138 323
139 323
140 95
141 95
141 238
142 238
145 45
146 45
147 45
148 45
164 40
170 38
174 324
177 317
188 178
188 182
188 183
188 184
188 185
214 108
215 107
232 284
233 283
233 284
234 282
234 283
235 148
235 281
235 282
236 281
237 280
237 324
251 194
252 199
261 200
271 320
272 320
273 320
274 356
275 357
289 14
290 14
298 314
298 315
298 321
303 95
303 96
305 106
306 79
306 107
307 108
307 109
307 139
309 303
310 303
312 140
312 228
313 140
319 232
322 344
326 27
327 27
327 28
328 47
338 73
341 207
344 208
345 208
346 208
346 209
347 209
348 209
352 258
361 209
362 30
362 208
362 219
378 234
379 235
379 236
380 184
380 236
380 237
381 237
381 238
382 238
382 240
382 241
382 242
382 243

15
18 336
29 117
33 116
34 115
34 116
35 115
44 94
45 95
47 115
47 116
48 116
48 117
49 118
51 95
51 262
51 277
53 270
54 148
54 268
55 262
55 266
56 261
69 212
70 213
70 214
71 214
71 215
72 215
72 216
73 216
74 217
76 333
77 337
77 338
78 339
78 340
79 344
83 64
89 163
90 164
94 364
101 159
102 159
103 158
118 117
121 320
122 116
122 319
123 115
123 116
124 114
124 115
125 113
125 114
126 112
126 113
126 183
127 111
127 112
128 110
128 111
128 238
129 109
133 320
134 320
134 321
135 321
136 95
136 322
137 96
137 97
137 98
138 96
138 97
139 96
141 322
141 323
142 322
143 45
168 39
169 39
175 319
176 318
188 180
191 236
212 114
213 109
222 184
230 284
232 142
232 147
233 144
233 145
233 146
233 147
234 145
234 146
234 147
252 197
253 196
253 197
264 189
265 188
269 320
291 15
292 15
296 21
297 20
297 316
297 320
299 313
300 311
300 312
301 310
301 311
302 309
302 310
303 308
303 309
304 93
304 94
304 307
304 308
305 92
305 93
305 306
305 307
306 91
306 92
306 306
307 80
307 81
307 90
307 91
307 305
308 89
308 90
308 110
308 304
309 88
309 89
309 138
310 87
310 88
310 138
311 139
313 229
314 229
314 230
315 229
315 230
316 230
316 231
317 231
318 231
321 232
328 29
329 45
329 46
330 36
330 37
330 38
331 29
331 35
331 36
331 37
331 38
331 39
331 40
332 39
350 209
351 210
352 210
359 211
360 210
382 245

16
36 114
37 113
38 112
38 113
39 111
39 112
40 110
40 111
41 110
46 96
52 263
53 263
53 264
54 263
54 264
54 265
99 160
100 160
123 318
124 313
129 237
130 233
130 317
131 318
132 319
137 236
138 236
139 237
143 321
144 321
149 318
150 318
150 319
151 318
152 317
166 41
167 40
172 323
211 112
212 110
212 111
212 112
263 190
293 16
294 17
295 18
296 19
296 318
297 318
308 82
308 112
309 83
309 112
309 113
310 84
310 85
311 85
311 86
329 30
329 31
330 30
330 34
330 44
331 43
332 41
332 42
353 211
354 212
355 212
355 213
356 213
356 214
359 213
360 217
360 218

17
47 97
93 165
95 163
96 162
96 163
97 162
98 161
124 317
128 316
130 236
133 235
134 234
135 234
135 235
136 235
145 320
146 320
147 319
148 319
155 317
255 195
260 197
262 191
310 114
330 32
358 214
358 215
359 215
359 216

18
48 98
48 99
49 98
49 99
49 100
49 101
50 100
50 101
50 102
94 164
125 315
125 316
126 315
126 316
131 235
132 234
172 320
261 192
307 119
308 118
308 119
309 117
309 118
310 116
310 117
311 116

19
49 104
49 105
50 104
258 194
258 195
259 194
259 195
260 193

20
48 106
48 107
158 318
159 318

21
46 109
47 108
160 319
161 319
168 319

22
166 320
167 320

23
163 320
164 321
165 321

