0
0 0
0 28
0 44
0 236
0 254
0 358
38 399
74 0
126 0
129 0
149 0
290 0
348 0
349 0
372 0
399 222
399 248
399 290

1
1 1
1 18
1 29
1 43
1 83
1 101
1 131
1 359
25 364
35 1
35 364
37 398
43 171
43 181
44 236
53 171
53 181
54 246
64 111
64 121
65 283
65 293
74 111
74 121
75 283
81 219
91 219
91 229
170 127
177 155
189 116
189 126
236 371
236 381
246 371
246 381
276 39
276 49
286 49
289 1
308 69
308 79
318 69
318 79
323 92
323 102
328 307
333 92
333 102
350 1
360 228
360 238
367 133
370 228
370 238
377 133
385 93
385 103
398 40
398 41
398 63
398 64
398 223
398 247
398 291
398 334

2
2 2
2 17
2 84
2 100
2 132
2 163
2 237
2 238
2 252
2 253
2 327
2 347
6 64
8 239
8 251
14 15
15 212
19 184
22 64
25 314
25 326
31 212
35 184
36 397
49 50
49 62
61 50
61 140
70 27
70 43
74 300
75 2
76 2
77 140
77 201
77 213
78 12
86 27
86 288
87 238
87 250
89 201
89 213
94 27
99 301
116 276
121 73
121 89
132 276
132 292
137 73
139 203
139 219
147 397
148 2
152 33
152 63
154 354
154 366
155 203
155 233
156 76
157 116
164 63
167 325
167 337
171 22
171 217
171 233
172 76
172 92
173 100
178 234
178 250
179 325
179 337
180 356
180 368
194 234
194 250
203 342
219 342
230 106
246 106
254 3
254 15
266 15
272 392
276 285
280 350
283 397
288 2
292 285
292 301
296 184
299 316
299 328
303 397
308 184
311 316
311 328
317 276
326 67
342 51
351 2
362 389
371 2
386 352
386 368
390 44
397 42
397 62
397 256
397 272
397 292

3
3 3
3 16
3 30
3 31
3 41
3 42
3 99
3 133
3 239
3 251
3 360
3 361
4 393
14 162
20 328
20 346
24 123
31 154
33 13
34 3
42 123
49 154
55 338
62 176
62 393
71 330
74 77
74 273
80 176
80 375
80 393
97 202
97 214
105 369
105 381
109 214
113 340
113 358
117 391
123 106
123 140
128 255
131 340
131 358
135 373
141 140
146 255
153 101
153 102
154 102
154 103
168 58
190 31
190 43
190 184
190 196
194 263
194 275
201 117
201 135
202 31
202 43
202 184
202 196
204 320
204 332
206 263
206 275
214 232
214 250
216 320
216 332
225 364
236 210
237 352
237 364
242 138
243 343
248 210
248 222
255 331
255 343
259 291
259 303
260 115
260 138
264 361
264 373
274 377
278 320
278 332
280 162
280 174
281 123
281 141
286 40
286 41
287 39
287 40
288 38
288 39
290 320
290 332
299 123
299 141
304 288
304 300
315 349
315 361
322 327
322 339
337 87
340 16
340 28
346 9
350 156
352 3
353 3
357 119
366 314
368 156
370 3
377 395
385 295
395 377
395 395
396 43
396 61
396 224
396 225
396 245
396 246
396 293
396 333

4
4 4
4 15
4 32
4 40
4 162
4 240
4 250
4 328
4 346
4 362
5 260
5 268
7 32
7 40
9 363
20 92
26 283
27 362
28 346
33 4
33 362
34 395
35 44
35 395
36 21
37 242
37 305
38 283
43 44
44 21
45 173
45 179
45 305
51 173
51 179
52 244
56 195
56 207
66 113
66 119
67 285
67 291
68 195
72 113
72 119
77 4
78 4
89 221
89 227
89 331
101 331
105 96
105 104
110 300
110 312
113 24
113 96
113 104
114 25
119 328
121 206
127 320
127 328
144 234
146 395
151 143
151 151
158 162
159 143
168 179
172 125
174 34
174 42
175 157
176 179
186 305
186 317
187 118
187 124
198 305
198 317
204 362
206 201
206 213
209 288
209 300
218 201
218 213
221 288
221 300
229 68
238 373
238 379
239 321
241 68
244 373
244 379
247 321
276 247
276 259
278 41
278 47
283 30
284 41
284 47
286 4
287 4
288 247
288 259
290 38
295 18
302 395
310 77
311 159
316 77
325 94
325 100
325 180
325 192
325 303
326 21
326 29
330 309
331 94
331 100
344 99
360 37
362 230
362 236
364 216
368 37
368 230
368 236
369 4
369 131
375 131
376 204
376 216
383 101
386 115
386 123
391 78
394 115
394 123
395 44
395 226
395 244
395 257
395 271

5
5 5
5 33
5 34
5 35
5 37
5 38
5 39
5 97
5 98
5 134
5 161
5 241
5 242
5 243
5 244
5 246
5 247
5 248
5 249
5 363
6 33
6 34
6 38
6 39
6 241
6 242
6 243
6 247
6 248
6 249
6 261
6 267
27 316
28 361
32 5
32 361
32 380
33 394
36 43
36 95
37 22
38 243
38 306
42 43
43 22
44 306
46 174
46 178
50 95
50 174
50 178
51 52
54 358
54 372
58 309
67 114
67 118
68 286
68 290
68 358
71 114
71 118
72 217
72 309
76 298
79 5
79 211
84 290
85 248
88 226
95 67
97 303
105 42
105 56
106 97
106 103
112 97
112 103
116 181
119 37
119 296
119 297
119 316
120 205
120 295
120 296
120 317
120 327
121 295
121 318
126 321
126 327
130 181
130 195
133 37
144 383
145 394
150 101
152 91
152 144
152 150
153 90
154 61
154 89
155 19
156 356
156 364
157 103
158 144
159 161
159 300
159 314
169 5
169 20
169 178
169 327
169 335
173 35
173 41
173 124
173 300
173 314
174 158
175 178
177 327
177 335
178 358
178 366
186 119
186 123
227 138
231 90
239 243
239 374
239 378
240 322
243 374
243 378
245 90
246 322
256 5
256 13
274 390
275 380
279 42
279 46
283 42
283 46
285 5
298 182
300 383
301 318
301 326
301 394
304 60
306 182
309 318
309 326
311 76
315 76
325 22
325 28
326 95
326 99
330 95
330 99
331 310
340 252
341 167
345 98
351 98
352 98
353 99
353 370
354 100
354 307
355 101
356 102
356 277
357 103
361 36
363 231
363 235
367 36
367 231
367 235
367 261
370 130
374 130
382 100
387 116
387 122
389 64
389 228
389 242
390 63
390 64
391 62
391 63
392 61
392 62
393 60
393 61
393 116
393 122
394 45
394 59
394 60
394 227
394 243
394 258
394 270
394 294
394 295
394 332

6
6 6
6 13
6 14
6 36
6 96
6 160
6 245
6 329
6 345
6 364
6 391
7 262
7 266
12 160
18 330
18 344
26 125
28 317
31 11
32 393
33 152
33 344
34 343
34 344
35 342
35 343
36 342
37 42
38 23
39 244
39 307
40 125
41 42
42 23
43 307
47 152
52 53
53 336
63 211
64 174
64 211
64 391
69 328
72 75
72 271
78 174
78 377
78 391
79 204
80 6
80 210
83 291
83 297
84 247
84 298
85 299
86 300
87 301
88 302
89 303
90 304
96 304
107 98
107 102
107 212
107 371
107 379
110 23
111 98
111 102
115 356
119 204
119 389
121 320
121 326
125 108
125 138
125 322
125 326
129 342
129 356
130 253
133 375
139 138
144 253
144 393
149 8
150 9
150 92
153 145
155 60
156 88
157 145
157 357
157 363
160 160
168 19
170 177
170 328
170 334
172 36
172 165
174 177
176 328
176 334
177 359
177 365
179 121
180 122
192 33
192 41
192 186
192 194
196 265
196 273
200 33
200 41
200 186
200 194
203 119
203 133
204 265
204 273
206 322
206 330
214 322
214 330
216 234
216 248
235 354
235 362
238 212
241 323
244 136
245 323
245 341
246 212
246 220
253 333
253 341
257 6
257 12
258 117
258 136
261 293
261 301
266 363
266 371
269 6
273 373
275 382
275 389
280 322
280 330
282 164
282 172
283 125
283 139
284 6
288 322
288 330
297 125
297 139
299 181
300 393
302 319
302 325
305 181
306 290
306 298
308 319
308 325
313 351
313 359
324 23
324 27
324 329
324 337
342 26
346 97
348 11
350 97
352 158
359 103
359 117
362 35
366 35
366 158
367 6
367 199
368 6
368 200
368 316
387 297
388 117
388 121
389 66
392 47
392 48
392 49
392 50
392 54
392 55
392 56
392 57
392 117
392 121
393 46
393 47
393 48
393 49
393 50
393 51
393 53
393 54
393 55
393 56
393 57
393 58
393 228
393 242
393 259
393 269
393 296
393 331
393 379
393 393

7
7 7
7 12
7 95
7 135
7 330
7 344
7 365
7 366
7 367
7 368
7 369
9 67
11 159
15 7
16 7
18 90
18 209
19 7
19 67
20 7
22 187
28 209
28 281
29 318
30 7
30 10
30 356
30 357
31 7
31 355
31 356
31 392
32 187
33 346
36 281
36 340
51 74
51 241
52 73
52 240
53 54
53 72
53 239
54 238
55 237
56 236
57 235
58 197
64 143
66 197
68 327
69 252
70 251
71 250
72 249
73 30
73 40
74 143
80 205
81 7
81 9
81 205
81 209
82 292
82 296
83 30
83 246
86 222
91 305
91 329
94 315
95 305
97 24
99 329
108 372
108 378
112 302
112 310
116 342
119 279
121 292
122 321
122 322
124 76
124 86
129 279
129 289
132 237
134 76
142 206
142 216
142 236
143 392
146 7
147 7
152 206
155 36
156 59
158 230
158 358
158 362
159 79
160 113
167 159
168 7
168 159
168 160
168 220
168 230
169 79
169 115
169 160
170 115
170 116
171 116
171 117
171 329
171 333
172 117
172 118
172 163
173 118
173 119
174 119
174 120
175 120
175 329
175 333
176 121
176 360
176 364
177 122
178 122
181 121
181 237
181 247
182 121
188 307
188 315
191 237
191 247
193 34
193 40
193 187
193 193
196 307
196 315
197 266
197 272
199 34
199 40
199 187
199 193
203 266
203 272
206 345
206 360
207 323
207 329
208 203
208 211
211 290
211 298
213 323
213 329
216 203
216 211
216 345
219 290
219 298
221 355
222 355
222 356
223 356
223 357
231 70
233 109
234 355
234 361
235 226
236 225
236 226
237 224
237 225
238 223
238 224
239 70
239 213
239 222
239 223
240 222
245 213
245 219
246 340
252 340
258 7
258 11
262 294
262 300
267 7
267 364
267 370
268 7
270 7
271 7
272 7
273 371
276 383
276 384
276 388
278 249
278 257
281 323
281 329
282 12
283 7
283 13
283 165
283 171
283 353
284 14
285 15
286 16
286 249
286 257
287 323
287 329
289 288
289 298
292 36
299 392
300 180
303 320
303 324
304 180
307 291
307 297
307 320
307 324
309 161
313 71
313 72
323 301
325 330
325 336
327 182
327 190
329 64
339 54
343 25
365 386
366 7
366 214
369 122
369 317
370 122
370 123
371 123
371 124
372 125
372 126
374 206
374 214
376 90
376 91
377 92
378 93
379 94
380 95
380 96
389 76
392 52
392 229
392 241
392 297
392 330
392 392

8
8 8
8 11
8 94
8 136
8 149
8 150
8 151
8 158
8 159
8 331
8 343
8 370
8 371
8 390
9 150
10 68
10 158
11 264
12 264
13 8
13 264
14 8
17 89
17 263
18 263
19 137
19 138
19 208
19 263
20 136
20 137
21 8
21 135
21 136
22 8
22 135
23 8
23 9
23 188
24 8
24 9
25 8
25 9
26 8
27 208
28 8
29 8
29 9
29 280
30 359
30 382
30 391
31 188
32 347
32 348
32 352
32 353
32 354
35 280
38 93
39 36
39 37
39 38
40 27
40 28
40 29
41 248
41 249
41 250
41 251
41 311
47 242
48 93
48 176
48 242
49 241
56 360
59 198
59 234
59 235
60 234
60 311
65 144
65 198
66 360
67 326
69 116
70 288
70 311
71 289
72 289
73 144
73 246
73 247
74 31
74 39
82 8
82 31
83 8
84 8
85 8
86 8
86 9
87 8
88 8
89 8
92 328
93 65
93 313
98 23
98 328
103 44
103 54
107 23
109 206
109 207
109 373
109 377
110 205
110 206
111 204
111 205
112 203
112 204
113 202
113 203
113 303
113 309
114 202
115 8
118 183
118 300
118 312
120 280
121 35
125 77
125 85
128 183
128 193
128 280
128 288
131 35
133 77
137 8
138 8
140 8
141 8
141 9
141 237
142 8
142 9
142 385
143 8
143 9
143 207
143 215
144 8
145 8
147 92
147 100
151 207
155 149
156 37
156 150
157 17
157 151
158 152
159 153
159 229
160 80
160 154
161 112
161 155
161 302
161 312
162 156
163 157
164 158
165 158
166 158
166 360
167 8
167 17
167 221
167 229
167 361
168 80
168 362
169 113
170 161
171 161
171 162
171 302
172 160
172 171
172 172
172 173
175 122
182 238
182 246
184 121
189 308
189 314
190 238
190 246
194 35
194 39
194 188
194 192
195 308
195 314
198 35
198 39
198 188
198 192
198 267
198 271
202 267
202 271
207 346
207 359
208 324
208 328
209 204
209 210
212 291
212 297
212 324
215 204
215 210
215 346
218 291
218 297
225 126
225 136
225 357
226 125
226 126
227 124
227 125
228 123
228 124
229 122
229 123
230 121
230 122
231 120
231 121
232 71
232 119
232 120
233 88
233 118
233 119
233 356
233 360
234 110
234 118
237 241
238 71
240 214
240 220
241 376
243 88
243 327
244 214
244 218
247 339
251 339
263 295
263 299
266 8
268 365
268 369
272 296
272 370
273 8
273 295
273 296
274 8
274 294
274 295
275 8
276 8
276 365
277 8
277 364
278 8
278 9
278 363
279 8
279 250
279 256
279 362
280 8
280 361
281 44
282 8
282 324
282 328
284 166
284 170
284 354
285 250
285 256
286 324
286 328
287 18
288 289
288 297
298 385
306 58
308 162
308 292
308 296
313 74
319 25
320 25
322 55
322 300
323 56
324 57
326 335
328 97
328 183
328 189
333 312
334 313
338 55
338 254
343 169
344 24
348 93
352 309
355 368
365 8
365 233
366 196
366 385
367 213
370 318
372 128
373 104
373 105
373 213
374 103
374 104
375 88
375 89
375 102
375 103
376 101
376 102
377 100
377 101
378 99
378 100
379 98
379 99
380 98
388 68
388 69
388 75
390 235
391 230
391 231
391 232
391 233
391 234
391 235
391 236
391 237
391 238
391 239
391 240
391 260
391 261
391 267
391 268
391 298
391 329
391 380
391 391

9
9 9
9 10
9 92
9 93
9 137
9 147
9 148
9 152
9 153
9 154
9 155
9 156
9 157
9 264
9 332
9 342
9 372
9 373
9 389
10 9
10 10
10 156
11 9
11 10
11 69
12 9
16 88
16 332
16 342
17 138
20 207
21 263
22 264
23 264
24 189
26 207
27 9
28 127
29 383
29 390
30 189
30 279
32 350
35 150
37 337
37 338
38 127
39 40
39 92
39 313
40 25
40 312
40 313
41 246
41 253
41 309
42 247
43 246
44 245
45 150
45 244
46 243
47 92
48 75
56 71
57 361
60 199
61 233
61 312
63 207
64 199
65 361
66 145
66 172
66 389
68 255
69 312
70 73
70 269
72 145
73 290
74 245
74 291
75 32
75 38
75 292
76 172
76 293
76 379
76 389
77 294
78 294
80 229
81 32
81 228
82 227
83 226
84 225
85 224
86 207
87 207
90 9
91 9
92 64
93 309
93 310
93 311
93 327
97 327
99 22
102 45
105 22
106 22
107 207
109 100
113 9
114 9
114 304
114 308
115 201
116 9
117 9
117 344
117 354
118 302
118 310
119 184
121 281
122 34
123 324
126 78
126 84
127 110
127 136
127 184
127 281
127 287
127 344
127 354
130 34
132 78
132 251
135 9
136 9
137 136
139 9
141 386
141 390
142 251
142 390
144 208
144 214
145 93
146 93
150 208
155 147
157 38
158 16
160 228
161 81
162 111
162 158
162 303
162 311
162 360
163 360
164 360
166 9
166 222
166 228
167 81
168 111
168 112
169 39
170 38
170 303
170 311
170 362
171 311
171 362
172 175
172 362
183 239
183 245
189 239
189 245
190 309
190 313
194 309
194 313
205 121
205 131
208 347
208 358
210 205
210 209
211 328
213 292
213 296
214 205
214 209
214 347
217 292
217 296
218 236
218 246
224 135
233 72
234 87
235 111
235 117
235 229
241 218
241 219
242 87
243 325
244 328
244 329
245 329
245 330
246 134
246 330
246 331
247 331
247 332
248 332
248 333
256 119
256 134
259 9
260 9
260 10
261 9
262 9
263 9
264 9
271 297
273 366
274 366
276 294
280 251
280 255
280 386
281 9
281 386
284 251
284 255
285 127
285 137
285 355
287 20
287 290
287 296
292 168
292 169
295 127
295 137
297 386
297 390
298 390
307 57
307 163
310 352
310 358
317 27
318 26
321 299
322 25
326 58
329 184
329 188
335 314
337 56
337 255
347 337
347 338
348 95
348 338
348 339
349 339
349 340
350 340
350 341
351 310
351 341
351 342
352 342
352 343
353 343
353 344
354 344
354 345
355 345
355 346
356 346
356 347
356 367
361 105
361 115
363 31
363 32
364 9
364 33
364 160
366 194
367 384
368 212
369 119
369 204
371 105
372 212
387 70
387 74
389 299
389 300
389 301
389 302
389 306
389 307
389 308
389 309
390 119
390 262
390 266
390 299
390 300
390 301
390 302
390 303
390 305
390 306
390 307
390 308
390 309
390 310
390 311
390 381
390 390

10
10 91
10 144
10 145
10 146
10 374
10 375
10 388
11 145
12 70
15 333
15 341
21 206
24 265
25 190
25 206
25 265
25 266
26 266
26 267
27 267
27 268
28 268
28 269
28 384
28 389
29 128
29 190
29 269
31 320
36 149
37 128
38 336
40 91
42 254
42 255
44 149
46 75
46 91
55 56
56 57
58 71
58 362
62 232
62 313
63 231
64 362
67 146
67 171
67 388
68 257
68 313
69 268
71 146
74 66
74 243
75 65
75 66
75 171
75 243
75 388
76 33
76 37
76 64
76 65
77 63
77 64
78 62
78 63
79 61
79 62
80 33
80 37
80 243
80 294
81 37
81 38
81 244
82 38
82 39
83 39
83 40
83 207
84 40
84 41
84 208
85 41
85 42
85 208
86 42
86 43
87 43
87 44
88 44
88 45
89 45
89 46
90 46
90 47
91 47
92 10
93 10
93 307
95 319
99 208
100 21
100 208
101 46
101 208
104 21
105 208
106 208
111 10
112 10
117 200
117 201
117 303
117 304
117 308
117 309
118 10
118 199
118 200
118 345
118 353
119 10
119 198
119 199
120 185
120 197
120 198
121 196
121 197
122 282
122 288
122 289
123 33
126 19
126 185
126 282
126 286
126 345
126 353
127 79
127 83
128 111
128 135
129 33
131 79
133 10
133 250
134 10
134 239
136 135
140 239
140 389
141 250
144 94
145 209
145 213
149 209
149 213
150 213
151 214
152 215
153 216
154 217
155 10
155 218
156 10
156 219
157 220
158 39
158 57
158 221
159 15
159 56
159 222
160 223
160 360
161 223
161 227
162 50
162 56
162 82
163 110
163 304
163 310
165 10
165 15
165 16
165 223
165 227
166 82
167 40
167 110
168 40
169 304
169 310
173 331
174 362
184 240
184 244
188 240
188 244
206 122
206 130
213 348
219 237
219 245
223 134
227 358
228 358
229 358
235 86
236 112
241 86
247 133
249 334
249 335
255 120
255 133
267 297
268 297
269 297
272 367
278 386
282 387
283 360
283 388
284 360
284 388
284 389
285 389
286 128
286 136
286 291
286 295
286 388
286 389
287 389
288 21
288 22
288 168
289 168
290 168
294 128
294 136
296 387
296 389
301 176
301 177
302 178
305 322
308 56
315 27
326 257
336 57
336 315
346 336
350 311
358 25
358 26
359 26
359 27
360 27
360 28
361 28
361 29
362 10
362 29
362 30
362 114
363 10
363 161
368 383
369 206
370 106
373 85
374 86
389 263
389 265
389 304
389 312
389 313
389 382
389 389

11
11 89
11 90
11 138
11 139
11 142
11 143
11 333
11 334
11 340
11 341
11 376
11 377
11 387
14 139
14 334
14 340
15 139
27 385
36 129
37 148
38 334
39 333
39 334
43 148
45 90
57 58
59 363
62 203
62 204
62 205
63 203
63 204
63 363
64 217
67 314
68 170
68 267
68 387
70 156
74 170
74 387
79 242
81 61
94 11
95 11
95 321
95 322
95 323
100 47
103 208
109 11
110 11
111 375
112 376
113 376
119 346
119 352
120 11
121 11
121 186
122 195
123 286
123 287
124 32
125 346
125 352
128 32
129 134
131 11
132 11
134 249
135 134
139 388
140 249
157 11
158 11
160 53
160 54
160 55
161 48
161 49
161 51
161 52
161 53
161 54
161 55
162 52
164 14
164 305
164 309
168 305
168 309
196 37
196 190
200 269
207 123
207 129
210 326
210 348
220 238
220 244
222 133
231 358
234 231
234 232
236 85
240 85
242 216
248 132
249 337
254 121
254 132
265 297
270 367
284 326
285 359
286 168
286 359
287 129
287 135
288 388
289 388
290 388
291 388
292 388
293 129
293 135
293 387
293 388
294 388
295 169
295 388
308 353
308 357
310 294
318 54
328 333
329 58
329 332
333 186
334 186
335 62
335 63
336 64
337 65
338 66
339 67
340 68
341 69
342 70
343 71
346 22
347 21
349 312
356 269
357 349
358 350
361 11
362 162
363 106
363 107
363 113
365 191
365 192
367 269
368 117
369 107
370 207
370 208
372 320
373 321
383 72
383 267
384 266
385 265
387 264
388 264
388 314
388 315
388 383
388 388

12
12 87
12 88
12 140
12 141
12 335
12 336
12 338
12 339
12 378
12 379
13 140
13 335
13 339
23 201
23 202
24 387
26 387
27 194
27 195
27 387
30 78
32 277
33 276
35 130
38 147
40 332
42 147
43 76
43 257
44 76
53 265
56 264
58 59
60 70
61 70
62 201
65 323
67 259
67 260
67 266
69 150
69 151
69 152
69 153
69 169
69 386
71 158
72 67
73 169
73 386
78 241
95 325
96 12
97 12
101 18
107 12
108 12
114 377
115 377
115 378
116 306
116 378
120 351
122 12
122 193
123 12
124 186
124 347
124 351
126 23
128 14
129 13
130 12
130 83
130 133
131 84
132 85
133 86
134 87
134 108
134 133
135 88
135 107
135 241
135 248
136 89
136 106
137 90
137 105
137 387
138 91
138 104
138 387
139 92
139 103
139 248
140 93
140 102
141 94
141 101
142 98
142 99
142 100
159 12
160 12
160 13
160 45
160 46
161 12
163 12
163 87
163 88
164 12
164 41
164 86
164 87
164 88
164 89
164 104
165 41
165 103
165 104
165 105
165 106
192 311
208 124
208 128
210 356
211 355
212 207
215 294
216 354
221 239
221 243
233 233
233 234
235 74
236 75
249 131
253 122
253 131
279 293
280 293
281 293
282 253
282 293
288 130
288 134
288 356
289 24
290 25
292 130
292 134
304 166
305 165
309 44
309 45
312 28
313 28
313 295
330 59
330 331
331 59
331 186
331 331
332 59
333 60
334 61
335 185
336 184
337 183
337 184
338 182
338 183
339 181
339 182
340 180
340 181
341 180
344 73
344 74
348 20
357 22
357 23
359 12
360 12
361 163
364 108
364 190
368 108
368 115
370 210
374 322
380 74
381 73
381 74
381 268
382 73
385 72
387 316
387 317
387 387

13
13 85
13 86
13 337
13 380
13 381
13 386
14 72
14 84
14 85
15 73
15 83
15 84
16 82
16 83
17 81
17 82
21 386
22 385
22 386
23 204
23 386
24 199
24 200
25 198
25 386
26 196
26 197
27 192
32 78
34 274
34 275
41 77
41 331
42 77
49 265
50 265
51 265
58 264
59 60
60 61
61 62
61 367
61 368
61 369
61 370
62 63
62 69
62 368
62 370
62 371
63 64
63 69
63 371
63 372
64 65
64 66
64 372
64 373
65 219
65 220
65 221
65 321
65 373
65 374
66 261
66 262
66 374
66 375
67 375
67 376
68 376
68 377
69 148
69 377
69 378
70 67
70 378
70 379
71 160
72 236
73 236
73 237
74 237
74 238
75 238
75 239
76 239
77 240
78 35
83 60
84 60
98 13
99 14
102 19
104 14
105 14
106 13
117 379
118 380
119 381
121 347
123 190
123 191
123 192
124 13
124 284
125 13
125 14
126 14
126 15
126 25
126 27
126 28
129 81
132 122
132 124
133 110
133 111
135 386
136 242
136 386
138 241
138 242
142 96
147 211
160 41
161 42
161 43
161 44
162 13
162 42
162 43
163 42
163 225
164 84
165 108
186 242
211 350
212 351
212 352
212 354
214 354
220 127
232 240
237 76
237 77
237 78
238 78
238 79
238 80
238 81
238 114
239 115
284 293
288 358
289 357
290 356
290 357
291 26
291 356
291 357
292 357
294 355
303 167
308 43
310 46
310 47
310 48
311 29
311 48
311 49
311 50
315 295
325 284
325 285
326 283
326 284
328 259
332 330
333 329
334 59
340 315
343 333
344 334
345 75
345 76
346 270
347 270
349 19
351 270
352 270
353 270
354 270
356 20
356 21
357 13
358 13
363 187
363 188
364 188
367 113
367 114
369 268
370 80
370 268
370 381
371 81
371 268
371 380
372 81
372 268
373 81
374 80
375 79
375 323
376 78
376 268
377 77
377 268
378 76
378 268
379 75
379 268
385 386
386 318
386 319
386 384
386 385
386 386

14
14 382
14 383
14 385
16 74
16 385
17 384
17 385
18 80
18 384
18 385
19 385
20 385
35 273
42 87
43 88
48 264
48 329
49 329
50 329
51 329
52 328
53 327
54 326
55 325
56 324
57 323
58 322
59 321
60 264
60 320
61 264
61 320
61 365
62 264
63 264
64 317
64 320
65 316
66 222
67 68
68 68
69 68
71 162
71 163
71 164
71 165
71 380
71 381
71 382
72 234
85 59
86 59
97 50
98 49
101 14
101 15
102 15
102 16
103 15
121 382
122 382
123 188
123 382
124 382
125 26
126 30
132 112
132 113
132 117
132 118
132 119
132 120
132 126
132 127
132 128
132 129
133 385
134 385
137 243
137 244
166 307
213 353
219 130
220 131
231 237
232 236
238 83
240 116
241 116
251 126
251 127
292 27
293 356
294 29
295 29
296 30
296 355
297 31
297 355
298 32
298 355
299 33
299 355
302 168
303 355
304 355
305 355
306 355
307 40
307 41
308 30
308 41
309 29
309 30
312 51
312 55
316 294
317 294
323 287
323 288
324 286
327 281
327 282
329 260
342 332
343 268
344 268
344 269
345 269
346 315
347 314
349 270
350 18
351 18
355 14
355 80
356 14
358 80
359 80
360 80
361 80
362 186
365 80
366 80
366 81
366 112
367 80
368 80
372 379
373 339
373 340
374 268
374 338
374 339
376 324
376 325
383 385
384 385
385 320
385 321

15
15 384
17 75
34 79
35 79
39 78
39 143
39 144
40 145
41 85
41 86
45 263
46 263
46 264
62 319
63 318
63 319
65 68
65 264
66 224
67 224
67 225
71 167
71 233
71 384
96 51
122 349
126 382
126 383
127 383
127 384
128 383
128 384
129 383
129 384
130 383
130 384
131 383
131 384
132 115
132 131
132 384
137 246
210 126
212 127
213 127
213 128
214 127
216 129
217 128
217 129
218 128
218 129
223 241
224 240
225 239
225 240
226 240
229 238
230 238
230 239
242 117
243 117
243 118
244 118
244 119
245 119
245 120
246 120
246 121
247 121
247 122
248 122
248 123
249 123
249 124
250 124
250 125
251 124
251 129
290 132
293 28
299 170
300 170
300 171
301 169
301 355
306 31
306 38
306 39
307 31
312 53
313 53
313 54
321 290
321 291
322 289
322 290
328 279
328 280
329 278
329 279
330 261
330 277
330 278
331 276
331 277
332 275
332 276
333 274
333 275
334 273
334 274
336 329
339 325
339 326
340 324
340 325
341 323
341 324
341 331
342 316
342 322
342 323
345 316
346 78
347 79
352 17
353 16
353 17
354 15
354 16
354 17
355 18
358 166
359 165
360 184
361 184
361 185
363 80
366 110
368 345
368 346
369 344
369 345
370 343
370 344
371 342
371 343
372 341
375 336
375 337
381 384
382 384
384 322
384 323

16
18 76
18 77
19 77
30 134
31 134
35 270
36 80
36 269
36 270
37 80
37 268
37 269
38 141
38 142
38 267
38 268
38 321
39 82
39 83
39 266
39 267
40 83
40 84
40 265
40 266
41 264
41 265
42 263
42 264
43 262
43 263
44 262
44 327
45 327
46 328
68 226
68 227
88 58
89 57
90 57
95 52
215 128
227 239
228 239
302 34
303 33
303 34
303 35
304 33
304 35
304 36
305 32
305 37
319 293
320 292
340 330
343 317
343 321
344 317
344 318
348 80
349 85
353 81
357 167
357 181
358 182
359 183
367 347
369 372
370 373
371 374
372 375
373 376
374 377
374 378
375 378
375 379
376 379
376 380
377 327
377 380
377 381
378 381
378 382
379 382
379 383
380 383
383 324
383 325

17
35 137
35 138
36 138
36 139
37 140
38 81
39 322
39 323
69 228
69 229
70 229
70 230
71 230
91 56
92 55
93 53
93 54
94 53
331 263
338 328
339 329
340 267
343 319
346 179
347 179
349 81
349 83
351 81
356 168
356 178
356 179
357 179
376 334
377 332
377 333
382 326
382 327

18
33 135
34 136
40 324
41 325
42 326
333 263
333 264
348 178
350 82
353 171
353 172
354 172
355 169
378 329
378 330
378 331
379 330
380 329
381 328

19
334 265
335 269
350 177
350 178
351 177
354 170
354 177
366 351

20
335 266
335 267
336 266
336 267
352 176
353 175
353 176
367 352
367 353
368 353
368 354

21
368 358
368 359
368 361
368 365
368 366
369 355
369 356
369 357
369 358
369 362
369 364
369 365

22
368 363
369 360

